HTTrack3.49-2 launched on Tue, 28 Mar 2023 23:36:44 at http://localhost/HarvestLinks158.html +*.css +*.js -ad.doubleclick.net/* -mime:application/foobar +*.gif +*.jpg +*.jpeg +*.png +*.tif +*.tiff +*.bmp +*.pcx +*.ddf +*.zip +*.tar +*.tgz +*.gz +*.rar +*.z +*.exe +*.7z +*.ace +*.RAR +*.bz2 +*.lzh +*.sit +*.mov +*.mpg +*.mpeg +*.avi +*.asf +*.divx +*.mp4 +*.mp3 +*.mp2 +*.rm +*.wav +*.vob +*.qt +*.vid +*.ac3 +*.wma +*.wmv +*.ogg +*.flac +*.asm +*.bin +*.smd +.gen +.md +*.h +*.cpp +*.c +*.hpp +*.inc +*.iso +*.cue +*.pdf +*.svg +*.svgz +*.imageshack.us/* +https://manualespurdy.cisdigital.com/*
(M:\ToyotaManuals\httrack.exe http://localhost/HarvestLinks158.html -t -%N0 -C0 -O M:\ToyotaManuals\Apache24\htdocs,M:\ToyotaManuals\Apache24\htdocs\Cache\Cache158 -c32 -#L0 -%! -A0 -%c0 -r2000000000 -s0 -%k -n -R8 -%v -q -F "Mozilla /5.0 (Windows NT 6.3; WOW64) AppleWebKit/537.36 (KHTML, like Gecko) Chrome/33.0.1750.117 Safari/537.36" +*.css +*.js -ad.doubleclick.net/* -mime:application/foobar +*.gif +*.jpg +*.jpeg +*.png +*.tif +*.tiff +*.bmp +*.pcx +*.ddf +*.zip +*.tar +*.tgz +*.gz +*.rar +*.z +*.exe +*.7z +*.ace +*.RAR +*.bz2 +*.lzh +*.sit +*.mov +*.mpg +*.mpeg +*.avi +*.asf +*.divx +*.mp4 +*.mp3 +*.mp2 +*.rm +*.wav +*.vob +*.qt +*.vid +*.ac3 +*.wma +*.wmv +*.ogg +*.flac +*.asm +*.bin +*.smd +.gen +.md +*.h +*.cpp +*.c +*.hpp +*.inc +*.iso +*.cue +*.pdf +*.svg +*.svgz +*.imageshack.us/* +https://manualespurdy.cisdigital.com/* )

Information, Warnings and Errors reported for this mirror:
note:	the hts-log.txt file, and hts-cache folder, may contain sensitive information,
	such as username/password authentication for websites mirrored in this project
	do not share these files/folders if you want these information to remain private

23:36:44	Warning: 	* security warning: !!! BYPASSING SECURITY LIMITS - MONITOR THIS SESSION WITH EXTREME CARE !!!
23:36:44	Warning: 	HTML file (890651 bytes) retransferred due to lack of cache: localhost/HarvestLinks158.html
23:36:44	Warning: 	HTML file (1245 bytes) retransferred due to lack of cache: https://manualespurdy.cisdigital.com/Toyota/HiaceMay2014/rm04z9e/MANUAL.HTM/rm04z9e/ewd/manual/ewd/shtml/F-RL027_FUSE168.html
23:36:45	Error: 	"Not Found" (404) at link https://manualespurdy.cisdigital.com/Toyota/HiaceMay2014/rm04z9e/MANUAL.HTM/rm04z9e/ewd/manual/ewd/shtml/F-RL027_FUSE168.html (from localhost/HarvestLinks158.html)

HTTrack Website Copier/3.49-2 mirror complete in 1 seconds : 3650 links scanned, 1 files written (922406 bytes overall) [924103 bytes received at 924103 bytes/sec]
(1 errors, 3 warnings, 0 messages)
