﻿<?xml version="1.0" encoding="utf-8"?>
<!DOCTYPE svg PUBLIC "-//W3C//DTD SVG 1.0//EN" "http://www.w3.org/TR/2001/REC-SVG-20010904/DTD/svg10.dtd"[
	<!ENTITY ns_flows "http://ns.adobe.com/Flows/1.0/">
	<!ENTITY ns_svg "http://www.w3.org/2000/svg">
	<!ENTITY ns_xlink "http://www.w3.org/1999/xlink">
	<!ENTITY st0 "font-size:7px;font-family:'MS-PGothic';adobe-font-script:japanese;">
	<!ENTITY st1 "font-size:6px;font-family:'ArialMT';">
	<!-- White fill  -->
	<!ENTITY st2 "fill:#FFFFFF;stroke:#000000; stroke-width:1.41;stroke-linecap:round;stroke-linejoin:round;">
	<!-- Yellow fill  -->
	<!ENTITY st3 "fill:#FFFFCC;stroke:#FFFFCC; stroke-width:0.1;stroke-linecap:round;stroke-linejoin:round;">
	<!-- Gray fill  -->
	<!ENTITY st4 "fill:#CCCCCC;stroke:#CCCCCC; stroke-width:0.1;stroke-linecap:round;stroke-linejoin:round;">
	<!-- Light-blue fill -->
	<!ENTITY st5 "fill:#CCECF4;stroke:#000000; stroke-width:1.133;stroke-linecap:round;stroke-linejoin:round;">
	<!ENTITY st6 "fill:none;stroke-linecap:butt; stroke-linejoin:round;">
	<!ENTITY st7 "fill:none;stroke:#000000;stroke-linecap:round;stroke-linejoin:round;">
	<!ENTITY st8 "enable-background:new    ;">
	<!-- Black fill -->
	<!ENTITY st9 "fill:#000000;stroke:#000000; stroke-linecap:round;stroke-linejoin:round;">
	<!-- SRS note   -->
	<!ENTITY st10 "font-size:9px;font-family:'ArialMT';">
	<!ENTITY st11 "font-size:9px;font-family:'Svg Symbol';">
	<!ENTITY st12 "font-size:6px;font-family:'Svg Symbol';">
	<!ENTITY st13 "fill:none;stroke:#ff0000;stroke-linecap:round;stroke-linejoin:round;">
	<!-- Yellow fill  -->
	<!ENTITY st14 "fill:#FFFF00;stroke:#FFFF00; stroke-width:0.1;stroke-linecap:round;stroke-linejoin:round;">
	<!ENTITY st15 "font-size:6px;font-family:'MS-PGothic';adobe-font-script:japanese;">
	<!ENTITY st16 "1.00 0.00 0.00 1.00">
	<!ENTITY st17 "0.00 -1.00 1.00 0.00">
	<!ENTITY st18 "font-size:6px;font-family:'Arial';">
	<!ENTITY st19 "font-size:9px;font-family:'Arial';">
	<!ENTITY st20 "font-size:6px;font-family:'MS-PGothic','MS PGothic';adobe-font-script:japanese;">
	<!ENTITY st21 "font-size:7px;font-family:'MS-PGothic','MS PGothic';adobe-font-script:japanese;">
	<!ATTLIST svg
		xmlns:ewd CDATA #FIXED "http://shcl.co.jp/ewd"
		xmlns:a CDATA #FIXED "http://ns.adobe.com/AdobeSVGViewerExtensions/3.0/"
		ewd:ver CDATA #IMPLIED
	>
	<!ATTLIST a
		ewd:lineID CDATA #IMPLIED
		ewd:groupID CDATA #IMPLIED
		ewd:figtype CDATA #IMPLIED
		ewd:code CDATA #IMPLIED
		ewd:figID CDATA #IMPLIED
		ewd:pinNo CDATA #IMPLIED
		ewd:comment CDATA #IMPLIED >
	<!ATTLIST g
		ewd:lineID CDATA #IMPLIED
		ewd:groupID CDATA #IMPLIED
		ewd:figtype CDATA #IMPLIED
		ewd:code CDATA #IMPLIED
		ewd:figID CDATA #IMPLIED
		ewd:pinNo CDATA #IMPLIED
		ewd:comment CDATA #IMPLIED >
	<!ATTLIST text
		ewd:textID CDATA #IMPLIED >
	<!ATTLIST title
		ewd:textID CDATA #IMPLIED >
]>
<!-- Generator: Shintec Hozumi YS   -->
<svg onload="call_execInitLoadProc_svg('system')" style="overflow:visible;  enable-background:new 0 0 1013.274 710.000" viewBox="0 0 1013.274 710.000" height="710.000" width="1013.274" xml:space="preserve" ewd:ver="L2.1.2.5" xmlns="&ns_svg;" xmlns:a="http://ns.adobe.com/AdobeSVGViewerExtensions/3.0/" xmlns:ewd="http://shcl.co.jp/ewd" xmlns:xlink="&ns_xlink;"><script type="text/javascript" xlink:href="../../../../../system/js/ewd/fig/svgfig.js" xmlns:xlink="http://www.w3.org/1999/xlink" /><defs><font horiz-adv-x="1229"><font-face font-family="Svg Symbol" units-per-em="2048" panose-1="5 5 1 2 1 7 6 2 5 7" ascent="2059" descent="450" alphabetic="0" /><missing-glyph d="M 103,0 l 0,1280 1024,0 0,-1280 -1024,0 z m 32,32 l 960,0 0,1216 -960,0 0,-1216 z" /><glyph unicode="" horiz-adv-x="1573" d="M 1517,0 l -567,0 24,279 q 141,59 207.5,168 66.5,109 66.5,306    0,272 -132.5,417.5 -132.5,145.5 -333.5,145.5 -194,0 -328,-147.5 -134,-147.5 -134,-401.5 0,-200 68.5,-319 68.5,-119     206.5,-169 l 25,-279 -564,0 0,279 35,0 q 3,-61 32,-83 45,-35 137,-35 l 270,0 0,70 q -210,61 -324.5,209 -114.5,148     -114.5,349 0,252 186.5,425 186.5,173 504.5,173 195,0 358.5,-73.5 163.5,-73.5 252,-214.5 88.5,-141 88.5,-310 0,-207     -121.5,-360.5 -121.5,-153.5 -317.5,-197.5 l -8,-70 275,0 q 92,0 128,28 36,28 42,90 l 38,0 0,-279 z" /></font></defs>
<g id="ewd_top"><a ewd:code="H40" ewd:figID="1" ewd:figtype="conn" style="cursor:pointer;"><path d=" M  679.89,  358.73  L  696.88,  358.73  L  696.88,  333.23  L  679.89,  333.23  L  679.89,  358.73 " style="&st5;" /><title ewd:textID="12">Diode (Automatic Light Control No.2)</title></a><a ewd:code="I10,I22" ewd:figID="2" ewd:figtype="conn" style="cursor:pointer;"><path d=" M  467.42,  375.72  L  467.42,  418.22  L  365.44,  418.22  L  365.44,  375.72  L  467.42,  375.72 " style="&st5;" /><title ewd:textID="9">Automatic Light Control Sensor</title></a><a ewd:code="4" ewd:figID="3" ewd:figtype="rb" style="cursor:pointer;"><path d=" M  883.85,  214.25  L  841.36,  214.25  L  841.36,  248.24  L  883.85,  248.24  L  883.85,  214.25 " style="&st5;" /></a><a ewd:code="H7" ewd:figID="4" ewd:figtype="conn" style="cursor:pointer;"><path d=" M   59.49,  205.75  L  798.87,  205.75  L  798.87,  248.24  L   59.49,  248.24  L   59.49,  205.75 " style="&st5;" /><title ewd:textID="18">Integration Relay</title></a><a ewd:code="H42" ewd:figID="5" ewd:figtype="conn" style="cursor:pointer;"><path d=" M  951.84,  375.72  L  951.84,  392.72  L  968.84,  392.72  L  968.84,  375.72  L  951.84,  375.72 " style="&st5;" /><title ewd:textID="19">Junction Connector</title></a><a ewd:code="FUSE20" ewd:figID="6" ewd:figtype="rb" style="cursor:pointer;"><path d=" M   29.75,   78.27  L   29.75,   35.78  L    4.25,   35.78  L    4.25,   78.27  L   29.75,   78.27 " style="&st5;" /></a><a ewd:code="H39" ewd:figID="7" ewd:figtype="conn" style="cursor:pointer;"><path d=" M  773.37,  358.73  L  790.37,  358.73  L  790.37,  333.23  L  773.37,  333.23  L  773.37,  358.73 " style="&st5;" /><title ewd:textID="11">Diode (Automatic Light Control No.1)</title></a><a ewd:code="B22,B56" ewd:figID="8" ewd:figtype="conn" style="cursor:pointer;"><path d=" M  577.90,  486.20  L  577.90,  452.21  L  560.91,  452.21  L  560.91,  486.20  L  577.90,  486.20 " style="&st5;" /><title ewd:textID="14">Door Courtesy SW (Front LH)</title></a><a ewd:code="H28,H29" ewd:figID="9" ewd:figtype="conn" style="cursor:pointer;"><path d=" M  182.72,  494.70  L  344.19,  494.70  L  344.19,  409.72  L  182.72,  409.72  L  182.72,  494.70 " style="&st5;" /><title ewd:textID="10">Combination SW</title></a><a ewd:code="H38" ewd:figID="10" ewd:figtype="conn" style="cursor:pointer;"><path d=" M  773.37,  545.69  L  790.37,  545.69  L  790.37,  520.20  L  773.37,  520.20  L  773.37,  545.69 " style="&st5;" /><title ewd:textID="13">Diode (Headlight)</title></a><a ewd:code="FUSE29" ewd:figID="11" ewd:figtype="rb" style="cursor:pointer;"><path d=" M  862.61,   78.27  L  862.61,   35.78  L  837.11,   35.78  L  837.11,   78.27  L  862.61,   78.27 " style="&st5;" /></a><a ewd:code="H41" ewd:figID="12" ewd:figtype="conn" style="cursor:pointer;"><path d=" M  144.48,  562.69  L  161.47,  562.69  L  161.47,  579.69  L  144.48,  579.69  L  144.48,  562.69 " style="&st5;" /><title ewd:textID="19">Junction Connector</title></a><a ewd:code="B26,B57" ewd:figID="13" ewd:figtype="conn" style="cursor:pointer;"><path d=" M  628.89,  486.20  L  628.89,  452.21  L  611.90,  452.21  L  611.90,  486.20  L  628.89,  486.20 " style="&st5;" /><title ewd:textID="15">Door Courtesy SW (Front RH)</title></a><a ewd:code="5" ewd:figID="14" ewd:figtype="jb" style="cursor:pointer;"><path d=" M   59.49,  248.24  L   59.49,  290.74  L  161.47,  290.74  L  161.47,  248.24  L   59.49,  248.24 " style="&st4;" /></a><a ewd:code="5" ewd:figID="15" ewd:figtype="jb" style="cursor:pointer;"><path d=" M  552.41,  290.74  L  696.88,  290.74  L  696.88,  248.24  L  552.41,  248.24  L  552.41,  290.74 " style="&st4;" /></a><a ewd:code="6-JB" ewd:figID="16" ewd:figtype="jb" style="cursor:pointer;"><path d=" M  288.95,  588.19  L  288.95,  639.18  L  263.46,  639.18  L  263.46,  588.19  L  288.95,  588.19 " style="&st4;" /></a><a ewd:code="5" ewd:figID="17" ewd:figtype="jb" style="cursor:pointer;"><path d=" M  943.34,  171.76  L 1011.33,  171.76  L 1011.33,  282.24  L  943.34,  282.24  L  943.34,  171.76 " style="&st4;" /></a><a ewd:code="6-JB" ewd:figID="18" ewd:figtype="jb" style="cursor:pointer;"><path d=" M  858.36,  418.22  L  858.36,  469.21  L  832.86,  469.21  L  832.86,  418.22  L  858.36,  418.22 " style="&st4;" /></a><a ewd:code="1" ewd:figID="19" ewd:figtype="jb" style="cursor:pointer;"><path d=" M  943.34,  112.27  L 1002.83,  112.27  L 1002.83,   35.78  L  943.34,   35.78  L  943.34,  112.27 " style="&st4;" /></a><a ewd:code="5" ewd:figID="20" ewd:figtype="jb" style="cursor:pointer;"><path d=" M   67.99,   35.78  L  118.98,   35.78  L  118.98,  205.75  L   59.49,  205.75  L   59.49,   35.78  L   67.99,   35.78 " style="&st4;" /></a><a ewd:code="6-JB" ewd:figID="21" ewd:figtype="jb" style="cursor:pointer;"><path d=" M  790.37,  418.22  L  790.37,  469.21  L  764.87,  469.21  L  764.87,  418.22  L  790.37,  418.22 " style="&st4;" /></a><a ewd:code="FUSE15" ewd:figID="22" ewd:figtype="fuse" style="cursor:pointer;"><path d=" M  973.09,   78.27  L  973.09,   35.78  L  947.59,   35.78  L  947.59,   78.27  L  973.09,   78.27 " style="&st7;" /></a><a ewd:code="FUSE35" ewd:figID="23" ewd:figtype="fuse" style="cursor:pointer;"><path d=" M   89.24,   78.27  L   89.24,   35.78  L   63.74,   35.78  L   63.74,   78.27  L   89.24,   78.27 " style="&st7;" /></a><a ewd:code="FUSE29" ewd:figID="24" ewd:figtype="fuse" style="cursor:pointer;"><path d=" M  862.61,   78.27  L  862.61,   35.78  L  837.11,   35.78  L  837.11,   78.27  L  862.61,   78.27 " style="&st7;" /></a><a ewd:code="FUSE20" ewd:figID="25" ewd:figtype="fuse" style="cursor:pointer;"><path d=" M   29.75,   78.27  L   29.75,   35.78  L    4.25,   35.78  L    4.25,   78.27  L   29.75,   78.27 " style="&st7;" /></a><a ewd:lineID="1" style="cursor:pointer;"><path d=" M   76.49,  290.74  L   76.49,  324.73  L   17.00,  324.73  L   17.00,  112.27 " style="stroke:#000000;stroke-width: 5.10 ;&st6;" /><path d=" M   76.49,  290.74  L   76.49,  324.73  L   17.00,  324.73  L   17.00,  112.27 " style="stroke:#FFFFFF;stroke-width: 4.53 ;&st6;" /><path d=" M   76.49,  290.74  L   76.49,  324.73  L   17.00,  324.73  L   17.00,  112.27 " style="stroke:#FF0000;stroke-width: 1.13 ;&st6;" /></a><a ewd:lineID="2" style="cursor:pointer;"><path d=" M  110.48,  290.74  L  110.48,  681.67 " style="stroke:#000000;stroke-width: 5.10 ;&st6;" /><path d=" M  110.48,  290.74  L  110.48,  681.67 " style="stroke:#FFFFFF;stroke-width: 4.53 ;&st6;" /><path d=" M  110.48,  290.74  L  110.48,  681.67 " style="stroke:#000000;stroke-width: 1.13 ;&st6;" /></a><a ewd:lineID="3" style="cursor:pointer;"><path d=" M  152.97,  579.69  L  152.97,  681.67 " style="stroke:#000000;stroke-width: 5.10 ;&st6;" /><path d=" M  152.97,  579.69  L  152.97,  681.67 " style="stroke:#FFFFFF;stroke-width: 4.53 ;&st6;" /><path d=" M  152.97,  579.69  L  152.97,  681.67 " style="stroke:#000000;stroke-width: 1.13 ;&st6;" /></a><a ewd:lineID="4" style="cursor:pointer;"><path d=" M  152.97,  290.74  L  152.97,  562.69 " style="stroke:#000000;stroke-width: 5.10 ;&st6;" /><path d=" M  152.97,  290.74  L  152.97,  562.69 " style="stroke:#FFFFFF;stroke-width: 4.53 ;&st6;" /><path d=" M  152.97,  290.74  L  152.97,  562.69 " style="stroke:#000000;stroke-width: 1.13 ;&st6;" /></a><a ewd:lineID="5" style="cursor:pointer;"><path d=" M  254.96,  257.31  L  254.96,  265.24  L  280.45,  290.74  L  280.45,  358.73  L  254.96,  384.22  L  254.96,  391.59 " style="stroke:#C3AF96;stroke-width: 5.10 ;&st6;" /></a><a ewd:lineID="6" style="cursor:pointer;"><path d=" M  254.96,  257.31  L  254.96,  391.59 " style="stroke:#FF7F00;stroke-width: 5.10 ;&st6;" /></a><a ewd:lineID="7" style="cursor:pointer;"><path d=" M  280.45,  639.18  L  280.45,  681.67 " style="stroke:#000000;stroke-width: 5.10 ;&st6;" /><path d=" M  280.45,  639.18  L  280.45,  681.67 " style="stroke:#FFFFFF;stroke-width: 4.53 ;&st6;" /><path d=" M  280.45,  639.18  L  280.45,  681.67 " style="stroke:#000000;stroke-width: 1.13 ;&st6;" /></a><a ewd:lineID="8" style="cursor:pointer;"><path d=" M  280.45,  512.83  L  280.45,  588.19 " style="stroke:#000000;stroke-width: 5.10 ;&st6;" /><path d=" M  280.45,  512.83  L  280.45,  588.19 " style="stroke:#FFFFFF;stroke-width: 4.53 ;&st6;" /><path d=" M  280.45,  512.83  L  280.45,  588.19 " style="stroke:#000000;stroke-width: 1.13 ;&st6;" /></a><a ewd:lineID="9" style="cursor:pointer;"><path d=" M  382.44,  357.59  L  382.44,  324.73 " style="stroke:#F668B2;stroke-width: 5.10 ;&st6;" /></a><a ewd:lineID="10" style="cursor:pointer;"><path d=" M  382.44,  257.31  L  382.44,  301.50 " style="stroke:#F668B2;stroke-width: 5.10 ;&st6;" /></a><a ewd:lineID="11" style="cursor:pointer;"><path d=" M  416.43,  357.59  L  416.43,  324.73 " style="stroke:#000000;stroke-width: 5.10 ;&st6;" /><path d=" M  416.43,  357.59  L  416.43,  324.73 " style="stroke:#FFFFFF;stroke-width: 4.53 ;&st6;" /></a><a ewd:lineID="12" style="cursor:pointer;"><path d=" M  416.43,  257.31  L  416.43,  301.22 " style="stroke:#000000;stroke-width: 5.10 ;&st6;" /><path d=" M  416.43,  257.31  L  416.43,  301.22 " style="stroke:#FFFFFF;stroke-width: 4.53 ;&st6;" /></a><a ewd:lineID="13" style="cursor:pointer;"><path d=" M  450.42,  357.59  L  450.42,  324.73 " style="stroke:#000000;stroke-width: 5.10 ;&st6;" /></a><a ewd:lineID="14" style="cursor:pointer;"><path d=" M  450.42,  257.31  L  450.42,  301.50 " style="stroke:#000000;stroke-width: 5.10 ;&st6;" /></a><a ewd:lineID="15" style="cursor:pointer;"><path d=" M  569.40,  290.74  L  569.40,  434.08 " style="stroke:#FF0000;stroke-width: 5.10 ;&st6;" /><path d=" M  569.40,  290.74  L  569.40,  434.08 " style="stroke:#FFFFFF;stroke-width: 2.27 ;&st6;" /><path d=" M  569.40,  290.74  L  569.40,  434.08 " style="stroke:#008837;stroke-width: 1.13 ;&st6;" /></a><a ewd:lineID="16" style="cursor:pointer;"><path d=" M  569.40,  290.74  L  569.40,  299.24  L  586.40,  316.23  L  620.40,  316.23  L  620.40,  434.08 " style="stroke:#FF0000;stroke-width: 5.10 ;&st6;" /><path d=" M  569.40,  290.74  L  569.40,  299.24  L  586.40,  316.23  L  620.40,  316.23  L  620.40,  434.08 " style="stroke:#FFFFFF;stroke-width: 2.27 ;&st6;" /><path d=" M  569.40,  290.74  L  569.40,  299.24  L  586.40,  316.23  L  620.40,  316.23  L  620.40,  434.08 " style="stroke:#00A0C6;stroke-width: 1.13 ;&st6;" /></a><a ewd:lineID="17" style="cursor:pointer;"><path d=" M  688.38,  358.73  L  688.38,  613.68  L  960.34,  613.68  L  960.34,  392.72 " style="stroke:#FF0000;stroke-width: 5.10 ;&st6;" /><path d=" M  688.38,  358.73  L  688.38,  613.68  L  960.34,  613.68  L  960.34,  392.72 " style="stroke:#FFFFFF;stroke-width: 2.27 ;&st6;" /><path d=" M  688.38,  358.73  L  688.38,  613.68  L  960.34,  613.68  L  960.34,  392.72 " style="stroke:#008837;stroke-width: 1.13 ;&st6;" /></a><a ewd:lineID="18" style="cursor:pointer;"><path d=" M  688.38,  290.74  L  688.38,  333.23 " style="stroke:#FF0000;stroke-width: 5.10 ;&st6;" /></a><a ewd:lineID="19" style="cursor:pointer;"><path d=" M  849.86,  469.21  L  849.86,  579.69  L  781.87,  579.69  L  781.87,  545.69 " style="stroke:#FF0000;stroke-width: 5.10 ;&st6;" /><path d=" M  849.86,  469.21  L  849.86,  579.69  L  781.87,  579.69  L  781.87,  545.69 " style="stroke:#FFFFFF;stroke-width: 1.13 ;&st6;" /></a><a ewd:lineID="20" style="cursor:pointer;"><path d=" M  781.87,  469.21  L  781.87,  520.20 " style="stroke:#FF0000;stroke-width: 5.10 ;&st6;" /><path d=" M  781.87,  469.21  L  781.87,  520.20 " style="stroke:#FFFFFF;stroke-width: 2.27 ;&st6;" /><path d=" M  781.87,  469.21  L  781.87,  520.20 " style="stroke:#000000;stroke-width: 1.13 ;&st6;" /></a><a ewd:lineID="21" style="cursor:pointer;"><path d=" M  781.87,  358.73  L  781.87,  418.22 " style="stroke:#FF0000;stroke-width: 5.10 ;&st6;" /><path d=" M  781.87,  358.73  L  781.87,  418.22 " style="stroke:#FFFFFF;stroke-width: 2.27 ;&st6;" /><path d=" M  781.87,  358.73  L  781.87,  418.22 " style="stroke:#000000;stroke-width: 1.13 ;&st6;" /></a><a ewd:lineID="22" style="cursor:pointer;"><path d=" M  781.87,  257.31  L  781.87,  333.23 " style="stroke:#FF0000;stroke-width: 5.10 ;&st6;" /><path d=" M  781.87,  257.31  L  781.87,  333.23 " style="stroke:#FFFFFF;stroke-width: 2.27 ;&st6;" /><path d=" M  781.87,  257.31  L  781.87,  333.23 " style="stroke:#FFE600;stroke-width: 1.13 ;&st6;" /></a><a ewd:lineID="23" style="cursor:pointer;"><path d=" M  849.86,  358.73  L  849.86,  418.22 " style="stroke:#FF0000;stroke-width: 5.10 ;&st6;" /><path d=" M  849.86,  358.73  L  849.86,  418.22 " style="stroke:#FFFFFF;stroke-width: 1.13 ;&st6;" /></a><a ewd:lineID="24" style="cursor:pointer;"><path d=" M  849.86,  282.24  L  849.86,  335.21 " style="stroke:#FF0000;stroke-width: 5.10 ;&st6;" /><path d=" M  849.86,  282.24  L  849.86,  335.21 " style="stroke:#FFFFFF;stroke-width: 1.13 ;&st6;" /></a><a ewd:lineID="25" style="cursor:pointer;"><path d=" M  849.86,  154.76  L  849.86,  180.26 " style="stroke:#000000;stroke-width: 5.10 ;&st6;" /><path d=" M  849.86,  154.76  L  849.86,  180.26 " style="stroke:#FFFFFF;stroke-width: 4.53 ;&st6;" /><path d=" M  849.86,  154.76  L  849.86,  180.26 " style="stroke:#FF0000;stroke-width: 1.13 ;&st6;" /></a><a ewd:lineID="26" style="cursor:pointer;"><path d=" M  849.86,  112.27  L  849.86,  137.76 " style="stroke:#000000;stroke-width: 5.10 ;&st6;" /><path d=" M  849.86,  112.27  L  849.86,  137.76 " style="stroke:#FFFFFF;stroke-width: 4.53 ;&st6;" /><path d=" M  849.86,  112.27  L  849.86,  137.76 " style="stroke:#FF0000;stroke-width: 1.13 ;&st6;" /></a><a ewd:lineID="27" style="cursor:pointer;"><path d=" M  858.36,  146.26  L  875.35,  146.26  L  875.35,  180.26 " style="stroke:#000000;stroke-width: 5.10 ;&st6;" /><path d=" M  858.36,  146.26  L  875.35,  146.26  L  875.35,  180.26 " style="stroke:#FFFFFF;stroke-width: 4.53 ;&st6;" /><path d=" M  858.36,  146.26  L  875.35,  146.26  L  875.35,  180.26 " style="stroke:#FF0000;stroke-width: 1.13 ;&st6;" /></a><a ewd:lineID="28" style="cursor:pointer;"><path d=" M  875.35,  316.23  L  875.35,  282.24 " style="stroke:#000000;stroke-width: 5.10 ;&st6;" /><path d=" M  875.35,  316.23  L  875.35,  282.24 " style="stroke:#FFFFFF;stroke-width: 4.53 ;&st6;" /><path d=" M  875.35,  316.23  L  875.35,  282.24 " style="stroke:#00A0C6;stroke-width: 1.13 ;&st6;" /></a><a ewd:lineID="29" style="cursor:pointer;"><path d=" M  960.34,  282.24  L  960.34,  375.72 " style="stroke:#FF0000;stroke-width: 5.10 ;&st6;" /><path d=" M  960.34,  282.24  L  960.34,  375.72 " style="stroke:#FFFFFF;stroke-width: 2.27 ;&st6;" /><path d=" M  960.34,  282.24  L  960.34,  375.72 " style="stroke:#008837;stroke-width: 1.13 ;&st6;" /></a><a ewd:lineID="30" style="cursor:pointer;"><path d=" M  960.34,  112.27  L  960.34,  171.76 " style="stroke:#000000;stroke-width: 5.10 ;&st6;" /><path d=" M  960.34,  112.27  L  960.34,  171.76 " style="stroke:#FFFFFF;stroke-width: 2.27 ;&st6;" /><path d=" M  960.34,  112.27  L  960.34,  171.76 " style="stroke:#008837;stroke-width: 1.13 ;&st6;" /></a><a ewd:lineID="31" style="cursor:pointer;"><path d=" M  960.34,  112.27  L  960.34,  120.77  L  951.84,  129.26  L  934.84,  129.26  L  934.84,  154.76  L  951.84,  154.76  L  960.34,  163.26  L  960.34,  171.76 " style="stroke:#000000;stroke-width: 5.10 ;&st6;" /><path d=" M  960.34,  112.27  L  960.34,  120.77  L  951.84,  129.26  L  934.84,  129.26  L  934.84,  154.76  L  951.84,  154.76  L  960.34,  163.26  L  960.34,  171.76 " style="stroke:#FFFFFF;stroke-width: 2.27 ;&st6;" /><path d=" M  960.34,  112.27  L  960.34,  120.77  L  951.84,  129.26  L  934.84,  129.26  L  934.84,  154.76  L  951.84,  154.76  L  960.34,  163.26  L  960.34,  171.76 " style="stroke:#00A0C6;stroke-width: 1.13 ;&st6;" /></a><a ewd:lineID="32" style="cursor:pointer;"><path d=" M  960.34,  112.27  L  960.34,  120.77  L  968.84,  129.26  L  985.84,  129.26  L  985.84,  154.76  L  968.84,  154.76  L  960.34,  163.26  L  960.34,  171.76 " style="stroke:#000000;stroke-width: 5.10 ;&st6;" /><path d=" M  960.34,  112.27  L  960.34,  120.77  L  968.84,  129.26  L  985.84,  129.26  L  985.84,  154.76  L  968.84,  154.76  L  960.34,  163.26  L  960.34,  171.76 " style="stroke:#FFFFFF;stroke-width: 4.53 ;&st6;" /></a><a ewd:code="IH5" ewd:figID="26" ewd:figtype="w2w" ewd:pinNo="12" style="cursor:pointer;"><path d=" M  390.93,  316.23  L  373.94,  316.23  L  373.94,  324.73  L  390.93,  324.73  L  390.93,  316.23 " style="&st2;" /><text style="&st8;" transform="matrix(&st16;  376.71  322.98 )"><tspan style="&st18;" x="0" y="0">IH5</tspan></text></a><a ewd:code="IH2" ewd:figID="27" ewd:figtype="w2w" ewd:pinNo="3" style="cursor:pointer;"><path d=" M  390.93,  307.73  L  373.94,  307.73  L  373.94,  316.23  L  390.93,  316.23  L  390.93,  307.73 " style="&st2;" /><text style="&st8;" transform="matrix(&st16;  376.71  314.48 )"><tspan style="&st18;" x="0" y="0">IH2</tspan></text></a><a ewd:code="IH5" ewd:figID="28" ewd:figtype="w2w" ewd:pinNo="20" style="cursor:pointer;"><path d=" M  424.93,  316.23  L  407.93,  316.23  L  407.93,  324.73  L  424.93,  324.73  L  424.93,  316.23 " style="&st2;" /><text style="&st8;" transform="matrix(&st16;  410.7  322.98 )"><tspan style="&st18;" x="0" y="0">IH5</tspan></text></a><a ewd:code="IH2" ewd:figID="29" ewd:figtype="w2w" ewd:pinNo="14" style="cursor:pointer;"><path d=" M  424.93,  307.73  L  407.93,  307.73  L  407.93,  316.23  L  424.93,  316.23  L  424.93,  307.73 " style="&st2;" /><text style="&st8;" transform="matrix(&st16;  410.7  314.48 )"><tspan style="&st18;" x="0" y="0">IH2</tspan></text></a><a ewd:code="IH5" ewd:figID="30" ewd:figtype="w2w" ewd:pinNo="4" style="cursor:pointer;"><path d=" M  458.92,  316.23  L  441.93,  316.23  L  441.93,  324.73  L  458.92,  324.73  L  458.92,  316.23 " style="&st2;" /><text style="&st8;" transform="matrix(&st16;  444.7  322.98 )"><tspan style="&st18;" x="0" y="0">IH5</tspan></text></a><a ewd:code="IH2" ewd:figID="31" ewd:figtype="w2w" ewd:pinNo="4" style="cursor:pointer;"><path d=" M  458.92,  307.73  L  441.93,  307.73  L  441.93,  316.23  L  458.92,  316.23  L  458.92,  307.73 " style="&st2;" /><text style="&st8;" transform="matrix(&st16;  444.7  314.48 )"><tspan style="&st18;" x="0" y="0">IH2</tspan></text></a><a ewd:code="HB2" ewd:figID="32" ewd:figtype="w2w" ewd:pinNo="3" style="cursor:pointer;"><path d=" M  858.36,  341.73  L  841.36,  341.73  L  841.36,  350.23  L  858.36,  350.23  L  858.36,  341.73 " style="&st2;" /><text style="&st8;" transform="matrix(&st16;  842.72  348.47 )"><tspan style="&st18;" x="0" y="0">HB2</tspan></text></a><a ewd:code="HB5" ewd:figID="33" ewd:figtype="w2w" ewd:pinNo="3" style="cursor:pointer;"><path d=" M  858.36,  350.23  L  841.36,  350.23  L  841.36,  358.73  L  858.36,  358.73  L  858.36,  350.23 " style="&st2;" /><text style="&st8;" transform="matrix(&st16;  842.72  356.97 )"><tspan style="&st18;" x="0" y="0">HB5</tspan></text></a><a ewd:code="H1" ewd:figID="34" ewd:figtype="gp" style="cursor:pointer;"><path d=" M  142.35,  681.67  L  163.60,  681.67  L  152.97,  697.25  L  142.35,  681.67 " style="&st2;" /><text style="&st8;" transform="matrix(&st16;  148.7  689.83 )"><tspan style="&st18;" x="0" y="0">H1</tspan></text></a><a ewd:code="H2" ewd:figID="35" ewd:figtype="gp" style="cursor:pointer;"><path d=" M  269.83,  681.67  L  291.08,  681.67  L  280.45,  697.25  L  269.83,  681.67 " style="&st2;" /><text style="&st8;" transform="matrix(&st16;  275.77  689.83 )"><tspan style="&st18;" x="0" y="0">H2</tspan></text></a><a ewd:code="B3" ewd:figID="36" ewd:figtype="gp" style="cursor:pointer;"><path d=" M   99.86,  681.67  L  121.10,  681.67  L  110.48,  697.25  L   99.86,  681.67 " style="&st2;" /><text style="&st8;" transform="matrix(&st16;  105.95  689.83 )"><tspan style="&st18;" x="0" y="0">B3</tspan></text></a><a ewd:code="6613" ewd:figID="37" ewd:figtype="sp" style="cursor:pointer;"><path d=" M  845.61,  137.76  L  854.11,  137.76  L  858.36,  142.01  L  858.36,  150.51  L  854.11,  154.76  L  845.61,  154.76  L  841.36,  150.51  L  841.36,  142.01  L  845.61,  137.76 " style="&st2;" /></a></g></svg>