﻿<?xml version="1.0" encoding="utf-8"?>
<!DOCTYPE svg PUBLIC "-//W3C//DTD SVG 1.0//EN" "http://www.w3.org/TR/2001/REC-SVG-20010904/DTD/svg10.dtd"[
	<!ENTITY ns_flows "http://ns.adobe.com/Flows/1.0/">
	<!ENTITY ns_svg "http://www.w3.org/2000/svg">
	<!ENTITY ns_xlink "http://www.w3.org/1999/xlink">
	<!ENTITY st0 "font-size:7px;font-family:'MS-PGothic';adobe-font-script:japanese;">
	<!ENTITY st1 "font-size:6px;font-family:'ArialMT';">
	<!-- White fill  -->
	<!ENTITY st2 "fill:#FFFFFF;stroke:#000000; stroke-width:1.41;stroke-linecap:round;stroke-linejoin:round;">
	<!-- Yellow fill  -->
	<!ENTITY st3 "fill:#FFFFCC;stroke:#FFFFCC; stroke-width:0.1;stroke-linecap:round;stroke-linejoin:round;">
	<!-- Gray fill  -->
	<!ENTITY st4 "fill:#CCCCCC;stroke:#CCCCCC; stroke-width:0.1;stroke-linecap:round;stroke-linejoin:round;">
	<!-- Light-blue fill -->
	<!ENTITY st5 "fill:#CCECF4;stroke:#000000; stroke-width:1.133;stroke-linecap:round;stroke-linejoin:round;">
	<!ENTITY st6 "fill:none;stroke-linecap:butt; stroke-linejoin:round;">
	<!ENTITY st7 "fill:none;stroke:#000000;stroke-linecap:round;stroke-linejoin:round;">
	<!ENTITY st8 "enable-background:new    ;">
	<!-- Black fill -->
	<!ENTITY st9 "fill:#000000;stroke:#000000; stroke-linecap:round;stroke-linejoin:round;">
	<!-- SRS note   -->
	<!ENTITY st10 "font-size:9px;font-family:'ArialMT';">
	<!ENTITY st11 "font-size:9px;font-family:'Svg Symbol';">
	<!ENTITY st12 "font-size:6px;font-family:'Svg Symbol';">
	<!ENTITY st13 "fill:none;stroke:#ff0000;stroke-linecap:round;stroke-linejoin:round;">
	<!-- Yellow fill  -->
	<!ENTITY st14 "fill:#FFFF00;stroke:#FFFF00; stroke-width:0.1;stroke-linecap:round;stroke-linejoin:round;">
	<!ENTITY st15 "font-size:6px;font-family:'MS-PGothic';adobe-font-script:japanese;">
	<!ENTITY st16 "1.00 0.00 0.00 1.00">
	<!ENTITY st17 "0.00 -1.00 1.00 0.00">
	<!ENTITY st18 "font-size:6px;font-family:'Arial';">
	<!ENTITY st19 "font-size:9px;font-family:'Arial';">
	<!ENTITY st20 "font-size:6px;font-family:'MS-PGothic','MS PGothic';adobe-font-script:japanese;">
	<!ENTITY st21 "font-size:7px;font-family:'MS-PGothic','MS PGothic';adobe-font-script:japanese;">
	<!ATTLIST svg
		xmlns:ewd CDATA #FIXED "http://shcl.co.jp/ewd"
		xmlns:a CDATA #FIXED "http://ns.adobe.com/AdobeSVGViewerExtensions/3.0/"
		ewd:ver CDATA #IMPLIED
	>
	<!ATTLIST a
		ewd:lineID CDATA #IMPLIED
		ewd:groupID CDATA #IMPLIED
		ewd:figtype CDATA #IMPLIED
		ewd:code CDATA #IMPLIED
		ewd:figID CDATA #IMPLIED
		ewd:pinNo CDATA #IMPLIED
		ewd:comment CDATA #IMPLIED >
	<!ATTLIST g
		ewd:lineID CDATA #IMPLIED
		ewd:groupID CDATA #IMPLIED
		ewd:figtype CDATA #IMPLIED
		ewd:code CDATA #IMPLIED
		ewd:figID CDATA #IMPLIED
		ewd:pinNo CDATA #IMPLIED
		ewd:comment CDATA #IMPLIED >
	<!ATTLIST text
		ewd:textID CDATA #IMPLIED >
	<!ATTLIST title
		ewd:textID CDATA #IMPLIED >
]>
<!-- Generator: Shintec Hozumi YS   -->
<svg onload="call_execInitLoadProc_svg('system')" style="overflow:visible;  enable-background:new 0 0 2057.365 710.000" viewBox="0 0 2057.365 710.000" height="710.000" width="2057.365" xml:space="preserve" ewd:ver="L2.1.2.5" xmlns="&ns_svg;" xmlns:a="http://ns.adobe.com/AdobeSVGViewerExtensions/3.0/" xmlns:ewd="http://shcl.co.jp/ewd" xmlns:xlink="&ns_xlink;">
<path d=" M 2009.90,  272.58  L 2002.54,  276.82 " style="stroke-width: 0.85 ;&st7; " /><path d=" M 2004.54,  280.29  L 2011.90,  276.04 " style="stroke-width: 0.85 ;&st7; " /><path d=" M 2035.41,  282.24  L 2026.91,  282.24 " style="stroke-width: 0.85 ;&st7; " /><path d=" M 2043.89,  272.58  L 2036.53,  276.82 " style="stroke-width: 0.85 ;&st7; " /><path d=" M 2038.54,  280.29  L 2045.90,  276.04 " style="stroke-width: 0.85 ;&st7; " /><path d=" M 2022.66,  520.20  L 2031.16,  520.20 " style="stroke-width: 1.42 ;&st7; " /><path d=" M 2031.16,  171.76  L 2026.10,  160.39 " style="stroke-width: 1.42 ;&st7; " /><path d=" M 2031.16,  171.76  L 2036.22,  160.39 " style="stroke-width: 1.42 ;&st7; " /><path d=" M 2035.41,  514.53  L 2031.16,  518.78  L 2026.91,  514.53 " style="stroke-width: 1.42 ;&st7; " /><path d=" M 2026.91,  511.13  L 2031.16,  515.38  L 2035.41,  511.13 " style="stroke-width: 1.42 ;&st7; " /><path d=" M 2029.74,  710.00  L 2032.58,  710.00 " style="stroke-width: 0.85 ;&st7; " /><path d=" M 2028.33,  707.17  L 2033.99,  707.17 " style="stroke-width: 0.85 ;&st7; " /><path d=" M 2026.91,  704.33  L 2035.41,  704.33 " style="stroke-width: 0.85 ;&st7; " /><path d=" M 2022.66,  701.50  L 2039.66,  701.50 " style="stroke-width: 0.85 ;&st7; " /><path d=" M 2031.16,  697.25  L 2031.16,  701.50 " style="stroke-width: 0.85 ;&st7; " /><path d=" M 2029.97,  400.22  L 2029.70,  400.69  L 2029.60,  401.22  L 2029.70,  401.75  L 2029.97,  402.22  L 2030.38,  402.57  L 2030.89,  402.75  L 2031.43,  402.75  L 2031.94,  402.57  L 2032.35,  402.22  L 2032.62,  401.75  L 2032.72,  401.22  L 2032.62,  400.69  L 2032.35,  400.22  L 2031.94,  399.87  L 2031.43,  399.68  L 2030.89,  399.68  L 2030.38,  399.87  L 2029.97,  400.22  L 2030.36,  400.93  L 2030.36,  401.51  L 2030.73,  401.95  L 2031.31,  402.05  L 2031.81,  401.77  L 2032.01,  401.22  L 2031.81,  400.67  L 2031.31,  400.38  L 2030.73,  400.48  L 2031.16,  401.22 " style="stroke-width: 0.85 ;&st7; " /><path d=" M 2031.16,  222.75  L 2031.16,  418.22 " style="stroke-width: 0.85 ;&st7; " /><path d=" M 2045.90,  276.04  L 2043.56,  279.09  L 2042.09,  276.54  L 2045.90,  276.04  L 2044.61,  276.79  L 2043.63,  278.07  L 2043.01,  276.99  L 2044.61,  276.79  L 2043.97,  277.15  L 2043.66,  277.56  L 2043.47,  277.22  L 2043.97,  277.15 " style="stroke-width: 0.85 ;&st7; " /><path d=" M 2043.89,  272.58  L 2041.56,  275.62  L 2040.09,  273.07  L 2043.89,  272.58  L 2042.61,  273.31  L 2041.62,  274.60  L 2041.01,  273.52  L 2042.61,  273.31  L 2041.97,  273.69  L 2041.66,  274.09  L 2041.46,  273.75  L 2041.97,  273.69 " style="stroke-width: 0.85 ;&st7; " /><path d=" M 2031.16,  282.24  L 2025.49,  273.74  L 2036.83,  273.74  L 2031.16,  282.24 " style="stroke-width: 0.28 ;&st9;" /><path d=" M 2011.90,  276.04  L 2009.57,  279.09  L 2008.10,  276.54  L 2011.90,  276.04  L 2010.62,  276.79  L 2009.64,  278.07  L 2009.02,  276.99  L 2010.62,  276.79  L 2009.98,  277.15  L 2009.67,  277.56  L 2009.47,  277.22  L 2009.98,  277.15 " style="stroke-width: 0.85 ;&st7; " /><path d=" M 2009.90,  272.58  L 2007.56,  275.62  L 2006.10,  273.07  L 2009.90,  272.58  L 2008.62,  273.31  L 2007.63,  274.60  L 2007.01,  273.52  L 2008.62,  273.31  L 2007.98,  273.69  L 2007.66,  274.09  L 2007.47,  273.75  L 2007.98,  273.69 " style="stroke-width: 0.85 ;&st7; " /><text style="&st18;" transform="matrix(&st16;  2017.12  526.42 )">1</text><text style="&st18;" transform="matrix(&st16;  2033.99  414.53 )">E1</text><text ewd:textID="58" style="&st18;" transform="matrix(&st17;  2023.22  293.49 )">Front Fog</text><text style="&st18;" transform="matrix(&st16;  2024.37  426.41 )">7</text><text style="&st18;" transform="matrix(&st16;  2020.41  219.06 )">30</text><text ewd:textID="55" style="&st18;" transform="matrix(&st17;  2033.13  151.62 )">FR FOG Relay</text><text style="&st18;" transform="matrix(&st16;  2000.0  230.94 )">B</text><text style="&st18;" transform="matrix(&st16;  2033.99  230.94 )">FOG</text><text style="&st18;" transform="matrix(&st17;  2027.46  191.08 )">Y</text><text style="&st18;" transform="matrix(&st17;  2027.47  476.91 )">W-B</text><text style="&st18;" transform="matrix(&st17;  2038.8  475.39 )">(*9)</text><text style="&st18;" transform="matrix(&st17;  2001.97  544.9 )">W-B</text><text style="&st18;" transform="matrix(&st17;  2013.3  544.97 )">(*10)</text><text style="&st18;" transform="matrix(&st17;  2027.47  612.88 )">W-B</text><text style="&st18;" transform="matrix(&st17;  2038.8  611.37 )">(*9)</text></svg>