﻿<?xml version="1.0" encoding="utf-8"?>
<!DOCTYPE svg PUBLIC "-//W3C//DTD SVG 1.0//EN" "http://www.w3.org/TR/2001/REC-SVG-20010904/DTD/svg10.dtd"[
	<!ENTITY ns_flows "http://ns.adobe.com/Flows/1.0/">
	<!ENTITY ns_svg "http://www.w3.org/2000/svg">
	<!ENTITY ns_xlink "http://www.w3.org/1999/xlink">
	<!ENTITY st0 "font-size:7px;font-family:'MS-PGothic';adobe-font-script:japanese;">
	<!ENTITY st1 "font-size:6px;font-family:'ArialMT';">
	<!-- White fill  -->
	<!ENTITY st2 "fill:#FFFFFF;stroke:#000000; stroke-width:1.41;stroke-linecap:round;stroke-linejoin:round;">
	<!-- Yellow fill  -->
	<!ENTITY st3 "fill:#FFFFCC;stroke:#FFFFCC; stroke-width:0.1;stroke-linecap:round;stroke-linejoin:round;">
	<!-- Gray fill  -->
	<!ENTITY st4 "fill:#CCCCCC;stroke:#CCCCCC; stroke-width:0.1;stroke-linecap:round;stroke-linejoin:round;">
	<!-- Light-blue fill -->
	<!ENTITY st5 "fill:#CCECF4;stroke:#000000; stroke-width:1.133;stroke-linecap:round;stroke-linejoin:round;">
	<!ENTITY st6 "fill:none;stroke-linecap:butt; stroke-linejoin:round;">
	<!ENTITY st7 "fill:none;stroke:#000000;stroke-linecap:round;stroke-linejoin:round;">
	<!ENTITY st8 "enable-background:new    ;">
	<!-- Black fill -->
	<!ENTITY st9 "fill:#000000;stroke:#000000; stroke-linecap:round;stroke-linejoin:round;">
	<!-- SRS note   -->
	<!ENTITY st10 "font-size:9px;font-family:'ArialMT';">
	<!ENTITY st11 "font-size:9px;font-family:'Svg Symbol';">
	<!ENTITY st12 "font-size:6px;font-family:'Svg Symbol';">
	<!ENTITY st13 "fill:none;stroke:#ff0000;stroke-linecap:round;stroke-linejoin:round;">
	<!-- Yellow fill  -->
	<!ENTITY st14 "fill:#FFFF00;stroke:#FFFF00; stroke-width:0.1;stroke-linecap:round;stroke-linejoin:round;">
	<!ENTITY st15 "font-size:6px;font-family:'MS-PGothic';adobe-font-script:japanese;">
	<!ENTITY st16 "1.00 0.00 0.00 1.00">
	<!ENTITY st17 "0.00 -1.00 1.00 0.00">
	<!ENTITY st18 "font-size:6px;font-family:'Arial';">
	<!ENTITY st19 "font-size:9px;font-family:'Arial';">
	<!ENTITY st20 "font-size:6px;font-family:'MS-PGothic','MS PGothic';adobe-font-script:japanese;">
	<!ENTITY st21 "font-size:7px;font-family:'MS-PGothic','MS PGothic';adobe-font-script:japanese;">
	<!ATTLIST svg
		xmlns:ewd CDATA #FIXED "http://shcl.co.jp/ewd"
		xmlns:a CDATA #FIXED "http://ns.adobe.com/AdobeSVGViewerExtensions/3.0/"
		ewd:ver CDATA #IMPLIED
	>
	<!ATTLIST a
		ewd:lineID CDATA #IMPLIED
		ewd:groupID CDATA #IMPLIED
		ewd:figtype CDATA #IMPLIED
		ewd:code CDATA #IMPLIED
		ewd:figID CDATA #IMPLIED
		ewd:pinNo CDATA #IMPLIED
		ewd:comment CDATA #IMPLIED >
	<!ATTLIST g
		ewd:lineID CDATA #IMPLIED
		ewd:groupID CDATA #IMPLIED
		ewd:figtype CDATA #IMPLIED
		ewd:code CDATA #IMPLIED
		ewd:figID CDATA #IMPLIED
		ewd:pinNo CDATA #IMPLIED
		ewd:comment CDATA #IMPLIED >
	<!ATTLIST text
		ewd:textID CDATA #IMPLIED >
	<!ATTLIST title
		ewd:textID CDATA #IMPLIED >
]>
<!-- Generator: Shintec Hozumi YS   -->
<svg onload="call_execInitLoadProc_svg('system')" style="overflow:visible;  enable-background:new 0 0 2065.680 710.000" viewBox="0 0 2065.680 710.000" height="710.000" width="2065.680" xml:space="preserve" ewd:ver="L2.1.2.5" xmlns="&ns_svg;" xmlns:a="http://ns.adobe.com/AdobeSVGViewerExtensions/3.0/" xmlns:ewd="http://shcl.co.jp/ewd" xmlns:xlink="&ns_xlink;">
<path d=" M  917.85,  541.44  L  917.85,  537.20 " style="stroke-width: 0.85 ;&st7; " /><path d=" M  917.85,  571.19  L  917.85,  566.94 " style="stroke-width: 0.85 ;&st7; " /><path d=" M  917.85,  564.11  L  916.15,  539.99 " style="stroke-width: 1.42 ;&st7; " /><path d=" M  733.00,  256.74  L  728.75,  256.74 " style="stroke-width: 1.42 ;&st7; " /><path d=" M  832.86,  307.73  L  832.86,  333.23 " style="stroke-width: 0.85 ;&st7; " /><path d=" M  832.86,  564.11  L  838.53,  541.44 " style="stroke-width: 1.42 ;&st7; " /><path d=" M  837.11,  324.73  L  828.61,  324.73 " style="stroke-width: 0.85 ;&st7; " /><path d=" M  832.86,  571.19  L  832.86,  566.94 " style="stroke-width: 0.85 ;&st7; " /><path d=" M  832.86,  541.44  L  832.86,  537.20 " style="stroke-width: 0.85 ;&st7; " /><path d=" M  733.00,  248.24  L  728.75,  248.24 " style="stroke-width: 1.42 ;&st7; " /><path d=" M  563.03,  248.24  L  558.78,  248.24 " style="stroke-width: 1.42 ;&st7; " /><path d=" M  631.02,  256.74  L  626.77,  256.74 " style="stroke-width: 1.42 ;&st7; " /><path d=" M  631.02,  248.24  L  626.77,  248.24 " style="stroke-width: 1.42 ;&st7; " /><path d=" M  563.03,  256.74  L  558.78,  256.74 " style="stroke-width: 1.42 ;&st7; " /><path d=" M  781.87,  541.44  L  781.87,  537.20 " style="stroke-width: 0.85 ;&st7; " /><path d=" M  781.87,  571.19  L  781.87,  566.94 " style="stroke-width: 0.85 ;&st7; " /><path d=" M  781.87,  564.11  L  787.54,  541.44 " style="stroke-width: 1.42 ;&st7; " /><path d=" M  783.99,  248.24  L  779.74,  248.24 " style="stroke-width: 1.42 ;&st7; " /><path d=" M  783.99,  256.74  L  779.74,  256.74 " style="stroke-width: 1.42 ;&st7; " /><path d=" M  834.99,  256.74  L  830.74,  256.74 " style="stroke-width: 1.42 ;&st7; " /><path d=" M  834.99,  248.24  L  830.74,  248.24 " style="stroke-width: 1.42 ;&st7; " /><path d=" M  730.88,  564.11  L  736.54,  541.44 " style="stroke-width: 1.42 ;&st7; " /><path d=" M  730.88,  571.19  L  730.88,  566.94 " style="stroke-width: 0.85 ;&st7; " /><path d=" M  730.88,  541.44  L  730.88,  537.20 " style="stroke-width: 0.85 ;&st7; " /><path d=" M  790.37,  486.20  L  781.87,  486.20 " style="stroke-width: 1.42 ;&st7; " /><path d=" M  781.87,  307.73  L  781.87,  333.23 " style="stroke-width: 0.85 ;&st7; " /><path d=" M  786.12,  324.73  L  777.62,  324.73 " style="stroke-width: 0.85 ;&st7; " /><path d=" M  722.38,  426.71  L  730.88,  426.71 " style="stroke-width: 1.42 ;&st7; " /><path d=" M  739.38,  494.70  L  730.88,  494.70 " style="stroke-width: 1.42 ;&st7; " /><path d=" M  841.36,  384.22  L  832.86,  384.22 " style="stroke-width: 1.42 ;&st7; " /><path d=" M  671.39,  307.73  L  671.39,  333.23 " style="stroke-width: 0.85 ;&st7; " /><path d=" M  675.64,  324.73  L  667.14,  324.73 " style="stroke-width: 0.85 ;&st7; " /><path d=" M  739.38,  384.22  L  730.88,  384.22 " style="stroke-width: 1.42 ;&st7; " /><path d=" M  790.37,  384.22  L  781.87,  384.22 " style="stroke-width: 1.42 ;&st7; " /><path d=" M  926.35,  384.22  L  917.85,  384.22 " style="stroke-width: 1.42 ;&st7; " /><path d=" M  628.89,  436.63  L  634.56,  413.97 " style="stroke-width: 1.42 ;&st7; " /><path d=" M  628.89,  443.71  L  628.89,  439.46 " style="stroke-width: 0.85 ;&st7; " /><path d=" M  628.89,  413.97  L  628.89,  409.72 " style="stroke-width: 0.85 ;&st7; " /><path d=" M  560.91,  436.63  L  566.57,  413.97 " style="stroke-width: 1.42 ;&st7; " /><path d=" M  560.91,  443.71  L  560.91,  439.46 " style="stroke-width: 0.85 ;&st7; " /><path d=" M  560.91,  413.97  L  560.91,  409.72 " style="stroke-width: 0.85 ;&st7; " /><path d=" M  916.43,  710.00  L  919.26,  710.00 " style="stroke-width: 0.85 ;&st7; " /><path d=" M  915.01,  707.17  L  920.68,  707.17 " style="stroke-width: 0.85 ;&st7; " /><path d=" M  913.60,  704.33  L  922.10,  704.33 " style="stroke-width: 0.85 ;&st7; " /><path d=" M  909.35,  701.50  L  926.34,  701.50 " style="stroke-width: 0.85 ;&st7; " /><path d=" M  917.85,  697.25  L  917.85,  701.50 " style="stroke-width: 0.85 ;&st7; " /><path d=" M  926.34,  571.19  L  926.34,  537.20  L  909.35,  537.20  L  909.35,  571.19  L  926.34,  571.19 " style="stroke-width: 1.42 ;&st7; " /><path d=" M  922.10,  389.89  L  917.85,  385.64  L  913.60,  389.89 " style="stroke-width: 1.42 ;&st7; " /><path d=" M  765.18,  379.97  L  743.31,  379.97 " style="stroke-width: 0.85 ;&st7;stroke-dasharray:3, 1.5;" /><path d=" M  627.48,  460.71  L  630.31,  460.71 " style="stroke-width: 0.85 ;&st7; " /><path d=" M  626.06,  457.88  L  631.73,  457.88 " style="stroke-width: 0.85 ;&st7; " /><path d=" M  624.65,  455.04  L  633.14,  455.04 " style="stroke-width: 0.85 ;&st7; " /><path d=" M  620.40,  452.21  L  637.39,  452.21 " style="stroke-width: 0.85 ;&st7; " /><path d=" M  628.89,  443.71  L  628.89,  452.21 " style="stroke-width: 0.85 ;&st7; " /><path d=" M  637.39,  443.71  L  637.39,  409.72  L  620.40,  409.72  L  620.40,  443.71  L  637.39,  443.71 " style="stroke-width: 1.42 ;&st7; " /><path d=" M  569.40,  443.71  L  569.40,  409.72  L  552.41,  409.72  L  552.41,  443.71  L  569.40,  443.71 " style="stroke-width: 1.42 ;&st7; " /><path d=" M  560.91,  443.71  L  560.91,  452.21 " style="stroke-width: 0.85 ;&st7; " /><path d=" M  832.86,  324.73  L  827.19,  316.23  L  838.53,  316.23  L  832.86,  324.73 " style="stroke-width: 0.28 ;&st9;" /><path d=" M  824.36,  333.23  L  841.36,  333.23  L  841.36,  307.73  L  824.36,  307.73  L  824.36,  333.23 " style="stroke-width: 1.42 ;&st7; " /><path d=" M  730.88,  243.35  L  728.04,  240.52  L  728.04,  244.77  L  730.88,  247.60  L  733.71,  244.77  L  733.71,  240.52  L  730.88,  243.35 " style="stroke-width: 0.28 ;&st9;" /><path d=" M  729.68,  230.24  L  729.41,  230.71  L  729.32,  231.25  L  729.41,  231.78  L  729.68,  232.25  L  730.10,  232.60  L  730.61,  232.78  L  731.15,  232.78  L  731.66,  232.60  L  732.07,  232.25  L  732.34,  231.78  L  732.44,  231.25  L  732.34,  230.71  L  732.07,  230.24  L  731.66,  229.90  L  731.15,  229.71  L  730.61,  229.71  L  730.10,  229.90  L  729.68,  230.24  L  730.08,  230.96  L  730.08,  231.54  L  730.45,  231.98  L  731.02,  232.08  L  731.53,  231.79  L  731.73,  231.25  L  731.53,  230.70  L  731.02,  230.41  L  730.45,  230.51  L  730.88,  231.25 " style="stroke-width: 0.85 ;&st7; " /><path d=" M  628.89,  214.25  L  628.89,  248.24 " style="stroke-width: 0.85 ;&st7; " /><path d=" M  560.91,  214.25  L  560.91,  248.24 " style="stroke-width: 0.85 ;&st7; " /><path d=" M  628.89,  243.35  L  626.06,  240.52  L  626.06,  244.77  L  628.89,  247.60  L  631.73,  244.77  L  631.73,  240.52  L  628.89,  243.35 " style="stroke-width: 0.28 ;&st9;" /><path d=" M  841.36,  571.19  L  841.36,  537.20  L  824.36,  537.20  L  824.36,  571.19  L  841.36,  571.19 " style="stroke-width: 1.42 ;&st7; " /><path d=" M  832.86,  571.19  L  832.86,  579.69 " style="stroke-width: 0.85 ;&st7; " /><path d=" M  552.41,  452.21  L  569.40,  452.21 " style="stroke-width: 0.85 ;&st7; " /><path d=" M  556.66,  455.04  L  565.16,  455.04 " style="stroke-width: 0.85 ;&st7; " /><path d=" M  558.07,  457.88  L  563.74,  457.88 " style="stroke-width: 0.85 ;&st7; " /><path d=" M  559.49,  460.71  L  562.32,  460.71 " style="stroke-width: 0.85 ;&st7; " /><path d=" M  560.91,  243.35  L  558.07,  240.52  L  558.07,  244.77  L  560.91,  247.60  L  563.74,  244.77  L  563.74,  240.52  L  560.91,  243.35 " style="stroke-width: 0.28 ;&st9;" /><path d=" M  790.37,  571.19  L  790.37,  537.20  L  773.37,  537.20  L  773.37,  571.19  L  790.37,  571.19 " style="stroke-width: 1.42 ;&st7; " /><path d=" M  780.68,  230.24  L  780.40,  230.71  L  780.31,  231.25  L  780.40,  231.78  L  780.68,  232.25  L  781.09,  232.60  L  781.60,  232.78  L  782.14,  232.78  L  782.65,  232.60  L  783.06,  232.25  L  783.33,  231.78  L  783.43,  231.25  L  783.33,  230.71  L  783.06,  230.24  L  782.65,  229.90  L  782.14,  229.71  L  781.60,  229.71  L  781.09,  229.90  L  780.68,  230.24  L  781.07,  230.96  L  781.07,  231.54  L  781.44,  231.98  L  782.02,  232.08  L  782.52,  231.79  L  782.72,  231.25  L  782.52,  230.70  L  782.02,  230.41  L  781.44,  230.51  L  781.87,  231.25 " style="stroke-width: 0.85 ;&st7; " /><path d=" M  729.68,  230.24  L  729.41,  230.71  L  729.32,  231.25  L  729.41,  231.78  L  729.68,  232.25  L  730.10,  232.60  L  730.61,  232.78  L  731.15,  232.78  L  731.66,  232.60  L  732.07,  232.25  L  732.34,  231.78  L  732.44,  231.25  L  732.34,  230.71  L  732.07,  230.24  L  731.66,  229.90  L  731.15,  229.71  L  730.61,  229.71  L  730.10,  229.90  L  729.68,  230.24  L  730.08,  230.96  L  730.08,  231.54  L  730.45,  231.98  L  731.02,  232.08  L  731.53,  231.79  L  731.73,  231.25  L  731.53,  230.70  L  731.02,  230.41  L  730.45,  230.51  L  730.88,  231.25 " style="stroke-width: 0.85 ;&st7; " /><path d=" M  781.87,  243.35  L  779.04,  240.52  L  779.04,  244.77  L  781.87,  247.60  L  784.70,  244.77  L  784.70,  240.52  L  781.87,  243.35 " style="stroke-width: 0.28 ;&st9;" /><path d=" M  832.86,  243.35  L  830.03,  240.52  L  830.03,  244.77  L  832.86,  247.60  L  835.69,  244.77  L  835.69,  240.52  L  832.86,  243.35 " style="stroke-width: 0.28 ;&st9;" /><path d=" M  781.87,  231.25  L  781.87,  248.24 " style="stroke-width: 0.85 ;&st7; " /><path d=" M  730.88,  231.25  L  832.86,  231.25  L  832.86,  248.24 " style="stroke-width: 0.85 ;&st7; " /><path d=" M  739.38,  571.19  L  739.38,  537.20  L  722.38,  537.20  L  722.38,  571.19  L  739.38,  571.19 " style="stroke-width: 1.42 ;&st7; " /><path d=" M  786.12,  495.27  L  781.87,  491.02  L  777.62,  495.27 " style="stroke-width: 1.42 ;&st7; " /><path d=" M  786.12,  491.87  L  781.87,  487.62  L  777.62,  491.87 " style="stroke-width: 1.42 ;&st7; " /><path d=" M  781.87,  324.73  L  776.20,  316.23  L  787.53,  316.23  L  781.87,  324.73 " style="stroke-width: 0.28 ;&st9;" /><path d=" M  773.37,  333.23  L  790.37,  333.23  L  790.37,  307.73  L  773.37,  307.73  L  773.37,  333.23 " style="stroke-width: 1.42 ;&st7; " /><path d=" M  730.88,  697.25  L  730.88,  701.50 " style="stroke-width: 0.85 ;&st7; " /><path d=" M  722.38,  701.50  L  739.38,  701.50 " style="stroke-width: 0.85 ;&st7; " /><path d=" M  726.63,  704.33  L  735.13,  704.33 " style="stroke-width: 0.85 ;&st7; " /><path d=" M  728.04,  707.17  L  733.71,  707.17 " style="stroke-width: 0.85 ;&st7; " /><path d=" M  729.46,  710.00  L  732.29,  710.00 " style="stroke-width: 0.85 ;&st7; " /><path d=" M  730.88,  214.25  L  730.88,  248.24 " style="stroke-width: 0.85 ;&st7; " /><path d=" M  730.88,  622.18  L  730.88,  639.18 " style="stroke-width: 0.85 ;&st7; " /><path d=" M  722.38,  622.18  L  739.38,  622.18  L  739.38,  639.18  L  722.38,  639.18  L  722.38,  622.18 " style="stroke-width: 1.42 ;&st7; " /><path d=" M  780.45,  588.19  L  783.29,  588.19 " style="stroke-width: 0.85 ;&st7; " /><path d=" M  779.04,  585.35  L  784.70,  585.35 " style="stroke-width: 0.85 ;&st7; " /><path d=" M  777.62,  582.52  L  786.12,  582.52 " style="stroke-width: 0.85 ;&st7; " /><path d=" M  773.37,  579.69  L  790.37,  579.69 " style="stroke-width: 0.85 ;&st7; " /><path d=" M  781.87,  571.19  L  781.87,  579.69 " style="stroke-width: 0.85 ;&st7; " /><path d=" M  831.44,  588.19  L  834.28,  588.19 " style="stroke-width: 0.85 ;&st7; " /><path d=" M  830.03,  585.35  L  835.69,  585.35 " style="stroke-width: 0.85 ;&st7; " /><path d=" M  828.61,  582.52  L  837.11,  582.52 " style="stroke-width: 0.85 ;&st7; " /><path d=" M  824.36,  579.69  L  841.36,  579.69 " style="stroke-width: 0.85 ;&st7; " /><path d=" M  671.39,  324.73  L  665.72,  316.23  L  677.05,  316.23  L  671.39,  324.73 " style="stroke-width: 0.28 ;&st9;" /><path d=" M  662.89,  333.23  L  679.89,  333.23  L  679.89,  307.73  L  662.89,  307.73  L  662.89,  333.23 " style="stroke-width: 1.42 ;&st7; " /><path d=" M  735.13,  393.29  L  730.88,  389.04  L  726.63,  393.29 " style="stroke-width: 1.42 ;&st7; " /><path d=" M  735.13,  389.89  L  730.88,  385.64  L  726.63,  389.89 " style="stroke-width: 1.42 ;&st7; " /><path d=" M  786.12,  389.89  L  781.87,  385.64  L  777.62,  389.89 " style="stroke-width: 1.42 ;&st7; " /><path d=" M  786.12,  393.29  L  781.87,  389.04  L  777.62,  393.29 " style="stroke-width: 1.42 ;&st7; " /><path d=" M  765.18,  371.47  L  743.31,  371.47 " style="stroke-width: 0.85 ;&st7;stroke-dasharray:3, 1.5;" /><path d=" M  922.10,  393.29  L  917.85,  389.04  L  913.60,  393.29 " style="stroke-width: 1.42 ;&st7; " /><path d=" M  735.13,  421.05  L  730.88,  425.30  L  726.63,  421.05 " style="stroke-width: 1.42 ;&st7; " /><path d=" M  726.63,  417.65  L  730.88,  421.90  L  735.13,  417.65 " style="stroke-width: 1.42 ;&st7; " /><path d=" M  735.13,  500.37  L  730.88,  496.12  L  726.63,  500.37 " style="stroke-width: 1.42 ;&st7; " /><path d=" M  735.13,  503.77  L  730.88,  499.52  L  726.63,  503.77 " style="stroke-width: 1.42 ;&st7; " /><path d=" M  837.11,  389.89  L  832.86,  385.64  L  828.61,  389.89 " style="stroke-width: 1.42 ;&st7; " /><path d=" M  837.11,  393.29  L  832.86,  389.04  L  828.61,  393.29 " style="stroke-width: 1.42 ;&st7; " /><path d=" M  922.38,  218.78  C  922.38   216.28   920.35   214.25   917.85   214.25 " style="stroke-width: 1.42 ;&st7; " /><path d=" M  917.85,  214.25  C  915.34   214.25   913.31   216.28   913.31   218.78 " style="stroke-width: 1.42 ;&st7; " /><path d=" M  913.31,  218.78  C  913.31   221.29   915.34   223.31   917.85   223.31 " style="stroke-width: 1.42 ;&st7; " /><path d=" M  917.85,  223.31  C  920.35   223.31   922.38   221.29   922.38   218.78 " style="stroke-width: 1.42 ;&st7; " /><path d=" M  919.26,  542.86  C  919.26   542.08   918.63   541.44   917.85   541.44 " style="stroke-width: 0.85 ;&st7; " /><path d=" M  917.85,  541.44  C  917.06   541.44   916.43   542.08   916.43   542.86 " style="stroke-width: 0.85 ;&st7; " /><path d=" M  916.43,  542.86  C  916.43   543.64   917.06   544.28   917.85   544.28 " style="stroke-width: 0.85 ;&st7; " /><path d=" M  917.85,  544.28  C  918.63   544.28   919.26   543.64   919.26   542.86 " style="stroke-width: 0.85 ;&st7; " /><path d=" M  919.26,  565.52  C  919.26   564.74   918.63   564.11   917.85   564.11 " style="stroke-width: 0.85 ;&st7; " /><path d=" M  917.85,  564.11  C  917.06   564.11   916.43   564.74   916.43   565.52 " style="stroke-width: 0.85 ;&st7; " /><path d=" M  916.43,  565.52  C  916.43   566.31   917.06   566.94   917.85   566.94 " style="stroke-width: 0.85 ;&st7; " /><path d=" M  917.85,  566.94  C  918.63   566.94   919.26   566.31   919.26   565.52 " style="stroke-width: 0.85 ;&st7; " /><path d=" M  834.28,  565.52  C  834.28   564.74   833.64   564.11   832.86   564.11 " style="stroke-width: 0.85 ;&st7; " /><path d=" M  832.86,  564.11  C  832.08   564.11   831.44   564.74   831.44   565.52 " style="stroke-width: 0.85 ;&st7; " /><path d=" M  831.44,  565.52  C  831.44   566.31   832.08   566.94   832.86   566.94 " style="stroke-width: 0.85 ;&st7; " /><path d=" M  832.86,  566.94  C  833.64   566.94   834.28   566.31   834.28   565.52 " style="stroke-width: 0.85 ;&st7; " /><path d=" M  834.28,  542.86  C  834.28   542.08   833.64   541.44   832.86   541.44 " style="stroke-width: 0.85 ;&st7; " /><path d=" M  832.86,  541.44  C  832.08   541.44   831.44   542.08   831.44   542.86 " style="stroke-width: 0.85 ;&st7; " /><path d=" M  831.44,  542.86  C  831.44   543.64   832.08   544.28   832.86   544.28 " style="stroke-width: 0.85 ;&st7; " /><path d=" M  832.86,  544.28  C  833.64   544.28   834.28   543.64   834.28   542.86 " style="stroke-width: 0.85 ;&st7; " /><path d=" M  728.75,  248.24  C  726.41   248.24   724.50   250.15   724.50   252.49 " style="stroke-width: 1.42 ;&st7; " /><path d=" M  733.00,  256.74  C  735.35   256.74   737.25   254.84   737.25   252.49 " style="stroke-width: 1.42 ;&st7; " /><path d=" M  724.50,  252.49  C  724.50   254.84   726.41   256.74   728.75   256.74 " style="stroke-width: 1.42 ;&st7; " /><path d=" M  737.25,  252.49  C  737.25   250.15   735.35   248.24   733.00   248.24 " style="stroke-width: 1.42 ;&st7; " /><path d=" M  635.27,  252.49  C  635.27   250.15   633.37   248.24   631.02   248.24 " style="stroke-width: 1.42 ;&st7; " /><path d=" M  622.52,  252.49  C  622.52   254.84   624.42   256.74   626.77   256.74 " style="stroke-width: 1.42 ;&st7; " /><path d=" M  626.77,  248.24  C  624.42   248.24   622.52   250.15   622.52   252.49 " style="stroke-width: 1.42 ;&st7; " /><path d=" M  567.28,  252.49  C  567.28   250.15   565.38   248.24   563.03   248.24 " style="stroke-width: 1.42 ;&st7; " /><path d=" M  563.03,  256.74  C  565.38   256.74   567.28   254.84   567.28   252.49 " style="stroke-width: 1.42 ;&st7; " /><path d=" M  554.53,  252.49  C  554.53   254.84   556.43   256.74   558.78   256.74 " style="stroke-width: 1.42 ;&st7; " /><path d=" M  558.78,  248.24  C  556.43   248.24   554.53   250.15   554.53   252.49 " style="stroke-width: 1.42 ;&st7; " /><path d=" M  631.02,  256.74  C  633.37   256.74   635.27   254.84   635.27   252.49 " style="stroke-width: 1.42 ;&st7; " /><path d=" M  783.29,  542.86  C  783.29   542.08   782.65   541.44   781.87   541.44 " style="stroke-width: 0.85 ;&st7; " /><path d=" M  781.87,  541.44  C  781.09   541.44   780.45   542.08   780.45   542.86 " style="stroke-width: 0.85 ;&st7; " /><path d=" M  780.45,  542.86  C  780.45   543.64   781.09   544.28   781.87   544.28 " style="stroke-width: 0.85 ;&st7; " /><path d=" M  781.87,  544.28  C  782.65   544.28   783.29   543.64   783.29   542.86 " style="stroke-width: 0.85 ;&st7; " /><path d=" M  783.29,  565.52  C  783.29   564.74   782.65   564.11   781.87   564.11 " style="stroke-width: 0.85 ;&st7; " /><path d=" M  781.87,  564.11  C  781.09   564.11   780.45   564.74   780.45   565.52 " style="stroke-width: 0.85 ;&st7; " /><path d=" M  780.45,  565.52  C  780.45   566.31   781.09   566.94   781.87   566.94 " style="stroke-width: 0.85 ;&st7; " /><path d=" M  781.87,  566.94  C  782.65   566.94   783.29   566.31   783.29   565.52 " style="stroke-width: 0.85 ;&st7; " /><path d=" M  775.50,  252.49  C  775.50   254.84   777.40   256.74   779.74   256.74 " style="stroke-width: 1.42 ;&st7; " /><path d=" M  783.99,  256.74  C  786.34   256.74   788.24   254.84   788.24   252.49 " style="stroke-width: 1.42 ;&st7; " /><path d=" M  788.24,  252.49  C  788.24   250.15   786.34   248.24   783.99   248.24 " style="stroke-width: 1.42 ;&st7; " /><path d=" M  779.74,  248.24  C  777.40   248.24   775.50   250.15   775.50   252.49 " style="stroke-width: 1.42 ;&st7; " /><path d=" M  830.74,  248.24  C  828.39   248.24   826.49   250.15   826.49   252.49 " style="stroke-width: 1.42 ;&st7; " /><path d=" M  834.99,  256.74  C  837.33   256.74   839.23   254.84   839.23   252.49 " style="stroke-width: 1.42 ;&st7; " /><path d=" M  839.23,  252.49  C  839.23   250.15   837.33   248.24   834.99   248.24 " style="stroke-width: 1.42 ;&st7; " /><path d=" M  826.49,  252.49  C  826.49   254.84   828.39   256.74   830.74   256.74 " style="stroke-width: 1.42 ;&st7; " /><path d=" M  732.29,  565.52  C  732.29   564.74   731.66   564.11   730.88   564.11 " style="stroke-width: 0.85 ;&st7; " /><path d=" M  730.88,  564.11  C  730.10   564.11   729.46   564.74   729.46   565.52 " style="stroke-width: 0.85 ;&st7; " /><path d=" M  729.46,  565.52  C  729.46   566.31   730.10   566.94   730.88   566.94 " style="stroke-width: 0.85 ;&st7; " /><path d=" M  730.88,  566.94  C  731.66   566.94   732.29   566.31   732.29   565.52 " style="stroke-width: 0.85 ;&st7; " /><path d=" M  732.29,  542.86  C  732.29   542.08   731.66   541.44   730.88   541.44 " style="stroke-width: 0.85 ;&st7; " /><path d=" M  730.88,  541.44  C  730.10   541.44   729.46   542.08   729.46   542.86 " style="stroke-width: 0.85 ;&st7; " /><path d=" M  729.46,  542.86  C  729.46   543.64   730.10   544.28   730.88   544.28 " style="stroke-width: 0.85 ;&st7; " /><path d=" M  730.88,  544.28  C  731.66   544.28   732.29   543.64   732.29   542.86 " style="stroke-width: 0.85 ;&st7; " /><path d=" M  630.31,  438.05  C  630.31   437.26   629.68   436.63   628.89   436.63 " style="stroke-width: 0.85 ;&st7; " /><path d=" M  628.89,  436.63  C  628.11   436.63   627.48   437.26   627.48   438.05 " style="stroke-width: 0.85 ;&st7; " /><path d=" M  627.48,  438.05  C  627.48   438.83   628.11   439.46   628.89   439.46 " style="stroke-width: 0.85 ;&st7; " /><path d=" M  628.89,  439.46  C  629.68   439.46   630.31   438.83   630.31   438.05 " style="stroke-width: 0.85 ;&st7; " /><path d=" M  630.31,  415.38  C  630.31   414.60   629.68   413.97   628.89   413.97 " style="stroke-width: 0.85 ;&st7; " /><path d=" M  628.89,  413.97  C  628.11   413.97   627.48   414.60   627.48   415.38 " style="stroke-width: 0.85 ;&st7; " /><path d=" M  627.48,  415.38  C  627.48   416.16   628.11   416.80   628.89   416.80 " style="stroke-width: 0.85 ;&st7; " /><path d=" M  628.89,  416.80  C  629.68   416.80   630.31   416.16   630.31   415.38 " style="stroke-width: 0.85 ;&st7; " /><path d=" M  562.32,  438.05  C  562.32   437.26   561.69   436.63   560.91   436.63 " style="stroke-width: 0.85 ;&st7; " /><path d=" M  560.91,  436.63  C  560.12   436.63   559.49   437.26   559.49   438.05 " style="stroke-width: 0.85 ;&st7; " /><path d=" M  559.49,  438.05  C  559.49   438.83   560.12   439.46   560.91   439.46 " style="stroke-width: 0.85 ;&st7; " /><path d=" M  560.91,  439.46  C  561.69   439.46   562.32   438.83   562.32   438.05 " style="stroke-width: 0.85 ;&st7; " /><path d=" M  562.32,  415.38  C  562.32   414.60   561.69   413.97   560.91   413.97 " style="stroke-width: 0.85 ;&st7; " /><path d=" M  560.91,  413.97  C  560.12   413.97   559.49   414.60   559.49   415.38 " style="stroke-width: 0.85 ;&st7; " /><path d=" M  559.49,  415.38  C  559.49   416.16   560.12   416.80   560.91   416.80 " style="stroke-width: 0.85 ;&st7; " /><path d=" M  560.91,  416.80  C  561.69   416.80   562.32   416.16   562.32   415.38 " style="stroke-width: 0.85 ;&st7; " /><path d=" M  565.44,  405.18  C  565.44   402.68   563.41   400.65   560.91   400.65 " style="stroke-width: 1.42 ;&st7; " /><path d=" M  560.91,  400.65  C  558.40   400.65   556.37   402.68   556.37   405.18 " style="stroke-width: 1.42 ;&st7; " /><path d=" M  556.37,  405.18  C  556.37   407.69   558.40   409.72   560.91   409.72 " style="stroke-width: 1.42 ;&st7; " /><path d=" M  560.91,  409.72  C  563.41   409.72   565.44   407.69   565.44   405.18 " style="stroke-width: 1.42 ;&st7; " /><path d=" M  565.44,  396.12  C  565.44   393.62   563.41   391.59   560.91   391.59 " style="stroke-width: 1.42 ;&st7; " /><path d=" M  560.91,  391.59  C  558.40   391.59   556.37   393.62   556.37   396.12 " style="stroke-width: 1.42 ;&st7; " /><path d=" M  556.37,  396.12  C  556.37   398.62   558.40   400.65   560.91   400.65 " style="stroke-width: 1.42 ;&st7; " /><path d=" M  560.91,  400.65  C  563.41   400.65   565.44   398.62   565.44   396.12 " style="stroke-width: 1.42 ;&st7; " /><path d=" M  633.43,  405.18  C  633.43   402.68   631.40   400.65   628.89   400.65 " style="stroke-width: 1.42 ;&st7; " /><path d=" M  628.89,  400.65  C  626.39   400.65   624.36   402.68   624.36   405.18 " style="stroke-width: 1.42 ;&st7; " /><path d=" M  624.36,  405.18  C  624.36   407.69   626.39   409.72   628.89   409.72 " style="stroke-width: 1.42 ;&st7; " /><path d=" M  628.89,  409.72  C  631.40   409.72   633.43   407.69   633.43   405.18 " style="stroke-width: 1.42 ;&st7; " /><path d=" M  633.43,  396.12  C  633.43   393.62   631.40   391.59   628.89   391.59 " style="stroke-width: 1.42 ;&st7; " /><path d=" M  628.89,  391.59  C  626.39   391.59   624.36   393.62   624.36   396.12 " style="stroke-width: 1.42 ;&st7; " /><path d=" M  624.36,  396.12  C  624.36   398.62   626.39   400.65   628.89   400.65 " style="stroke-width: 1.42 ;&st7; " /><path d=" M  628.89,  400.65  C  631.40   400.65   633.43   398.62   633.43   396.12 " style="stroke-width: 1.42 ;&st7; " /><text style="&st18;" transform="matrix(&st17;  914.15  672.37 )">W-B</text><text style="&st18;" transform="matrix(&st17;  914.15  465.44 )">LG</text><text style="&st18;" transform="matrix(&st17;  965.14  465.44 )">LG</text><text style="&st18;" transform="matrix(&st17;  976.47  466.89 )">(*5)</text><text style="&st18;" transform="matrix(&st17;  914.15  286.97 )">LG</text><text style="&st18;" transform="matrix(&st17;  925.48  288.42 )">(*3)</text><text ewd:textID="3" style="&st18;" transform="matrix(&st16;  592.38  37.75 )">* 3 :w/ Wireless Door Lock Control</text><text ewd:textID="1" style="&st18;" transform="matrix(&st16;  592.38  20.75 )">* 1 :w/ Power Window</text><text ewd:textID="2" style="&st18;" transform="matrix(&st16;  592.38  29.25 )">* 2 :w/o Power Window</text><text ewd:textID="4" style="&st18;" transform="matrix(&st16;  592.38  46.25 )">* 4 :w/o Wireless Door Lock Control</text><text style="&st18;" transform="matrix(&st16;  908.73  210.55 )">DBKL</text><text style="&st18;" transform="matrix(&st16;  915.52  220.75 )">A</text><text style="&st18;" transform="matrix(&st16;  903.79  220.75 )">21</text><text ewd:textID="26" style="&st18;" transform="matrix(&st17;  542.76  446.24 )">Door Courtesy SW <tspan dy="6" x="-0.01">(Front RH)</tspan></text><text style="&st18;" transform="matrix(&st17;  535.66  446.24 )">B26(A),B57(B)</text><text ewd:textID="25" style="&st18;" transform="matrix(&st17;  610.75  446.24 )">Door Courtesy SW <tspan dy="6" x="-0.01">(Front LH)</tspan></text><text style="&st18;" transform="matrix(&st17;  603.64  446.24 )">B22(A),B56(B)</text><text style="&st18;" transform="matrix(&st16;  566.88  407.15 )">(*16)</text><text style="&st18;" transform="matrix(&st16;  558.58  407.15 )">B</text><text style="&st18;" transform="matrix(&st16;  550.81  407.15 )">1</text><text style="&st18;" transform="matrix(&st16;  566.88  398.09 )">(*15)</text><text style="&st18;" transform="matrix(&st16;  558.58  398.09 )">A</text><text style="&st18;" transform="matrix(&st16;  550.81  398.09 )">1</text><text style="&st18;" transform="matrix(&st16;  634.87  407.15 )">(*16)</text><text style="&st18;" transform="matrix(&st16;  626.56  407.15 )">B</text><text style="&st18;" transform="matrix(&st16;  618.8  407.15 )">1</text><text style="&st18;" transform="matrix(&st16;  634.87  398.09 )">(*15)</text><text style="&st18;" transform="matrix(&st16;  626.56  398.09 )">A</text><text style="&st18;" transform="matrix(&st16;  618.8  398.09 )">1</text><text style="&st18;" transform="matrix(&st16;  911.83  579.38 )">1</text><text style="&st18;" transform="matrix(&st16;  911.06  533.51 )">2</text><text style="&st18;" transform="matrix(&st16;  740.79  441.43 )">(*27)</text><text style="&st18;" transform="matrix(&st16;  740.79  432.93 )">(*26)</text><text style="&st18;" transform="matrix(&st16;  716.06  441.43 )">2</text><text style="&st18;" transform="matrix(&st16;  716.06  432.93 )">2</text><text style="&st18;" transform="matrix(&st16;  740.79  492.42 )">(*27)</text><text style="&st18;" transform="matrix(&st16;  740.79  483.92 )">(*28)</text><text style="&st18;" transform="matrix(&st16;  716.06  483.92 )">2</text><text style="&st18;" transform="matrix(&st16;  716.06  492.42 )">5</text><text style="&st18;" transform="matrix(&st16;  740.79  475.43 )">(*15)</text><text style="&st18;" transform="matrix(&st16;  716.06  475.43 )">2</text><text style="&st18;" transform="matrix(&st16;  842.77  381.94 )">(*27)</text><text style="&st18;" transform="matrix(&st16;  842.77  373.44 )">(*26)</text><text style="&st18;" transform="matrix(&st16;  818.05  373.44 )">4</text><text style="&st18;" transform="matrix(&st16;  818.05  381.94 )">6</text><text ewd:textID="19" style="&st18;" transform="matrix(&st16;  787.84  105.74 )">*28 :From Aug. 2010 Production <tspan dy="8.5" x="14.17">until Apr. 2012 Production</tspan></text><text ewd:textID="18" style="&st18;" transform="matrix(&st16;  787.84  97.24 )">*27 :From Apr. 2012 Production</text><text ewd:textID="17" style="&st18;" transform="matrix(&st16;  787.84  88.74 )">*26 :Before Apr. 2012 Production</text><text style="&st18;" transform="matrix(&st17;  829.17  285.59 )">W</text><text style="&st18;" transform="matrix(&st16;  775.86  304.04 )">1</text><text style="&st18;" transform="matrix(&st17;  829.16  352.7 )">R</text><text style="&st18;" transform="matrix(&st16;  726.57  254.46 )">5A</text><text style="&st18;" transform="matrix(&st16;  718.19  254.46 )">9</text><text style="&st18;" transform="matrix(&st17;  778.17  514.03 )">B</text><text style="&st18;" transform="matrix(&st17;  778.17  463.04 )">B</text><text style="&st18;" transform="matrix(&st17;  829.16  463.18 )">R</text><text style="&st18;" transform="matrix(&st16;  721.48  210.55 )">RCTY</text><text style="&st18;" transform="matrix(&st16;  619.64  210.55 )">PCTY</text><text style="&st18;" transform="matrix(&st16;  551.51  210.55 )">DCTY</text><text style="&st18;" transform="matrix(&st16;  624.59  254.46 )">5E</text><text style="&st18;" transform="matrix(&st16;  613.03  254.46 )">10</text><text style="&st18;" transform="matrix(&st17;  778.17  352.56 )">B</text><text style="&st18;" transform="matrix(&st17;  727.18  672.37 )">W-B</text><text style="&st18;" transform="matrix(&st16;  544.26  254.46 )">27</text><text style="&st18;" transform="matrix(&st16;  556.6  254.46 )">5E</text><text style="&st18;" transform="matrix(&st16;  826.85  304.04 )">1</text><text style="&st18;" transform="matrix(&st17;  797.98  573.71 )">X2</text><text style="&st18;" transform="matrix(&st17;  746.99  573.71 )">a2</text><text style="&st18;" transform="matrix(&st16;  775.86  533.51 )">1</text><text style="&st18;" transform="matrix(&st16;  550.16  222.44 )">26</text><text style="&st18;" transform="matrix(&st16;  618.15  222.44 )">20</text><text style="&st18;" transform="matrix(&st16;  720.13  222.44 )">22</text><text style="&st18;" transform="matrix(&st16;  777.56  254.46 )">5A</text><text style="&st18;" transform="matrix(&st16;  766.0  254.46 )">18</text><text style="&st18;" transform="matrix(&st16;  828.55  254.46 )">5A</text><text style="&st18;" transform="matrix(&st16;  816.22  254.46 )">30</text><text style="&st18;" transform="matrix(&st17;  778.17  285.59 )">W</text><text style="&st18;" transform="matrix(&st16;  826.85  533.51 )">1</text><text style="&st18;" transform="matrix(&st17;  727.18  599.02 )">B</text><text style="&st18;" transform="matrix(&st16;  724.09  579.38 )">2</text><text style="&st18;" transform="matrix(&st16;  767.06  483.92 )">3</text><text style="&st18;" transform="matrix(&st17;  625.2  314.97 )">R-G</text><text style="&st18;" transform="matrix(&st17;  557.21  314.2 )">R-L</text><text style="&st18;" transform="matrix(&st17;  727.18  314.74 )">G</text><text style="&st18;" transform="matrix(&st17;  848.97  573.71 )">Y3</text><text style="&st18;" transform="matrix(&st16;  724.87  647.37 )">1</text><text style="&st18;" transform="matrix(&st16;  724.09  618.49 )">3</text><text style="&st18;" transform="matrix(&st17;  727.18  516.43 )">LG</text><text style="&st18;" transform="matrix(&st16;  724.87  533.51 )">1</text><text style="&st18;" transform="matrix(&st17;  797.98  335.75 )">T9</text><text style="&st18;" transform="matrix(&st17;  848.97  335.75 )">T6</text><text style="&st18;" transform="matrix(&st16;  775.08  341.42 )">2</text><text style="&st18;" transform="matrix(&st16;  826.07  341.42 )">2</text><text ewd:textID="22" style="&st18;" transform="matrix(&st17;  856.08  335.75 )">Diode <tspan dy="6" x="0">(Door Courtesy </tspan><tspan dy="6" x="0">No.4)</tspan></text><text ewd:textID="23" style="&st18;" transform="matrix(&st17;  805.09  335.75 )">Diode <tspan dy="6" x="0">(Door Courtesy </tspan><tspan dy="6" x="0">No.5)</tspan></text><text ewd:textID="28" style="&st18;" transform="matrix(&st17;  805.09  573.71 )">Door Courtesy SW <tspan dy="6" x="0">(Slide Door RH)</tspan></text><text ewd:textID="27" style="&st18;" transform="matrix(&st17;  856.08  573.71 )">Door Courtesy SW <tspan dy="6" x="0">(Slide Door LH)</tspan></text><text ewd:textID="20" style="&st18;" transform="matrix(&st17;  754.09  573.71 )">Back Door <tspan dy="6" x="0">Courtesy SW</tspan></text><text ewd:textID="36" style="&st18;" transform="matrix(&st17;  712.73  641.7 )">Junction <tspan dy="6" x="0">Connector</tspan></text><text style="&st18;" transform="matrix(&st17;  705.63  641.7 )">a1</text><text style="&st18;" transform="matrix(&st16;  753.85  160.95 )">H7(A)</text><text ewd:textID="35" style="&st18;" transform="matrix(&st16;  753.85  168.06 )">Integration Relay</text><text style="&st18;" transform="matrix(&st17;  727.18  408.22 )">G</text><text style="&st18;" transform="matrix(&st17;  727.18  461.19 )">LG</text><text style="&st18;" transform="matrix(&st16;  665.38  304.04 )">1</text><text style="&st18;" transform="matrix(&st17;  646.14  335.75 )">T17</text><text style="&st18;" transform="matrix(&st16;  664.6  341.42 )">2</text><text ewd:textID="24" style="&st18;" transform="matrix(&st17;  653.24  335.75 )">Diode <tspan dy="6" x="0">(Door Courtesy No.6)</tspan></text><text style="&st18;" transform="matrix(&st16;  693.53  270.04 )">W</text><text style="&st18;" transform="matrix(&st16;  694.13  346.53 )">G</text><text style="&st18;" transform="matrix(&st16;  690.7  281.37 )">(*6)</text><text style="&st18;" transform="matrix(&st16;  690.7  357.86 )">(*6)</text><text style="&st18;" transform="matrix(&st17;  738.51  318.16 )">(*7)</text><text style="&st18;" transform="matrix(&st16;  592.38  54.75 )">* 5 :2TR-FE *4, 1KD-FTV *4, 2KD-FTV *4, 1TR-FE</text><text ewd:textID="5" style="&st18;" transform="matrix(&st16;  592.38  63.24 )">* 6 :6 Speaker</text><text ewd:textID="6" style="&st18;" transform="matrix(&st16;  592.38  71.74 )">* 7 :Except *6</text><text ewd:textID="10" style="&st18;" transform="matrix(&st16;  592.38  88.74 )">*12 :Except *11</text><text ewd:textID="9" style="&st18;" transform="matrix(&st16;  592.38  80.24 )">*11 :Standard Body Standard Roof</text><text style="&st18;" transform="matrix(&st16;  791.78  381.94 )">(*12)</text><text style="&st18;" transform="matrix(&st16;  791.78  373.44 )">(*11)</text><text style="&st18;" transform="matrix(&st16;  767.06  373.44 )">4</text><text style="&st18;" transform="matrix(&st16;  767.06  381.94 )">4</text><text style="&st18;" transform="matrix(&st16;  713.66  373.44 )">11</text><text style="&st18;" transform="matrix(&st16;  713.66  381.94 )">11</text><text ewd:textID="13" style="&st18;" transform="matrix(&st16;  592.38  97.24 )">*15 :Before Aug. 2010 Production</text><text ewd:textID="14" style="&st18;" transform="matrix(&st16;  592.38  105.74 )">*16 :From Aug. 2010 Production</text><text style="&st18;" transform="matrix(&st16;  927.76  381.94 )">(*16)</text><text style="&st18;" transform="matrix(&st16;  927.76  373.44 )">(*15)</text><text style="&st18;" transform="matrix(&st16;  903.03  373.44 )">7</text><text style="&st18;" transform="matrix(&st16;  899.85  381.94 )">12</text><text style="&st18;" transform="matrix(&st16;  592.38  114.24 )">*17 :A/T *24, A/T *22</text><text style="&st18;" transform="matrix(&st16;  787.84  20.75 )">*18 :M/T *24, M/T *22</text><text style="&st18;" transform="matrix(&st16;  787.84  37.75 )">*20 :M/T *21</text><text style="&st18;" transform="matrix(&st16;  787.84  29.25 )">*19 :A/T *21</text><text style="&st18;" transform="matrix(&st16;  787.84  46.25 )">*21 :*25 *15</text><text style="&st18;" transform="matrix(&st16;  787.84  63.24 )">*23 :*24, *22</text><text style="&st18;" transform="matrix(&st16;  787.84  54.75 )">*22 :*25 *16</text><text ewd:textID="15" style="&st18;" transform="matrix(&st16;  787.84  71.74 )">*24 :w/ Engine Immobiliser System</text><text ewd:textID="16" style="&st18;" transform="matrix(&st16;  787.84  80.24 )">*25 :w/o Engine Immobiliser System</text><text ewd:textID="34" style="&st18;" transform="matrix(&st17;  893.75  573.71 )">Front Seat <tspan dy="6" x="0">Inner Belt </tspan><tspan dy="6" x="0">(Driver's Side)</tspan></text><text style="&st18;" transform="matrix(&st17;  886.65  573.71 )">B11</text></svg>