﻿<?xml version="1.0" encoding="utf-8"?>
<!DOCTYPE svg PUBLIC "-//W3C//DTD SVG 1.0//EN" "http://www.w3.org/TR/2001/REC-SVG-20010904/DTD/svg10.dtd"[
	<!ENTITY ns_flows "http://ns.adobe.com/Flows/1.0/">
	<!ENTITY ns_svg "http://www.w3.org/2000/svg">
	<!ENTITY ns_xlink "http://www.w3.org/1999/xlink">
	<!ENTITY st0 "font-size:7px;font-family:'MS-PGothic';adobe-font-script:japanese;">
	<!ENTITY st1 "font-size:6px;font-family:'ArialMT';">
	<!-- White fill  -->
	<!ENTITY st2 "fill:#FFFFFF;stroke:#000000; stroke-width:1.41;stroke-linecap:round;stroke-linejoin:round;">
	<!-- Yellow fill  -->
	<!ENTITY st3 "fill:#FFFFCC;stroke:#FFFFCC; stroke-width:0.1;stroke-linecap:round;stroke-linejoin:round;">
	<!-- Gray fill  -->
	<!ENTITY st4 "fill:#CCCCCC;stroke:#CCCCCC; stroke-width:0.1;stroke-linecap:round;stroke-linejoin:round;">
	<!-- Light-blue fill -->
	<!ENTITY st5 "fill:#CCECF4;stroke:#000000; stroke-width:1.133;stroke-linecap:round;stroke-linejoin:round;">
	<!ENTITY st6 "fill:none;stroke-linecap:butt; stroke-linejoin:round;">
	<!ENTITY st7 "fill:none;stroke:#000000;stroke-linecap:round;stroke-linejoin:round;">
	<!ENTITY st8 "enable-background:new    ;">
	<!-- Black fill -->
	<!ENTITY st9 "fill:#000000;stroke:#000000; stroke-linecap:round;stroke-linejoin:round;">
	<!-- SRS note   -->
	<!ENTITY st10 "font-size:9px;font-family:'ArialMT';">
	<!ENTITY st11 "font-size:9px;font-family:'Svg Symbol';">
	<!ENTITY st12 "font-size:6px;font-family:'Svg Symbol';">
	<!ENTITY st13 "fill:none;stroke:#ff0000;stroke-linecap:round;stroke-linejoin:round;">
	<!-- Yellow fill  -->
	<!ENTITY st14 "fill:#FFFF00;stroke:#FFFF00; stroke-width:0.1;stroke-linecap:round;stroke-linejoin:round;">
	<!ENTITY st15 "font-size:6px;font-family:'MS-PGothic';adobe-font-script:japanese;">
	<!ENTITY st16 "1.00 0.00 0.00 1.00">
	<!ENTITY st17 "0.00 -1.00 1.00 0.00">
	<!ENTITY st18 "font-size:6px;font-family:'Arial';">
	<!ENTITY st19 "font-size:9px;font-family:'Arial';">
	<!ENTITY st20 "font-size:6px;font-family:'MS-PGothic','MS PGothic';adobe-font-script:japanese;">
	<!ENTITY st21 "font-size:7px;font-family:'MS-PGothic','MS PGothic';adobe-font-script:japanese;">
	<!ATTLIST svg
		xmlns:ewd CDATA #FIXED "http://shcl.co.jp/ewd"
		xmlns:a CDATA #FIXED "http://ns.adobe.com/AdobeSVGViewerExtensions/3.0/"
		ewd:ver CDATA #IMPLIED
	>
	<!ATTLIST a
		ewd:lineID CDATA #IMPLIED
		ewd:groupID CDATA #IMPLIED
		ewd:figtype CDATA #IMPLIED
		ewd:code CDATA #IMPLIED
		ewd:figID CDATA #IMPLIED
		ewd:pinNo CDATA #IMPLIED
		ewd:comment CDATA #IMPLIED >
	<!ATTLIST g
		ewd:lineID CDATA #IMPLIED
		ewd:groupID CDATA #IMPLIED
		ewd:figtype CDATA #IMPLIED
		ewd:code CDATA #IMPLIED
		ewd:figID CDATA #IMPLIED
		ewd:pinNo CDATA #IMPLIED
		ewd:comment CDATA #IMPLIED >
	<!ATTLIST text
		ewd:textID CDATA #IMPLIED >
	<!ATTLIST title
		ewd:textID CDATA #IMPLIED >
]>
<!-- Generator: Shintec Hozumi YS   -->
<svg onload="call_execInitLoadProc_svg('system')" style="overflow:visible;  enable-background:new 0 0 4124.387 710.000" viewBox="0 0 4124.387 710.000" height="710.000" width="4124.387" xml:space="preserve" ewd:ver="L2.1.2.5" xmlns="&ns_svg;" xmlns:a="http://ns.adobe.com/AdobeSVGViewerExtensions/3.0/" xmlns:ewd="http://shcl.co.jp/ewd" xmlns:xlink="&ns_xlink;">
<path d=" M 3002.12,  384.22  L 2997.87,  384.22 " style="stroke-width: 1.42 ;&st7; " /><path d=" M 2866.15,  324.73  L 2861.90,  324.73 " style="stroke-width: 1.42 ;&st7; " /><path d=" M 2866.15,  333.23  L 2861.90,  333.23 " style="stroke-width: 1.42 ;&st7; " /><path d=" M 2968.13,  392.72  L 2963.88,  392.72 " style="stroke-width: 1.42 ;&st7; " /><path d=" M 2968.13,  384.22  L 2963.88,  384.22 " style="stroke-width: 1.42 ;&st7; " /><path d=" M 2968.13,  350.23  L 2963.88,  350.23 " style="stroke-width: 1.42 ;&st7; " /><path d=" M 2968.13,  341.73  L 2963.88,  341.73 " style="stroke-width: 1.42 ;&st7; " /><path d=" M 2866.15,  367.22  L 2861.90,  367.22 " style="stroke-width: 1.42 ;&st7; " /><path d=" M 2866.15,  358.73  L 2861.90,  358.73 " style="stroke-width: 1.42 ;&st7; " /><path d=" M 2932.01,  333.23  L 2923.51,  333.23 " style="stroke-width: 1.42 ;&st7; " /><path d=" M 2915.01,  384.22  L 2923.51,  384.22 " style="stroke-width: 1.42 ;&st7; " /><path d=" M 3002.12,  392.72  L 2997.87,  392.72 " style="stroke-width: 1.42 ;&st7; " /><path d=" M 2864.02,  338.12  L 2866.85,  340.96  L 2866.85,  336.71  L 2864.02,  333.88  L 2861.19,  336.71  L 2861.19,  340.96  L 2864.02,  338.12 " style="stroke-width: 0.28 ;&st9;" /><path d=" M 2964.81,  366.22  L 2964.54,  366.69  L 2964.45,  367.22  L 2964.54,  367.76  L 2964.81,  368.23  L 2965.22,  368.57  L 2965.73,  368.76  L 2966.27,  368.76  L 2966.78,  368.57  L 2967.20,  368.23  L 2967.47,  367.76  L 2967.56,  367.22  L 2967.47,  366.69  L 2967.20,  366.22  L 2966.78,  365.88  L 2966.27,  365.69  L 2965.73,  365.69  L 2965.22,  365.88  L 2964.81,  366.22  L 2965.20,  366.93  L 2965.20,  367.52  L 2965.58,  367.96  L 2966.15,  368.06  L 2966.65,  367.77  L 2966.85,  367.22  L 2966.65,  366.68  L 2966.15,  366.39  L 2965.58,  366.49  L 2966.00,  367.22 " style="stroke-width: 0.85 ;&st7; " /><path d=" M 2927.76,  342.29  L 2923.51,  338.05  L 2919.26,  342.29 " style="stroke-width: 1.42 ;&st7; " /><path d=" M 2927.76,  338.90  L 2923.51,  334.65  L 2919.26,  338.90 " style="stroke-width: 1.42 ;&st7; " /><path d=" M 2966.00,  384.22  L 2966.00,  350.23 " style="stroke-width: 0.85 ;&st7; " /><path d=" M 2966.00,  379.33  L 2963.17,  376.49  L 2963.17,  380.74  L 2966.00,  383.58  L 2968.84,  380.74  L 2968.84,  376.49  L 2966.00,  379.33 " style="stroke-width: 0.28 ;&st9;" /><path d=" M 2966.00,  355.12  L 2968.84,  357.95  L 2968.84,  353.71  L 2966.00,  350.87  L 2963.17,  353.71  L 2963.17,  357.95  L 2966.00,  355.12 " style="stroke-width: 0.28 ;&st9;" /><path d=" M 2864.02,  358.73  L 2864.02,  333.23 " style="stroke-width: 0.85 ;&st7; " /><path d=" M 2864.02,  353.83  L 2861.19,  351.00  L 2861.19,  355.25  L 2864.02,  358.08  L 2866.85,  355.25  L 2866.85,  351.00  L 2864.02,  353.83 " style="stroke-width: 0.28 ;&st9;" /><path d=" M 3050.99,  239.75  L 2847.02,  239.75  L 2847.02,  282.24  L 3050.99,  282.24  L 3050.99,  239.75 " style="stroke-width: 1.42 ;&st7; " /><path d=" M 2919.26,  375.16  L 2923.51,  379.41  L 2927.76,  375.16 " style="stroke-width: 1.42 ;&st7; " /><path d=" M 2927.76,  378.56  L 2923.51,  382.80  L 2919.26,  378.56 " style="stroke-width: 1.42 ;&st7; " /><path d=" M 2626.06,  129.26  L 2702.55,  129.26  L 2702.55,   95.27  L 2626.06,   95.27  L 2626.06,  129.26 " style="stroke-width: 1.42 ;&st7; " /><path d=" M 2719.54,  171.76  L 2719.54,  188.75  L 2643.06,  188.75 " style="stroke-width: 0.85 ;&st7; " /><path d=" M 2643.06,  171.76  L 2643.06,  222.75 " style="stroke-width: 0.85 ;&st7; " /><path d=" M 2966.00,  367.22  L 3000.00,  367.22  L 3000.00,  384.22 " style="stroke-width: 0.85 ;&st7; " /><path d=" M 3000.00,  379.33  L 2997.16,  376.49  L 2997.16,  380.74  L 3000.00,  383.58  L 3002.83,  380.74  L 3002.83,  376.49  L 3000.00,  379.33 " style="stroke-width: 0.28 ;&st9;" /><path d=" M 2685.55,  171.76  L 2685.55,  222.75 " style="stroke-width: 0.85 ;&st7; " /><path d=" M 2643.06,  188.75  L 2642.63,  188.02  L 2643.20,  187.92  L 2643.71,  188.21  L 2643.91,  188.75  L 2643.71,  189.30  L 2643.20,  189.59  L 2642.63,  189.49  L 2642.26,  189.05  L 2642.26,  188.46  L 2641.86,  187.75  L 2642.28,  187.41  L 2642.79,  187.22  L 2643.33,  187.22  L 2643.84,  187.41  L 2644.25,  187.75  L 2644.52,  188.22  L 2644.62,  188.75  L 2644.52,  189.29  L 2644.25,  189.76  L 2643.84,  190.10  L 2643.33,  190.29  L 2642.79,  190.29  L 2642.28,  190.10  L 2641.86,  189.76  L 2641.59,  189.29  L 2641.50,  188.75  L 2641.59,  188.22  L 2641.86,  187.75 " style="stroke-width: 0.85 ;&st7; " /><path d=" M 2685.55,  205.75  L 2685.13,  205.01  L 2685.70,  204.92  L 2686.20,  205.20  L 2686.40,  205.75  L 2686.20,  206.30  L 2685.70,  206.59  L 2685.13,  206.49  L 2684.75,  206.04  L 2684.75,  205.46  L 2684.36,  204.75  L 2684.77,  204.40  L 2685.28,  204.22  L 2685.82,  204.22  L 2686.33,  204.40  L 2686.74,  204.75  L 2687.01,  205.22  L 2687.11,  205.75  L 2687.01,  206.28  L 2686.74,  206.75  L 2686.33,  207.10  L 2685.82,  207.29  L 2685.28,  207.29  L 2684.77,  207.10  L 2684.36,  206.75  L 2684.09,  206.28  L 2683.99,  205.75  L 2684.09,  205.22  L 2684.36,  204.75 " style="stroke-width: 0.85 ;&st7; " /><path d=" M 2745.04,  171.76  L 2745.04,  205.75  L 2685.55,  205.75 " style="stroke-width: 0.85 ;&st7; " /><path d=" M 2626.06,  171.76  L 2626.06,  222.75  L 2762.04,  222.75  L 2762.04,  171.76  L 2626.06,  171.76 " style="stroke-width: 1.42 ;&st7; " /><path d=" M 2923.51,  697.25  L 2923.51,  701.50 " style="stroke-width: 0.85 ;&st7; " /><path d=" M 2915.01,  701.50  L 2932.01,  701.50 " style="stroke-width: 0.85 ;&st7; " /><path d=" M 2919.26,  704.33  L 2927.76,  704.33 " style="stroke-width: 0.85 ;&st7; " /><path d=" M 2920.68,  707.17  L 2926.34,  707.17 " style="stroke-width: 0.85 ;&st7; " /><path d=" M 2922.09,  710.00  L 2924.93,  710.00 " style="stroke-width: 0.85 ;&st7; " /><path d=" M 2915.01,  426.71  L 2932.01,  426.71  L 2932.01,  443.71  L 2915.01,  443.71  L 2915.01,  426.71 " style="stroke-width: 1.42 ;&st7; " /><path d=" M 2923.51,  426.71  L 2923.51,  443.71 " style="stroke-width: 0.85 ;&st7; " /><path d=" M 2503.12,  277.71  C 2503.12   275.20  2501.09   273.17  2498.58   273.17 " style="stroke-width: 1.42 ;&st7; " /><path d=" M 2503.12,  159.29  C 2503.12   156.79  2501.09   154.76  2498.58   154.76 " style="stroke-width: 1.42 ;&st7; " /><path d=" M 2724.08,  167.22  C 2724.08   164.72  2722.05   162.69  2719.55   162.69 " style="stroke-width: 1.42 ;&st7; " /><path d=" M 2719.55,  162.69  C 2717.04   162.69  2715.01   164.72  2715.01   167.22 " style="stroke-width: 1.42 ;&st7; " /><path d=" M 2715.01,  167.22  C 2715.01   169.73  2717.04   171.76  2719.55   171.76 " style="stroke-width: 1.42 ;&st7; " /><path d=" M 2719.55,  171.76  C 2722.05   171.76  2724.08   169.73  2724.08   167.22 " style="stroke-width: 1.42 ;&st7; " /><path d=" M 2647.59,  227.28  C 2647.59   224.78  2645.56   222.75  2643.06   222.75 " style="stroke-width: 1.42 ;&st7; " /><path d=" M 2643.06,  222.75  C 2640.56   222.75  2638.53   224.78  2638.53   227.28 " style="stroke-width: 1.42 ;&st7; " /><path d=" M 2638.53,  227.28  C 2638.53   229.78  2640.56   231.81  2643.06   231.81 " style="stroke-width: 1.42 ;&st7; " /><path d=" M 2643.06,  231.81  C 2645.56   231.81  2647.59   229.78  2647.59   227.28 " style="stroke-width: 1.42 ;&st7; " /><path d=" M 2647.59,  167.22  C 2647.59   164.72  2645.56   162.69  2643.06   162.69 " style="stroke-width: 1.42 ;&st7; " /><path d=" M 2643.06,  162.69  C 2640.56   162.69  2638.53   164.72  2638.53   167.22 " style="stroke-width: 1.42 ;&st7; " /><path d=" M 2638.53,  167.22  C 2638.53   169.73  2640.56   171.76  2643.06   171.76 " style="stroke-width: 1.42 ;&st7; " /><path d=" M 2643.06,  171.76  C 2645.56   171.76  2647.59   169.73  2647.59   167.22 " style="stroke-width: 1.42 ;&st7; " /><path d=" M 2690.08,  167.22  C 2690.08   164.72  2688.05   162.69  2685.55   162.69 " style="stroke-width: 1.42 ;&st7; " /><path d=" M 2685.55,  162.69  C 2683.05   162.69  2681.02   164.72  2681.02   167.22 " style="stroke-width: 1.42 ;&st7; " /><path d=" M 2681.02,  167.22  C 2681.02   169.73  2683.05   171.76  2685.55   171.76 " style="stroke-width: 1.42 ;&st7; " /><path d=" M 2685.55,  171.76  C 2688.05   171.76  2690.08   169.73  2690.08   167.22 " style="stroke-width: 1.42 ;&st7; " /><path d=" M 2690.08,  227.28  C 2690.08   224.78  2688.05   222.75  2685.55   222.75 " style="stroke-width: 1.42 ;&st7; " /><path d=" M 2685.55,  222.75  C 2683.05   222.75  2681.02   224.78  2681.02   227.28 " style="stroke-width: 1.42 ;&st7; " /><path d=" M 2681.02,  227.28  C 2681.02   229.78  2683.05   231.81  2685.55   231.81 " style="stroke-width: 1.42 ;&st7; " /><path d=" M 2685.55,  231.81  C 2688.05   231.81  2690.08   229.78  2690.08   227.28 " style="stroke-width: 1.42 ;&st7; " /><path d=" M 2749.57,  167.22  C 2749.57   164.72  2747.54   162.69  2745.04   162.69 " style="stroke-width: 1.42 ;&st7; " /><path d=" M 2745.04,  162.69  C 2742.54   162.69  2740.51   164.72  2740.51   167.22 " style="stroke-width: 1.42 ;&st7; " /><path d=" M 2740.51,  167.22  C 2740.51   169.73  2742.54   171.76  2745.04   171.76 " style="stroke-width: 1.42 ;&st7; " /><path d=" M 2745.04,  171.76  C 2747.54   171.76  2749.57   169.73  2749.57   167.22 " style="stroke-width: 1.42 ;&st7; " /><path d=" M 2861.90,  324.73  C 2859.55   324.73  2857.65   326.63  2857.65   328.98 " style="stroke-width: 1.42 ;&st7; " /><path d=" M 2857.65,  328.98  C 2857.65   331.33  2859.55   333.23  2861.90   333.23 " style="stroke-width: 1.42 ;&st7; " /><path d=" M 2866.15,  333.23  C 2868.49   333.23  2870.40   331.33  2870.40   328.98 " style="stroke-width: 1.42 ;&st7; " /><path d=" M 2870.40,  328.98  C 2870.40   326.63  2868.49   324.73  2866.15   324.73 " style="stroke-width: 1.42 ;&st7; " /><path d=" M 2972.38,  388.47  C 2972.38   386.12  2970.48   384.22  2968.13   384.22 " style="stroke-width: 1.42 ;&st7; " /><path d=" M 2968.13,  392.72  C 2970.48   392.72  2972.38   390.82  2972.38   388.47 " style="stroke-width: 1.42 ;&st7; " /><path d=" M 2959.63,  388.47  C 2959.63   390.82  2961.53   392.72  2963.88   392.72 " style="stroke-width: 1.42 ;&st7; " /><path d=" M 2963.88,  384.22  C 2961.53   384.22  2959.63   386.12  2959.63   388.47 " style="stroke-width: 1.42 ;&st7; " /><path d=" M 2972.38,  345.98  C 2972.38   343.63  2970.48   341.73  2968.13   341.73 " style="stroke-width: 1.42 ;&st7; " /><path d=" M 2968.13,  350.23  C 2970.48   350.23  2972.38   348.32  2972.38   345.98 " style="stroke-width: 1.42 ;&st7; " /><path d=" M 2959.63,  345.98  C 2959.63   348.32  2961.53   350.23  2963.88   350.23 " style="stroke-width: 1.42 ;&st7; " /><path d=" M 2963.88,  341.73  C 2961.53   341.73  2959.63   343.63  2959.63   345.98 " style="stroke-width: 1.42 ;&st7; " /><path d=" M 2870.40,  362.97  C 2870.40   360.63  2868.49   358.73  2866.15   358.73 " style="stroke-width: 1.42 ;&st7; " /><path d=" M 2866.15,  367.22  C 2868.49   367.22  2870.40   365.32  2870.40   362.97 " style="stroke-width: 1.42 ;&st7; " /><path d=" M 2857.65,  362.97  C 2857.65   365.32  2859.55   367.22  2861.90   367.22 " style="stroke-width: 1.42 ;&st7; " /><path d=" M 2861.90,  358.73  C 2859.55   358.73  2857.65   360.63  2857.65   362.97 " style="stroke-width: 1.42 ;&st7; " /><path d=" M 2993.62,  388.47  C 2993.62   390.82  2995.53   392.72  2997.87   392.72 " style="stroke-width: 1.42 ;&st7; " /><path d=" M 2997.87,  384.22  C 2995.53   384.22  2993.62   386.12  2993.62   388.47 " style="stroke-width: 1.42 ;&st7; " /><path d=" M 2503.12,  329.26  C 2503.12   326.76  2501.09   324.73  2498.58   324.73 " style="stroke-width: 1.42 ;&st7; " /><text style="&st18;" transform="matrix(&st17;  2919.82  363.53 )">BR</text><text style="&st18;" transform="matrix(&st17;  2919.82  410.27 )">BR</text><text style="&st18;" transform="matrix(&st16;  2916.72  290.43 )">5</text><text style="&st18;" transform="matrix(&st16;  2905.52  330.95 )">12</text><text style="&st18;" transform="matrix(&st16;  2908.7  390.44 )">9</text><text style="&st18;" transform="matrix(&st16;  2918.43  278.54 )">SG</text><text style="&st18;" transform="matrix(&st17;  2639.36  259.07 )">B</text><text style="&st18;" transform="matrix(&st16;  2946.48  258.69 )">H23</text><text style="&st18;" transform="matrix(&st16;  2859.57  330.95 )">5H</text><text style="&st18;" transform="matrix(&st16;  2851.33  330.95 )">4</text><text style="&st18;" transform="matrix(&st16;  2959.08  278.54 )">TAC</text><text style="&st18;" transform="matrix(&st16;  2950.14  390.44 )">16</text><text style="&st18;" transform="matrix(&st16;  2961.55  390.44 )">6C</text><text style="&st18;" transform="matrix(&st16;  2950.14  347.95 )">15</text><text style="&st18;" transform="matrix(&st16;  2961.55  347.95 )">6C</text><text style="&st18;" transform="matrix(&st16;  2851.33  364.94 )">7</text><text style="&st18;" transform="matrix(&st16;  2859.71  364.94 )">5E</text><text style="&st18;" transform="matrix(&st16;  2959.22  290.43 )">9</text><text style="&st18;" transform="matrix(&st17;  2860.33  395.05 )">P</text><text style="&st18;" transform="matrix(&st17;  2919.82  312.54 )">BR</text><text style="&st18;" transform="matrix(&st16;  2917.5  451.9 )">1</text><text style="&st18;" transform="matrix(&st16;  2913.54  423.02 )">10</text><text style="&st18;" transform="matrix(&st17;  2919.82  469.76 )">BR</text><text ewd:textID="27" style="&st18;" transform="matrix(&st17;  2946.73  446.24 )">Junction <tspan dy="6" x="-0.01">Connector</tspan></text><text style="&st18;" transform="matrix(&st17;  2939.62  446.24 )">D43</text><text style="&st18;" transform="matrix(&st17;  2962.31  424.89 )">B-Y</text><text style="&st18;" transform="matrix(&st17;  2962.31  314.41 )">B-Y</text><text style="&st18;" transform="matrix(&st17;  2715.85  152.98 )">R</text><text style="&st18;" transform="matrix(&st17;  2741.35  153.87 )">W</text><text style="&st18;" transform="matrix(&st16;  2632.03  84.47 )">H18</text><text style="&st18;" transform="matrix(&st16;  2734.16  169.19 )">2</text><text style="&st18;" transform="matrix(&st16;  2640.72  229.25 )">B</text><text style="&st18;" transform="matrix(&st16;  2676.3  125.57 )">CANL</text><text style="&st18;" transform="matrix(&st16;  2633.31  125.57 )">CANH</text><text style="&st18;" transform="matrix(&st16;  2854.77  247.38 )">CANL</text><text style="&st18;" transform="matrix(&st16;  2888.27  247.38 )">CANH</text><text style="&st18;" transform="matrix(&st17;  2894.32  199.72 )">R</text><text style="&st18;" transform="matrix(&st17;  2860.33  200.61 )">W</text><text style="&st18;" transform="matrix(&st17;  2681.86  153.87 )">W</text><text style="&st18;" transform="matrix(&st17;  2639.36  152.49 )">L</text><text style="&st18;" transform="matrix(&st16;  2891.22  236.05 )">6</text><text style="&st18;" transform="matrix(&st16;  2854.04  236.05 )">14</text><text style="&st18;" transform="matrix(&st16;  2676.36  137.46 )">11</text><text style="&st18;" transform="matrix(&st16;  2633.09  137.46 )">10</text><text style="&st18;" transform="matrix(&st16;  2640.73  169.19 )">A</text><text style="&st18;" transform="matrix(&st16;  2632.96  169.19 )">1</text><text style="&st18;" transform="matrix(&st16;  2683.22  169.19 )">A</text><text style="&st18;" transform="matrix(&st16;  2674.67  169.19 )">2</text><text style="&st18;" transform="matrix(&st16;  2632.95  229.25 )">1</text><text style="&st18;" transform="matrix(&st16;  2683.22  229.25 )">B</text><text style="&st18;" transform="matrix(&st16;  2674.67  229.25 )">2</text><text style="&st18;" transform="matrix(&st16;  2709.45  169.19 )">1</text><text style="&st18;" transform="matrix(&st16;  2717.07  169.19 )">C</text><text style="&st18;" transform="matrix(&st16;  2742.57  169.19 )">C</text><text style="&st18;" transform="matrix(&st17;  2996.3  424.89 )">B-Y</text><text style="&st18;" transform="matrix(&st16;  2984.13  390.44 )">14</text><text style="&st18;" transform="matrix(&st16;  2995.55  390.44 )">6C</text><text ewd:textID="2" style="&st18;" transform="matrix(&st16;  2632.03  91.57 )">A/C Amplifier</text><text style="&st18;" transform="matrix(&st16;  2946.48  265.79 )">DLC3</text><text style="&st18;" transform="matrix(&st17;  2681.86  260.1 )">W</text><text ewd:textID="27" style="&st18;" transform="matrix(&st16;  2725.52  236.62 )">Junction Connector</text><text style="&st18;" transform="matrix(&st16;  2725.52  230.36 )">H3(A),H4(B),H5(C)</text><text style="&st18;" transform="matrix(&st16;  2854.05  290.43 )">13</text><text style="&st18;" transform="matrix(&st17;  2860.33  314.41 )">P-B</text><text style="&st18;" transform="matrix(&st16;  2859.43  278.54 )">TC</text><text style="&st18;" transform="matrix(&st16;  2559.75  15.09 )">B-R</text><text style="&st18;" transform="matrix(&st16;  2610.75  15.09 )">B-R</text><text style="&st18;" transform="matrix(&st16;  2612.76  533.5 )">BR</text><text style="&st18;" transform="matrix(&st16;  2561.77  533.5 )">BR</text><text style="&st18;" transform="matrix(&st16;  2561.77  550.5 )">BR</text><text style="&st18;" transform="matrix(&st16;  2612.76  550.5 )">BR</text><text style="&st18;" transform="matrix(&st16;  2559.9  508.0 )">Y-B</text><text style="&st18;" transform="matrix(&st16;  2559.47  491.01 )">Y-G</text><text style="&st18;" transform="matrix(&st16;  2559.9  474.01 )">B-Y</text><text style="&st18;" transform="matrix(&st16;  2564.24  457.01 )">P</text><text style="&st18;" transform="matrix(&st16;  2563.22  440.01 )">W</text><text style="&st18;" transform="matrix(&st16;  2564.24  423.02 )">B</text><text style="&st18;" transform="matrix(&st16;  2610.89  508.0 )">Y-B</text><text style="&st18;" transform="matrix(&st16;  2610.46  491.01 )">Y-G</text><text style="&st18;" transform="matrix(&st16;  2610.89  474.01 )">B-Y</text><text style="&st18;" transform="matrix(&st16;  2615.23  457.01 )">P</text><text style="&st18;" transform="matrix(&st16;  2614.21  440.01 )">W</text><text style="&st18;" transform="matrix(&st16;  2615.23  423.02 )">B</text><text style="&st18;" transform="matrix(&st16;  2559.33  584.49 )">G-R</text><text style="&st18;" transform="matrix(&st16;  2558.87  601.49 )">B-W</text><text style="&st18;" transform="matrix(&st16;  2564.24  618.48 )">Y</text><text style="&st18;" transform="matrix(&st16;  2560.25  635.48 )">P-L</text><text style="&st18;" transform="matrix(&st16;  2611.24  635.48 )">P-L</text><text style="&st18;" transform="matrix(&st16;  2615.23  618.48 )">Y</text><text style="&st18;" transform="matrix(&st16;  2609.86  601.49 )">B-W</text><text style="&st18;" transform="matrix(&st16;  2610.32  584.49 )">G-R</text></svg>