﻿<?xml version="1.0" encoding="utf-8"?>
<!DOCTYPE svg PUBLIC "-//W3C//DTD SVG 1.0//EN" "http://www.w3.org/TR/2001/REC-SVG-20010904/DTD/svg10.dtd"[
	<!ENTITY ns_flows "http://ns.adobe.com/Flows/1.0/">
	<!ENTITY ns_svg "http://www.w3.org/2000/svg">
	<!ENTITY ns_xlink "http://www.w3.org/1999/xlink">
	<!ENTITY st0 "font-size:7px;font-family:'MS-PGothic';adobe-font-script:japanese;">
	<!ENTITY st1 "font-size:6px;font-family:'ArialMT';">
	<!-- White fill  -->
	<!ENTITY st2 "fill:#FFFFFF;stroke:#000000; stroke-width:1.41;stroke-linecap:round;stroke-linejoin:round;">
	<!-- Yellow fill  -->
	<!ENTITY st3 "fill:#FFFFCC;stroke:#FFFFCC; stroke-width:0.1;stroke-linecap:round;stroke-linejoin:round;">
	<!-- Gray fill  -->
	<!ENTITY st4 "fill:#CCCCCC;stroke:#CCCCCC; stroke-width:0.1;stroke-linecap:round;stroke-linejoin:round;">
	<!-- Light-blue fill -->
	<!ENTITY st5 "fill:#CCECF4;stroke:#000000; stroke-width:1.133;stroke-linecap:round;stroke-linejoin:round;">
	<!ENTITY st6 "fill:none;stroke-linecap:butt; stroke-linejoin:round;">
	<!ENTITY st7 "fill:none;stroke:#000000;stroke-linecap:round;stroke-linejoin:round;">
	<!ENTITY st8 "enable-background:new    ;">
	<!-- Black fill -->
	<!ENTITY st9 "fill:#000000;stroke:#000000; stroke-linecap:round;stroke-linejoin:round;">
	<!-- SRS note   -->
	<!ENTITY st10 "font-size:9px;font-family:'ArialMT';">
	<!ENTITY st11 "font-size:9px;font-family:'Svg Symbol';">
	<!ENTITY st12 "font-size:6px;font-family:'Svg Symbol';">
	<!ENTITY st13 "fill:none;stroke:#ff0000;stroke-linecap:round;stroke-linejoin:round;">
	<!-- Yellow fill  -->
	<!ENTITY st14 "fill:#FFFF00;stroke:#FFFF00; stroke-width:0.1;stroke-linecap:round;stroke-linejoin:round;">
	<!ENTITY st15 "font-size:6px;font-family:'MS-PGothic';adobe-font-script:japanese;">
	<!ENTITY st16 "1.00 0.00 0.00 1.00">
	<!ENTITY st17 "0.00 -1.00 1.00 0.00">
	<!ENTITY st18 "font-size:6px;font-family:'Arial';">
	<!ENTITY st19 "font-size:9px;font-family:'Arial';">
	<!ENTITY st20 "font-size:6px;font-family:'MS-PGothic','MS PGothic';adobe-font-script:japanese;">
	<!ENTITY st21 "font-size:7px;font-family:'MS-PGothic','MS PGothic';adobe-font-script:japanese;">
	<!ATTLIST svg
		xmlns:ewd CDATA #FIXED "http://shcl.co.jp/ewd"
		xmlns:a CDATA #FIXED "http://ns.adobe.com/AdobeSVGViewerExtensions/3.0/"
		ewd:ver CDATA #IMPLIED
	>
	<!ATTLIST a
		ewd:lineID CDATA #IMPLIED
		ewd:groupID CDATA #IMPLIED
		ewd:figtype CDATA #IMPLIED
		ewd:code CDATA #IMPLIED
		ewd:figID CDATA #IMPLIED
		ewd:pinNo CDATA #IMPLIED
		ewd:comment CDATA #IMPLIED >
	<!ATTLIST g
		ewd:lineID CDATA #IMPLIED
		ewd:groupID CDATA #IMPLIED
		ewd:figtype CDATA #IMPLIED
		ewd:code CDATA #IMPLIED
		ewd:figID CDATA #IMPLIED
		ewd:pinNo CDATA #IMPLIED
		ewd:comment CDATA #IMPLIED >
	<!ATTLIST text
		ewd:textID CDATA #IMPLIED >
	<!ATTLIST title
		ewd:textID CDATA #IMPLIED >
]>
<!-- Generator: Shintec Hozumi YS   -->
<svg onload="call_execInitLoadProc_svg('system')" style="overflow:visible;  enable-background:new 0 0 2065.155 710.000" viewBox="0 0 2065.155 710.000" height="710.000" width="2065.155" xml:space="preserve" ewd:ver="L2.1.2.5" xmlns="&ns_svg;" xmlns:a="http://ns.adobe.com/AdobeSVGViewerExtensions/3.0/" xmlns:ewd="http://shcl.co.jp/ewd" xmlns:xlink="&ns_xlink;">
<path d=" M 2039.66,  545.69  L 2048.16,  545.69 " style="stroke-width: 1.42 ;&st7; " /><path d=" M 2050.28,  112.27  L 2046.03,  112.27 " style="stroke-width: 1.42 ;&st7; " /><path d=" M 2050.28,  103.77  L 2046.03,  103.77 " style="stroke-width: 1.42 ;&st7; " /><path d=" M 2048.16,   69.77  L 2048.16,   78.27 " style="stroke-width: 0.85 ;&st7; " /><path d=" M 2005.66,  545.69  L 2014.16,  545.69 " style="stroke-width: 1.42 ;&st7; " /><path d=" M 2022.66,  486.20  L 2014.16,  486.20 " style="stroke-width: 1.42 ;&st7; " /><path d=" M 2052.41,  540.03  L 2048.16,  544.28  L 2043.91,  540.03 " style="stroke-width: 1.42 ;&st7; " /><path d=" M 2043.91,  536.63  L 2048.16,  540.88  L 2052.41,  536.63 " style="stroke-width: 1.42 ;&st7; " /><path d=" M 2048.16,   78.27  L 2048.16,  103.77 " style="stroke-width: 0.85 ;&st7; " /><path d=" M 2048.16,   98.87  L 2045.32,   96.04  L 2045.32,  100.29  L 2048.16,  103.12  L 2050.99,  100.29  L 2050.99,   96.04  L 2048.16,   98.87 " style="stroke-width: 0.28 ;&st9;" /><path d=" M 2060.90,   78.27  L 2060.90,   35.78  L 2035.41,   35.78  L 2035.41,   78.27  L 2060.90,   78.27 " style="stroke-width: 1.42 ;&st7; " /><path d=" M 2018.41,  540.03  L 2014.16,  544.28  L 2009.91,  540.03 " style="stroke-width: 1.42 ;&st7; " /><path d=" M 2009.91,  536.63  L 2014.16,  540.88  L 2018.41,  536.63 " style="stroke-width: 1.42 ;&st7; " /><path d=" M 2018.41,  491.87  L 2014.16,  487.62  L 2009.91,  491.87 " style="stroke-width: 1.42 ;&st7; " /><path d=" M 2018.41,  495.27  L 2014.16,  491.02  L 2009.91,  495.27 " style="stroke-width: 1.42 ;&st7; " /><path d=" M 2054.53,  108.02  C 2054.53   105.67  2052.63   103.77  2050.28   103.77 " style="stroke-width: 1.42 ;&st7; " /><path d=" M 2050.28,  112.27  C 2052.63   112.27  2054.53   110.36  2054.53   108.02 " style="stroke-width: 1.42 ;&st7; " /><path d=" M 2041.78,  108.02  C 2041.78   110.36  2043.69   112.27  2046.03   112.27 " style="stroke-width: 1.42 ;&st7; " /><path d=" M 2046.03,  103.77  C 2043.69   103.77  2041.78   105.67  2041.78   108.02 " style="stroke-width: 1.42 ;&st7; " /><path d=" M 2049.57,   68.36  C 2049.57    67.57  2048.94    66.94  2048.16    66.94 " style="stroke-width: 0.85 ;&st7; " /><path d=" M 2048.16,   66.94  C 2047.38    66.94  2046.74    67.57  2046.74    68.36 " style="stroke-width: 0.85 ;&st7; " /><path d=" M 2046.74,   68.36  C 2046.74    69.14  2047.38    69.77  2048.16    69.77 " style="stroke-width: 0.85 ;&st7; " /><path d=" M 2048.16,   69.77  C 2048.94    69.77  2049.57    69.14  2049.57    68.36 " style="stroke-width: 0.85 ;&st7; " /><path d=" M 2049.57,   45.69  C 2049.57    44.91  2048.94    44.28  2048.16    44.28 " style="stroke-width: 0.85 ;&st7; " /><path d=" M 2048.16,   44.28  C 2047.38    44.28  2046.74    44.91  2046.74    45.69 " style="stroke-width: 0.85 ;&st7; " /><path d=" M 2046.74,   45.69  C 2046.74    46.48  2047.38    47.11  2048.16    47.11 " style="stroke-width: 0.85 ;&st7; " /><path d=" M 2048.16,   47.11  C 2048.94    47.11  2049.57    46.48  2049.57    45.69 " style="stroke-width: 0.85 ;&st7; " /><path d=" M 2048.16,   66.94  C 2050.90    65.33  2051.81    61.80  2050.19    59.06 " style="stroke-width: 1.42 ;&st7; " /><path d=" M 2050.19,   59.06  C 2049.68    58.18  2049.04    57.55  2048.16    57.03 " style="stroke-width: 1.42 ;&st7; " /><path d=" M 2048.16,   47.11  C 2045.42    48.72  2044.51    52.25  2046.12    54.99 " style="stroke-width: 1.42 ;&st7; " /><path d=" M 2046.12,   54.99  C 2046.64    55.87  2047.28    56.51  2048.16    57.03 " style="stroke-width: 1.42 ;&st7; " /><text style="&st18;" transform="matrix(&st16;  2009.85  414.52 )">E3</text><text style="&st18;" transform="matrix(&st17;  2027.47  524.89 )">G(*4)</text><text style="&st18;" transform="matrix(&st17;  2027.47  456.9 )">G(*4)</text><text style="&st18;" transform="matrix(&st16;  2033.34  551.91 )">5</text><text style="&st18;" transform="matrix(&st16;  2042.08  32.08 )">(IG)</text><text style="&st18;" transform="matrix(&st16;  2011.83  604.32 )">E</text><text style="&st18;" transform="matrix(&st17;  2010.47  575.99 )">BR</text><text style="&st18;" transform="matrix(&st17;  2010.47  526.93 )">BR(*3)</text><text style="&st18;" transform="matrix(&st17;  2010.47  458.95 )">BR(*3)</text><text style="&st18;" transform="matrix(&st17;  2044.46  577.65 )">L-R</text><text style="&st18;" transform="matrix(&st17;  2044.46  522.41 )">L-R</text><text style="&st18;" transform="matrix(&st17;  2044.46  135.73 )">L-R</text><text style="&st18;" transform="matrix(&st16;  2035.47  109.99 )">2</text><text style="&st18;" transform="matrix(&st16;  2043.85  109.99 )">5E</text><text style="&st18;" transform="matrix(&st16;  2005.56  56.17 )">10A <tspan dy="6" x="0">GAUGE</tspan></text><text style="&st18;" transform="matrix(&st16;  2007.37  593.0 )">2</text><text style="&st18;" transform="matrix(&st16;  2003.42  426.41 )">29</text></svg>