﻿<?xml version="1.0" encoding="utf-8"?>
<!DOCTYPE svg PUBLIC "-//W3C//DTD SVG 1.0//EN" "http://www.w3.org/TR/2001/REC-SVG-20010904/DTD/svg10.dtd"[
	<!ENTITY ns_flows "http://ns.adobe.com/Flows/1.0/">
	<!ENTITY ns_svg "http://www.w3.org/2000/svg">
	<!ENTITY ns_xlink "http://www.w3.org/1999/xlink">
	<!ENTITY st0 "font-size:7px;font-family:'MS-PGothic';adobe-font-script:japanese;">
	<!ENTITY st1 "font-size:6px;font-family:'ArialMT';">
	<!-- White fill  -->
	<!ENTITY st2 "fill:#FFFFFF;stroke:#000000; stroke-width:1.41;stroke-linecap:round;stroke-linejoin:round;">
	<!-- Yellow fill  -->
	<!ENTITY st3 "fill:#FFFFCC;stroke:#FFFFCC; stroke-width:0.1;stroke-linecap:round;stroke-linejoin:round;">
	<!-- Gray fill  -->
	<!ENTITY st4 "fill:#CCCCCC;stroke:#CCCCCC; stroke-width:0.1;stroke-linecap:round;stroke-linejoin:round;">
	<!-- Light-blue fill -->
	<!ENTITY st5 "fill:#CCECF4;stroke:#000000; stroke-width:1.133;stroke-linecap:round;stroke-linejoin:round;">
	<!ENTITY st6 "fill:none;stroke-linecap:butt; stroke-linejoin:round;">
	<!ENTITY st7 "fill:none;stroke:#000000;stroke-linecap:round;stroke-linejoin:round;">
	<!ENTITY st8 "enable-background:new    ;">
	<!-- Black fill -->
	<!ENTITY st9 "fill:#000000;stroke:#000000; stroke-linecap:round;stroke-linejoin:round;">
	<!-- SRS note   -->
	<!ENTITY st10 "font-size:9px;font-family:'ArialMT';">
	<!ENTITY st11 "font-size:9px;font-family:'Svg Symbol';">
	<!ENTITY st12 "font-size:6px;font-family:'Svg Symbol';">
	<!ENTITY st13 "fill:none;stroke:#ff0000;stroke-linecap:round;stroke-linejoin:round;">
	<!-- Yellow fill  -->
	<!ENTITY st14 "fill:#FFFF00;stroke:#FFFF00; stroke-width:0.1;stroke-linecap:round;stroke-linejoin:round;">
	<!ENTITY st15 "font-size:6px;font-family:'MS-PGothic';adobe-font-script:japanese;">
	<!ENTITY st16 "1.00 0.00 0.00 1.00">
	<!ENTITY st17 "0.00 -1.00 1.00 0.00">
	<!ENTITY st18 "font-size:6px;font-family:'Arial';">
	<!ENTITY st19 "font-size:9px;font-family:'Arial';">
	<!ENTITY st20 "font-size:6px;font-family:'MS-PGothic','MS PGothic';adobe-font-script:japanese;">
	<!ENTITY st21 "font-size:7px;font-family:'MS-PGothic','MS PGothic';adobe-font-script:japanese;">
	<!ATTLIST svg
		xmlns:ewd CDATA #FIXED "http://shcl.co.jp/ewd"
		xmlns:a CDATA #FIXED "http://ns.adobe.com/AdobeSVGViewerExtensions/3.0/"
		ewd:ver CDATA #IMPLIED
	>
	<!ATTLIST a
		ewd:lineID CDATA #IMPLIED
		ewd:groupID CDATA #IMPLIED
		ewd:figtype CDATA #IMPLIED
		ewd:code CDATA #IMPLIED
		ewd:figID CDATA #IMPLIED
		ewd:pinNo CDATA #IMPLIED
		ewd:comment CDATA #IMPLIED >
	<!ATTLIST g
		ewd:lineID CDATA #IMPLIED
		ewd:groupID CDATA #IMPLIED
		ewd:figtype CDATA #IMPLIED
		ewd:code CDATA #IMPLIED
		ewd:figID CDATA #IMPLIED
		ewd:pinNo CDATA #IMPLIED
		ewd:comment CDATA #IMPLIED >
	<!ATTLIST text
		ewd:textID CDATA #IMPLIED >
	<!ATTLIST title
		ewd:textID CDATA #IMPLIED >
]>
<!-- Generator: Shintec Hozumi YS   -->
<svg onload="call_execInitLoadProc_svg('system')" style="overflow:visible;  enable-background:new 0 0 505.228 710.000" viewBox="0 0 505.228 710.000" height="710.000" width="505.228" xml:space="preserve" ewd:ver="L2.1.2.5" xmlns="&ns_svg;" xmlns:a="http://ns.adobe.com/AdobeSVGViewerExtensions/3.0/" xmlns:ewd="http://shcl.co.jp/ewd" xmlns:xlink="&ns_xlink;">
<path d=" M  180.59,  103.77  L  176.35,  103.77 " style="stroke-width: 1.42 ;&st7; " /><path d=" M  180.59,   95.27  L  176.35,   95.27 " style="stroke-width: 1.42 ;&st7; " /><path d=" M  178.47,   69.77  L  178.47,   78.27 " style="stroke-width: 0.85 ;&st7; " /><path d=" M  180.59,  163.26  L  176.35,  163.26 " style="stroke-width: 1.42 ;&st7; " /><path d=" M  180.59,  171.76  L  176.35,  171.76 " style="stroke-width: 1.42 ;&st7; " /><path d=" M  180.59,  205.75  L  176.35,  205.75 " style="stroke-width: 1.42 ;&st7; " /><path d=" M  180.59,  214.25  L  176.35,  214.25 " style="stroke-width: 1.42 ;&st7; " /><path d=" M  180.59,  469.21  L  176.35,  469.21 " style="stroke-width: 1.42 ;&st7; " /><path d=" M  180.59,  477.71  L  176.35,  477.71 " style="stroke-width: 1.42 ;&st7; " /><path d=" M  180.59,  511.70  L  176.35,  511.70 " style="stroke-width: 1.42 ;&st7; " /><path d=" M  180.59,  520.20  L  176.35,  520.20 " style="stroke-width: 1.42 ;&st7; " /><path d=" M  216.71,  435.21  L  208.22,  435.21 " style="stroke-width: 0.85 ;&st7; " /><path d=" M  225.20,  425.55  L  217.84,  429.80 " style="stroke-width: 0.85 ;&st7; " /><path d=" M  219.84,  433.27  L  227.20,  429.02 " style="stroke-width: 0.85 ;&st7; " /><path d=" M  203.97,  545.69  L  212.46,  545.69 " style="stroke-width: 1.42 ;&st7; " /><path d=" M  333.57,  367.22  L  329.32,  367.22 " style="stroke-width: 1.42 ;&st7; " /><path d=" M  333.57,  375.72  L  329.32,  375.72 " style="stroke-width: 1.42 ;&st7; " /><path d=" M  333.57,  409.72  L  329.32,  409.72 " style="stroke-width: 1.42 ;&st7; " /><path d=" M  333.57,  418.22  L  329.32,  418.22 " style="stroke-width: 1.42 ;&st7; " /><path d=" M  384.56,  409.72  L  380.31,  409.72 " style="stroke-width: 1.42 ;&st7; " /><path d=" M  384.56,  418.22  L  380.31,  418.22 " style="stroke-width: 1.42 ;&st7; " /><path d=" M  331.44,  504.62  L  337.11,  481.95 " style="stroke-width: 1.42 ;&st7; " /><path d=" M  331.44,  511.70  L  331.44,  507.45 " style="stroke-width: 0.85 ;&st7; " /><path d=" M  331.44,  481.95  L  331.44,  477.71 " style="stroke-width: 0.85 ;&st7; " /><path d=" M  382.44,  504.62  L  388.10,  481.95 " style="stroke-width: 1.42 ;&st7; " /><path d=" M  382.44,  511.70  L  382.44,  507.45 " style="stroke-width: 0.85 ;&st7; " /><path d=" M  382.44,  481.95  L  382.44,  477.71 " style="stroke-width: 0.85 ;&st7; " /><path d=" M  333.57,  571.19  L  329.32,  571.19 " style="stroke-width: 1.42 ;&st7; " /><path d=" M  333.57,  579.69  L  329.32,  579.69 " style="stroke-width: 1.42 ;&st7; " /><path d=" M  333.57,  613.68  L  329.32,  613.68 " style="stroke-width: 1.42 ;&st7; " /><path d=" M  333.57,  622.18  L  329.32,  622.18 " style="stroke-width: 1.42 ;&st7; " /><path d=" M  384.56,  571.19  L  380.31,  571.19 " style="stroke-width: 1.42 ;&st7; " /><path d=" M  384.56,  579.69  L  380.31,  579.69 " style="stroke-width: 1.42 ;&st7; " /><path d=" M  274.08,  613.68  L  269.83,  613.68 " style="stroke-width: 1.42 ;&st7; " /><path d=" M  274.08,  622.18  L  269.83,  622.18 " style="stroke-width: 1.42 ;&st7; " /><path d=" M  274.08,  647.68  L  269.83,  647.68 " style="stroke-width: 1.42 ;&st7; " /><path d=" M  274.08,  656.18  L  269.83,  656.18 " style="stroke-width: 1.42 ;&st7; " /><path d=" M  486.54,  409.72  L  482.29,  409.72 " style="stroke-width: 1.42 ;&st7; " /><path d=" M  486.54,  418.22  L  482.29,  418.22 " style="stroke-width: 1.42 ;&st7; " /><path d=" M  486.54,  443.71  L  482.29,  443.71 " style="stroke-width: 1.42 ;&st7; " /><path d=" M  486.54,  452.21  L  482.29,  452.21 " style="stroke-width: 1.42 ;&st7; " /><path d=" M  486.54,  494.70  L  482.29,  494.70 " style="stroke-width: 1.42 ;&st7; " /><path d=" M  486.54,  503.20  L  482.29,  503.20 " style="stroke-width: 1.42 ;&st7; " /><path d=" M  486.54,  528.70  L  482.29,  528.70 " style="stroke-width: 1.42 ;&st7; " /><path d=" M  486.54,  537.20  L  482.29,  537.20 " style="stroke-width: 1.42 ;&st7; " /><path d=" M  484.42,  649.09  L  490.08,  626.43 " style="stroke-width: 1.42 ;&st7; " /><path d=" M  484.42,  656.18  L  484.42,  651.93 " style="stroke-width: 0.85 ;&st7; " /><path d=" M  484.42,  626.43  L  484.42,  622.18 " style="stroke-width: 0.85 ;&st7; " /><path d=" M  424.93,  649.09  L  430.59,  626.43 " style="stroke-width: 1.42 ;&st7; " /><path d=" M  424.93,  656.18  L  424.93,  651.93 " style="stroke-width: 0.85 ;&st7; " /><path d=" M  424.93,  626.43  L  424.93,  622.18 " style="stroke-width: 0.85 ;&st7; " /><path d=" M   33.99,  401.22  L   25.50,  401.22 " style="stroke-width: 1.42 ;&st7; " /><path d=" M   67.99,  401.22  L   59.49,  401.22 " style="stroke-width: 1.42 ;&st7; " /><path d=" M   27.62,  154.76  L   23.37,  154.76 " style="stroke-width: 1.42 ;&st7; " /><path d=" M   27.62,  163.26  L   23.37,  163.26 " style="stroke-width: 1.42 ;&st7; " /><path d=" M   27.62,  197.25  L   23.37,  197.25 " style="stroke-width: 1.42 ;&st7; " /><path d=" M   27.62,  205.75  L   23.37,  205.75 " style="stroke-width: 1.42 ;&st7; " /><path d=" M  138.10,  537.20  L  133.85,  537.20 " style="stroke-width: 1.42 ;&st7; " /><path d=" M  138.10,  545.69  L  133.85,  545.69 " style="stroke-width: 1.42 ;&st7; " /><path d=" M  138.10,  579.69  L  133.85,  579.69 " style="stroke-width: 1.42 ;&st7; " /><path d=" M  138.10,  588.19  L  133.85,  588.19 " style="stroke-width: 1.42 ;&st7; " /><path d=" M   27.62,  103.77  L   23.37,  103.77 " style="stroke-width: 1.42 ;&st7; " /><path d=" M   27.62,   95.27  L   23.37,   95.27 " style="stroke-width: 1.42 ;&st7; " /><path d=" M  104.11,  409.72  L   99.86,  409.72 " style="stroke-width: 1.42 ;&st7; " /><path d=" M  104.11,  418.22  L   99.86,  418.22 " style="stroke-width: 1.42 ;&st7; " /><path d=" M  104.11,  452.21  L   99.86,  452.21 " style="stroke-width: 1.42 ;&st7; " /><path d=" M  104.11,  460.71  L   99.86,  460.71 " style="stroke-width: 1.42 ;&st7; " /><path d=" M   76.49,  503.20  L    8.50,  503.20  L    8.50,  469.21  L   76.49,  469.21  L   76.49,  503.20 " style="stroke-width: 1.42 ;&st7; " /><path d=" M    8.50,  282.24  L    8.50,  333.23  L  501.42,  333.23  L  501.42,  282.24  L    8.50,  282.24 " style="stroke-width: 1.42 ;&st7; " /><path d=" M  331.44,  120.77  L  331.44,  163.26  L  501.42,  163.26  L  501.42,  120.77  L  331.44,  120.77 " style="stroke-width: 1.42 ;&st7; " /><path d=" M  178.47,   78.27  L  178.47,   95.27 " style="stroke-width: 0.85 ;&st7; " /><path d=" M  178.47,   90.37  L  175.64,   87.54  L  175.64,   91.79  L  178.47,   94.62  L  181.30,   91.79  L  181.30,   87.54  L  178.47,   90.37 " style="stroke-width: 0.28 ;&st9;" /><path d=" M  191.22,   78.27  L  191.22,   35.78  L  165.72,   35.78  L  165.72,   78.27  L  191.22,   78.27 " style="stroke-width: 1.42 ;&st7; " /><path d=" M  178.47,  176.65  L  181.30,  179.48  L  181.30,  175.24  L  178.47,  172.40  L  175.64,  175.24  L  175.64,  179.48  L  178.47,  176.65 " style="stroke-width: 0.28 ;&st9;" /><path d=" M  178.47,  200.86  L  175.64,  198.02  L  175.64,  202.27  L  178.47,  205.11  L  181.30,  202.27  L  181.30,  198.02  L  178.47,  200.86 " style="stroke-width: 0.28 ;&st9;" /><path d=" M  178.47,  205.75  L  178.47,  171.76 " style="stroke-width: 0.85 ;&st7; " /><path d=" M   63.74,  406.88  L   59.49,  402.63  L   55.24,  406.88 " style="stroke-width: 1.42 ;&st7; " /><path d=" M   63.74,  410.28  L   59.49,  406.03  L   55.24,  410.28 " style="stroke-width: 1.42 ;&st7; " /><path d=" M   29.75,  406.88  L   25.50,  402.63  L   21.25,  406.88 " style="stroke-width: 1.42 ;&st7; " /><path d=" M   29.75,  410.28  L   25.50,  406.03  L   21.25,  410.28 " style="stroke-width: 1.42 ;&st7; " /><path d=" M  483.00,  673.17  L  485.84,  673.17 " style="stroke-width: 0.85 ;&st7; " /><path d=" M  481.59,  670.34  L  487.25,  670.34 " style="stroke-width: 0.85 ;&st7; " /><path d=" M  480.17,  667.51  L  488.67,  667.51 " style="stroke-width: 0.85 ;&st7; " /><path d=" M  475.92,  664.67  L  492.92,  664.67 " style="stroke-width: 0.85 ;&st7; " /><path d=" M  484.42,  656.18  L  484.42,  664.67 " style="stroke-width: 0.85 ;&st7; " /><path d=" M  423.51,  673.17  L  426.35,  673.17 " style="stroke-width: 0.85 ;&st7; " /><path d=" M  422.10,  670.34  L  427.76,  670.34 " style="stroke-width: 0.85 ;&st7; " /><path d=" M  420.68,  667.51  L  429.18,  667.51 " style="stroke-width: 0.85 ;&st7; " /><path d=" M  416.43,  664.67  L  433.43,  664.67 " style="stroke-width: 0.85 ;&st7; " /><path d=" M  424.93,  656.18  L  424.93,  664.67 " style="stroke-width: 0.85 ;&st7; " /><path d=" M  433.43,  656.18  L  433.43,  622.18  L  416.43,  622.18  L  416.43,  656.18  L  433.43,  656.18 " style="stroke-width: 1.42 ;&st7; " /><path d=" M  492.92,  656.18  L  492.92,  622.18  L  475.92,  622.18  L  475.92,  656.18  L  492.92,  656.18 " style="stroke-width: 1.42 ;&st7; " /><path d=" M  484.42,  528.70  L  484.42,  503.20 " style="stroke-width: 0.85 ;&st7; " /><path d=" M  484.42,  523.80  L  481.59,  520.97  L  481.59,  525.22  L  484.42,  528.05  L  487.25,  525.22  L  487.25,  520.97  L  484.42,  523.80 " style="stroke-width: 0.28 ;&st9;" /><path d=" M  484.42,  508.10  L  487.25,  510.93  L  487.25,  506.68  L  484.42,  503.85  L  481.59,  506.68  L  481.59,  510.93  L  484.42,  508.10 " style="stroke-width: 0.28 ;&st9;" /><path d=" M  484.42,  443.71  L  484.42,  418.22 " style="stroke-width: 0.85 ;&st7; " /><path d=" M  484.42,  438.82  L  481.59,  435.98  L  481.59,  440.23  L  484.42,  443.07  L  487.25,  440.23  L  487.25,  435.98  L  484.42,  438.82 " style="stroke-width: 0.28 ;&st9;" /><path d=" M  484.42,  423.11  L  487.25,  425.94  L  487.25,  421.69  L  484.42,  418.86  L  481.59,  421.69  L  481.59,  425.94  L  484.42,  423.11 " style="stroke-width: 0.28 ;&st9;" /><path d=" M  271.95,  622.18  L  271.95,  647.68 " style="stroke-width: 0.85 ;&st7; " /><path d=" M  271.95,  642.78  L  269.12,  639.95  L  269.12,  644.20  L  271.95,  647.03  L  274.79,  644.20  L  274.79,  639.95  L  271.95,  642.78 " style="stroke-width: 0.28 ;&st9;" /><path d=" M  271.95,  627.08  L  274.79,  629.91  L  274.79,  625.66  L  271.95,  622.83  L  269.12,  625.66  L  269.12,  629.91  L  271.95,  627.08 " style="stroke-width: 0.28 ;&st9;" /><path d=" M  270.54,  710.00  L  273.37,  710.00 " style="stroke-width: 0.85 ;&st7; " /><path d=" M  269.12,  707.17  L  274.79,  707.17 " style="stroke-width: 0.85 ;&st7; " /><path d=" M  267.71,  704.33  L  276.20,  704.33 " style="stroke-width: 0.85 ;&st7; " /><path d=" M  263.46,  701.50  L  280.45,  701.50 " style="stroke-width: 0.85 ;&st7; " /><path d=" M  271.95,  697.25  L  271.95,  701.50 " style="stroke-width: 0.85 ;&st7; " /><path d=" M  331.44,  596.69  L  382.44,  596.69  L  382.44,  579.69 " style="stroke-width: 0.85 ;&st7; " /><path d=" M  330.25,  595.68  L  329.98,  596.15  L  329.89,  596.69  L  329.98,  597.22  L  330.25,  597.69  L  330.67,  598.03  L  331.17,  598.22  L  331.72,  598.22  L  332.22,  598.03  L  332.64,  597.69  L  332.91,  597.22  L  333.00,  596.69  L  332.91,  596.15  L  332.64,  595.68  L  332.22,  595.34  L  331.72,  595.15  L  331.17,  595.15  L  330.67,  595.34  L  330.25,  595.68  L  330.65,  596.39  L  330.65,  596.98  L  331.02,  597.42  L  331.59,  597.52  L  332.10,  597.23  L  332.29,  596.69  L  332.10,  596.14  L  331.59,  595.85  L  331.02,  595.95  L  331.44,  596.69 " style="stroke-width: 0.85 ;&st7; " /><path d=" M  382.44,  584.58  L  385.27,  587.42  L  385.27,  583.17  L  382.44,  580.33  L  379.60,  583.17  L  379.60,  587.42  L  382.44,  584.58 " style="stroke-width: 0.28 ;&st9;" /><path d=" M  331.44,  613.68  L  331.44,  579.69 " style="stroke-width: 0.85 ;&st7; " /><path d=" M  331.44,  608.79  L  328.61,  605.95  L  328.61,  610.20  L  331.44,  613.04  L  334.28,  610.20  L  334.28,  605.95  L  331.44,  608.79 " style="stroke-width: 0.28 ;&st9;" /><path d=" M  331.44,  584.58  L  334.28,  587.42  L  334.28,  583.17  L  331.44,  580.33  L  328.61,  583.17  L  328.61,  587.42  L  331.44,  584.58 " style="stroke-width: 0.28 ;&st9;" /><path d=" M  390.93,  511.70  L  390.93,  477.71  L  373.94,  477.71  L  373.94,  511.70  L  390.93,  511.70 " style="stroke-width: 1.42 ;&st7; " /><path d=" M  339.94,  511.70  L  339.94,  477.71  L  322.95,  477.71  L  322.95,  511.70  L  339.94,  511.70 " style="stroke-width: 1.42 ;&st7; " /><path d=" M  331.44,  392.72  L  382.44,  392.72  L  382.44,  409.72 " style="stroke-width: 0.85 ;&st7; " /><path d=" M  330.25,  391.72  L  329.98,  392.19  L  329.89,  392.72  L  329.98,  393.25  L  330.25,  393.72  L  330.67,  394.07  L  331.17,  394.26  L  331.72,  394.26  L  332.22,  394.07  L  332.64,  393.72  L  332.91,  393.25  L  333.00,  392.72  L  332.91,  392.19  L  332.64,  391.72  L  332.22,  391.37  L  331.72,  391.18  L  331.17,  391.18  L  330.67,  391.37  L  330.25,  391.72  L  330.65,  392.43  L  330.65,  393.01  L  331.02,  393.46  L  331.59,  393.56  L  332.10,  393.27  L  332.29,  392.72  L  332.10,  392.17  L  331.59,  391.88  L  331.02,  391.98  L  331.44,  392.72 " style="stroke-width: 0.85 ;&st7; " /><path d=" M  382.44,  404.82  L  379.60,  401.99  L  379.60,  406.24  L  382.44,  409.07  L  385.27,  406.24  L  385.27,  401.99  L  382.44,  404.82 " style="stroke-width: 0.28 ;&st9;" /><path d=" M  331.44,  409.72  L  331.44,  375.72 " style="stroke-width: 0.85 ;&st7; " /><path d=" M  331.44,  404.82  L  328.61,  401.99  L  328.61,  406.24  L  331.44,  409.07  L  334.28,  406.24  L  334.28,  401.99  L  331.44,  404.82 " style="stroke-width: 0.28 ;&st9;" /><path d=" M  331.44,  380.62  L  334.28,  383.45  L  334.28,  379.20  L  331.44,  376.37  L  328.61,  379.20  L  328.61,  383.45  L  331.44,  380.62 " style="stroke-width: 0.28 ;&st9;" /><path d=" M  216.71,  540.03  L  212.46,  544.28  L  208.22,  540.03 " style="stroke-width: 1.42 ;&st7; " /><path d=" M  208.22,  536.63  L  212.46,  540.88  L  216.71,  536.63 " style="stroke-width: 1.42 ;&st7; " /><path d=" M  211.05,  710.00  L  213.88,  710.00 " style="stroke-width: 0.85 ;&st7; " /><path d=" M  209.63,  707.17  L  215.30,  707.17 " style="stroke-width: 0.85 ;&st7; " /><path d=" M  208.22,  704.33  L  216.71,  704.33 " style="stroke-width: 0.85 ;&st7; " /><path d=" M  203.97,  701.50  L  220.96,  701.50 " style="stroke-width: 0.85 ;&st7; " /><path d=" M  212.46,  697.25  L  212.46,  701.50 " style="stroke-width: 0.85 ;&st7; " /><path d=" M  195.47,  409.72  L  195.47,  452.21  L  229.46,  452.21  L  229.46,  409.72  L  195.47,  409.72 " style="stroke-width: 1.42 ;&st7; " /><path d=" M  227.20,  429.02  L  224.87,  432.06  L  223.40,  429.52  L  227.20,  429.02  L  225.92,  429.76  L  224.93,  431.04  L  224.31,  429.97  L  225.92,  429.76  L  225.28,  430.13  L  224.97,  430.53  L  224.77,  430.20  L  225.28,  430.13 " style="stroke-width: 0.85 ;&st7; " /><path d=" M  225.20,  425.55  L  222.86,  428.59  L  221.40,  426.05  L  225.20,  425.55  L  223.91,  426.29  L  222.93,  427.57  L  222.31,  426.50  L  223.91,  426.29  L  223.27,  426.66  L  222.96,  427.06  L  222.77,  426.73  L  223.27,  426.66 " style="stroke-width: 0.85 ;&st7; " /><path d=" M  212.46,  435.21  L  206.80,  426.71  L  218.13,  426.71  L  212.46,  435.21 " style="stroke-width: 0.28 ;&st9;" /><path d=" M  161.47,  588.19  L  161.47,  622.18  L  195.47,  622.18  L  195.47,  588.19  L  161.47,  588.19 " style="stroke-width: 1.42 ;&st7; " /><path d=" M  178.47,  511.70  L  178.47,  477.71 " style="stroke-width: 0.85 ;&st7; " /><path d=" M  178.47,  506.80  L  175.64,  503.97  L  175.64,  508.22  L  178.47,  511.05  L  181.30,  508.22  L  181.30,  503.97  L  178.47,  506.80 " style="stroke-width: 0.28 ;&st9;" /><path d=" M  178.47,  482.60  L  181.30,  485.43  L  181.30,  481.18  L  178.47,  478.35  L  175.64,  481.18  L  175.64,  485.43  L  178.47,  482.60 " style="stroke-width: 0.28 ;&st9;" /><path d=" M  212.46,  409.72  L  212.46,  452.21 " style="stroke-width: 0.85 ;&st7; " /><path d=" M   67.99,  171.76  L   67.99,  188.75 " style="stroke-width: 0.85 ;&st7; " /><path d=" M   59.49,  171.76  L   76.49,  171.76  L   76.49,  188.75  L   59.49,  188.75  L   59.49,  171.76 " style="stroke-width: 1.42 ;&st7; " /><path d=" M  101.98,  452.21  L  101.98,  418.22 " style="stroke-width: 0.85 ;&st7; " /><path d=" M  101.98,  447.31  L   99.15,  444.48  L   99.15,  448.73  L  101.98,  451.56  L  104.82,  448.73  L  104.82,  444.48  L  101.98,  447.31 " style="stroke-width: 0.28 ;&st9;" /><path d=" M  101.98,  423.11  L  104.82,  425.94  L  104.82,  421.69  L  101.98,  418.86  L   99.15,  421.69  L   99.15,  425.94  L  101.98,  423.11 " style="stroke-width: 0.28 ;&st9;" /><path d=" M   25.50,   90.37  L   22.66,   87.54  L   22.66,   91.79  L   25.50,   94.62  L   28.33,   91.79  L   28.33,   87.54  L   25.50,   90.37 " style="stroke-width: 0.28 ;&st9;" /><path d=" M   25.50,   69.77  L   25.50,   95.27 " style="stroke-width: 0.85 ;&st7; " /><path d=" M  134.56,  710.00  L  137.39,  710.00 " style="stroke-width: 0.85 ;&st7; " /><path d=" M  133.14,  707.17  L  138.81,  707.17 " style="stroke-width: 0.85 ;&st7; " /><path d=" M  131.73,  704.33  L  140.23,  704.33 " style="stroke-width: 0.85 ;&st7; " /><path d=" M  127.48,  701.50  L  144.48,  701.50 " style="stroke-width: 0.85 ;&st7; " /><path d=" M  135.98,  697.25  L  135.98,  701.50 " style="stroke-width: 0.85 ;&st7; " /><path d=" M  135.98,  579.69  L  135.98,  545.69 " style="stroke-width: 0.85 ;&st7; " /><path d=" M  135.98,  574.79  L  133.14,  571.96  L  133.14,  576.21  L  135.98,  579.04  L  138.81,  576.21  L  138.81,  571.96  L  135.98,  574.79 " style="stroke-width: 0.28 ;&st9;" /><path d=" M  135.98,  550.59  L  138.81,  553.42  L  138.81,  549.17  L  135.98,  546.34  L  133.14,  549.17  L  133.14,  553.42  L  135.98,  550.59 " style="stroke-width: 0.28 ;&st9;" /><path d=" M  135.98,  426.71  L  135.98,  443.71 " style="stroke-width: 0.85 ;&st7; " /><path d=" M  127.48,  426.71  L  144.48,  426.71  L  144.48,  443.71  L  127.48,  443.71  L  127.48,  426.71 " style="stroke-width: 1.42 ;&st7; " /><path d=" M   25.50,  197.25  L   25.50,  163.26 " style="stroke-width: 0.85 ;&st7; " /><path d=" M   25.50,  192.36  L   22.66,  189.52  L   22.66,  193.77  L   25.50,  196.61  L   28.33,  193.77  L   28.33,  189.52  L   25.50,  192.36 " style="stroke-width: 0.28 ;&st9;" /><path d=" M   25.50,  168.15  L   28.33,  170.99  L   28.33,  166.74  L   25.50,  163.90  L   22.66,  166.74  L   22.66,  170.99  L   25.50,  168.15 " style="stroke-width: 0.28 ;&st9;" /><path d=" M   38.24,   78.27  L   38.24,   35.78  L   12.75,   35.78  L   12.75,   78.27  L   38.24,   78.27 " style="stroke-width: 1.42 ;&st7; " /><path d=" M  165.72,  277.71  L   33.99,  277.71 " style="stroke-width: 0.85 ;&st7;stroke-dasharray:3, 1.5;" /><path d=" M   33.99,  268.64  L  165.72,  268.64 " style="stroke-width: 0.85 ;&st7;stroke-dasharray:3, 1.5;" /><path d=" M  339.94,  277.71  L  186.97,  277.71 " style="stroke-width: 0.85 ;&st7;stroke-dasharray:3, 1.5;" /><path d=" M  186.97,  268.64  L  339.94,  268.64 " style="stroke-width: 0.85 ;&st7;stroke-dasharray:3, 1.5;" /><path d=" M  450.42,  268.64  L  471.67,  268.64 " style="stroke-width: 0.85 ;&st7;stroke-dasharray:3, 1.5;" /><path d=" M  471.67,  277.71  L  450.42,  277.71 " style="stroke-width: 0.85 ;&st7;stroke-dasharray:3, 1.5;" /><path d=" M  339.94,  337.76  L  471.67,  337.76 " style="stroke-width: 0.85 ;&st7;stroke-dasharray:3, 1.5;" /><path d=" M  471.67,  346.83  L  339.94,  346.83 " style="stroke-width: 0.85 ;&st7;stroke-dasharray:3, 1.5;" /><path d=" M  220.96,  337.76  L  318.70,  337.76 " style="stroke-width: 0.85 ;&st7;stroke-dasharray:3, 1.5;" /><path d=" M  318.70,  346.83  L  220.96,  346.83 " style="stroke-width: 0.85 ;&st7;stroke-dasharray:3, 1.5;" /><path d=" M  186.97,  337.76  L  199.72,  337.76 " style="stroke-width: 0.85 ;&st7;stroke-dasharray:3, 1.5;" /><path d=" M  199.72,  346.83  L  186.97,  346.83 " style="stroke-width: 0.85 ;&st7;stroke-dasharray:3, 1.5;" /><path d=" M  365.44,  268.64  L  382.44,  268.64 " style="stroke-width: 0.85 ;&st7;stroke-dasharray:3, 1.5;" /><path d=" M  382.44,  277.71  L  365.44,  277.71 " style="stroke-width: 0.85 ;&st7;stroke-dasharray:3, 1.5;" /><path d=" M  429.18,  277.71  L  407.93,  277.71 " style="stroke-width: 0.85 ;&st7;stroke-dasharray:3, 1.5;" /><path d=" M  407.93,  268.64  L  429.18,  268.64 " style="stroke-width: 0.85 ;&st7;stroke-dasharray:3, 1.5;" /><path d=" M  144.48,  337.76  L  165.72,  337.76 " style="stroke-width: 0.85 ;&st7;stroke-dasharray:3, 1.5;" /><path d=" M  118.98,  346.83  L   67.99,  346.83 " style="stroke-width: 0.85 ;&st7;stroke-dasharray:3, 1.5;" /><path d=" M   67.99,  337.76  L  118.98,  337.76 " style="stroke-width: 0.85 ;&st7;stroke-dasharray:3, 1.5;" /><path d=" M   42.49,  346.83  L   33.99,  346.83 " style="stroke-width: 0.85 ;&st7;stroke-dasharray:3, 1.5;" /><path d=" M   33.99,  337.76  L   42.49,  337.76 " style="stroke-width: 0.85 ;&st7;stroke-dasharray:3, 1.5;" /><path d=" M  165.72,  346.83  L  144.48,  346.83 " style="stroke-width: 0.85 ;&st7;stroke-dasharray:3, 1.5;" /><path d=" M  486.54,  503.20  C  488.89   503.20   490.79   501.30   490.79   498.95 " style="stroke-width: 1.42 ;&st7; " /><path d=" M  490.79,  498.95  C  490.79   496.61   488.89   494.70   486.54   494.70 " style="stroke-width: 1.42 ;&st7; " /><path d=" M  482.29,  528.70  C  479.95   528.70   478.05   530.60   478.05   532.95 " style="stroke-width: 1.42 ;&st7; " /><path d=" M  478.05,  532.95  C  478.05   535.29   479.95   537.20   482.29   537.20 " style="stroke-width: 1.42 ;&st7; " /><path d=" M  486.54,  537.20  C  488.89   537.20   490.79   535.29   490.79   532.95 " style="stroke-width: 1.42 ;&st7; " /><path d=" M  490.79,  532.95  C  490.79   530.60   488.89   528.70   486.54   528.70 " style="stroke-width: 1.42 ;&st7; " /><path d=" M  485.84,  650.51  C  485.84   649.73   485.20   649.09   484.42   649.09 " style="stroke-width: 0.85 ;&st7; " /><path d=" M  484.42,  649.09  C  483.64   649.09   483.00   649.73   483.00   650.51 " style="stroke-width: 0.85 ;&st7; " /><path d=" M  483.00,  650.51  C  483.00   651.29   483.64   651.93   484.42   651.93 " style="stroke-width: 0.85 ;&st7; " /><path d=" M  484.42,  651.93  C  485.20   651.93   485.84   651.29   485.84   650.51 " style="stroke-width: 0.85 ;&st7; " /><path d=" M  485.84,  627.85  C  485.84   627.06   485.20   626.43   484.42   626.43 " style="stroke-width: 0.85 ;&st7; " /><path d=" M  484.42,  626.43  C  483.64   626.43   483.00   627.06   483.00   627.85 " style="stroke-width: 0.85 ;&st7; " /><path d=" M  483.00,  627.85  C  483.00   628.63   483.64   629.26   484.42   629.26 " style="stroke-width: 0.85 ;&st7; " /><path d=" M  484.42,  629.26  C  485.20   629.26   485.84   628.63   485.84   627.85 " style="stroke-width: 0.85 ;&st7; " /><path d=" M  426.35,  650.51  C  426.35   649.73   425.71   649.09   424.93   649.09 " style="stroke-width: 0.85 ;&st7; " /><path d=" M  424.93,  649.09  C  424.15   649.09   423.51   649.73   423.51   650.51 " style="stroke-width: 0.85 ;&st7; " /><path d=" M  423.51,  650.51  C  423.51   651.29   424.15   651.93   424.93   651.93 " style="stroke-width: 0.85 ;&st7; " /><path d=" M  424.93,  651.93  C  425.71   651.93   426.35   651.29   426.35   650.51 " style="stroke-width: 0.85 ;&st7; " /><path d=" M  426.35,  627.85  C  426.35   627.06   425.71   626.43   424.93   626.43 " style="stroke-width: 0.85 ;&st7; " /><path d=" M  424.93,  626.43  C  424.15   626.43   423.51   627.06   423.51   627.85 " style="stroke-width: 0.85 ;&st7; " /><path d=" M  423.51,  627.85  C  423.51   628.63   424.15   629.26   424.93   629.26 " style="stroke-width: 0.85 ;&st7; " /><path d=" M  424.93,  629.26  C  425.71   629.26   426.35   628.63   426.35   627.85 " style="stroke-width: 0.85 ;&st7; " /><path d=" M   26.91,   68.36  C   26.91    67.57    26.28    66.94    25.50    66.94 " style="stroke-width: 0.85 ;&st7; " /><path d=" M   25.50,   66.94  C   24.71    66.94    24.08    67.57    24.08    68.36 " style="stroke-width: 0.85 ;&st7; " /><path d=" M   24.08,   68.36  C   24.08    69.14    24.71    69.77    25.50    69.77 " style="stroke-width: 0.85 ;&st7; " /><path d=" M   25.50,   69.77  C   26.28    69.77    26.91    69.14    26.91    68.36 " style="stroke-width: 0.85 ;&st7; " /><path d=" M   26.91,   45.69  C   26.91    44.91    26.28    44.28    25.50    44.28 " style="stroke-width: 0.85 ;&st7; " /><path d=" M   25.50,   44.28  C   24.71    44.28    24.08    44.91    24.08    45.69 " style="stroke-width: 0.85 ;&st7; " /><path d=" M   24.08,   45.69  C   24.08    46.48    24.71    47.11    25.50    47.11 " style="stroke-width: 0.85 ;&st7; " /><path d=" M   25.50,   47.11  C   26.28    47.11    26.91    46.48    26.91    45.69 " style="stroke-width: 0.85 ;&st7; " /><path d=" M   25.50,   66.94  C   28.23    65.33    29.15    61.80    27.53    59.06 " style="stroke-width: 1.42 ;&st7; " /><path d=" M   27.53,   59.06  C   27.01    58.18    26.38    57.55    25.50    57.03 " style="stroke-width: 1.42 ;&st7; " /><path d=" M   25.50,   47.11  C   22.76    48.72    21.85    52.25    23.46    54.99 " style="stroke-width: 1.42 ;&st7; " /><path d=" M   23.46,   54.99  C   23.98    55.87    24.61    56.51    25.50    57.03 " style="stroke-width: 1.42 ;&st7; " /><path d=" M   23.37,  154.76  C   21.02   154.76    19.12   156.66    19.12   159.01 " style="stroke-width: 1.42 ;&st7; " /><path d=" M   19.12,  159.01  C   19.12   161.36    21.02   163.26    23.37   163.26 " style="stroke-width: 1.42 ;&st7; " /><path d=" M   27.62,  163.26  C   29.97   163.26    31.87   161.36    31.87   159.01 " style="stroke-width: 1.42 ;&st7; " /><path d=" M   31.87,  159.01  C   31.87   156.66    29.97   154.76    27.62   154.76 " style="stroke-width: 1.42 ;&st7; " /><path d=" M   23.37,  197.25  C   21.02   197.25    19.12   199.15    19.12   201.50 " style="stroke-width: 1.42 ;&st7; " /><path d=" M   19.12,  201.50  C   19.12   203.85    21.02   205.75    23.37   205.75 " style="stroke-width: 1.42 ;&st7; " /><path d=" M   27.62,  205.75  C   29.97   205.75    31.87   203.85    31.87   201.50 " style="stroke-width: 1.42 ;&st7; " /><path d=" M   31.87,  201.50  C   31.87   199.15    29.97   197.25    27.62   197.25 " style="stroke-width: 1.42 ;&st7; " /><path d=" M  133.85,  537.20  C  131.51   537.20   129.60   539.10   129.60   541.44 " style="stroke-width: 1.42 ;&st7; " /><path d=" M  129.60,  541.44  C  129.60   543.79   131.51   545.69   133.85   545.69 " style="stroke-width: 1.42 ;&st7; " /><path d=" M  138.10,  545.69  C  140.45   545.69   142.35   543.79   142.35   541.44 " style="stroke-width: 1.42 ;&st7; " /><path d=" M  142.35,  541.44  C  142.35   539.10   140.45   537.20   138.10   537.20 " style="stroke-width: 1.42 ;&st7; " /><path d=" M  133.85,  579.69  C  131.51   579.69   129.60   581.59   129.60   583.94 " style="stroke-width: 1.42 ;&st7; " /><path d=" M  129.60,  583.94  C  129.60   586.28   131.51   588.19   133.85   588.19 " style="stroke-width: 1.42 ;&st7; " /><path d=" M  138.10,  588.19  C  140.45   588.19   142.35   586.28   142.35   583.94 " style="stroke-width: 1.42 ;&st7; " /><path d=" M  142.35,  583.94  C  142.35   581.59   140.45   579.69   138.10   579.69 " style="stroke-width: 1.42 ;&st7; " /><path d=" M   31.87,   99.52  C   31.87    97.17    29.97    95.27    27.62    95.27 " style="stroke-width: 1.42 ;&st7; " /><path d=" M   27.62,  103.77  C   29.97   103.77    31.87   101.87    31.87    99.52 " style="stroke-width: 1.42 ;&st7; " /><path d=" M   19.12,   99.52  C   19.12   101.87    21.02   103.77    23.37   103.77 " style="stroke-width: 1.42 ;&st7; " /><path d=" M   23.37,   95.27  C   21.02    95.27    19.12    97.17    19.12    99.52 " style="stroke-width: 1.42 ;&st7; " /><path d=" M   99.86,  409.72  C   97.51   409.72    95.61   411.62    95.61   413.97 " style="stroke-width: 1.42 ;&st7; " /><path d=" M   95.61,  413.97  C   95.61   416.31    97.51   418.22    99.86   418.22 " style="stroke-width: 1.42 ;&st7; " /><path d=" M  104.11,  418.22  C  106.45   418.22   108.36   416.31   108.36   413.97 " style="stroke-width: 1.42 ;&st7; " /><path d=" M  108.36,  413.97  C  108.36   411.62   106.45   409.72   104.11   409.72 " style="stroke-width: 1.42 ;&st7; " /><path d=" M   99.86,  452.21  C   97.51   452.21    95.61   454.11    95.61   456.46 " style="stroke-width: 1.42 ;&st7; " /><path d=" M   95.61,  456.46  C   95.61   458.81    97.51   460.71    99.86   460.71 " style="stroke-width: 1.42 ;&st7; " /><path d=" M  104.11,  460.71  C  106.45   460.71   108.36   458.81   108.36   456.46 " style="stroke-width: 1.42 ;&st7; " /><path d=" M  108.36,  456.46  C  108.36   454.11   106.45   452.21   104.11   452.21 " style="stroke-width: 1.42 ;&st7; " /><path d=" M  178.47,   47.11  C  175.73    48.72   174.82    52.25   176.43    54.99 " style="stroke-width: 1.42 ;&st7; " /><path d=" M  176.43,   54.99  C  176.95    55.87   177.59    56.51   178.47    57.03 " style="stroke-width: 1.42 ;&st7; " /><path d=" M  178.47,   66.94  C  181.21    65.33   182.12    61.80   180.51    59.06 " style="stroke-width: 1.42 ;&st7; " /><path d=" M  180.51,   59.06  C  179.99    58.18   179.35    57.55   178.47    57.03 " style="stroke-width: 1.42 ;&st7; " /><path d=" M  179.89,   45.69  C  179.89    44.91   179.25    44.28   178.47    44.28 " style="stroke-width: 0.85 ;&st7; " /><path d=" M  178.47,   44.28  C  177.69    44.28   177.05    44.91   177.05    45.69 " style="stroke-width: 0.85 ;&st7; " /><path d=" M  177.05,   45.69  C  177.05    46.48   177.69    47.11   178.47    47.11 " style="stroke-width: 0.85 ;&st7; " /><path d=" M  178.47,   47.11  C  179.25    47.11   179.89    46.48   179.89    45.69 " style="stroke-width: 0.85 ;&st7; " /><path d=" M  179.89,   68.36  C  179.89    67.57   179.25    66.94   178.47    66.94 " style="stroke-width: 0.85 ;&st7; " /><path d=" M  178.47,   66.94  C  177.69    66.94   177.05    67.57   177.05    68.36 " style="stroke-width: 0.85 ;&st7; " /><path d=" M  177.05,   68.36  C  177.05    69.14   177.69    69.77   178.47    69.77 " style="stroke-width: 0.85 ;&st7; " /><path d=" M  178.47,   69.77  C  179.25    69.77   179.89    69.14   179.89    68.36 " style="stroke-width: 0.85 ;&st7; " /><path d=" M   30.03,  277.71  C   30.03   275.20    28.00   273.17    25.50   273.17 " style="stroke-width: 1.42 ;&st7; " /><path d=" M   25.50,  273.17  C   22.99   273.17    20.96   275.20    20.96   277.71 " style="stroke-width: 1.42 ;&st7; " /><path d=" M   20.96,  277.71  C   20.96   280.21    22.99   282.24    25.50   282.24 " style="stroke-width: 1.42 ;&st7; " /><path d=" M   25.50,  282.24  C   28.00   282.24    30.03   280.21    30.03   277.71 " style="stroke-width: 1.42 ;&st7; " /><path d=" M   30.03,  268.64  C   30.03   266.14    28.00   264.11    25.50   264.11 " style="stroke-width: 1.42 ;&st7; " /><path d=" M   25.50,  264.11  C   22.99   264.11    20.96   266.14    20.96   268.64 " style="stroke-width: 1.42 ;&st7; " /><path d=" M   20.96,  268.64  C   20.96   271.14    22.99   273.17    25.50   273.17 " style="stroke-width: 1.42 ;&st7; " /><path d=" M   25.50,  273.17  C   28.00   273.17    30.03   271.14    30.03   268.64 " style="stroke-width: 1.42 ;&st7; " /><path d=" M  183.00,  277.71  C  183.00   275.20   180.97   273.17   178.47   273.17 " style="stroke-width: 1.42 ;&st7; " /><path d=" M  178.47,  273.17  C  175.97   273.17   173.94   275.20   173.94   277.71 " style="stroke-width: 1.42 ;&st7; " /><path d=" M  173.94,  277.71  C  173.94   280.21   175.97   282.24   178.47   282.24 " style="stroke-width: 1.42 ;&st7; " /><path d=" M  178.47,  282.24  C  180.97   282.24   183.00   280.21   183.00   277.71 " style="stroke-width: 1.42 ;&st7; " /><path d=" M  183.00,  268.64  C  183.00   266.14   180.97   264.11   178.47   264.11 " style="stroke-width: 1.42 ;&st7; " /><path d=" M  178.47,  264.11  C  175.97   264.11   173.94   266.14   173.94   268.64 " style="stroke-width: 1.42 ;&st7; " /><path d=" M  173.94,  268.64  C  173.94   271.14   175.97   273.17   178.47   273.17 " style="stroke-width: 1.42 ;&st7; " /><path d=" M  178.47,  273.17  C  180.97   273.17   183.00   271.14   183.00   268.64 " style="stroke-width: 1.42 ;&st7; " /><path d=" M  446.46,  277.71  C  446.46   275.20   444.43   273.17   441.93   273.17 " style="stroke-width: 1.42 ;&st7; " /><path d=" M  441.93,  273.17  C  439.42   273.17   437.39   275.20   437.39   277.71 " style="stroke-width: 1.42 ;&st7; " /><path d=" M  437.39,  277.71  C  437.39   280.21   439.42   282.24   441.93   282.24 " style="stroke-width: 1.42 ;&st7; " /><path d=" M  441.93,  282.24  C  444.43   282.24   446.46   280.21   446.46   277.71 " style="stroke-width: 1.42 ;&st7; " /><path d=" M  446.46,  268.64  C  446.46   266.14   444.43   264.11   441.93   264.11 " style="stroke-width: 1.42 ;&st7; " /><path d=" M  441.93,  264.11  C  439.42   264.11   437.39   266.14   437.39   268.64 " style="stroke-width: 1.42 ;&st7; " /><path d=" M  437.39,  268.64  C  437.39   271.14   439.42   273.17   441.93   273.17 " style="stroke-width: 1.42 ;&st7; " /><path d=" M  441.93,  273.17  C  444.43   273.17   446.46   271.14   446.46   268.64 " style="stroke-width: 1.42 ;&st7; " /><path d=" M  488.95,  277.71  C  488.95   275.20   486.92   273.17   484.42   273.17 " style="stroke-width: 1.42 ;&st7; " /><path d=" M  484.42,  273.17  C  481.92   273.17   479.89   275.20   479.89   277.71 " style="stroke-width: 1.42 ;&st7; " /><path d=" M  479.89,  277.71  C  479.89   280.21   481.92   282.24   484.42   282.24 " style="stroke-width: 1.42 ;&st7; " /><path d=" M  484.42,  282.24  C  486.92   282.24   488.95   280.21   488.95   277.71 " style="stroke-width: 1.42 ;&st7; " /><path d=" M  488.95,  268.64  C  488.95   266.14   486.92   264.11   484.42   264.11 " style="stroke-width: 1.42 ;&st7; " /><path d=" M  484.42,  264.11  C  481.92   264.11   479.89   266.14   479.89   268.64 " style="stroke-width: 1.42 ;&st7; " /><path d=" M  479.89,  268.64  C  479.89   271.14   481.92   273.17   484.42   273.17 " style="stroke-width: 1.42 ;&st7; " /><path d=" M  484.42,  273.17  C  486.92   273.17   488.95   271.14   488.95   268.64 " style="stroke-width: 1.42 ;&st7; " /><path d=" M  488.95,  337.76  C  488.95   335.26   486.92   333.23   484.42   333.23 " style="stroke-width: 1.42 ;&st7; " /><path d=" M  484.42,  333.23  C  481.92   333.23   479.89   335.26   479.89   337.76 " style="stroke-width: 1.42 ;&st7; " /><path d=" M  479.89,  337.76  C  479.89   340.27   481.92   342.29   484.42   342.29 " style="stroke-width: 1.42 ;&st7; " /><path d=" M  484.42,  342.29  C  486.92   342.29   488.95   340.27   488.95   337.76 " style="stroke-width: 1.42 ;&st7; " /><path d=" M  488.95,  346.83  C  488.95   344.32   486.92   342.29   484.42   342.29 " style="stroke-width: 1.42 ;&st7; " /><path d=" M  484.42,  342.29  C  481.92   342.29   479.89   344.32   479.89   346.83 " style="stroke-width: 1.42 ;&st7; " /><path d=" M  479.89,  346.83  C  479.89   349.33   481.92   351.36   484.42   351.36 " style="stroke-width: 1.42 ;&st7; " /><path d=" M  484.42,  351.36  C  486.92   351.36   488.95   349.33   488.95   346.83 " style="stroke-width: 1.42 ;&st7; " /><path d=" M  335.98,  337.76  C  335.98   335.26   333.95   333.23   331.44   333.23 " style="stroke-width: 1.42 ;&st7; " /><path d=" M  331.44,  333.23  C  328.94   333.23   326.91   335.26   326.91   337.76 " style="stroke-width: 1.42 ;&st7; " /><path d=" M  326.91,  337.76  C  326.91   340.27   328.94   342.29   331.44   342.29 " style="stroke-width: 1.42 ;&st7; " /><path d=" M  331.44,  342.29  C  333.95   342.29   335.98   340.27   335.98   337.76 " style="stroke-width: 1.42 ;&st7; " /><path d=" M  335.98,  346.83  C  335.98   344.32   333.95   342.29   331.44   342.29 " style="stroke-width: 1.42 ;&st7; " /><path d=" M  331.44,  342.29  C  328.94   342.29   326.91   344.32   326.91   346.83 " style="stroke-width: 1.42 ;&st7; " /><path d=" M  326.91,  346.83  C  326.91   349.33   328.94   351.36   331.44   351.36 " style="stroke-width: 1.42 ;&st7; " /><path d=" M  331.44,  351.36  C  333.95   351.36   335.98   349.33   335.98   346.83 " style="stroke-width: 1.42 ;&st7; " /><path d=" M  217.00,  337.76  C  217.00   335.26   214.97   333.23   212.46   333.23 " style="stroke-width: 1.42 ;&st7; " /><path d=" M  212.46,  333.23  C  209.96   333.23   207.93   335.26   207.93   337.76 " style="stroke-width: 1.42 ;&st7; " /><path d=" M  207.93,  337.76  C  207.93   340.27   209.96   342.29   212.46   342.29 " style="stroke-width: 1.42 ;&st7; " /><path d=" M  212.46,  342.29  C  214.97   342.29   217.00   340.27   217.00   337.76 " style="stroke-width: 1.42 ;&st7; " /><path d=" M  217.00,  346.83  C  217.00   344.32   214.97   342.29   212.46   342.29 " style="stroke-width: 1.42 ;&st7; " /><path d=" M  212.46,  342.29  C  209.96   342.29   207.93   344.32   207.93   346.83 " style="stroke-width: 1.42 ;&st7; " /><path d=" M  207.93,  346.83  C  207.93   349.33   209.96   351.36   212.46   351.36 " style="stroke-width: 1.42 ;&st7; " /><path d=" M  212.46,  351.36  C  214.97   351.36   217.00   349.33   217.00   346.83 " style="stroke-width: 1.42 ;&st7; " /><path d=" M  183.00,  337.76  C  183.00   335.26   180.97   333.23   178.47   333.23 " style="stroke-width: 1.42 ;&st7; " /><path d=" M  178.47,  333.23  C  175.97   333.23   173.94   335.26   173.94   337.76 " style="stroke-width: 1.42 ;&st7; " /><path d=" M  173.94,  337.76  C  173.94   340.27   175.97   342.29   178.47   342.29 " style="stroke-width: 1.42 ;&st7; " /><path d=" M  178.47,  342.29  C  180.97   342.29   183.00   340.27   183.00   337.76 " style="stroke-width: 1.42 ;&st7; " /><path d=" M  183.00,  346.83  C  183.00   344.32   180.97   342.29   178.47   342.29 " style="stroke-width: 1.42 ;&st7; " /><path d=" M  178.47,  342.29  C  175.97   342.29   173.94   344.32   173.94   346.83 " style="stroke-width: 1.42 ;&st7; " /><path d=" M  173.94,  346.83  C  173.94   349.33   175.97   351.36   178.47   351.36 " style="stroke-width: 1.42 ;&st7; " /><path d=" M  178.47,  351.36  C  180.97   351.36   183.00   349.33   183.00   346.83 " style="stroke-width: 1.42 ;&st7; " /><path d=" M  361.47,  277.71  C  361.47   275.20   359.44   273.17   356.94   273.17 " style="stroke-width: 1.42 ;&st7; " /><path d=" M  356.94,  273.17  C  354.44   273.17   352.41   275.20   352.41   277.71 " style="stroke-width: 1.42 ;&st7; " /><path d=" M  352.41,  277.71  C  352.41   280.21   354.44   282.24   356.94   282.24 " style="stroke-width: 1.42 ;&st7; " /><path d=" M  356.94,  282.24  C  359.44   282.24   361.47   280.21   361.47   277.71 " style="stroke-width: 1.42 ;&st7; " /><path d=" M  361.47,  268.64  C  361.47   266.14   359.44   264.11   356.94   264.11 " style="stroke-width: 1.42 ;&st7; " /><path d=" M  356.94,  264.11  C  354.44   264.11   352.41   266.14   352.41   268.64 " style="stroke-width: 1.42 ;&st7; " /><path d=" M  352.41,  268.64  C  352.41   271.14   354.44   273.17   356.94   273.17 " style="stroke-width: 1.42 ;&st7; " /><path d=" M  356.94,  273.17  C  359.44   273.17   361.47   271.14   361.47   268.64 " style="stroke-width: 1.42 ;&st7; " /><path d=" M  403.97,  277.71  C  403.97   275.20   401.94   273.17   399.43   273.17 " style="stroke-width: 1.42 ;&st7; " /><path d=" M  399.43,  273.17  C  396.93   273.17   394.90   275.20   394.90   277.71 " style="stroke-width: 1.42 ;&st7; " /><path d=" M  394.90,  277.71  C  394.90   280.21   396.93   282.24   399.43   282.24 " style="stroke-width: 1.42 ;&st7; " /><path d=" M  399.43,  282.24  C  401.94   282.24   403.97   280.21   403.97   277.71 " style="stroke-width: 1.42 ;&st7; " /><path d=" M  403.97,  268.64  C  403.97   266.14   401.94   264.11   399.43   264.11 " style="stroke-width: 1.42 ;&st7; " /><path d=" M  399.43,  264.11  C  396.93   264.11   394.90   266.14   394.90   268.64 " style="stroke-width: 1.42 ;&st7; " /><path d=" M  394.90,  268.64  C  394.90   271.14   396.93   273.17   399.43   273.17 " style="stroke-width: 1.42 ;&st7; " /><path d=" M  399.43,  273.17  C  401.94   273.17   403.97   271.14   403.97   268.64 " style="stroke-width: 1.42 ;&st7; " /><path d=" M   30.03,  337.76  C   30.03   335.26    28.00   333.23    25.50   333.23 " style="stroke-width: 1.42 ;&st7; " /><path d=" M   25.50,  333.23  C   22.99   333.23    20.96   335.26    20.96   337.76 " style="stroke-width: 1.42 ;&st7; " /><path d=" M   20.96,  337.76  C   20.96   340.27    22.99   342.29    25.50   342.29 " style="stroke-width: 1.42 ;&st7; " /><path d=" M   25.50,  342.29  C   28.00   342.29    30.03   340.27    30.03   337.76 " style="stroke-width: 1.42 ;&st7; " /><path d=" M   30.03,  346.83  C   30.03   344.32    28.00   342.29    25.50   342.29 " style="stroke-width: 1.42 ;&st7; " /><path d=" M   25.50,  342.29  C   22.99   342.29    20.96   344.32    20.96   346.83 " style="stroke-width: 1.42 ;&st7; " /><path d=" M   20.96,  346.83  C   20.96   349.33    22.99   351.36    25.50   351.36 " style="stroke-width: 1.42 ;&st7; " /><path d=" M   25.50,  351.36  C   28.00   351.36    30.03   349.33    30.03   346.83 " style="stroke-width: 1.42 ;&st7; " /><path d=" M   64.02,  337.76  C   64.02   335.26    61.99   333.23    59.49   333.23 " style="stroke-width: 1.42 ;&st7; " /><path d=" M   59.49,  333.23  C   56.99   333.23    54.96   335.26    54.96   337.76 " style="stroke-width: 1.42 ;&st7; " /><path d=" M   54.96,  337.76  C   54.96   340.27    56.99   342.29    59.49   342.29 " style="stroke-width: 1.42 ;&st7; " /><path d=" M   59.49,  342.29  C   61.99   342.29    64.02   340.27    64.02   337.76 " style="stroke-width: 1.42 ;&st7; " /><path d=" M   64.02,  346.83  C   64.02   344.32    61.99   342.29    59.49   342.29 " style="stroke-width: 1.42 ;&st7; " /><path d=" M   59.49,  342.29  C   56.99   342.29    54.96   344.32    54.96   346.83 " style="stroke-width: 1.42 ;&st7; " /><path d=" M   54.96,  346.83  C   54.96   349.33    56.99   351.36    59.49   351.36 " style="stroke-width: 1.42 ;&st7; " /><path d=" M   59.49,  351.36  C   61.99   351.36    64.02   349.33    64.02   346.83 " style="stroke-width: 1.42 ;&st7; " /><path d=" M  140.51,  337.76  C  140.51   335.26   138.48   333.23   135.98   333.23 " style="stroke-width: 1.42 ;&st7; " /><path d=" M  135.98,  333.23  C  133.47   333.23   131.44   335.26   131.44   337.76 " style="stroke-width: 1.42 ;&st7; " /><path d=" M  131.44,  337.76  C  131.44   340.27   133.47   342.29   135.98   342.29 " style="stroke-width: 1.42 ;&st7; " /><path d=" M  135.98,  342.29  C  138.48   342.29   140.51   340.27   140.51   337.76 " style="stroke-width: 1.42 ;&st7; " /><path d=" M  140.51,  346.83  C  140.51   344.32   138.48   342.29   135.98   342.29 " style="stroke-width: 1.42 ;&st7; " /><path d=" M  135.98,  342.29  C  133.47   342.29   131.44   344.32   131.44   346.83 " style="stroke-width: 1.42 ;&st7; " /><path d=" M  131.44,  346.83  C  131.44   349.33   133.47   351.36   135.98   351.36 " style="stroke-width: 1.42 ;&st7; " /><path d=" M  135.98,  351.36  C  138.48   351.36   140.51   349.33   140.51   346.83 " style="stroke-width: 1.42 ;&st7; " /><path d=" M  488.95,  617.65  C  488.95   615.15   486.92   613.12   484.42   613.12 " style="stroke-width: 1.42 ;&st7; " /><path d=" M  484.42,  613.12  C  481.92   613.12   479.89   615.15   479.89   617.65 " style="stroke-width: 1.42 ;&st7; " /><path d=" M  479.89,  617.65  C  479.89   620.15   481.92   622.18   484.42   622.18 " style="stroke-width: 1.42 ;&st7; " /><path d=" M  484.42,  622.18  C  486.92   622.18   488.95   620.15   488.95   617.65 " style="stroke-width: 1.42 ;&st7; " /><path d=" M  429.46,  617.65  C  429.46   615.15   427.43   613.12   424.93   613.12 " style="stroke-width: 1.42 ;&st7; " /><path d=" M  424.93,  613.12  C  422.43   613.12   420.40   615.15   420.40   617.65 " style="stroke-width: 1.42 ;&st7; " /><path d=" M  420.40,  617.65  C  420.40   620.15   422.43   622.18   424.93   622.18 " style="stroke-width: 1.42 ;&st7; " /><path d=" M  424.93,  622.18  C  427.43   622.18   429.46   620.15   429.46   617.65 " style="stroke-width: 1.42 ;&st7; " /><path d=" M  429.46,  608.58  C  429.46   606.08   427.43   604.05   424.93   604.05 " style="stroke-width: 1.42 ;&st7; " /><path d=" M  424.93,  604.05  C  422.43   604.05   420.40   606.08   420.40   608.58 " style="stroke-width: 1.42 ;&st7; " /><path d=" M  420.40,  608.58  C  420.40   611.09   422.43   613.12   424.93   613.12 " style="stroke-width: 1.42 ;&st7; " /><path d=" M  424.93,  613.12  C  427.43   613.12   429.46   611.09   429.46   608.58 " style="stroke-width: 1.42 ;&st7; " /><path d=" M  488.95,  608.58  C  488.95   606.08   486.92   604.05   484.42   604.05 " style="stroke-width: 1.42 ;&st7; " /><path d=" M  484.42,  604.05  C  481.92   604.05   479.89   606.08   479.89   608.58 " style="stroke-width: 1.42 ;&st7; " /><path d=" M  479.89,  608.58  C  479.89   611.09   481.92   613.12   484.42   613.12 " style="stroke-width: 1.42 ;&st7; " /><path d=" M  484.42,  613.12  C  486.92   613.12   488.95   611.09   488.95   608.58 " style="stroke-width: 1.42 ;&st7; " /><path d=" M   30.03,  464.67  C   30.03   462.17    28.00   460.14    25.50   460.14 " style="stroke-width: 1.42 ;&st7; " /><path d=" M   25.50,  460.14  C   22.99   460.14    20.96   462.17    20.96   464.67 " style="stroke-width: 1.42 ;&st7; " /><path d=" M   20.96,  464.67  C   20.96   467.18    22.99   469.21    25.50   469.21 " style="stroke-width: 1.42 ;&st7; " /><path d=" M   25.50,  469.21  C   28.00   469.21    30.03   467.18    30.03   464.67 " style="stroke-width: 1.42 ;&st7; " /><path d=" M   64.02,  464.67  C   64.02   462.17    61.99   460.14    59.49   460.14 " style="stroke-width: 1.42 ;&st7; " /><path d=" M   59.49,  460.14  C   56.99   460.14    54.96   462.17    54.96   464.67 " style="stroke-width: 1.42 ;&st7; " /><path d=" M   54.96,  464.67  C   54.96   467.18    56.99   469.21    59.49   469.21 " style="stroke-width: 1.42 ;&st7; " /><path d=" M   59.49,  469.21  C   61.99   469.21    64.02   467.18    64.02   464.67 " style="stroke-width: 1.42 ;&st7; " /><path d=" M  184.84,   99.52  C  184.84    97.17   182.94    95.27   180.59    95.27 " style="stroke-width: 1.42 ;&st7; " /><path d=" M  180.59,  103.77  C  182.94   103.77   184.84   101.87   184.84    99.52 " style="stroke-width: 1.42 ;&st7; " /><path d=" M  172.10,   99.52  C  172.10   101.87   174.00   103.77   176.35   103.77 " style="stroke-width: 1.42 ;&st7; " /><path d=" M  176.35,   95.27  C  174.00    95.27   172.10    97.17   172.10    99.52 " style="stroke-width: 1.42 ;&st7; " /><path d=" M  176.35,  163.26  C  174.00   163.26   172.10   165.16   172.10   167.51 " style="stroke-width: 1.42 ;&st7; " /><path d=" M  172.10,  167.51  C  172.10   169.85   174.00   171.76   176.35   171.76 " style="stroke-width: 1.42 ;&st7; " /><path d=" M  180.59,  171.76  C  182.94   171.76   184.84   169.85   184.84   167.51 " style="stroke-width: 1.42 ;&st7; " /><path d=" M  184.84,  167.51  C  184.84   165.16   182.94   163.26   180.59   163.26 " style="stroke-width: 1.42 ;&st7; " /><path d=" M  176.35,  205.75  C  174.00   205.75   172.10   207.65   172.10   210.00 " style="stroke-width: 1.42 ;&st7; " /><path d=" M  172.10,  210.00  C  172.10   212.35   174.00   214.25   176.35   214.25 " style="stroke-width: 1.42 ;&st7; " /><path d=" M  180.59,  214.25  C  182.94   214.25   184.84   212.35   184.84   210.00 " style="stroke-width: 1.42 ;&st7; " /><path d=" M  184.84,  210.00  C  184.84   207.65   182.94   205.75   180.59   205.75 " style="stroke-width: 1.42 ;&st7; " /><path d=" M  176.35,  469.21  C  174.00   469.21   172.10   471.11   172.10   473.46 " style="stroke-width: 1.42 ;&st7; " /><path d=" M  172.10,  473.46  C  172.10   475.80   174.00   477.71   176.35   477.71 " style="stroke-width: 1.42 ;&st7; " /><path d=" M  180.59,  477.71  C  182.94   477.71   184.84   475.80   184.84   473.46 " style="stroke-width: 1.42 ;&st7; " /><path d=" M  184.84,  473.46  C  184.84   471.11   182.94   469.21   180.59   469.21 " style="stroke-width: 1.42 ;&st7; " /><path d=" M  176.35,  511.70  C  174.00   511.70   172.10   513.60   172.10   515.95 " style="stroke-width: 1.42 ;&st7; " /><path d=" M  172.10,  515.95  C  172.10   518.30   174.00   520.20   176.35   520.20 " style="stroke-width: 1.42 ;&st7; " /><path d=" M  180.59,  520.20  C  182.94   520.20   184.84   518.30   184.84   515.95 " style="stroke-width: 1.42 ;&st7; " /><path d=" M  184.84,  515.95  C  184.84   513.60   182.94   511.70   180.59   511.70 " style="stroke-width: 1.42 ;&st7; " /><path d=" M  329.32,  367.22  C  326.97   367.22   325.07   369.13   325.07   371.47 " style="stroke-width: 1.42 ;&st7; " /><path d=" M  325.07,  371.47  C  325.07   373.82   326.97   375.72   329.32   375.72 " style="stroke-width: 1.42 ;&st7; " /><path d=" M  333.57,  375.72  C  335.92   375.72   337.82   373.82   337.82   371.47 " style="stroke-width: 1.42 ;&st7; " /><path d=" M  337.82,  371.47  C  337.82   369.13   335.92   367.22   333.57   367.22 " style="stroke-width: 1.42 ;&st7; " /><path d=" M  329.32,  409.72  C  326.97   409.72   325.07   411.62   325.07   413.97 " style="stroke-width: 1.42 ;&st7; " /><path d=" M  325.07,  413.97  C  325.07   416.31   326.97   418.22   329.32   418.22 " style="stroke-width: 1.42 ;&st7; " /><path d=" M  333.57,  418.22  C  335.92   418.22   337.82   416.31   337.82   413.97 " style="stroke-width: 1.42 ;&st7; " /><path d=" M  337.82,  413.97  C  337.82   411.62   335.92   409.72   333.57   409.72 " style="stroke-width: 1.42 ;&st7; " /><path d=" M  380.31,  409.72  C  377.96   409.72   376.06   411.62   376.06   413.97 " style="stroke-width: 1.42 ;&st7; " /><path d=" M  376.06,  413.97  C  376.06   416.31   377.96   418.22   380.31   418.22 " style="stroke-width: 1.42 ;&st7; " /><path d=" M  384.56,  418.22  C  386.91   418.22   388.81   416.31   388.81   413.97 " style="stroke-width: 1.42 ;&st7; " /><path d=" M  388.81,  413.97  C  388.81   411.62   386.91   409.72   384.56   409.72 " style="stroke-width: 1.42 ;&st7; " /><path d=" M  332.86,  506.03  C  332.86   505.25   332.23   504.62   331.44   504.62 " style="stroke-width: 0.85 ;&st7; " /><path d=" M  331.44,  504.62  C  330.66   504.62   330.03   505.25   330.03   506.03 " style="stroke-width: 0.85 ;&st7; " /><path d=" M  330.03,  506.03  C  330.03   506.82   330.66   507.45   331.44   507.45 " style="stroke-width: 0.85 ;&st7; " /><path d=" M  331.44,  507.45  C  332.23   507.45   332.86   506.82   332.86   506.03 " style="stroke-width: 0.85 ;&st7; " /><path d=" M  332.86,  483.37  C  332.86   482.59   332.23   481.95   331.44   481.95 " style="stroke-width: 0.85 ;&st7; " /><path d=" M  331.44,  481.95  C  330.66   481.95   330.03   482.59   330.03   483.37 " style="stroke-width: 0.85 ;&st7; " /><path d=" M  330.03,  483.37  C  330.03   484.15   330.66   484.79   331.44   484.79 " style="stroke-width: 0.85 ;&st7; " /><path d=" M  331.44,  484.79  C  332.23   484.79   332.86   484.15   332.86   483.37 " style="stroke-width: 0.85 ;&st7; " /><path d=" M  383.85,  506.03  C  383.85   505.25   383.22   504.62   382.44   504.62 " style="stroke-width: 0.85 ;&st7; " /><path d=" M  382.44,  504.62  C  381.65   504.62   381.02   505.25   381.02   506.03 " style="stroke-width: 0.85 ;&st7; " /><path d=" M  381.02,  506.03  C  381.02   506.82   381.65   507.45   382.44   507.45 " style="stroke-width: 0.85 ;&st7; " /><path d=" M  382.44,  507.45  C  383.22   507.45   383.85   506.82   383.85   506.03 " style="stroke-width: 0.85 ;&st7; " /><path d=" M  383.85,  483.37  C  383.85   482.59   383.22   481.95   382.44   481.95 " style="stroke-width: 0.85 ;&st7; " /><path d=" M  382.44,  481.95  C  381.65   481.95   381.02   482.59   381.02   483.37 " style="stroke-width: 0.85 ;&st7; " /><path d=" M  381.02,  483.37  C  381.02   484.15   381.65   484.79   382.44   484.79 " style="stroke-width: 0.85 ;&st7; " /><path d=" M  382.44,  484.79  C  383.22   484.79   383.85   484.15   383.85   483.37 " style="stroke-width: 0.85 ;&st7; " /><path d=" M  329.32,  571.19  C  326.97   571.19   325.07   573.09   325.07   575.44 " style="stroke-width: 1.42 ;&st7; " /><path d=" M  325.07,  575.44  C  325.07   577.79   326.97   579.69   329.32   579.69 " style="stroke-width: 1.42 ;&st7; " /><path d=" M  333.57,  579.69  C  335.92   579.69   337.82   577.79   337.82   575.44 " style="stroke-width: 1.42 ;&st7; " /><path d=" M  337.82,  575.44  C  337.82   573.09   335.92   571.19   333.57   571.19 " style="stroke-width: 1.42 ;&st7; " /><path d=" M  329.32,  613.68  C  326.97   613.68   325.07   615.59   325.07   617.93 " style="stroke-width: 1.42 ;&st7; " /><path d=" M  325.07,  617.93  C  325.07   620.28   326.97   622.18   329.32   622.18 " style="stroke-width: 1.42 ;&st7; " /><path d=" M  333.57,  622.18  C  335.92   622.18   337.82   620.28   337.82   617.93 " style="stroke-width: 1.42 ;&st7; " /><path d=" M  337.82,  617.93  C  337.82   615.59   335.92   613.68   333.57   613.68 " style="stroke-width: 1.42 ;&st7; " /><path d=" M  380.31,  571.19  C  377.96   571.19   376.06   573.09   376.06   575.44 " style="stroke-width: 1.42 ;&st7; " /><path d=" M  376.06,  575.44  C  376.06   577.79   377.96   579.69   380.31   579.69 " style="stroke-width: 1.42 ;&st7; " /><path d=" M  384.56,  579.69  C  386.91   579.69   388.81   577.79   388.81   575.44 " style="stroke-width: 1.42 ;&st7; " /><path d=" M  388.81,  575.44  C  388.81   573.09   386.91   571.19   384.56   571.19 " style="stroke-width: 1.42 ;&st7; " /><path d=" M  269.83,  613.68  C  267.48   613.68   265.58   615.59   265.58   617.93 " style="stroke-width: 1.42 ;&st7; " /><path d=" M  265.58,  617.93  C  265.58   620.28   267.48   622.18   269.83   622.18 " style="stroke-width: 1.42 ;&st7; " /><path d=" M  274.08,  622.18  C  276.43   622.18   278.33   620.28   278.33   617.93 " style="stroke-width: 1.42 ;&st7; " /><path d=" M  278.33,  617.93  C  278.33   615.59   276.43   613.68   274.08   613.68 " style="stroke-width: 1.42 ;&st7; " /><path d=" M  269.83,  647.68  C  267.48   647.68   265.58   649.58   265.58   651.93 " style="stroke-width: 1.42 ;&st7; " /><path d=" M  265.58,  651.93  C  265.58   654.27   267.48   656.18   269.83   656.18 " style="stroke-width: 1.42 ;&st7; " /><path d=" M  274.08,  656.18  C  276.43   656.18   278.33   654.27   278.33   651.93 " style="stroke-width: 1.42 ;&st7; " /><path d=" M  278.33,  651.93  C  278.33   649.58   276.43   647.68   274.08   647.68 " style="stroke-width: 1.42 ;&st7; " /><path d=" M  482.29,  409.72  C  479.95   409.72   478.05   411.62   478.05   413.97 " style="stroke-width: 1.42 ;&st7; " /><path d=" M  478.05,  413.97  C  478.05   416.31   479.95   418.22   482.29   418.22 " style="stroke-width: 1.42 ;&st7; " /><path d=" M  486.54,  418.22  C  488.89   418.22   490.79   416.31   490.79   413.97 " style="stroke-width: 1.42 ;&st7; " /><path d=" M  490.79,  413.97  C  490.79   411.62   488.89   409.72   486.54   409.72 " style="stroke-width: 1.42 ;&st7; " /><path d=" M  482.29,  443.71  C  479.95   443.71   478.05   445.61   478.05   447.96 " style="stroke-width: 1.42 ;&st7; " /><path d=" M  478.05,  447.96  C  478.05   450.31   479.95   452.21   482.29   452.21 " style="stroke-width: 1.42 ;&st7; " /><path d=" M  486.54,  452.21  C  488.89   452.21   490.79   450.31   490.79   447.96 " style="stroke-width: 1.42 ;&st7; " /><path d=" M  490.79,  447.96  C  490.79   445.61   488.89   443.71   486.54   443.71 " style="stroke-width: 1.42 ;&st7; " /><path d=" M  482.29,  494.70  C  479.95   494.70   478.05   496.61   478.05   498.95 " style="stroke-width: 1.42 ;&st7; " /><path d=" M  478.05,  498.95  C  478.05   501.30   479.95   503.20   482.29   503.20 " style="stroke-width: 1.42 ;&st7; " /><text style="&st18;" transform="matrix(&st16;  215.3  417.91 )">LP</text><text style="&st18;" transform="matrix(&st16;  201.71  406.03 )">35</text><text style="&st18;" transform="matrix(&st16;  205.68  460.4 )">7</text><text style="&st18;" transform="matrix(&st16;  215.3  448.52 )">E1</text><text style="&st18;" transform="matrix(&st16;  198.43  551.91 )">1</text><text style="&st18;" transform="matrix(&st17;  208.77  502.4 )">W-B</text><text style="&st18;" transform="matrix(&st17;  220.1  500.88 )">(*3)</text><text style="&st18;" transform="matrix(&st17;  208.77  638.38 )">W-B</text><text style="&st18;" transform="matrix(&st17;  220.1  636.86 )">(*3)</text><text style="&st18;" transform="matrix(&st17;  234.27  561.89 )">W-B</text><text style="&st18;" transform="matrix(&st17;  245.6  560.37 )">(*4)</text><text style="&st18;" transform="matrix(&st16;  327.14  373.44 )">6B</text><text style="&st18;" transform="matrix(&st16;  318.75  373.44 )">4</text><text style="&st18;" transform="matrix(&st16;  327.14  415.94 )">6B</text><text style="&st18;" transform="matrix(&st16;  318.75  415.94 )">2</text><text style="&st18;" transform="matrix(&st16;  378.13  415.94 )">6B</text><text style="&st18;" transform="matrix(&st16;  369.75  415.94 )">3</text><text style="&st18;" transform="matrix(&st16;  327.35  577.41 )">6F</text><text style="&st18;" transform="matrix(&st16;  315.58  577.41 )">16</text><text style="&st18;" transform="matrix(&st16;  327.35  619.9 )">6F</text><text style="&st18;" transform="matrix(&st16;  315.58  619.9 )">10</text><text style="&st18;" transform="matrix(&st16;  378.34  577.41 )">6F</text><text style="&st18;" transform="matrix(&st16;  366.57  577.41 )">17</text><text style="&st18;" transform="matrix(&st17;  327.75  441.89 )">Y-B</text><text style="&st18;" transform="matrix(&st17;  339.08  443.02 )">(A/T)</text><text style="&st18;" transform="matrix(&st17;  378.74  437.54 )">Y</text><text style="&st18;" transform="matrix(&st17;  390.07  443.58 )">(M/T)</text><text style="&st18;" transform="matrix(&st17;  378.74  561.89 )">W-B</text><text style="&st18;" transform="matrix(&st17;  390.07  562.56 )">(M/T)</text><text style="&st18;" transform="matrix(&st17;  327.75  561.89 )">W-B</text><text style="&st18;" transform="matrix(&st17;  339.08  562.0 )">(A/T)</text><text style="&st18;" transform="matrix(&st16;  267.86  619.9 )">6F</text><text style="&st18;" transform="matrix(&st16;  259.26  619.9 )">9</text><text style="&st18;" transform="matrix(&st16;  267.86  653.9 )">6F</text><text style="&st18;" transform="matrix(&st16;  260.04  653.9 )">1</text><text style="&st18;" transform="matrix(&st17;  268.26  608.63 )">W-B</text><text style="&st18;" transform="matrix(&st17;  268.26  676.62 )">W-B</text><text ewd:textID="15" style="&st18;" transform="matrix(&st17;  313.3  514.22 )">Unlock <tspan dy="6" x="0">Warning SW</tspan></text><text style="&st18;" transform="matrix(&st17;  306.19  514.22 )">H26</text><text style="&st18;" transform="matrix(&st16;  479.97  415.94 )">6D</text><text style="&st18;" transform="matrix(&st16;  468.55  415.94 )">18</text><text style="&st18;" transform="matrix(&st16;  479.97  449.93 )">6D</text><text style="&st18;" transform="matrix(&st16;  468.55  449.93 )">13</text><text style="&st18;" transform="matrix(&st16;  479.97  500.92 )">5D</text><text style="&st18;" transform="matrix(&st16;  471.73  500.92 )">7</text><text style="&st18;" transform="matrix(&st16;  480.11  534.92 )">5E</text><text style="&st18;" transform="matrix(&st16;  467.77  534.92 )">27</text><text style="&st18;" transform="matrix(&st17;  421.23  578.43 )">R-G</text><text style="&st18;" transform="matrix(&st17;  432.57  580.44 )">(LHD)</text><text style="&st18;" transform="matrix(&st17;  480.72  577.65 )">R-L</text><text style="&st18;" transform="matrix(&st17;  492.06  580.94 )">(RHD)</text><text style="&st18;" transform="matrix(&st17;  480.72  480.7 )">R-G</text><text style="&st18;" transform="matrix(&st16;  6.73  398.94 )">52</text><text style="&st18;" transform="matrix(&st16;  41.5  398.94 )">15</text><text style="&st18;" transform="matrix(&st16;  18.86  476.84 )">IMO</text><text style="&st18;" transform="matrix(&st16;  54.62  476.84 )">IMI</text><text style="&st18;" transform="matrix(&st17;  55.8  442.91 )">B-W</text><text style="&st18;" transform="matrix(&st17;  21.8  443.05 )">W-R</text><text ewd:textID="10" style="&st18;" transform="matrix(&st16;  14.47  517.92 )">Engine ECU</text><text style="&st18;" transform="matrix(&st16;  14.47  510.81 )">B7(B)</text><text style="&st18;" transform="matrix(&st16;  42.8  56.17 )">15A <tspan dy="6" x="0">IGN</tspan></text><text style="&st18;" transform="matrix(&st16;  19.42  32.08 )">(IG)</text><text style="&st18;" transform="matrix(&st16;  13.58  101.49 )">1</text><text style="&st18;" transform="matrix(&st17;  21.8  144.58 )">B-R</text><text style="&st18;" transform="matrix(&st16;  21.05  160.98 )">6C</text><text style="&st18;" transform="matrix(&st16;  10.4  160.98 )">11</text><text style="&st18;" transform="matrix(&st16;  21.05  203.47 )">6C</text><text style="&st18;" transform="matrix(&st16;  9.63  203.47 )">13</text><text style="&st18;" transform="matrix(&st16;  21.75  289.87 )">IG</text><text style="&st18;" transform="matrix(&st17;  21.8  238.06 )">B-R</text><text style="&st18;" transform="matrix(&st17;  152.09  446.24 )">H46</text><text ewd:textID="11" style="&st18;" transform="matrix(&st17;  159.19  446.24 )">Junction <tspan dy="6" x="-0.01">Connector</tspan></text><text style="&st18;" transform="matrix(&st16;  128.28  329.53 )">GND</text><text style="&st18;" transform="matrix(&st17;  132.28  391.92 )">W-B</text><text style="&st18;" transform="matrix(&st16;  129.97  451.9 )">1</text><text style="&st18;" transform="matrix(&st16;  129.19  423.02 )">2</text><text style="&st18;" transform="matrix(&st16;  131.53  543.41 )">5C</text><text style="&st18;" transform="matrix(&st16;  124.06  543.41 )">1</text><text style="&st18;" transform="matrix(&st16;  131.67  585.91 )">5E</text><text style="&st18;" transform="matrix(&st16;  120.11  585.91 )">12</text><text style="&st18;" transform="matrix(&st17;  132.28  493.9 )">W-B</text><text style="&st18;" transform="matrix(&st17;  132.28  629.88 )">W-B</text><text style="&st18;" transform="matrix(&st16;  21.05  101.49 )">5D</text><text ewd:textID="1" style="&st18;" transform="matrix(&st16;  277.93  37.75 )">* 1 :RHD From Sep. 2007 Production</text><text style="&st18;" transform="matrix(&st16;  97.53  415.94 )">6C</text><text style="&st18;" transform="matrix(&st16;  86.11  415.94 )">12</text><text style="&st18;" transform="matrix(&st16;  97.53  458.43 )">6C</text><text style="&st18;" transform="matrix(&st16;  86.89  458.43 )">11</text><text ewd:textID="2" style="&st18;" transform="matrix(&st16;  277.93  46.25 )">* 2 :Except *1</text><text style="&st18;" transform="matrix(&st17;  143.61  390.4 )">(*2)</text><text style="&st18;" transform="matrix(&st17;  143.61  492.39 )">(*2)</text><text style="&st18;" transform="matrix(&st17;  98.29  391.92 )">W-B</text><text style="&st18;" transform="matrix(&st17;  109.62  390.01 )">(*1)</text><text style="&st18;" transform="matrix(&st17;  98.29  493.9 )">W-B</text><text style="&st18;" transform="matrix(&st17;  109.62  492.0 )">(*1)</text><text style="&st18;" transform="matrix(&st17;  84.1  191.28 )">H46</text><text ewd:textID="11" style="&st18;" transform="matrix(&st17;  91.2  191.28 )">Junction <tspan dy="6" x="0">Connector</tspan></text><text style="&st18;" transform="matrix(&st16;  61.2  196.95 )">3</text><text style="&st18;" transform="matrix(&st16;  61.98  168.07 )">1</text><text style="&st18;" transform="matrix(&st17;  33.13  143.94 )">(*2)</text><text style="&st18;" transform="matrix(&st17;  33.13  237.43 )">(*2)</text><text style="&st18;" transform="matrix(&st17;  64.29  144.58 )">B-R</text><text style="&st18;" transform="matrix(&st17;  75.62  143.55 )">(*1)</text><text style="&st18;" transform="matrix(&st17;  64.29  238.06 )">B-R</text><text style="&st18;" transform="matrix(&st17;  75.62  237.04 )">(*1)</text><text ewd:textID="3" style="&st18;" transform="matrix(&st16;  277.93  54.75 )">* 3 :Before Oct. 2006 Production, RHD From Oct. 2006 <tspan dy="8.49" x="14.16">Production until Apr. 2009 Production</tspan></text><text ewd:textID="4" style="&st18;" transform="matrix(&st16;  277.93  71.74 )">* 4 :LHD From Oct.2006 Production, <tspan dy="8.5" x="14.16">RHD From Apr. 2009 Production</tspan></text><text style="&st18;" transform="matrix(&st16;  14.62  279.67 )">2</text><text style="&st18;" transform="matrix(&st17;  237.07  454.73 )">H20</text><text ewd:textID="8" style="&st18;" transform="matrix(&st17;  406.79  658.7 )">Door Courtesy SW <tspan dy="6" x="0">(Front LH)</tspan></text><text style="&st18;" transform="matrix(&st17;  399.68  658.7 )">B22(A),B56(B)</text><text ewd:textID="9" style="&st18;" transform="matrix(&st17;  466.28  658.7 )">Door Courtesy SW <tspan dy="6" x="0">(Front RH)</tspan></text><text style="&st18;" transform="matrix(&st17;  459.17  658.7 )">B26(A),B57(B)</text><text ewd:textID="15" style="&st18;" transform="matrix(&st16;  394.08  495.26 )">Unlock <tspan dy="6" x="0">Warning SW</tspan></text><text style="&st18;" transform="matrix(&st16;  394.08  488.15 )">H27</text><text style="&st18;" transform="matrix(&st16;  490.39  619.62 )">(*6)</text><text style="&st18;" transform="matrix(&st16;  482.09  619.62 )">B</text><text style="&st18;" transform="matrix(&st16;  474.32  619.62 )">1</text><text style="&st18;" transform="matrix(&st16;  430.9  619.62 )">(*6)</text><text style="&st18;" transform="matrix(&st16;  422.6  619.62 )">B</text><text style="&st18;" transform="matrix(&st16;  414.83  619.62 )">1</text><text style="&st18;" transform="matrix(&st16;  430.9  610.55 )">(*5)</text><text style="&st18;" transform="matrix(&st16;  422.6  610.55 )">A</text><text style="&st18;" transform="matrix(&st16;  414.83  610.55 )">1</text><text style="&st18;" transform="matrix(&st16;  490.39  610.55 )">(*5)</text><text style="&st18;" transform="matrix(&st16;  482.09  610.55 )">A</text><text style="&st18;" transform="matrix(&st16;  474.32  610.55 )">1</text><text style="&st18;" transform="matrix(&st16;  376.42  519.89 )">1</text><text style="&st18;" transform="matrix(&st16;  325.43  519.89 )">1</text><text style="&st18;" transform="matrix(&st16;  375.65  474.02 )">2</text><text style="&st18;" transform="matrix(&st16;  324.66  474.02 )">2</text><text style="&st18;" transform="matrix(&st16;  23.16  279.67 )">B</text><text style="&st18;" transform="matrix(&st16;  14.62  270.61 )">2</text><text style="&st18;" transform="matrix(&st16;  23.16  270.61 )">A</text><text style="&st18;" transform="matrix(&st16;  168.37  279.67 )">1</text><text style="&st18;" transform="matrix(&st16;  176.14  279.67 )">B</text><text style="&st18;" transform="matrix(&st16;  168.37  270.61 )">1</text><text style="&st18;" transform="matrix(&st16;  176.14  270.61 )">A</text><text style="&st18;" transform="matrix(&st16;  431.05  279.67 )">4</text><text style="&st18;" transform="matrix(&st16;  439.59  279.67 )">B</text><text style="&st18;" transform="matrix(&st16;  431.05  270.61 )">4</text><text style="&st18;" transform="matrix(&st16;  439.59  270.61 )">A</text><text style="&st18;" transform="matrix(&st16;  490.39  279.67 )">(*6)</text><text style="&st18;" transform="matrix(&st16;  473.54  279.67 )">5</text><text style="&st18;" transform="matrix(&st16;  482.09  279.67 )">B</text><text style="&st18;" transform="matrix(&st16;  490.39  270.61 )">(*5)</text><text style="&st18;" transform="matrix(&st16;  473.54  270.61 )">5</text><text style="&st18;" transform="matrix(&st16;  482.09  270.61 )">A</text><text style="&st18;" transform="matrix(&st16;  490.39  339.73 )">(*5)</text><text style="&st18;" transform="matrix(&st16;  473.54  339.73 )">7</text><text style="&st18;" transform="matrix(&st16;  482.09  339.73 )">A</text><text style="&st18;" transform="matrix(&st16;  490.39  348.8 )">(*6)</text><text style="&st18;" transform="matrix(&st16;  473.54  348.8 )">7</text><text style="&st18;" transform="matrix(&st16;  482.09  348.8 )">B</text><text style="&st18;" transform="matrix(&st16;  320.57  339.73 )">3</text><text style="&st18;" transform="matrix(&st16;  329.11  339.73 )">A</text><text style="&st18;" transform="matrix(&st16;  320.57  348.8 )">3</text><text style="&st18;" transform="matrix(&st16;  329.11  348.8 )">B</text><text style="&st18;" transform="matrix(&st16;  201.59  339.73 )">8</text><text style="&st18;" transform="matrix(&st16;  210.13  339.73 )">A</text><text style="&st18;" transform="matrix(&st16;  201.59  348.8 )">8</text><text style="&st18;" transform="matrix(&st16;  210.13  348.8 )">B</text><text style="&st18;" transform="matrix(&st16;  167.59  339.73 )">9</text><text style="&st18;" transform="matrix(&st16;  176.14  339.73 )">A</text><text style="&st18;" transform="matrix(&st16;  167.59  348.8 )">9</text><text style="&st18;" transform="matrix(&st16;  176.14  348.8 )">B</text><text style="&st18;" transform="matrix(&st16;  354.61  279.67 )">B</text><text style="&st18;" transform="matrix(&st16;  342.88  279.67 )">14</text><text style="&st18;" transform="matrix(&st16;  354.61  270.61 )">A</text><text style="&st18;" transform="matrix(&st16;  342.88  270.61 )">14</text><text style="&st18;" transform="matrix(&st16;  397.1  279.67 )">B</text><text style="&st18;" transform="matrix(&st16;  385.38  279.67 )">15</text><text style="&st18;" transform="matrix(&st16;  397.1  270.61 )">A</text><text style="&st18;" transform="matrix(&st16;  385.38  270.61 )">15</text><text style="&st18;" transform="matrix(&st16;  23.16  339.73 )">A</text><text style="&st18;" transform="matrix(&st16;  11.44  339.73 )">12</text><text style="&st18;" transform="matrix(&st16;  23.16  348.8 )">B</text><text style="&st18;" transform="matrix(&st16;  11.44  348.8 )">12</text><text style="&st18;" transform="matrix(&st16;  57.16  339.73 )">A</text><text style="&st18;" transform="matrix(&st16;  45.43  339.73 )">13</text><text style="&st18;" transform="matrix(&st16;  57.16  348.8 )">B</text><text style="&st18;" transform="matrix(&st16;  45.43  348.8 )">13</text><text style="&st18;" transform="matrix(&st16;  133.65  339.73 )">A</text><text style="&st18;" transform="matrix(&st16;  121.92  339.73 )">16</text><text style="&st18;" transform="matrix(&st16;  133.65  348.8 )">B</text><text style="&st18;" transform="matrix(&st16;  121.92  348.8 )">16</text><text ewd:textID="6" style="&st18;" transform="matrix(&st16;  277.93  97.24 )">* 6 :From Aug. 2010 Production</text><text ewd:textID="5" style="&st18;" transform="matrix(&st16;  277.93  88.74 )">* 5 :Before Aug. 2010 Production</text><text ewd:textID="7" style="&st18;" transform="matrix(&st17;  244.18  454.73 )">Combination Meter</text><text style="&st18;" transform="matrix(&st16;  11.44  466.64 )">15</text><text style="&st18;" transform="matrix(&st16;  23.16  466.64 )">B</text><text style="&st18;" transform="matrix(&st16;  45.43  466.64 )">16</text><text style="&st18;" transform="matrix(&st16;  57.16  466.64 )">B</text><text ewd:textID="14" style="&st18;" transform="matrix(&st16;  209.94  313.95 )">Transponder Key ECU</text><text style="&st18;" transform="matrix(&st16;  209.94  306.85 )">H44(A),H60(B)</text><text style="&st18;" transform="matrix(&st16;  169.36  32.08 )">(BAT)</text><text style="&st18;" transform="matrix(&st17;  174.78  145.6 )">W-R</text><text style="&st18;" transform="matrix(&st16;  176.49  101.49 )">2</text><text style="&st18;" transform="matrix(&st16;  195.78  56.17 )">10A <tspan dy="6" x="0">ECU-B</tspan></text><text style="&st18;" transform="matrix(&st16;  171.68  86.47 )">2</text><text style="&st18;" transform="matrix(&st16;  174.16  169.48 )">5E</text><text style="&st18;" transform="matrix(&st16;  162.6  169.48 )">17</text><text style="&st18;" transform="matrix(&st16;  174.16  211.97 )">5S</text><text style="&st18;" transform="matrix(&st16;  165.78  211.97 )">2</text><text style="&st18;" transform="matrix(&st16;  174.13  289.87 )">+B</text><text style="&st18;" transform="matrix(&st17;  174.78  256.08 )">W-R</text><text style="&st18;" transform="matrix(&st16;  350.16  289.87 )">VC5</text><text style="&st18;" transform="matrix(&st16;  389.4  289.87 )">CODE</text><text style="&st18;" transform="matrix(&st16;  432.88  289.87 )">TXCT</text><text style="&st18;" transform="matrix(&st16;  474.39  289.87 )">AGND</text><text style="&st18;" transform="matrix(&st16;  350.93  171.45 )">1</text><text style="&st18;" transform="matrix(&st16;  392.64  171.45 )">4</text><text style="&st18;" transform="matrix(&st16;  435.14  171.45 )">5</text><text style="&st18;" transform="matrix(&st16;  477.63  171.45 )">7</text><text style="&st18;" transform="matrix(&st16;  474.39  159.56 )">AGND</text><text style="&st18;" transform="matrix(&st16;  432.88  159.56 )">TXCT</text><text style="&st18;" transform="matrix(&st16;  389.4  159.56 )">CODE</text><text style="&st18;" transform="matrix(&st16;  350.16  159.56 )">VC5</text><text style="&st18;" transform="matrix(&st17;  353.24  225.08 )">V</text><text style="&st18;" transform="matrix(&st17;  395.74  224.73 )">L</text><text style="&st18;" transform="matrix(&st17;  438.23  225.08 )">Y</text><text style="&st18;" transform="matrix(&st17;  480.72  227.98 )">GR</text><text ewd:textID="13" style="&st18;" transform="matrix(&st16;  362.91  143.98 )">Transponder Key Amplifier</text><text style="&st18;" transform="matrix(&st16;  362.91  136.87 )">H43</text><text style="&st18;" transform="matrix(&st16;  51.3  329.53 )">EFIO</text><text style="&st18;" transform="matrix(&st16;  19.07  329.53 )">EFII</text><text style="&st18;" transform="matrix(&st17;  55.8  374.92 )">B-W</text><text style="&st18;" transform="matrix(&st17;  21.8  375.07 )">W-R</text><text style="&st18;" transform="matrix(&st16;  176.0  329.53 )">D</text><text style="&st18;" transform="matrix(&st17;  174.77  370.58 )">W</text><text style="&st18;" transform="matrix(&st16;  206.53  329.53 )">IND</text><text style="&st18;" transform="matrix(&st17;  208.77  369.7 )">R</text><text style="&st18;" transform="matrix(&st16;  323.43  329.53 )">KSW</text><text style="&st18;" transform="matrix(&st17;  327.75  361.06 )">Y</text><text style="&st18;" transform="matrix(&st16;  477.5  329.53 )">CTY</text><text style="&st18;" transform="matrix(&st17;  480.72  374.46 )">R-G</text><text style="&st18;" transform="matrix(&st16;  174.02  475.43 )">6C</text><text style="&st18;" transform="matrix(&st16;  162.6  475.43 )">19</text><text style="&st18;" transform="matrix(&st16;  174.02  517.92 )">6C</text><text style="&st18;" transform="matrix(&st16;  162.6  517.92 )">17</text><text style="&st18;" transform="matrix(&st16;  171.68  584.5 )">7</text><text style="&st18;" transform="matrix(&st16;  173.17  595.82 )">SIL</text><text style="&st18;" transform="matrix(&st16;  158.95  636.9 )">DLC3</text><text style="&st18;" transform="matrix(&st16;  158.95  629.79 )">H23</text><text style="&st18;" transform="matrix(&st17;  174.77  557.55 )">W</text><text ewd:textID="12" style="&st18;" transform="matrix(&st17;  204.52  443.75 )">Security</text></svg>