﻿<?xml version="1.0" encoding="UTF-8"?>
<!DOCTYPE svg PUBLIC "-//W3C//DTD SVG 1.0//EN" "http://www.w3.org/TR/2001/REC-SVG-20010904/DTD/svg10.dtd"[
	<!ENTITY ns_flows "http://ns.adobe.com/Flows/1.0/">
	<!ENTITY ns_svg "http://www.w3.org/2000/svg">
	<!ENTITY ns_xlink "http://www.w3.org/1999/xlink">
	<!ENTITY st0 "font-size:7px;font-family:'MS-PGothic';adobe-font-script:japanese;">
	<!ENTITY st1 "font-size:6px;font-family:'ArialMT';">
	<!-- White fill  -->
	<!ENTITY st2 "fill:#FFFFFF;stroke:#000000; stroke-width:1.41;stroke-linecap:round;stroke-linejoin:round;">
	<!-- Yellow fill  -->
	<!ENTITY st3 "fill:#FFFFCC;stroke:#FFFFCC; stroke-width:0.1;stroke-linecap:round;stroke-linejoin:round;">
	<!-- Gray fill  -->
	<!ENTITY st4 "fill:#CCCCCC;stroke:#CCCCCC; stroke-width:0.1;stroke-linecap:round;stroke-linejoin:round;">
	<!-- Light-blue fill -->
	<!ENTITY st5 "fill:#CCECF4;stroke:#000000; stroke-width:1.133;stroke-linecap:round;stroke-linejoin:round;">
	<!ENTITY st6 "fill:none;stroke-linecap:butt; stroke-linejoin:round;">
	<!ENTITY st7 "fill:none;stroke:#000000;stroke-linecap:round;stroke-linejoin:round;">
	<!ENTITY st8 "enable-background:new    ;">
	<!-- Black fill -->
	<!ENTITY st9 "fill:#000000;stroke:#000000; stroke-linecap:round;stroke-linejoin:round;">
	<!-- SRS note   -->
	<!ENTITY st10 "font-size:9px;font-family:'ArialMT';">
	<!ENTITY st11 "font-size:9px;font-family:'Svg Symbol';">
	<!ENTITY st12 "font-size:6px;font-family:'Svg Symbol';">
	<!ENTITY st13 "fill:none;stroke:#ff0000;stroke-linecap:round;stroke-linejoin:round;">
	<!-- Yellow fill  -->
	<!ENTITY st14 "fill:#FFFF00;stroke:#FFFF00; stroke-width:0.1;stroke-linecap:round;stroke-linejoin:round;">
	<!ENTITY st15 "font-size:6px;font-family:'MS-PGothic';adobe-font-script:japanese;">
	<!ENTITY st16 "1.00 0.00 0.00 1.00">
	<!ENTITY st17 "0.00 -1.00 1.00 0.00">
	<!ENTITY st18 "font-size:6px;font-family:'Arial';">
	<!ENTITY st19 "font-size:9px;font-family:'Arial';">
	<!ENTITY st20 "font-size:6px;font-family:'MS-PGothic','MS PGothic';adobe-font-script:japanese;">
	<!ENTITY st21 "font-size:7px;font-family:'MS-PGothic','MS PGothic';adobe-font-script:japanese;">
	<!ATTLIST svg
		xmlns:ewd CDATA #FIXED "http://shcl.co.jp/ewd"
		xmlns:a CDATA #FIXED "http://ns.adobe.com/AdobeSVGViewerExtensions/3.0/"
		ewd:ver CDATA #IMPLIED
	>
	<!ATTLIST a
		ewd:lineID CDATA #IMPLIED
		ewd:groupID CDATA #IMPLIED
		ewd:figtype CDATA #IMPLIED
		ewd:code CDATA #IMPLIED
		ewd:figID CDATA #IMPLIED
		ewd:pinNo CDATA #IMPLIED
		ewd:comment CDATA #IMPLIED >
	<!ATTLIST g
		ewd:lineID CDATA #IMPLIED
		ewd:groupID CDATA #IMPLIED
		ewd:figtype CDATA #IMPLIED
		ewd:code CDATA #IMPLIED
		ewd:figID CDATA #IMPLIED
		ewd:pinNo CDATA #IMPLIED
		ewd:comment CDATA #IMPLIED >
	<!ATTLIST text
		ewd:textID CDATA #IMPLIED >
	<!ATTLIST title
		ewd:textID CDATA #IMPLIED >
]>
<!-- Generator: Shintec Hozumi YS   -->
<svg onload="call_execInitLoadProc_svg('system')" style="overflow:visible;  enable-background:new 0 0 505.228 710.000" viewBox="0 0 505.228 710.000" height="710.000" width="505.228" xml:space="preserve" ewd:ver="L2.1.2.5" xmlns="&ns_svg;" xmlns:a="http://ns.adobe.com/AdobeSVGViewerExtensions/3.0/" xmlns:ewd="http://shcl.co.jp/ewd" xmlns:xlink="&ns_xlink;">
	<script type="text/javascript" xlink:href="../../../../../system/js/ewd/fig/svgfig.js"/>
	<defs>
		<font horiz-adv-x="1229">
			<font-face font-family="Svg Symbol" units-per-em="2048" panose-1="5 5 1 2 1 7 6 2 5 7" ascent="2059" descent="450" alphabetic="0"/>
			<missing-glyph d="M 103,0 l 0,1280 1024,0 0,-1280 -1024,0 z m 32,32 l 960,0 0,1216 -960,0 0,-1216 z"/>
			<glyph unicode="&#xF057;" horiz-adv-x="1573" d="M 1517,0 l -567,0 24,279 q 141,59 207.5,168 66.5,109 66.5,306    0,272 -132.5,417.5 -132.5,145.5 -333.5,145.5 -194,0 -328,-147.5 -134,-147.5 -134,-401.5 0,-200 68.5,-319 68.5,-119     206.5,-169 l 25,-279 -564,0 0,279 35,0 q 3,-61 32,-83 45,-35 137,-35 l 270,0 0,70 q -210,61 -324.5,209 -114.5,148     -114.5,349 0,252 186.5,425 186.5,173 504.5,173 195,0 358.5,-73.5 163.5,-73.5 252,-214.5 88.5,-141 88.5,-310 0,-207     -121.5,-360.5 -121.5,-153.5 -317.5,-197.5 l -8,-70 275,0 q 92,0 128,28 36,28 42,90 l 38,0 0,-279 z"/>
		</font>
	</defs>
<g id="ewd_top">
	<a ewd:code="H43" ewd:figID="1" ewd:figtype="conn" style="cursor:pointer;">
		<path d=" M  195.47,  112.27  L  195.47,  154.76  L  365.44,  154.76  L  365.44,  112.27  L  195.47,  112.27 " style="&st5;"/>
		<title ewd:textID="14">Transponder Key Amplifier</title>
	</a>
	<a ewd:code="B26,B57" ewd:figID="2" ewd:figtype="conn" style="cursor:pointer;">
		<path d=" M  492.92,  656.18  L  492.92,  622.18  L  475.92,  622.18  L  475.92,  656.18  L  492.92,  656.18 " style="&st5;"/>
		<title ewd:textID="10">Door Courtesy SW (Front RH)</title>
	</a>
	<a ewd:code="H46" ewd:figID="3" ewd:figtype="conn" style="cursor:pointer;">
		<path d=" M   59.49,  171.76  L   76.49,  171.76  L   76.49,  188.75  L   59.49,  188.75  L   59.49,  171.76 " style="&st5;"/>
		<title ewd:textID="12">Junction Connector</title>
	</a>
	<a ewd:code="FUSE20" ewd:figID="4" ewd:figtype="rb" style="cursor:pointer;">
		<path d=" M  140.23,   35.78  L  140.23,   78.27  L  165.72,   78.27  L  165.72,   35.78  L  140.23,   35.78 " style="&st5;"/>
	</a>
	<a ewd:code="B47-I,B7-B" ewd:figID="5" ewd:figtype="conn" style="cursor:pointer;">
		<path d=" M    8.50,  469.21  L   76.49,  469.21  L   76.49,  503.20  L    8.50,  503.20  L    8.50,  469.21 " style="&st5;"/>
		<title ewd:textID="11">Engine ECU</title>
	</a>
	<a ewd:code="H44,H60" ewd:figID="6" ewd:figtype="conn" style="cursor:pointer;">
		<path d=" M    8.50,  282.24  L    8.50,  333.23  L  501.42,  333.23  L  501.42,  282.24  L    8.50,  282.24 " style="&st5;"/>
		<title ewd:textID="15">Transponder Key ECU</title>
	</a>
	<a ewd:code="H46" ewd:figID="7" ewd:figtype="conn" style="cursor:pointer;">
		<path d=" M  144.48,  426.71  L  161.47,  426.71  L  161.47,  443.71  L  144.48,  443.71  L  144.48,  426.71 " style="&st5;"/>
		<title ewd:textID="12">Junction Connector</title>
	</a>
	<a ewd:code="H23" ewd:figID="8" ewd:figtype="conn" style="cursor:pointer;">
		<path d=" M  195.47,  571.19  L  195.47,  605.18  L  229.46,  605.18  L  229.46,  571.19  L  195.47,  571.19 " style="&st5;"/>
		<title>DLC3</title>
	</a>
	<a ewd:code="H20" ewd:figID="9" ewd:figtype="conn" style="cursor:pointer;">
		<path d=" M  246.46,  452.21  L  246.46,  494.70  L  280.45,  494.70  L  280.45,  452.21  L  246.46,  452.21 " style="&st5;"/>
		<title ewd:textID="9">Combination Meter</title>
	</a>
	<a ewd:code="H26" ewd:figID="10" ewd:figtype="conn" style="cursor:pointer;">
		<path d=" M  390.93,  511.70  L  390.93,  477.71  L  373.94,  477.71  L  373.94,  511.70  L  390.93,  511.70 " style="&st5;"/>
		<title ewd:textID="16">Unlock Warning SW</title>
	</a>
	<a ewd:code="H27" ewd:figID="11" ewd:figtype="conn" style="cursor:pointer;">
		<path d=" M  450.42,  511.70  L  450.42,  477.71  L  433.43,  477.71  L  433.43,  511.70  L  450.42,  511.70 " style="&st5;"/>
		<title ewd:textID="16">Unlock Warning SW</title>
	</a>
	<a ewd:code="6-JB" ewd:figID="12" ewd:figtype="jb" style="cursor:pointer;">
		<path d=" M  195.47,  452.21  L  195.47,  503.20  L  220.96,  503.20  L  220.96,  452.21  L  195.47,  452.21 " style="&st4;"/>
	</a>
	<a ewd:code="6-JB" ewd:figID="13" ewd:figtype="jb" style="cursor:pointer;">
		<path d=" M  305.95,  613.68  L  305.95,  656.18  L  331.44,  656.18  L  331.44,  613.68  L  305.95,  613.68 " style="&st4;"/>
	</a>
	<a ewd:code="5" ewd:figID="14" ewd:figtype="jb" style="cursor:pointer;">
		<path d=" M    8.50,   35.78  L   59.49,   35.78  L   59.49,  103.77  L    8.50,  103.77  L    8.50,   35.78 " style="&st4;"/>
	</a>
	<a ewd:code="6-JB" ewd:figID="15" ewd:figtype="jb" style="cursor:pointer;">
		<path d=" M   93.48,  409.72  L   93.48,  460.71  L  118.98,  460.71  L  118.98,  409.72  L   93.48,  409.72 " style="&st4;"/>
	</a>
	<a ewd:code="6-JB" ewd:figID="16" ewd:figtype="jb" style="cursor:pointer;">
		<path d=" M  365.44,  367.22  L  365.44,  418.22  L  450.42,  418.22  L  450.42,  367.22  L  365.44,  367.22 " style="&st4;"/>
	</a>
	<a ewd:code="6-JB" ewd:figID="17" ewd:figtype="jb" style="cursor:pointer;">
		<path d=" M    8.50,  154.76  L    8.50,  205.75  L   33.99,  205.75  L   33.99,  154.76  L    8.50,  154.76 " style="&st4;"/>
	</a>
	<a ewd:code="5" ewd:figID="18" ewd:figtype="jb" style="cursor:pointer;">
		<path d=" M  467.42,  494.70  L  467.42,  537.20  L  492.92,  537.20  L  492.92,  494.70  L  467.42,  494.70 " style="&st4;"/>
	</a>
	<a ewd:code="6-JB" ewd:figID="19" ewd:figtype="jb" style="cursor:pointer;">
		<path d=" M  365.44,  571.19  L  365.44,  622.18  L  450.42,  622.18  L  450.42,  571.19  L  365.44,  571.19 " style="&st4;"/>
	</a>
	<a ewd:code="5" ewd:figID="20" ewd:figtype="jb" style="cursor:pointer;">
		<path d=" M  135.98,  537.20  L  135.98,  588.19  L  161.47,  588.19  L  161.47,  537.20  L  135.98,  537.20 " style="&st4;"/>
	</a>
	<a ewd:code="5" ewd:figID="21" ewd:figtype="jb" style="cursor:pointer;">
		<path d=" M  135.98,  154.76  L  135.98,  205.75  L  161.47,  205.75  L  161.47,  154.76  L  135.98,  154.76 " style="&st4;"/>
	</a>
	<a ewd:code="6-JB" ewd:figID="22" ewd:figtype="jb" style="cursor:pointer;">
		<path d=" M  467.42,  409.72  L  467.42,  452.21  L  492.92,  452.21  L  492.92,  409.72  L  467.42,  409.72 " style="&st4;"/>
	</a>
	<a ewd:code="FUSE20" ewd:figID="23" ewd:figtype="fuse" style="cursor:pointer;">
		<path d=" M  140.23,   35.78  L  140.23,   78.27  L  165.72,   78.27  L  165.72,   35.78  L  140.23,   35.78 " style="&st7;"/>
	</a>
	<a ewd:code="FUSE47" ewd:figID="24" ewd:figtype="fuse" style="cursor:pointer;">
		<path d=" M   38.24,   78.27  L   38.24,   35.78  L   12.75,   35.78  L   12.75,   78.27  L   38.24,   78.27 " style="&st7;"/>
	</a>
	<a ewd:lineID="1" style="cursor:pointer;">
		<path d=" M   25.50,  451.08  L   25.50,  407.45 " style="stroke:#000000;stroke-width: 5.10 ;&st6;"/>
		<path d=" M   25.50,  451.08  L   25.50,  407.45 " style="stroke:#FFFFFF;stroke-width: 4.53 ;&st6;"/>
		<path d=" M   25.50,  451.08  L   25.50,  407.45 " style="stroke:#FF0000;stroke-width: 1.13 ;&st6;"/>
	</a>
	<a ewd:lineID="2" style="cursor:pointer;">
		<path d=" M   25.50,  392.72  L   25.50,  351.36 " style="stroke:#000000;stroke-width: 5.10 ;&st6;"/>
		<path d=" M   25.50,  392.72  L   25.50,  351.36 " style="stroke:#FFFFFF;stroke-width: 4.53 ;&st6;"/>
		<path d=" M   25.50,  392.72  L   25.50,  351.36 " style="stroke:#FF0000;stroke-width: 1.13 ;&st6;"/>
	</a>
	<a ewd:lineID="3" style="cursor:pointer;">
		<path d=" M   25.50,  205.75  L   25.50,  264.11 " style="stroke:#000000;stroke-width: 5.10 ;&st6;"/>
		<path d=" M   25.50,  205.75  L   25.50,  264.11 " style="stroke:#FFFFFF;stroke-width: 2.27 ;&st6;"/>
		<path d=" M   25.50,  205.75  L   25.50,  264.11 " style="stroke:#FF0000;stroke-width: 1.13 ;&st6;"/>
	</a>
	<a ewd:lineID="4" style="cursor:pointer;">
		<path d=" M   67.99,  188.75  L   67.99,  248.24  L   33.99,  248.24  L   25.50,  256.74  L   25.50,  264.11 " style="stroke:#000000;stroke-width: 5.10 ;&st6;"/>
		<path d=" M   67.99,  188.75  L   67.99,  248.24  L   33.99,  248.24  L   25.50,  256.74  L   25.50,  264.11 " style="stroke:#FFFFFF;stroke-width: 2.27 ;&st6;"/>
		<path d=" M   67.99,  188.75  L   67.99,  248.24  L   33.99,  248.24  L   25.50,  256.74  L   25.50,  264.11 " style="stroke:#FF0000;stroke-width: 1.13 ;&st6;"/>
	</a>
	<a ewd:lineID="5" style="cursor:pointer;">
		<path d=" M   25.50,  103.77  L   25.50,  154.76 " style="stroke:#000000;stroke-width: 5.10 ;&st6;"/>
		<path d=" M   25.50,  103.77  L   25.50,  154.76 " style="stroke:#FFFFFF;stroke-width: 2.27 ;&st6;"/>
		<path d=" M   25.50,  103.77  L   25.50,  154.76 " style="stroke:#FF0000;stroke-width: 1.13 ;&st6;"/>
	</a>
	<a ewd:lineID="6" style="cursor:pointer;">
		<path d=" M   25.50,  103.77  L   25.50,  112.27  L   33.99,  120.77  L   67.99,  120.77  L   67.99,  171.76 " style="stroke:#000000;stroke-width: 5.10 ;&st6;"/>
		<path d=" M   25.50,  103.77  L   25.50,  112.27  L   33.99,  120.77  L   67.99,  120.77  L   67.99,  171.76 " style="stroke:#FFFFFF;stroke-width: 2.27 ;&st6;"/>
		<path d=" M   25.50,  103.77  L   25.50,  112.27  L   33.99,  120.77  L   67.99,  120.77  L   67.99,  171.76 " style="stroke:#FF0000;stroke-width: 1.13 ;&st6;"/>
	</a>
	<a ewd:lineID="7" style="cursor:pointer;">
		<path d=" M   59.49,  451.08  L   59.49,  407.73 " style="stroke:#000000;stroke-width: 5.10 ;&st6;"/>
		<path d=" M   59.49,  451.08  L   59.49,  407.73 " style="stroke:#FFFFFF;stroke-width: 1.13 ;&st6;"/>
	</a>
	<a ewd:lineID="8" style="cursor:pointer;">
		<path d=" M   59.49,  392.72  L   59.49,  351.36 " style="stroke:#000000;stroke-width: 5.10 ;&st6;"/>
		<path d=" M   59.49,  392.72  L   59.49,  351.36 " style="stroke:#FFFFFF;stroke-width: 1.13 ;&st6;"/>
	</a>
	<a ewd:lineID="9" style="cursor:pointer;">
		<path d=" M  152.97,  537.20  L  152.97,  528.70  L  144.48,  520.20  L  110.48,  520.20  L  110.48,  460.71 " style="stroke:#000000;stroke-width: 5.10 ;&st6;"/>
		<path d=" M  152.97,  537.20  L  152.97,  528.70  L  144.48,  520.20  L  110.48,  520.20  L  110.48,  460.71 " style="stroke:#FFFFFF;stroke-width: 4.53 ;&st6;"/>
		<path d=" M  152.97,  537.20  L  152.97,  528.70  L  144.48,  520.20  L  110.48,  520.20  L  110.48,  460.71 " style="stroke:#000000;stroke-width: 1.13 ;&st6;"/>
	</a>
	<a ewd:lineID="10" style="cursor:pointer;">
		<path d=" M  110.48,  409.72  L  110.48,  367.22  L  144.48,  367.22  L  152.97,  358.73  L  152.97,  351.36 " style="stroke:#000000;stroke-width: 5.10 ;&st6;"/>
		<path d=" M  110.48,  409.72  L  110.48,  367.22  L  144.48,  367.22  L  152.97,  358.73  L  152.97,  351.36 " style="stroke:#FFFFFF;stroke-width: 4.53 ;&st6;"/>
		<path d=" M  110.48,  409.72  L  110.48,  367.22  L  144.48,  367.22  L  152.97,  358.73  L  152.97,  351.36 " style="stroke:#000000;stroke-width: 1.13 ;&st6;"/>
	</a>
	<a ewd:lineID="11" style="cursor:pointer;">
		<path d=" M  152.97,  588.19  L  152.97,  681.67 " style="stroke:#000000;stroke-width: 5.10 ;&st6;"/>
		<path d=" M  152.97,  588.19  L  152.97,  681.67 " style="stroke:#FFFFFF;stroke-width: 4.53 ;&st6;"/>
		<path d=" M  152.97,  588.19  L  152.97,  681.67 " style="stroke:#000000;stroke-width: 1.13 ;&st6;"/>
	</a>
	<a ewd:lineID="12" style="cursor:pointer;">
		<path d=" M  152.97,  443.71  L  152.97,  537.20 " style="stroke:#000000;stroke-width: 5.10 ;&st6;"/>
		<path d=" M  152.97,  443.71  L  152.97,  537.20 " style="stroke:#FFFFFF;stroke-width: 4.53 ;&st6;"/>
		<path d=" M  152.97,  443.71  L  152.97,  537.20 " style="stroke:#000000;stroke-width: 1.13 ;&st6;"/>
	</a>
	<a ewd:lineID="13" style="cursor:pointer;">
		<path d=" M  152.97,  351.36  L  152.97,  426.71 " style="stroke:#000000;stroke-width: 5.10 ;&st6;"/>
		<path d=" M  152.97,  351.36  L  152.97,  426.71 " style="stroke:#FFFFFF;stroke-width: 4.53 ;&st6;"/>
		<path d=" M  152.97,  351.36  L  152.97,  426.71 " style="stroke:#000000;stroke-width: 1.13 ;&st6;"/>
	</a>
	<a ewd:lineID="14" style="cursor:pointer;">
		<path d=" M  152.97,  205.75  L  152.97,  264.11 " style="stroke:#000000;stroke-width: 5.10 ;&st6;"/>
		<path d=" M  152.97,  205.75  L  152.97,  264.11 " style="stroke:#FFFFFF;stroke-width: 4.53 ;&st6;"/>
		<path d=" M  152.97,  205.75  L  152.97,  264.11 " style="stroke:#FF0000;stroke-width: 1.13 ;&st6;"/>
	</a>
	<a ewd:lineID="15" style="cursor:pointer;">
		<path d=" M  152.97,  103.77  L  152.97,  154.76 " style="stroke:#000000;stroke-width: 5.10 ;&st6;"/>
		<path d=" M  152.97,  103.77  L  152.97,  154.76 " style="stroke:#FFFFFF;stroke-width: 4.53 ;&st6;"/>
		<path d=" M  152.97,  103.77  L  152.97,  154.76 " style="stroke:#FF0000;stroke-width: 1.13 ;&st6;"/>
	</a>
	<a ewd:lineID="16" style="cursor:pointer;">
		<path d=" M  212.46,  503.20  L  212.46,  571.19 " style="stroke:#000000;stroke-width: 5.10 ;&st6;"/>
		<path d=" M  212.46,  503.20  L  212.46,  571.19 " style="stroke:#FFFFFF;stroke-width: 4.53 ;&st6;"/>
	</a>
	<a ewd:lineID="17" style="cursor:pointer;">
		<path d=" M  212.46,  452.21  L  212.46,  351.36 " style="stroke:#000000;stroke-width: 5.10 ;&st6;"/>
		<path d=" M  212.46,  452.21  L  212.46,  351.36 " style="stroke:#FFFFFF;stroke-width: 4.53 ;&st6;"/>
	</a>
	<a ewd:lineID="18" style="cursor:pointer;">
		<path d=" M  220.96,  154.76  L  220.96,  264.11 " style="stroke:#56077D;stroke-width: 5.10 ;&st6;"/>
	</a>
	<a ewd:lineID="19" style="cursor:pointer;">
		<path d=" M  263.46,  588.19  L  263.46,  681.67 " style="stroke:#000000;stroke-width: 5.10 ;&st6;"/>
		<path d=" M  263.46,  588.19  L  263.46,  681.67 " style="stroke:#FFFFFF;stroke-width: 4.53 ;&st6;"/>
		<path d=" M  263.46,  588.19  L  263.46,  681.67 " style="stroke:#000000;stroke-width: 1.13 ;&st6;"/>
	</a>
	<a ewd:lineID="20" style="cursor:pointer;">
		<path d=" M  263.46,  494.70  L  263.46,  503.20  L  288.95,  528.70  L  288.95,  647.68  L  263.46,  673.17  L  263.46,  681.67 " style="stroke:#000000;stroke-width: 5.10 ;&st6;"/>
		<path d=" M  263.46,  494.70  L  263.46,  503.20  L  288.95,  528.70  L  288.95,  647.68  L  263.46,  673.17  L  263.46,  681.67 " style="stroke:#FFFFFF;stroke-width: 4.53 ;&st6;"/>
		<path d=" M  263.46,  494.70  L  263.46,  503.20  L  288.95,  528.70  L  288.95,  647.68  L  263.46,  673.17  L  263.46,  681.67 " style="stroke:#000000;stroke-width: 1.13 ;&st6;"/>
	</a>
	<a ewd:lineID="21" style="cursor:pointer;">
		<path d=" M  263.46,  494.70  L  263.46,  573.46 " style="stroke:#000000;stroke-width: 5.10 ;&st6;"/>
		<path d=" M  263.46,  494.70  L  263.46,  573.46 " style="stroke:#FFFFFF;stroke-width: 4.53 ;&st6;"/>
		<path d=" M  263.46,  494.70  L  263.46,  573.46 " style="stroke:#000000;stroke-width: 1.13 ;&st6;"/>
	</a>
	<a ewd:lineID="22" style="cursor:pointer;">
		<path d=" M  263.46,  452.21  L  263.46,  351.36 " style="stroke:#FF0000;stroke-width: 5.10 ;&st6;"/>
	</a>
	<a ewd:lineID="23" style="cursor:pointer;">
		<path d=" M  263.46,  154.76  L  263.46,  264.11 " style="stroke:#00A0C6;stroke-width: 5.10 ;&st6;"/>
	</a>
	<a ewd:lineID="24" style="cursor:pointer;">
		<path d=" M  305.95,  154.76  L  305.95,  264.11 " style="stroke:#FFE600;stroke-width: 5.10 ;&st6;"/>
	</a>
	<a ewd:lineID="25" style="cursor:pointer;">
		<path d=" M  322.95,  656.18  L  322.95,  681.67 " style="stroke:#000000;stroke-width: 5.10 ;&st6;"/>
		<path d=" M  322.95,  656.18  L  322.95,  681.67 " style="stroke:#FFFFFF;stroke-width: 4.53 ;&st6;"/>
		<path d=" M  322.95,  656.18  L  322.95,  681.67 " style="stroke:#000000;stroke-width: 1.13 ;&st6;"/>
	</a>
	<a ewd:lineID="26" style="cursor:pointer;">
		<path d=" M  322.95,  613.68  L  322.95,  579.69  L  348.44,  579.69  L  348.44,  647.68  L  382.44,  647.68  L  382.44,  622.18 " style="stroke:#000000;stroke-width: 5.10 ;&st6;"/>
		<path d=" M  322.95,  613.68  L  322.95,  579.69  L  348.44,  579.69  L  348.44,  647.68  L  382.44,  647.68  L  382.44,  622.18 " style="stroke:#FFFFFF;stroke-width: 4.53 ;&st6;"/>
		<path d=" M  322.95,  613.68  L  322.95,  579.69  L  348.44,  579.69  L  348.44,  647.68  L  382.44,  647.68  L  382.44,  622.18 " style="stroke:#000000;stroke-width: 1.13 ;&st6;"/>
	</a>
	<a ewd:lineID="27" style="cursor:pointer;">
		<path d=" M  348.44,  154.76  L  348.44,  264.11 " style="stroke:#999999;stroke-width: 5.10 ;&st6;"/>
	</a>
	<a ewd:lineID="28" style="cursor:pointer;">
		<path d=" M  382.44,  511.70  L  382.44,  571.19 " style="stroke:#000000;stroke-width: 5.10 ;&st6;"/>
		<path d=" M  382.44,  511.70  L  382.44,  571.19 " style="stroke:#FFFFFF;stroke-width: 4.53 ;&st6;"/>
		<path d=" M  382.44,  511.70  L  382.44,  571.19 " style="stroke:#000000;stroke-width: 1.13 ;&st6;"/>
	</a>
	<a ewd:lineID="29" style="cursor:pointer;">
		<path d=" M  382.44,  418.22  L  382.44,  477.71 " style="stroke:#FFE600;stroke-width: 5.10 ;&st6;"/>
		<path d=" M  382.44,  418.22  L  382.44,  477.71 " style="stroke:#FFFFFF;stroke-width: 2.27 ;&st6;"/>
		<path d=" M  382.44,  418.22  L  382.44,  477.71 " style="stroke:#000000;stroke-width: 1.13 ;&st6;"/>
	</a>
	<a ewd:lineID="30" style="cursor:pointer;">
		<path d=" M  382.44,  367.22  L  382.44,  351.36 " style="stroke:#FFE600;stroke-width: 5.10 ;&st6;"/>
	</a>
	<a ewd:lineID="31" style="cursor:pointer;">
		<path d=" M  441.93,  511.70  L  441.93,  571.19 " style="stroke:#000000;stroke-width: 5.10 ;&st6;"/>
		<path d=" M  441.93,  511.70  L  441.93,  571.19 " style="stroke:#FFFFFF;stroke-width: 4.53 ;&st6;"/>
		<path d=" M  441.93,  511.70  L  441.93,  571.19 " style="stroke:#000000;stroke-width: 1.13 ;&st6;"/>
	</a>
	<a ewd:lineID="32" style="cursor:pointer;">
		<path d=" M  441.93,  477.71  L  441.93,  418.22 " style="stroke:#FFE600;stroke-width: 5.10 ;&st6;"/>
	</a>
	<a ewd:lineID="33" style="cursor:pointer;">
		<path d=" M  484.42,  537.20  L  484.42,  604.05 " style="stroke:#FF0000;stroke-width: 5.10 ;&st6;"/>
		<path d=" M  484.42,  537.20  L  484.42,  604.05 " style="stroke:#FFFFFF;stroke-width: 2.27 ;&st6;"/>
		<path d=" M  484.42,  537.20  L  484.42,  604.05 " style="stroke:#00A0C6;stroke-width: 1.13 ;&st6;"/>
	</a>
	<a ewd:lineID="34" style="cursor:pointer;">
		<path d=" M  484.42,  452.21  L  484.42,  494.70 " style="stroke:#FF0000;stroke-width: 5.10 ;&st6;"/>
		<path d=" M  484.42,  452.21  L  484.42,  494.70 " style="stroke:#FFFFFF;stroke-width: 2.27 ;&st6;"/>
		<path d=" M  484.42,  452.21  L  484.42,  494.70 " style="stroke:#008837;stroke-width: 1.13 ;&st6;"/>
	</a>
	<a ewd:lineID="35" style="cursor:pointer;">
		<path d=" M  484.42,  409.72  L  484.42,  351.36 " style="stroke:#FF0000;stroke-width: 5.10 ;&st6;"/>
		<path d=" M  484.42,  409.72  L  484.42,  351.36 " style="stroke:#FFFFFF;stroke-width: 2.27 ;&st6;"/>
		<path d=" M  484.42,  409.72  L  484.42,  351.36 " style="stroke:#008837;stroke-width: 1.13 ;&st6;"/>
	</a>
	<path d=" M   27.62,  154.76  L   23.37,  154.76 " style="stroke-width: 1.42 ;&st7; "/>
	<path d=" M   27.62,  163.26  L   23.37,  163.26 " style="stroke-width: 1.42 ;&st7; "/>
	<path d=" M   27.62,  197.25  L   23.37,  197.25 " style="stroke-width: 1.42 ;&st7; "/>
	<path d=" M   27.62,  205.75  L   23.37,  205.75 " style="stroke-width: 1.42 ;&st7; "/>
	<path d=" M  155.10,  103.77  L  150.85,  103.77 " style="stroke-width: 1.42 ;&st7; "/>
	<path d=" M  155.10,   95.27  L  150.85,   95.27 " style="stroke-width: 1.42 ;&st7; "/>
	<path d=" M  155.10,  154.76  L  150.85,  154.76 " style="stroke-width: 1.42 ;&st7; "/>
	<path d=" M  155.10,  163.26  L  150.85,  163.26 " style="stroke-width: 1.42 ;&st7; "/>
	<path d=" M  155.10,  197.25  L  150.85,  197.25 " style="stroke-width: 1.42 ;&st7; "/>
	<path d=" M  155.10,  205.75  L  150.85,  205.75 " style="stroke-width: 1.42 ;&st7; "/>
	<path d=" M  155.10,  537.20  L  150.85,  537.20 " style="stroke-width: 1.42 ;&st7; "/>
	<path d=" M  155.10,  545.69  L  150.85,  545.69 " style="stroke-width: 1.42 ;&st7; "/>
	<path d=" M  155.10,  579.69  L  150.85,  579.69 " style="stroke-width: 1.42 ;&st7; "/>
	<path d=" M  155.10,  588.19  L  150.85,  588.19 " style="stroke-width: 1.42 ;&st7; "/>
	<path d=" M  214.59,  452.21  L  210.34,  452.21 " style="stroke-width: 1.42 ;&st7; "/>
	<path d=" M  214.59,  460.71  L  210.34,  460.71 " style="stroke-width: 1.42 ;&st7; "/>
	<path d=" M  214.59,  494.70  L  210.34,  494.70 " style="stroke-width: 1.42 ;&st7; "/>
	<path d=" M  214.59,  503.20  L  210.34,  503.20 " style="stroke-width: 1.42 ;&st7; "/>
	<path d=" M  267.71,  477.71  L  259.21,  477.71 " style="stroke-width: 0.85 ;&st7; "/>
	<path d=" M  276.19,  468.04  L  268.83,  472.29 " style="stroke-width: 0.85 ;&st7; "/>
	<path d=" M  270.83,  475.76  L  278.19,  471.51 " style="stroke-width: 0.85 ;&st7; "/>
	<path d=" M  254.96,  579.69  L  263.46,  579.69 " style="stroke-width: 1.42 ;&st7; "/>
	<path d=" M  384.56,  367.22  L  380.31,  367.22 " style="stroke-width: 1.42 ;&st7; "/>
	<path d=" M  384.56,  375.72  L  380.31,  375.72 " style="stroke-width: 1.42 ;&st7; "/>
	<path d=" M  384.56,  409.72  L  380.31,  409.72 " style="stroke-width: 1.42 ;&st7; "/>
	<path d=" M  384.56,  418.22  L  380.31,  418.22 " style="stroke-width: 1.42 ;&st7; "/>
	<path d=" M  444.05,  409.72  L  439.80,  409.72 " style="stroke-width: 1.42 ;&st7; "/>
	<path d=" M  444.05,  418.22  L  439.80,  418.22 " style="stroke-width: 1.42 ;&st7; "/>
	<path d=" M  382.44,  504.62  L  388.10,  481.95 " style="stroke-width: 1.42 ;&st7; "/>
	<path d=" M  382.44,  511.70  L  382.44,  507.45 " style="stroke-width: 0.85 ;&st7; "/>
	<path d=" M  382.44,  481.95  L  382.44,  477.71 " style="stroke-width: 0.85 ;&st7; "/>
	<path d=" M  441.93,  504.62  L  447.59,  481.95 " style="stroke-width: 1.42 ;&st7; "/>
	<path d=" M  441.93,  511.70  L  441.93,  507.45 " style="stroke-width: 0.85 ;&st7; "/>
	<path d=" M  441.93,  481.95  L  441.93,  477.71 " style="stroke-width: 0.85 ;&st7; "/>
	<path d=" M  384.56,  571.19  L  380.31,  571.19 " style="stroke-width: 1.42 ;&st7; "/>
	<path d=" M  384.56,  579.69  L  380.31,  579.69 " style="stroke-width: 1.42 ;&st7; "/>
	<path d=" M  384.56,  613.68  L  380.31,  613.68 " style="stroke-width: 1.42 ;&st7; "/>
	<path d=" M  384.56,  622.18  L  380.31,  622.18 " style="stroke-width: 1.42 ;&st7; "/>
	<path d=" M  444.05,  571.19  L  439.80,  571.19 " style="stroke-width: 1.42 ;&st7; "/>
	<path d=" M  444.05,  579.69  L  439.80,  579.69 " style="stroke-width: 1.42 ;&st7; "/>
	<path d=" M  325.07,  613.68  L  320.82,  613.68 " style="stroke-width: 1.42 ;&st7; "/>
	<path d=" M  325.07,  622.18  L  320.82,  622.18 " style="stroke-width: 1.42 ;&st7; "/>
	<path d=" M  325.07,  647.68  L  320.82,  647.68 " style="stroke-width: 1.42 ;&st7; "/>
	<path d=" M  325.07,  656.18  L  320.82,  656.18 " style="stroke-width: 1.42 ;&st7; "/>
	<path d=" M  486.54,  409.72  L  482.29,  409.72 " style="stroke-width: 1.42 ;&st7; "/>
	<path d=" M  486.54,  418.22  L  482.29,  418.22 " style="stroke-width: 1.42 ;&st7; "/>
	<path d=" M  486.54,  443.71  L  482.29,  443.71 " style="stroke-width: 1.42 ;&st7; "/>
	<path d=" M  486.54,  452.21  L  482.29,  452.21 " style="stroke-width: 1.42 ;&st7; "/>
	<path d=" M  486.54,  494.70  L  482.29,  494.70 " style="stroke-width: 1.42 ;&st7; "/>
	<path d=" M  486.54,  503.20  L  482.29,  503.20 " style="stroke-width: 1.42 ;&st7; "/>
	<path d=" M  486.54,  528.70  L  482.29,  528.70 " style="stroke-width: 1.42 ;&st7; "/>
	<path d=" M  486.54,  537.20  L  482.29,  537.20 " style="stroke-width: 1.42 ;&st7; "/>
	<path d=" M  484.42,  649.09  L  490.08,  626.43 " style="stroke-width: 1.42 ;&st7; "/>
	<path d=" M  484.42,  656.18  L  484.42,  651.93 " style="stroke-width: 0.85 ;&st7; "/>
	<path d=" M  484.42,  626.43  L  484.42,  622.18 " style="stroke-width: 0.85 ;&st7; "/>
	<path d=" M   27.62,   95.27  L   23.37,   95.27 " style="stroke-width: 1.42 ;&st7; "/>
	<path d=" M   27.62,  103.77  L   23.37,  103.77 " style="stroke-width: 1.42 ;&st7; "/>
	<path d=" M   33.99,  401.22  L   25.50,  401.22 " style="stroke-width: 1.42 ;&st7; "/>
	<path d=" M   67.99,  401.22  L   59.49,  401.22 " style="stroke-width: 1.42 ;&st7; "/>
	<path d=" M  112.61,  409.72  L  108.36,  409.72 " style="stroke-width: 1.42 ;&st7; "/>
	<path d=" M  112.61,  418.22  L  108.36,  418.22 " style="stroke-width: 1.42 ;&st7; "/>
	<path d=" M  112.61,  452.21  L  108.36,  452.21 " style="stroke-width: 1.42 ;&st7; "/>
	<path d=" M  112.61,  460.71  L  108.36,  460.71 " style="stroke-width: 1.42 ;&st7; "/>
	<path d=" M   38.24,   78.27  L   38.24,   35.78  L   12.75,   35.78  L   12.75,   78.27  L   38.24,   78.27 " style="stroke-width: 1.42 ;&st7; "/>
	<path d=" M    8.50,  282.24  L    8.50,  333.23  L  501.42,  333.23  L  501.42,  282.24  L    8.50,  282.24 " style="stroke-width: 1.42 ;&st7; "/>
	<path d=" M  195.47,  112.27  L  195.47,  154.76  L  365.44,  154.76  L  365.44,  112.27  L  195.47,  112.27 " style="stroke-width: 1.42 ;&st7; "/>
	<path d=" M   25.50,  168.15  L   28.33,  170.99  L   28.33,  166.74  L   25.50,  163.90  L   22.66,  166.74  L   22.66,  170.99  L   25.50,  168.15 " style="stroke-width: 0.28 ;&st9;"/>
	<path d=" M   25.50,  192.36  L   22.66,  189.52  L   22.66,  193.77  L   25.50,  196.61  L   28.33,  193.77  L   28.33,  189.52  L   25.50,  192.36 " style="stroke-width: 0.28 ;&st9;"/>
	<path d=" M   25.50,  197.25  L   25.50,  163.26 " style="stroke-width: 0.85 ;&st7; "/>
	<path d=" M  152.97,   95.27  L  152.97,   69.77 " style="stroke-width: 0.85 ;&st7; "/>
	<path d=" M  152.97,   90.37  L  150.14,   87.54  L  150.14,   91.79  L  152.97,   94.62  L  155.81,   91.79  L  155.81,   87.54  L  152.97,   90.37 " style="stroke-width: 0.28 ;&st9;"/>
	<path d=" M  152.97,  168.15  L  155.81,  170.99  L  155.81,  166.74  L  152.97,  163.90  L  150.14,  166.74  L  150.14,  170.99  L  152.97,  168.15 " style="stroke-width: 0.28 ;&st9;"/>
	<path d=" M  152.97,  192.36  L  150.14,  189.52  L  150.14,  193.77  L  152.97,  196.61  L  155.81,  193.77  L  155.81,  189.52  L  152.97,  192.36 " style="stroke-width: 0.28 ;&st9;"/>
	<path d=" M  152.97,  197.25  L  152.97,  163.26 " style="stroke-width: 0.85 ;&st7; "/>
	<path d=" M  144.48,  426.71  L  161.47,  426.71  L  161.47,  443.71  L  144.48,  443.71  L  144.48,  426.71 " style="stroke-width: 1.42 ;&st7; "/>
	<path d=" M  152.97,  426.71  L  152.97,  443.71 " style="stroke-width: 0.85 ;&st7; "/>
	<path d=" M  152.97,  550.59  L  155.81,  553.42  L  155.81,  549.17  L  152.97,  546.34  L  150.14,  549.17  L  150.14,  553.42  L  152.97,  550.59 " style="stroke-width: 0.28 ;&st9;"/>
	<path d=" M  152.97,  574.79  L  150.14,  571.96  L  150.14,  576.21  L  152.97,  579.04  L  155.81,  576.21  L  155.81,  571.96  L  152.97,  574.79 " style="stroke-width: 0.28 ;&st9;"/>
	<path d=" M  152.97,  579.69  L  152.97,  545.69 " style="stroke-width: 0.85 ;&st7; "/>
	<path d=" M  152.97,  697.25  L  152.97,  701.50 " style="stroke-width: 0.85 ;&st7; "/>
	<path d=" M  144.48,  701.50  L  161.47,  701.50 " style="stroke-width: 0.85 ;&st7; "/>
	<path d=" M  148.73,  704.33  L  157.22,  704.33 " style="stroke-width: 0.85 ;&st7; "/>
	<path d=" M  150.14,  707.17  L  155.81,  707.17 " style="stroke-width: 0.85 ;&st7; "/>
	<path d=" M  151.56,  710.00  L  154.39,  710.00 " style="stroke-width: 0.85 ;&st7; "/>
	<path d=" M    8.50,  469.21  L   76.49,  469.21  L   76.49,  503.20  L    8.50,  503.20  L    8.50,  469.21 " style="stroke-width: 1.42 ;&st7; "/>
	<path d=" M   63.74,  406.88  L   59.49,  402.63  L   55.24,  406.88 " style="stroke-width: 1.42 ;&st7; "/>
	<path d=" M   63.74,  410.28  L   59.49,  406.03  L   55.24,  410.28 " style="stroke-width: 1.42 ;&st7; "/>
	<path d=" M   29.75,  406.88  L   25.50,  402.63  L   21.25,  406.88 " style="stroke-width: 1.42 ;&st7; "/>
	<path d=" M   29.75,  410.28  L   25.50,  406.03  L   21.25,  410.28 " style="stroke-width: 1.42 ;&st7; "/>
	<path d=" M  212.46,  465.60  L  215.30,  468.44  L  215.30,  464.19  L  212.46,  461.35  L  209.63,  464.19  L  209.63,  468.44  L  212.46,  465.60 " style="stroke-width: 0.28 ;&st9;"/>
	<path d=" M  212.46,  489.81  L  209.63,  486.97  L  209.63,  491.22  L  212.46,  494.06  L  215.30,  491.22  L  215.30,  486.97  L  212.46,  489.81 " style="stroke-width: 0.28 ;&st9;"/>
	<path d=" M  212.46,  494.70  L  212.46,  460.71 " style="stroke-width: 0.85 ;&st7; "/>
	<path d=" M  195.47,  571.19  L  195.47,  605.18  L  229.46,  605.18  L  229.46,  571.19  L  195.47,  571.19 " style="stroke-width: 1.42 ;&st7; "/>
	<path d=" M  263.46,  477.71  L  257.79,  469.21  L  269.12,  469.21  L  263.46,  477.71 " style="stroke-width: 0.28 ;&st9;"/>
	<path d=" M  276.19,  468.04  L  273.86,  471.08  L  272.39,  468.54  L  276.19,  468.04  L  274.91,  468.78  L  273.92,  470.07  L  273.30,  468.99  L  274.91,  468.78  L  274.27,  469.15  L  273.95,  469.56  L  273.76,  469.22  L  274.27,  469.15 " style="stroke-width: 0.85 ;&st7; "/>
	<path d=" M  278.19,  471.51  L  275.86,  474.55  L  274.39,  472.01  L  278.19,  471.51  L  276.91,  472.25  L  275.93,  473.53  L  275.31,  472.46  L  276.91,  472.25  L  276.27,  472.62  L  275.96,  473.03  L  275.76,  472.69  L  276.27,  472.62 " style="stroke-width: 0.85 ;&st7; "/>
	<path d=" M  246.46,  452.21  L  246.46,  494.70  L  280.45,  494.70  L  280.45,  452.21  L  246.46,  452.21 " style="stroke-width: 1.42 ;&st7; "/>
	<path d=" M  263.46,  697.25  L  263.46,  701.50 " style="stroke-width: 0.85 ;&st7; "/>
	<path d=" M  254.96,  701.50  L  271.95,  701.50 " style="stroke-width: 0.85 ;&st7; "/>
	<path d=" M  259.21,  704.33  L  267.71,  704.33 " style="stroke-width: 0.85 ;&st7; "/>
	<path d=" M  260.62,  707.17  L  266.29,  707.17 " style="stroke-width: 0.85 ;&st7; "/>
	<path d=" M  262.04,  710.00  L  264.87,  710.00 " style="stroke-width: 0.85 ;&st7; "/>
	<path d=" M  259.21,  570.62  L  263.46,  574.87  L  267.71,  570.62 " style="stroke-width: 1.42 ;&st7; "/>
	<path d=" M  267.71,  574.02  L  263.46,  578.27  L  259.21,  574.02 " style="stroke-width: 1.42 ;&st7; "/>
	<path d=" M   25.50,   69.77  L   25.50,   95.27 " style="stroke-width: 0.85 ;&st7; "/>
	<path d=" M  382.44,  380.62  L  385.27,  383.45  L  385.27,  379.20  L  382.44,  376.37  L  379.60,  379.20  L  379.60,  383.45  L  382.44,  380.62 " style="stroke-width: 0.28 ;&st9;"/>
	<path d=" M  382.44,  404.82  L  379.60,  401.99  L  379.60,  406.24  L  382.44,  409.07  L  385.27,  406.24  L  385.27,  401.99  L  382.44,  404.82 " style="stroke-width: 0.28 ;&st9;"/>
	<path d=" M  382.44,  409.72  L  382.44,  375.72 " style="stroke-width: 0.85 ;&st7; "/>
	<path d=" M  441.93,  404.82  L  439.09,  401.99  L  439.09,  406.24  L  441.93,  409.07  L  444.76,  406.24  L  444.76,  401.99  L  441.93,  404.82 " style="stroke-width: 0.28 ;&st9;"/>
	<path d=" M  381.24,  391.72  L  380.97,  392.19  L  380.88,  392.72  L  380.97,  393.25  L  381.24,  393.72  L  381.66,  394.07  L  382.16,  394.26  L  382.71,  394.26  L  383.21,  394.07  L  383.63,  393.72  L  383.90,  393.25  L  383.99,  392.72  L  383.90,  392.19  L  383.63,  391.72  L  383.21,  391.37  L  382.71,  391.18  L  382.16,  391.18  L  381.66,  391.37  L  381.24,  391.72  L  381.64,  392.43  L  381.64,  393.01  L  382.01,  393.46  L  382.58,  393.56  L  383.09,  393.27  L  383.29,  392.72  L  383.09,  392.17  L  382.58,  391.88  L  382.01,  391.98  L  382.44,  392.72 " style="stroke-width: 0.85 ;&st7; "/>
	<path d=" M  382.44,  392.72  L  441.93,  392.72  L  441.93,  409.72 " style="stroke-width: 0.85 ;&st7; "/>
	<path d=" M  390.93,  511.70  L  390.93,  477.71  L  373.94,  477.71  L  373.94,  511.70  L  390.93,  511.70 " style="stroke-width: 1.42 ;&st7; "/>
	<path d=" M  450.42,  511.70  L  450.42,  477.71  L  433.43,  477.71  L  433.43,  511.70  L  450.42,  511.70 " style="stroke-width: 1.42 ;&st7; "/>
	<path d=" M  382.44,  584.58  L  385.27,  587.42  L  385.27,  583.17  L  382.44,  580.33  L  379.60,  583.17  L  379.60,  587.42  L  382.44,  584.58 " style="stroke-width: 0.28 ;&st9;"/>
	<path d=" M  382.44,  608.79  L  379.60,  605.95  L  379.60,  610.20  L  382.44,  613.04  L  385.27,  610.20  L  385.27,  605.95  L  382.44,  608.79 " style="stroke-width: 0.28 ;&st9;"/>
	<path d=" M  382.44,  613.68  L  382.44,  579.69 " style="stroke-width: 0.85 ;&st7; "/>
	<path d=" M  441.93,  584.58  L  444.76,  587.42  L  444.76,  583.17  L  441.93,  580.33  L  439.09,  583.17  L  439.09,  587.42  L  441.93,  584.58 " style="stroke-width: 0.28 ;&st9;"/>
	<path d=" M  381.24,  595.68  L  380.97,  596.15  L  380.88,  596.69  L  380.97,  597.22  L  381.24,  597.69  L  381.66,  598.03  L  382.16,  598.22  L  382.71,  598.22  L  383.21,  598.03  L  383.63,  597.69  L  383.90,  597.22  L  383.99,  596.69  L  383.90,  596.15  L  383.63,  595.68  L  383.21,  595.34  L  382.71,  595.15  L  382.16,  595.15  L  381.66,  595.34  L  381.24,  595.68  L  381.64,  596.39  L  381.64,  596.98  L  382.01,  597.42  L  382.58,  597.52  L  383.09,  597.23  L  383.29,  596.69  L  383.09,  596.14  L  382.58,  595.85  L  382.01,  595.95  L  382.44,  596.69 " style="stroke-width: 0.85 ;&st7; "/>
	<path d=" M  382.44,  596.69  L  441.93,  596.69  L  441.93,  579.69 " style="stroke-width: 0.85 ;&st7; "/>
	<path d=" M  322.95,  697.25  L  322.95,  701.50 " style="stroke-width: 0.85 ;&st7; "/>
	<path d=" M  314.45,  701.50  L  331.44,  701.50 " style="stroke-width: 0.85 ;&st7; "/>
	<path d=" M  318.70,  704.33  L  327.20,  704.33 " style="stroke-width: 0.85 ;&st7; "/>
	<path d=" M  320.11,  707.17  L  325.78,  707.17 " style="stroke-width: 0.85 ;&st7; "/>
	<path d=" M  321.53,  710.00  L  324.36,  710.00 " style="stroke-width: 0.85 ;&st7; "/>
	<path d=" M  322.95,  627.08  L  325.78,  629.91  L  325.78,  625.66  L  322.95,  622.83  L  320.11,  625.66  L  320.11,  629.91  L  322.95,  627.08 " style="stroke-width: 0.28 ;&st9;"/>
	<path d=" M  322.95,  642.78  L  320.11,  639.95  L  320.11,  644.20  L  322.95,  647.03  L  325.78,  644.20  L  325.78,  639.95  L  322.95,  642.78 " style="stroke-width: 0.28 ;&st9;"/>
	<path d=" M  322.95,  622.18  L  322.95,  647.68 " style="stroke-width: 0.85 ;&st7; "/>
	<path d=" M  484.42,  423.11  L  487.25,  425.94  L  487.25,  421.69  L  484.42,  418.86  L  481.59,  421.69  L  481.59,  425.94  L  484.42,  423.11 " style="stroke-width: 0.28 ;&st9;"/>
	<path d=" M  484.42,  438.82  L  481.59,  435.98  L  481.59,  440.23  L  484.42,  443.07  L  487.25,  440.23  L  487.25,  435.98  L  484.42,  438.82 " style="stroke-width: 0.28 ;&st9;"/>
	<path d=" M  484.42,  443.71  L  484.42,  418.22 " style="stroke-width: 0.85 ;&st7; "/>
	<path d=" M  484.42,  508.10  L  487.25,  510.93  L  487.25,  506.68  L  484.42,  503.85  L  481.59,  506.68  L  481.59,  510.93  L  484.42,  508.10 " style="stroke-width: 0.28 ;&st9;"/>
	<path d=" M  484.42,  523.80  L  481.59,  520.97  L  481.59,  525.22  L  484.42,  528.05  L  487.25,  525.22  L  487.25,  520.97  L  484.42,  523.80 " style="stroke-width: 0.28 ;&st9;"/>
	<path d=" M  484.42,  528.70  L  484.42,  503.20 " style="stroke-width: 0.85 ;&st7; "/>
	<path d=" M  492.92,  656.18  L  492.92,  622.18  L  475.92,  622.18  L  475.92,  656.18  L  492.92,  656.18 " style="stroke-width: 1.42 ;&st7; "/>
	<path d=" M  484.42,  656.18  L  484.42,  664.67 " style="stroke-width: 0.85 ;&st7; "/>
	<path d=" M  475.92,  664.67  L  492.92,  664.67 " style="stroke-width: 0.85 ;&st7; "/>
	<path d=" M  480.17,  667.51  L  488.67,  667.51 " style="stroke-width: 0.85 ;&st7; "/>
	<path d=" M  481.59,  670.34  L  487.25,  670.34 " style="stroke-width: 0.85 ;&st7; "/>
	<path d=" M  483.00,  673.17  L  485.84,  673.17 " style="stroke-width: 0.85 ;&st7; "/>
	<path d=" M   25.50,   90.37  L   22.66,   87.54  L   22.66,   91.79  L   25.50,   94.62  L   28.33,   91.79  L   28.33,   87.54  L   25.50,   90.37 " style="stroke-width: 0.28 ;&st9;"/>
	<path d=" M  263.46,  452.21  L  263.46,  494.70 " style="stroke-width: 0.85 ;&st7; "/>
	<path d=" M  110.48,  423.11  L  113.31,  425.94  L  113.31,  421.69  L  110.48,  418.86  L  107.65,  421.69  L  107.65,  425.94  L  110.48,  423.11 " style="stroke-width: 0.28 ;&st9;"/>
	<path d=" M  110.48,  447.31  L  107.65,  444.48  L  107.65,  448.73  L  110.48,  451.56  L  113.31,  448.73  L  113.31,  444.48  L  110.48,  447.31 " style="stroke-width: 0.28 ;&st9;"/>
	<path d=" M  110.48,  452.21  L  110.48,  418.22 " style="stroke-width: 0.85 ;&st7; "/>
	<path d=" M   59.49,  171.76  L   76.49,  171.76  L   76.49,  188.75  L   59.49,  188.75  L   59.49,  171.76 " style="stroke-width: 1.42 ;&st7; "/>
	<path d=" M   67.99,  171.76  L   67.99,  188.75 " style="stroke-width: 0.85 ;&st7; "/>
	<path d=" M  140.23,   35.78  L  140.23,   78.27  L  165.72,   78.27  L  165.72,   35.78  L  140.23,   35.78 " style="stroke-width: 1.42 ;&st7; "/>
	<path d=" M   33.99,  455.61  L   42.49,  455.61 " style="stroke-width: 0.85 ;&st7;stroke-dasharray:3, 1.5;"/>
	<path d=" M   33.99,  464.67  L   42.49,  464.67 " style="stroke-width: 0.85 ;&st7;stroke-dasharray:3, 1.5;"/>
	<path d=" M  335.69,  277.71  L  314.45,  277.71 " style="stroke-width: 0.85 ;&st7;stroke-dasharray:3, 1.5;"/>
	<path d=" M  314.45,  268.64  L  335.69,  268.64 " style="stroke-width: 0.85 ;&st7;stroke-dasharray:3, 1.5;"/>
	<path d=" M  271.95,  268.64  L  293.20,  268.64 " style="stroke-width: 0.85 ;&st7;stroke-dasharray:3, 1.5;"/>
	<path d=" M  293.20,  277.71  L  271.95,  277.71 " style="stroke-width: 0.85 ;&st7;stroke-dasharray:3, 1.5;"/>
	<path d=" M   33.99,  268.64  L  140.23,  268.64 " style="stroke-width: 0.85 ;&st7;stroke-dasharray:3, 1.5;"/>
	<path d=" M  140.23,  277.71  L   33.99,  277.71 " style="stroke-width: 0.85 ;&st7;stroke-dasharray:3, 1.5;"/>
	<path d=" M  220.96,  337.76  L  250.71,  337.76 " style="stroke-width: 0.85 ;&st7;stroke-dasharray:3, 1.5;"/>
	<path d=" M  250.71,  346.83  L  220.96,  346.83 " style="stroke-width: 0.85 ;&st7;stroke-dasharray:3, 1.5;"/>
	<path d=" M  271.95,  337.76  L  369.69,  337.76 " style="stroke-width: 0.85 ;&st7;stroke-dasharray:3, 1.5;"/>
	<path d=" M  369.69,  346.83  L  271.95,  346.83 " style="stroke-width: 0.85 ;&st7;stroke-dasharray:3, 1.5;"/>
	<path d=" M  390.93,  337.76  L  471.67,  337.76 " style="stroke-width: 0.85 ;&st7;stroke-dasharray:3, 1.5;"/>
	<path d=" M  471.67,  346.83  L  390.93,  346.83 " style="stroke-width: 0.85 ;&st7;stroke-dasharray:3, 1.5;"/>
	<path d=" M  161.47,  268.64  L  203.97,  268.64 " style="stroke-width: 0.85 ;&st7;stroke-dasharray:3, 1.5;"/>
	<path d=" M  203.97,  277.71  L  161.47,  277.71 " style="stroke-width: 0.85 ;&st7;stroke-dasharray:3, 1.5;"/>
	<path d=" M  229.46,  268.64  L  246.46,  268.64 " style="stroke-width: 0.85 ;&st7;stroke-dasharray:3, 1.5;"/>
	<path d=" M  246.46,  277.71  L  229.46,  277.71 " style="stroke-width: 0.85 ;&st7;stroke-dasharray:3, 1.5;"/>
	<path d=" M  161.47,  337.76  L  199.72,  337.76 " style="stroke-width: 0.85 ;&st7;stroke-dasharray:3, 1.5;"/>
	<path d=" M  199.72,  346.83  L  161.47,  346.83 " style="stroke-width: 0.85 ;&st7;stroke-dasharray:3, 1.5;"/>
	<path d=" M  135.98,  346.83  L   67.99,  346.83 " style="stroke-width: 0.85 ;&st7;stroke-dasharray:3, 1.5;"/>
	<path d=" M   67.99,  337.76  L  135.98,  337.76 " style="stroke-width: 0.85 ;&st7;stroke-dasharray:3, 1.5;"/>
	<path d=" M   33.99,  337.76  L   42.49,  337.76 " style="stroke-width: 0.85 ;&st7;stroke-dasharray:3, 1.5;"/>
	<path d=" M   42.49,  346.83  L   33.99,  346.83 " style="stroke-width: 0.85 ;&st7;stroke-dasharray:3, 1.5;"/>
	<path d=" M  320.82,  613.68  C  318.47   613.68   316.57   615.59   316.57   617.93 " style="stroke-width: 1.42 ;&st7; "/>
	<path d=" M  316.57,  617.93  C  316.57   620.28   318.47   622.18   320.82   622.18 " style="stroke-width: 1.42 ;&st7; "/>
	<path d=" M  325.07,  622.18  C  327.42   622.18   329.32   620.28   329.32   617.93 " style="stroke-width: 1.42 ;&st7; "/>
	<path d=" M  329.32,  617.93  C  329.32   615.59   327.42   613.68   325.07   613.68 " style="stroke-width: 1.42 ;&st7; "/>
	<path d=" M  320.82,  647.68  C  318.47   647.68   316.57   649.58   316.57   651.93 " style="stroke-width: 1.42 ;&st7; "/>
	<path d=" M  316.57,  651.93  C  316.57   654.27   318.47   656.18   320.82   656.18 " style="stroke-width: 1.42 ;&st7; "/>
	<path d=" M  325.07,  656.18  C  327.42   656.18   329.32   654.27   329.32   651.93 " style="stroke-width: 1.42 ;&st7; "/>
	<path d=" M  329.32,  651.93  C  329.32   649.58   327.42   647.68   325.07   647.68 " style="stroke-width: 1.42 ;&st7; "/>
	<path d=" M  482.29,  409.72  C  479.95   409.72   478.05   411.62   478.05   413.97 " style="stroke-width: 1.42 ;&st7; "/>
	<path d=" M  478.05,  413.97  C  478.05   416.31   479.95   418.22   482.29   418.22 " style="stroke-width: 1.42 ;&st7; "/>
	<path d=" M  486.54,  418.22  C  488.89   418.22   490.79   416.31   490.79   413.97 " style="stroke-width: 1.42 ;&st7; "/>
	<path d=" M  490.79,  413.97  C  490.79   411.62   488.89   409.72   486.54   409.72 " style="stroke-width: 1.42 ;&st7; "/>
	<path d=" M  482.29,  443.71  C  479.95   443.71   478.05   445.61   478.05   447.96 " style="stroke-width: 1.42 ;&st7; "/>
	<path d=" M  478.05,  447.96  C  478.05   450.31   479.95   452.21   482.29   452.21 " style="stroke-width: 1.42 ;&st7; "/>
	<path d=" M  486.54,  452.21  C  488.89   452.21   490.79   450.31   490.79   447.96 " style="stroke-width: 1.42 ;&st7; "/>
	<path d=" M  490.79,  447.96  C  490.79   445.61   488.89   443.71   486.54   443.71 " style="stroke-width: 1.42 ;&st7; "/>
	<path d=" M  482.29,  494.70  C  479.95   494.70   478.05   496.61   478.05   498.95 " style="stroke-width: 1.42 ;&st7; "/>
	<path d=" M  478.05,  498.95  C  478.05   501.30   479.95   503.20   482.29   503.20 " style="stroke-width: 1.42 ;&st7; "/>
	<path d=" M  486.54,  503.20  C  488.89   503.20   490.79   501.30   490.79   498.95 " style="stroke-width: 1.42 ;&st7; "/>
	<path d=" M  490.79,  498.95  C  490.79   496.61   488.89   494.70   486.54   494.70 " style="stroke-width: 1.42 ;&st7; "/>
	<path d=" M  482.29,  528.70  C  479.95   528.70   478.05   530.60   478.05   532.95 " style="stroke-width: 1.42 ;&st7; "/>
	<path d=" M  478.05,  532.95  C  478.05   535.29   479.95   537.20   482.29   537.20 " style="stroke-width: 1.42 ;&st7; "/>
	<path d=" M  486.54,  537.20  C  488.89   537.20   490.79   535.29   490.79   532.95 " style="stroke-width: 1.42 ;&st7; "/>
	<path d=" M  490.79,  532.95  C  490.79   530.60   488.89   528.70   486.54   528.70 " style="stroke-width: 1.42 ;&st7; "/>
	<path d=" M  485.84,  650.51  C  485.84   649.73   485.20   649.09   484.42   649.09 " style="stroke-width: 0.85 ;&st7; "/>
	<path d=" M  484.42,  649.09  C  483.64   649.09   483.00   649.73   483.00   650.51 " style="stroke-width: 0.85 ;&st7; "/>
	<path d=" M  483.00,  650.51  C  483.00   651.29   483.64   651.93   484.42   651.93 " style="stroke-width: 0.85 ;&st7; "/>
	<path d=" M  484.42,  651.93  C  485.20   651.93   485.84   651.29   485.84   650.51 " style="stroke-width: 0.85 ;&st7; "/>
	<path d=" M  485.84,  627.85  C  485.84   627.06   485.20   626.43   484.42   626.43 " style="stroke-width: 0.85 ;&st7; "/>
	<path d=" M  484.42,  626.43  C  483.64   626.43   483.00   627.06   483.00   627.85 " style="stroke-width: 0.85 ;&st7; "/>
	<path d=" M  483.00,  627.85  C  483.00   628.63   483.64   629.26   484.42   629.26 " style="stroke-width: 0.85 ;&st7; "/>
	<path d=" M  484.42,  629.26  C  485.20   629.26   485.84   628.63   485.84   627.85 " style="stroke-width: 0.85 ;&st7; "/>
	<path d=" M   23.37,   95.27  C   21.02    95.27    19.12    97.17    19.12    99.52 " style="stroke-width: 1.42 ;&st7; "/>
	<path d=" M   19.12,   99.52  C   19.12   101.87    21.02   103.77    23.37   103.77 " style="stroke-width: 1.42 ;&st7; "/>
	<path d=" M   27.62,  103.77  C   29.97   103.77    31.87   101.87    31.87    99.52 " style="stroke-width: 1.42 ;&st7; "/>
	<path d=" M   31.87,   99.52  C   31.87    97.17    29.97    95.27    27.62    95.27 " style="stroke-width: 1.42 ;&st7; "/>
	<path d=" M  108.36,  409.72  C  106.01   409.72   104.11   411.62   104.11   413.97 " style="stroke-width: 1.42 ;&st7; "/>
	<path d=" M  104.11,  413.97  C  104.11   416.31   106.01   418.22   108.36   418.22 " style="stroke-width: 1.42 ;&st7; "/>
	<path d=" M  112.61,  418.22  C  114.95   418.22   116.86   416.31   116.86   413.97 " style="stroke-width: 1.42 ;&st7; "/>
	<path d=" M  116.86,  413.97  C  116.86   411.62   114.95   409.72   112.61   409.72 " style="stroke-width: 1.42 ;&st7; "/>
	<path d=" M  108.36,  452.21  C  106.01   452.21   104.11   454.11   104.11   456.46 " style="stroke-width: 1.42 ;&st7; "/>
	<path d=" M  104.11,  456.46  C  104.11   458.81   106.01   460.71   108.36   460.71 " style="stroke-width: 1.42 ;&st7; "/>
	<path d=" M  112.61,  460.71  C  114.95   460.71   116.86   458.81   116.86   456.46 " style="stroke-width: 1.42 ;&st7; "/>
	<path d=" M  116.86,  456.46  C  116.86   454.11   114.95   452.21   112.61   452.21 " style="stroke-width: 1.42 ;&st7; "/>
	<path d=" M  152.97,   47.11  C  150.24    48.72   149.32    52.25   150.94    54.99 " style="stroke-width: 1.42 ;&st7; "/>
	<path d=" M  150.94,   54.99  C  151.46    55.87   152.09    56.51   152.97    57.03 " style="stroke-width: 1.42 ;&st7; "/>
	<path d=" M  152.97,   66.94  C  155.71    65.33   156.62    61.80   155.01    59.06 " style="stroke-width: 1.42 ;&st7; "/>
	<path d=" M  155.01,   59.06  C  154.49    58.18   153.86    57.55   152.97    57.03 " style="stroke-width: 1.42 ;&st7; "/>
	<path d=" M  154.39,   45.69  C  154.39    44.91   153.76    44.28   152.97    44.28 " style="stroke-width: 0.85 ;&st7; "/>
	<path d=" M  152.97,   44.28  C  152.19    44.28   151.56    44.91   151.56    45.69 " style="stroke-width: 0.85 ;&st7; "/>
	<path d=" M  151.56,   45.69  C  151.56    46.48   152.19    47.11   152.97    47.11 " style="stroke-width: 0.85 ;&st7; "/>
	<path d=" M  152.97,   47.11  C  153.76    47.11   154.39    46.48   154.39    45.69 " style="stroke-width: 0.85 ;&st7; "/>
	<path d=" M  154.39,   68.36  C  154.39    67.57   153.76    66.94   152.97    66.94 " style="stroke-width: 0.85 ;&st7; "/>
	<path d=" M  152.97,   66.94  C  152.19    66.94   151.56    67.57   151.56    68.36 " style="stroke-width: 0.85 ;&st7; "/>
	<path d=" M  151.56,   68.36  C  151.56    69.14   152.19    69.77   152.97    69.77 " style="stroke-width: 0.85 ;&st7; "/>
	<path d=" M  152.97,   69.77  C  153.76    69.77   154.39    69.14   154.39    68.36 " style="stroke-width: 0.85 ;&st7; "/>
	<path d=" M   64.02,  464.67  C   64.02   462.17    61.99   460.14    59.49   460.14 " style="stroke-width: 1.42 ;&st7; "/>
	<path d=" M   59.49,  460.14  C   56.99   460.14    54.96   462.17    54.96   464.67 " style="stroke-width: 1.42 ;&st7; "/>
	<path d=" M   54.96,  464.67  C   54.96   467.18    56.99   469.21    59.49   469.21 " style="stroke-width: 1.42 ;&st7; "/>
	<path d=" M   59.49,  469.21  C   61.99   469.21    64.02   467.18    64.02   464.67 " style="stroke-width: 1.42 ;&st7; "/>
	<path d=" M   64.02,  455.61  C   64.02   453.11    61.99   451.08    59.49   451.08 " style="stroke-width: 1.42 ;&st7; "/>
	<path d=" M   59.49,  451.08  C   56.99   451.08    54.96   453.11    54.96   455.61 " style="stroke-width: 1.42 ;&st7; "/>
	<path d=" M   54.96,  455.61  C   54.96   458.11    56.99   460.14    59.49   460.14 " style="stroke-width: 1.42 ;&st7; "/>
	<path d=" M   59.49,  460.14  C   61.99   460.14    64.02   458.11    64.02   455.61 " style="stroke-width: 1.42 ;&st7; "/>
	<path d=" M   30.03,  464.67  C   30.03   462.17    28.00   460.14    25.50   460.14 " style="stroke-width: 1.42 ;&st7; "/>
	<path d=" M   25.50,  460.14  C   22.99   460.14    20.96   462.17    20.96   464.67 " style="stroke-width: 1.42 ;&st7; "/>
	<path d=" M   20.96,  464.67  C   20.96   467.18    22.99   469.21    25.50   469.21 " style="stroke-width: 1.42 ;&st7; "/>
	<path d=" M   25.50,  469.21  C   28.00   469.21    30.03   467.18    30.03   464.67 " style="stroke-width: 1.42 ;&st7; "/>
	<path d=" M   30.03,  455.61  C   30.03   453.11    28.00   451.08    25.50   451.08 " style="stroke-width: 1.42 ;&st7; "/>
	<path d=" M   25.50,  451.08  C   22.99   451.08    20.96   453.11    20.96   455.61 " style="stroke-width: 1.42 ;&st7; "/>
	<path d=" M   20.96,  455.61  C   20.96   458.11    22.99   460.14    25.50   460.14 " style="stroke-width: 1.42 ;&st7; "/>
	<path d=" M   25.50,  460.14  C   28.00   460.14    30.03   458.11    30.03   455.61 " style="stroke-width: 1.42 ;&st7; "/>
	<path d=" M   30.03,  277.71  C   30.03   275.20    28.00   273.17    25.50   273.17 " style="stroke-width: 1.42 ;&st7; "/>
	<path d=" M   25.50,  273.17  C   22.99   273.17    20.96   275.20    20.96   277.71 " style="stroke-width: 1.42 ;&st7; "/>
	<path d=" M   20.96,  277.71  C   20.96   280.21    22.99   282.24    25.50   282.24 " style="stroke-width: 1.42 ;&st7; "/>
	<path d=" M   25.50,  282.24  C   28.00   282.24    30.03   280.21    30.03   277.71 " style="stroke-width: 1.42 ;&st7; "/>
	<path d=" M   30.03,  268.64  C   30.03   266.14    28.00   264.11    25.50   264.11 " style="stroke-width: 1.42 ;&st7; "/>
	<path d=" M   25.50,  264.11  C   22.99   264.11    20.96   266.14    20.96   268.64 " style="stroke-width: 1.42 ;&st7; "/>
	<path d=" M   20.96,  268.64  C   20.96   271.14    22.99   273.17    25.50   273.17 " style="stroke-width: 1.42 ;&st7; "/>
	<path d=" M   25.50,  273.17  C   28.00   273.17    30.03   271.14    30.03   268.64 " style="stroke-width: 1.42 ;&st7; "/>
	<path d=" M  157.51,  277.71  C  157.51   275.20   155.48   273.17   152.97   273.17 " style="stroke-width: 1.42 ;&st7; "/>
	<path d=" M  152.97,  273.17  C  150.47   273.17   148.44   275.20   148.44   277.71 " style="stroke-width: 1.42 ;&st7; "/>
	<path d=" M  148.44,  277.71  C  148.44   280.21   150.47   282.24   152.97   282.24 " style="stroke-width: 1.42 ;&st7; "/>
	<path d=" M  152.97,  282.24  C  155.48   282.24   157.51   280.21   157.51   277.71 " style="stroke-width: 1.42 ;&st7; "/>
	<path d=" M  157.51,  268.64  C  157.51   266.14   155.48   264.11   152.97   264.11 " style="stroke-width: 1.42 ;&st7; "/>
	<path d=" M  152.97,  264.11  C  150.47   264.11   148.44   266.14   148.44   268.64 " style="stroke-width: 1.42 ;&st7; "/>
	<path d=" M  148.44,  268.64  C  148.44   271.14   150.47   273.17   152.97   273.17 " style="stroke-width: 1.42 ;&st7; "/>
	<path d=" M  152.97,  273.17  C  155.48   273.17   157.51   271.14   157.51   268.64 " style="stroke-width: 1.42 ;&st7; "/>
	<path d=" M  310.48,  277.71  C  310.48   275.20   308.45   273.17   305.95   273.17 " style="stroke-width: 1.42 ;&st7; "/>
	<path d=" M  305.95,  273.17  C  303.45   273.17   301.42   275.20   301.42   277.71 " style="stroke-width: 1.42 ;&st7; "/>
	<path d=" M  301.42,  277.71  C  301.42   280.21   303.45   282.24   305.95   282.24 " style="stroke-width: 1.42 ;&st7; "/>
	<path d=" M  305.95,  282.24  C  308.45   282.24   310.48   280.21   310.48   277.71 " style="stroke-width: 1.42 ;&st7; "/>
	<path d=" M  310.48,  268.64  C  310.48   266.14   308.45   264.11   305.95   264.11 " style="stroke-width: 1.42 ;&st7; "/>
	<path d=" M  305.95,  264.11  C  303.45   264.11   301.42   266.14   301.42   268.64 " style="stroke-width: 1.42 ;&st7; "/>
	<path d=" M  301.42,  268.64  C  301.42   271.14   303.45   273.17   305.95   273.17 " style="stroke-width: 1.42 ;&st7; "/>
	<path d=" M  305.95,  273.17  C  308.45   273.17   310.48   271.14   310.48   268.64 " style="stroke-width: 1.42 ;&st7; "/>
	<path d=" M  352.97,  277.71  C  352.97   275.20   350.95   273.17   348.44   273.17 " style="stroke-width: 1.42 ;&st7; "/>
	<path d=" M  348.44,  273.17  C  345.94   273.17   343.91   275.20   343.91   277.71 " style="stroke-width: 1.42 ;&st7; "/>
	<path d=" M  343.91,  277.71  C  343.91   280.21   345.94   282.24   348.44   282.24 " style="stroke-width: 1.42 ;&st7; "/>
	<path d=" M  348.44,  282.24  C  350.95   282.24   352.97   280.21   352.97   277.71 " style="stroke-width: 1.42 ;&st7; "/>
	<path d=" M  352.97,  268.64  C  352.97   266.14   350.95   264.11   348.44   264.11 " style="stroke-width: 1.42 ;&st7; "/>
	<path d=" M  348.44,  264.11  C  345.94   264.11   343.91   266.14   343.91   268.64 " style="stroke-width: 1.42 ;&st7; "/>
	<path d=" M  343.91,  268.64  C  343.91   271.14   345.94   273.17   348.44   273.17 " style="stroke-width: 1.42 ;&st7; "/>
	<path d=" M  348.44,  273.17  C  350.95   273.17   352.97   271.14   352.97   268.64 " style="stroke-width: 1.42 ;&st7; "/>
	<path d=" M  217.00,  337.76  C  217.00   335.26   214.97   333.23   212.46   333.23 " style="stroke-width: 1.42 ;&st7; "/>
	<path d=" M  212.46,  333.23  C  209.96   333.23   207.93   335.26   207.93   337.76 " style="stroke-width: 1.42 ;&st7; "/>
	<path d=" M  207.93,  337.76  C  207.93   340.27   209.96   342.29   212.46   342.29 " style="stroke-width: 1.42 ;&st7; "/>
	<path d=" M  212.46,  342.29  C  214.97   342.29   217.00   340.27   217.00   337.76 " style="stroke-width: 1.42 ;&st7; "/>
	<path d=" M  217.00,  346.83  C  217.00   344.32   214.97   342.29   212.46   342.29 " style="stroke-width: 1.42 ;&st7; "/>
	<path d=" M  212.46,  342.29  C  209.96   342.29   207.93   344.32   207.93   346.83 " style="stroke-width: 1.42 ;&st7; "/>
	<path d=" M  207.93,  346.83  C  207.93   349.33   209.96   351.36   212.46   351.36 " style="stroke-width: 1.42 ;&st7; "/>
	<path d=" M  212.46,  351.36  C  214.97   351.36   217.00   349.33   217.00   346.83 " style="stroke-width: 1.42 ;&st7; "/>
	<path d=" M  267.99,  337.76  C  267.99   335.26   265.96   333.23   263.46   333.23 " style="stroke-width: 1.42 ;&st7; "/>
	<path d=" M  263.46,  333.23  C  260.95   333.23   258.92   335.26   258.92   337.76 " style="stroke-width: 1.42 ;&st7; "/>
	<path d=" M  258.92,  337.76  C  258.92   340.27   260.95   342.29   263.46   342.29 " style="stroke-width: 1.42 ;&st7; "/>
	<path d=" M  263.46,  342.29  C  265.96   342.29   267.99   340.27   267.99   337.76 " style="stroke-width: 1.42 ;&st7; "/>
	<path d=" M  267.99,  346.83  C  267.99   344.32   265.96   342.29   263.46   342.29 " style="stroke-width: 1.42 ;&st7; "/>
	<path d=" M  263.46,  342.29  C  260.95   342.29   258.92   344.32   258.92   346.83 " style="stroke-width: 1.42 ;&st7; "/>
	<path d=" M  258.92,  346.83  C  258.92   349.33   260.95   351.36   263.46   351.36 " style="stroke-width: 1.42 ;&st7; "/>
	<path d=" M  263.46,  351.36  C  265.96   351.36   267.99   349.33   267.99   346.83 " style="stroke-width: 1.42 ;&st7; "/>
	<path d=" M  386.97,  337.76  C  386.97   335.26   384.94   333.23   382.44   333.23 " style="stroke-width: 1.42 ;&st7; "/>
	<path d=" M  382.44,  333.23  C  379.93   333.23   377.90   335.26   377.90   337.76 " style="stroke-width: 1.42 ;&st7; "/>
	<path d=" M  377.90,  337.76  C  377.90   340.27   379.93   342.29   382.44   342.29 " style="stroke-width: 1.42 ;&st7; "/>
	<path d=" M  382.44,  342.29  C  384.94   342.29   386.97   340.27   386.97   337.76 " style="stroke-width: 1.42 ;&st7; "/>
	<path d=" M  386.97,  346.83  C  386.97   344.32   384.94   342.29   382.44   342.29 " style="stroke-width: 1.42 ;&st7; "/>
	<path d=" M  382.44,  342.29  C  379.93   342.29   377.90   344.32   377.90   346.83 " style="stroke-width: 1.42 ;&st7; "/>
	<path d=" M  377.90,  346.83  C  377.90   349.33   379.93   351.36   382.44   351.36 " style="stroke-width: 1.42 ;&st7; "/>
	<path d=" M  382.44,  351.36  C  384.94   351.36   386.97   349.33   386.97   346.83 " style="stroke-width: 1.42 ;&st7; "/>
	<path d=" M  488.95,  337.76  C  488.95   335.26   486.92   333.23   484.42   333.23 " style="stroke-width: 1.42 ;&st7; "/>
	<path d=" M  484.42,  333.23  C  481.92   333.23   479.89   335.26   479.89   337.76 " style="stroke-width: 1.42 ;&st7; "/>
	<path d=" M  479.89,  337.76  C  479.89   340.27   481.92   342.29   484.42   342.29 " style="stroke-width: 1.42 ;&st7; "/>
	<path d=" M  484.42,  342.29  C  486.92   342.29   488.95   340.27   488.95   337.76 " style="stroke-width: 1.42 ;&st7; "/>
	<path d=" M  488.95,  346.83  C  488.95   344.32   486.92   342.29   484.42   342.29 " style="stroke-width: 1.42 ;&st7; "/>
	<path d=" M  484.42,  342.29  C  481.92   342.29   479.89   344.32   479.89   346.83 " style="stroke-width: 1.42 ;&st7; "/>
	<path d=" M  479.89,  346.83  C  479.89   349.33   481.92   351.36   484.42   351.36 " style="stroke-width: 1.42 ;&st7; "/>
	<path d=" M  484.42,  351.36  C  486.92   351.36   488.95   349.33   488.95   346.83 " style="stroke-width: 1.42 ;&st7; "/>
	<path d=" M  267.99,  277.71  C  267.99   275.20   265.96   273.17   263.46   273.17 " style="stroke-width: 1.42 ;&st7; "/>
	<path d=" M  263.46,  273.17  C  260.95   273.17   258.92   275.20   258.92   277.71 " style="stroke-width: 1.42 ;&st7; "/>
	<path d=" M  258.92,  277.71  C  258.92   280.21   260.95   282.24   263.46   282.24 " style="stroke-width: 1.42 ;&st7; "/>
	<path d=" M  263.46,  282.24  C  265.96   282.24   267.99   280.21   267.99   277.71 " style="stroke-width: 1.42 ;&st7; "/>
	<path d=" M  267.99,  268.64  C  267.99   266.14   265.96   264.11   263.46   264.11 " style="stroke-width: 1.42 ;&st7; "/>
	<path d=" M  263.46,  264.11  C  260.95   264.11   258.92   266.14   258.92   268.64 " style="stroke-width: 1.42 ;&st7; "/>
	<path d=" M  258.92,  268.64  C  258.92   271.14   260.95   273.17   263.46   273.17 " style="stroke-width: 1.42 ;&st7; "/>
	<path d=" M  263.46,  273.17  C  265.96   273.17   267.99   271.14   267.99   268.64 " style="stroke-width: 1.42 ;&st7; "/>
	<path d=" M  225.50,  277.71  C  225.50   275.20   223.47   273.17   220.96   273.17 " style="stroke-width: 1.42 ;&st7; "/>
	<path d=" M  220.96,  273.17  C  218.46   273.17   216.43   275.20   216.43   277.71 " style="stroke-width: 1.42 ;&st7; "/>
	<path d=" M  216.43,  277.71  C  216.43   280.21   218.46   282.24   220.96   282.24 " style="stroke-width: 1.42 ;&st7; "/>
	<path d=" M  220.96,  282.24  C  223.47   282.24   225.50   280.21   225.50   277.71 " style="stroke-width: 1.42 ;&st7; "/>
	<path d=" M  225.50,  268.64  C  225.50   266.14   223.47   264.11   220.96   264.11 " style="stroke-width: 1.42 ;&st7; "/>
	<path d=" M  220.96,  264.11  C  218.46   264.11   216.43   266.14   216.43   268.64 " style="stroke-width: 1.42 ;&st7; "/>
	<path d=" M  216.43,  268.64  C  216.43   271.14   218.46   273.17   220.96   273.17 " style="stroke-width: 1.42 ;&st7; "/>
	<path d=" M  220.96,  273.17  C  223.47   273.17   225.50   271.14   225.50   268.64 " style="stroke-width: 1.42 ;&st7; "/>
	<path d=" M  157.51,  337.76  C  157.51   335.26   155.48   333.23   152.97   333.23 " style="stroke-width: 1.42 ;&st7; "/>
	<path d=" M  152.97,  333.23  C  150.47   333.23   148.44   335.26   148.44   337.76 " style="stroke-width: 1.42 ;&st7; "/>
	<path d=" M  148.44,  337.76  C  148.44   340.27   150.47   342.29   152.97   342.29 " style="stroke-width: 1.42 ;&st7; "/>
	<path d=" M  152.97,  342.29  C  155.48   342.29   157.51   340.27   157.51   337.76 " style="stroke-width: 1.42 ;&st7; "/>
	<path d=" M  157.51,  346.83  C  157.51   344.32   155.48   342.29   152.97   342.29 " style="stroke-width: 1.42 ;&st7; "/>
	<path d=" M  152.97,  342.29  C  150.47   342.29   148.44   344.32   148.44   346.83 " style="stroke-width: 1.42 ;&st7; "/>
	<path d=" M  148.44,  346.83  C  148.44   349.33   150.47   351.36   152.97   351.36 " style="stroke-width: 1.42 ;&st7; "/>
	<path d=" M  152.97,  351.36  C  155.48   351.36   157.51   349.33   157.51   346.83 " style="stroke-width: 1.42 ;&st7; "/>
	<path d=" M   64.02,  337.76  C   64.02   335.26    61.99   333.23    59.49   333.23 " style="stroke-width: 1.42 ;&st7; "/>
	<path d=" M   59.49,  333.23  C   56.99   333.23    54.96   335.26    54.96   337.76 " style="stroke-width: 1.42 ;&st7; "/>
	<path d=" M   54.96,  337.76  C   54.96   340.27    56.99   342.29    59.49   342.29 " style="stroke-width: 1.42 ;&st7; "/>
	<path d=" M   59.49,  342.29  C   61.99   342.29    64.02   340.27    64.02   337.76 " style="stroke-width: 1.42 ;&st7; "/>
	<path d=" M   64.02,  346.83  C   64.02   344.32    61.99   342.29    59.49   342.29 " style="stroke-width: 1.42 ;&st7; "/>
	<path d=" M   59.49,  342.29  C   56.99   342.29    54.96   344.32    54.96   346.83 " style="stroke-width: 1.42 ;&st7; "/>
	<path d=" M   54.96,  346.83  C   54.96   349.33    56.99   351.36    59.49   351.36 " style="stroke-width: 1.42 ;&st7; "/>
	<path d=" M   59.49,  351.36  C   61.99   351.36    64.02   349.33    64.02   346.83 " style="stroke-width: 1.42 ;&st7; "/>
	<path d=" M   30.03,  337.76  C   30.03   335.26    28.00   333.23    25.50   333.23 " style="stroke-width: 1.42 ;&st7; "/>
	<path d=" M   25.50,  333.23  C   22.99   333.23    20.96   335.26    20.96   337.76 " style="stroke-width: 1.42 ;&st7; "/>
	<path d=" M   20.96,  337.76  C   20.96   340.27    22.99   342.29    25.50   342.29 " style="stroke-width: 1.42 ;&st7; "/>
	<path d=" M   25.50,  342.29  C   28.00   342.29    30.03   340.27    30.03   337.76 " style="stroke-width: 1.42 ;&st7; "/>
	<path d=" M   30.03,  346.83  C   30.03   344.32    28.00   342.29    25.50   342.29 " style="stroke-width: 1.42 ;&st7; "/>
	<path d=" M   25.50,  342.29  C   22.99   342.29    20.96   344.32    20.96   346.83 " style="stroke-width: 1.42 ;&st7; "/>
	<path d=" M   20.96,  346.83  C   20.96   349.33    22.99   351.36    25.50   351.36 " style="stroke-width: 1.42 ;&st7; "/>
	<path d=" M   25.50,  351.36  C   28.00   351.36    30.03   349.33    30.03   346.83 " style="stroke-width: 1.42 ;&st7; "/>
	<path d=" M  488.95,  617.65  C  488.95   615.15   486.92   613.12   484.42   613.12 " style="stroke-width: 1.42 ;&st7; "/>
	<path d=" M  484.42,  613.12  C  481.92   613.12   479.89   615.15   479.89   617.65 " style="stroke-width: 1.42 ;&st7; "/>
	<path d=" M  479.89,  617.65  C  479.89   620.15   481.92   622.18   484.42   622.18 " style="stroke-width: 1.42 ;&st7; "/>
	<path d=" M  484.42,  622.18  C  486.92   622.18   488.95   620.15   488.95   617.65 " style="stroke-width: 1.42 ;&st7; "/>
	<path d=" M  488.95,  608.58  C  488.95   606.08   486.92   604.05   484.42   604.05 " style="stroke-width: 1.42 ;&st7; "/>
	<path d=" M  484.42,  604.05  C  481.92   604.05   479.89   606.08   479.89   608.58 " style="stroke-width: 1.42 ;&st7; "/>
	<path d=" M  479.89,  608.58  C  479.89   611.09   481.92   613.12   484.42   613.12 " style="stroke-width: 1.42 ;&st7; "/>
	<path d=" M  484.42,  613.12  C  486.92   613.12   488.95   611.09   488.95   608.58 " style="stroke-width: 1.42 ;&st7; "/>
	<path d=" M   26.91,   68.36  C   26.91    67.57    26.28    66.94    25.50    66.94 " style="stroke-width: 0.85 ;&st7; "/>
	<path d=" M   25.50,   66.94  C   24.71    66.94    24.08    67.57    24.08    68.36 " style="stroke-width: 0.85 ;&st7; "/>
	<path d=" M   24.08,   68.36  C   24.08    69.14    24.71    69.77    25.50    69.77 " style="stroke-width: 0.85 ;&st7; "/>
	<path d=" M   25.50,   69.77  C   26.28    69.77    26.91    69.14    26.91    68.36 " style="stroke-width: 0.85 ;&st7; "/>
	<path d=" M   26.91,   45.69  C   26.91    44.91    26.28    44.28    25.50    44.28 " style="stroke-width: 0.85 ;&st7; "/>
	<path d=" M   25.50,   44.28  C   24.71    44.28    24.08    44.91    24.08    45.69 " style="stroke-width: 0.85 ;&st7; "/>
	<path d=" M   24.08,   45.69  C   24.08    46.48    24.71    47.11    25.50    47.11 " style="stroke-width: 0.85 ;&st7; "/>
	<path d=" M   25.50,   47.11  C   26.28    47.11    26.91    46.48    26.91    45.69 " style="stroke-width: 0.85 ;&st7; "/>
	<path d=" M   25.50,   66.94  C   28.23    65.33    29.15    61.80    27.53    59.06 " style="stroke-width: 1.42 ;&st7; "/>
	<path d=" M   27.53,   59.06  C   27.01    58.18    26.38    57.55    25.50    57.03 " style="stroke-width: 1.42 ;&st7; "/>
	<path d=" M   25.50,   47.11  C   22.76    48.72    21.85    52.25    23.46    54.99 " style="stroke-width: 1.42 ;&st7; "/>
	<path d=" M   23.46,   54.99  C   23.98    55.87    24.61    56.51    25.50    57.03 " style="stroke-width: 1.42 ;&st7; "/>
	<path d=" M   23.37,  154.76  C   21.02   154.76    19.12   156.66    19.12   159.01 " style="stroke-width: 1.42 ;&st7; "/>
	<path d=" M   19.12,  159.01  C   19.12   161.36    21.02   163.26    23.37   163.26 " style="stroke-width: 1.42 ;&st7; "/>
	<path d=" M   27.62,  163.26  C   29.97   163.26    31.87   161.36    31.87   159.01 " style="stroke-width: 1.42 ;&st7; "/>
	<path d=" M   31.87,  159.01  C   31.87   156.66    29.97   154.76    27.62   154.76 " style="stroke-width: 1.42 ;&st7; "/>
	<path d=" M   23.37,  197.25  C   21.02   197.25    19.12   199.15    19.12   201.50 " style="stroke-width: 1.42 ;&st7; "/>
	<path d=" M   19.12,  201.50  C   19.12   203.85    21.02   205.75    23.37   205.75 " style="stroke-width: 1.42 ;&st7; "/>
	<path d=" M   27.62,  205.75  C   29.97   205.75    31.87   203.85    31.87   201.50 " style="stroke-width: 1.42 ;&st7; "/>
	<path d=" M   31.87,  201.50  C   31.87   199.15    29.97   197.25    27.62   197.25 " style="stroke-width: 1.42 ;&st7; "/>
	<path d=" M  159.35,   99.52  C  159.35    97.17   157.45    95.27   155.10    95.27 " style="stroke-width: 1.42 ;&st7; "/>
	<path d=" M  155.10,  103.77  C  157.45   103.77   159.35   101.87   159.35    99.52 " style="stroke-width: 1.42 ;&st7; "/>
	<path d=" M  146.60,   99.52  C  146.60   101.87   148.50   103.77   150.85   103.77 " style="stroke-width: 1.42 ;&st7; "/>
	<path d=" M  150.85,   95.27  C  148.50    95.27   146.60    97.17   146.60    99.52 " style="stroke-width: 1.42 ;&st7; "/>
	<path d=" M  150.85,  154.76  C  148.50   154.76   146.60   156.66   146.60   159.01 " style="stroke-width: 1.42 ;&st7; "/>
	<path d=" M  146.60,  159.01  C  146.60   161.36   148.50   163.26   150.85   163.26 " style="stroke-width: 1.42 ;&st7; "/>
	<path d=" M  155.10,  163.26  C  157.45   163.26   159.35   161.36   159.35   159.01 " style="stroke-width: 1.42 ;&st7; "/>
	<path d=" M  159.35,  159.01  C  159.35   156.66   157.45   154.76   155.10   154.76 " style="stroke-width: 1.42 ;&st7; "/>
	<path d=" M  150.85,  197.25  C  148.50   197.25   146.60   199.15   146.60   201.50 " style="stroke-width: 1.42 ;&st7; "/>
	<path d=" M  146.60,  201.50  C  146.60   203.85   148.50   205.75   150.85   205.75 " style="stroke-width: 1.42 ;&st7; "/>
	<path d=" M  155.10,  205.75  C  157.45   205.75   159.35   203.85   159.35   201.50 " style="stroke-width: 1.42 ;&st7; "/>
	<path d=" M  159.35,  201.50  C  159.35   199.15   157.45   197.25   155.10   197.25 " style="stroke-width: 1.42 ;&st7; "/>
	<path d=" M  150.85,  537.20  C  148.50   537.20   146.60   539.10   146.60   541.44 " style="stroke-width: 1.42 ;&st7; "/>
	<path d=" M  146.60,  541.44  C  146.60   543.79   148.50   545.69   150.85   545.69 " style="stroke-width: 1.42 ;&st7; "/>
	<path d=" M  155.10,  545.69  C  157.45   545.69   159.35   543.79   159.35   541.44 " style="stroke-width: 1.42 ;&st7; "/>
	<path d=" M  159.35,  541.44  C  159.35   539.10   157.45   537.20   155.10   537.20 " style="stroke-width: 1.42 ;&st7; "/>
	<path d=" M  150.85,  579.69  C  148.50   579.69   146.60   581.59   146.60   583.94 " style="stroke-width: 1.42 ;&st7; "/>
	<path d=" M  146.60,  583.94  C  146.60   586.28   148.50   588.19   150.85   588.19 " style="stroke-width: 1.42 ;&st7; "/>
	<path d=" M  155.10,  588.19  C  157.45   588.19   159.35   586.28   159.35   583.94 " style="stroke-width: 1.42 ;&st7; "/>
	<path d=" M  159.35,  583.94  C  159.35   581.59   157.45   579.69   155.10   579.69 " style="stroke-width: 1.42 ;&st7; "/>
	<path d=" M  210.34,  452.21  C  207.99   452.21   206.09   454.11   206.09   456.46 " style="stroke-width: 1.42 ;&st7; "/>
	<path d=" M  206.09,  456.46  C  206.09   458.81   207.99   460.71   210.34   460.71 " style="stroke-width: 1.42 ;&st7; "/>
	<path d=" M  214.59,  460.71  C  216.94   460.71   218.84   458.81   218.84   456.46 " style="stroke-width: 1.42 ;&st7; "/>
	<path d=" M  218.84,  456.46  C  218.84   454.11   216.94   452.21   214.59   452.21 " style="stroke-width: 1.42 ;&st7; "/>
	<path d=" M  210.34,  494.70  C  207.99   494.70   206.09   496.61   206.09   498.95 " style="stroke-width: 1.42 ;&st7; "/>
	<path d=" M  206.09,  498.95  C  206.09   501.30   207.99   503.20   210.34   503.20 " style="stroke-width: 1.42 ;&st7; "/>
	<path d=" M  214.59,  503.20  C  216.94   503.20   218.84   501.30   218.84   498.95 " style="stroke-width: 1.42 ;&st7; "/>
	<path d=" M  218.84,  498.95  C  218.84   496.61   216.94   494.70   214.59   494.70 " style="stroke-width: 1.42 ;&st7; "/>
	<path d=" M  380.31,  367.22  C  377.96   367.22   376.06   369.13   376.06   371.47 " style="stroke-width: 1.42 ;&st7; "/>
	<path d=" M  376.06,  371.47  C  376.06   373.82   377.96   375.72   380.31   375.72 " style="stroke-width: 1.42 ;&st7; "/>
	<path d=" M  384.56,  375.72  C  386.91   375.72   388.81   373.82   388.81   371.47 " style="stroke-width: 1.42 ;&st7; "/>
	<path d=" M  388.81,  371.47  C  388.81   369.13   386.91   367.22   384.56   367.22 " style="stroke-width: 1.42 ;&st7; "/>
	<path d=" M  380.31,  409.72  C  377.96   409.72   376.06   411.62   376.06   413.97 " style="stroke-width: 1.42 ;&st7; "/>
	<path d=" M  376.06,  413.97  C  376.06   416.31   377.96   418.22   380.31   418.22 " style="stroke-width: 1.42 ;&st7; "/>
	<path d=" M  384.56,  418.22  C  386.91   418.22   388.81   416.31   388.81   413.97 " style="stroke-width: 1.42 ;&st7; "/>
	<path d=" M  388.81,  413.97  C  388.81   411.62   386.91   409.72   384.56   409.72 " style="stroke-width: 1.42 ;&st7; "/>
	<path d=" M  439.80,  409.72  C  437.45   409.72   435.55   411.62   435.55   413.97 " style="stroke-width: 1.42 ;&st7; "/>
	<path d=" M  435.55,  413.97  C  435.55   416.31   437.45   418.22   439.80   418.22 " style="stroke-width: 1.42 ;&st7; "/>
	<path d=" M  444.05,  418.22  C  446.40   418.22   448.30   416.31   448.30   413.97 " style="stroke-width: 1.42 ;&st7; "/>
	<path d=" M  448.30,  413.97  C  448.30   411.62   446.40   409.72   444.05   409.72 " style="stroke-width: 1.42 ;&st7; "/>
	<path d=" M  383.85,  506.03  C  383.85   505.25   383.22   504.62   382.44   504.62 " style="stroke-width: 0.85 ;&st7; "/>
	<path d=" M  382.44,  504.62  C  381.65   504.62   381.02   505.25   381.02   506.03 " style="stroke-width: 0.85 ;&st7; "/>
	<path d=" M  381.02,  506.03  C  381.02   506.82   381.65   507.45   382.44   507.45 " style="stroke-width: 0.85 ;&st7; "/>
	<path d=" M  382.44,  507.45  C  383.22   507.45   383.85   506.82   383.85   506.03 " style="stroke-width: 0.85 ;&st7; "/>
	<path d=" M  383.85,  483.37  C  383.85   482.59   383.22   481.95   382.44   481.95 " style="stroke-width: 0.85 ;&st7; "/>
	<path d=" M  382.44,  481.95  C  381.65   481.95   381.02   482.59   381.02   483.37 " style="stroke-width: 0.85 ;&st7; "/>
	<path d=" M  381.02,  483.37  C  381.02   484.15   381.65   484.79   382.44   484.79 " style="stroke-width: 0.85 ;&st7; "/>
	<path d=" M  382.44,  484.79  C  383.22   484.79   383.85   484.15   383.85   483.37 " style="stroke-width: 0.85 ;&st7; "/>
	<path d=" M  443.34,  506.03  C  443.34   505.25   442.71   504.62   441.93   504.62 " style="stroke-width: 0.85 ;&st7; "/>
	<path d=" M  441.93,  504.62  C  441.14   504.62   440.51   505.25   440.51   506.03 " style="stroke-width: 0.85 ;&st7; "/>
	<path d=" M  440.51,  506.03  C  440.51   506.82   441.14   507.45   441.93   507.45 " style="stroke-width: 0.85 ;&st7; "/>
	<path d=" M  441.93,  507.45  C  442.71   507.45   443.34   506.82   443.34   506.03 " style="stroke-width: 0.85 ;&st7; "/>
	<path d=" M  443.34,  483.37  C  443.34   482.59   442.71   481.95   441.93   481.95 " style="stroke-width: 0.85 ;&st7; "/>
	<path d=" M  441.93,  481.95  C  441.14   481.95   440.51   482.59   440.51   483.37 " style="stroke-width: 0.85 ;&st7; "/>
	<path d=" M  440.51,  483.37  C  440.51   484.15   441.14   484.79   441.93   484.79 " style="stroke-width: 0.85 ;&st7; "/>
	<path d=" M  441.93,  484.79  C  442.71   484.79   443.34   484.15   443.34   483.37 " style="stroke-width: 0.85 ;&st7; "/>
	<path d=" M  380.31,  571.19  C  377.96   571.19   376.06   573.09   376.06   575.44 " style="stroke-width: 1.42 ;&st7; "/>
	<path d=" M  376.06,  575.44  C  376.06   577.79   377.96   579.69   380.31   579.69 " style="stroke-width: 1.42 ;&st7; "/>
	<path d=" M  384.56,  579.69  C  386.91   579.69   388.81   577.79   388.81   575.44 " style="stroke-width: 1.42 ;&st7; "/>
	<path d=" M  388.81,  575.44  C  388.81   573.09   386.91   571.19   384.56   571.19 " style="stroke-width: 1.42 ;&st7; "/>
	<path d=" M  380.31,  613.68  C  377.96   613.68   376.06   615.59   376.06   617.93 " style="stroke-width: 1.42 ;&st7; "/>
	<path d=" M  376.06,  617.93  C  376.06   620.28   377.96   622.18   380.31   622.18 " style="stroke-width: 1.42 ;&st7; "/>
	<path d=" M  384.56,  622.18  C  386.91   622.18   388.81   620.28   388.81   617.93 " style="stroke-width: 1.42 ;&st7; "/>
	<path d=" M  388.81,  617.93  C  388.81   615.59   386.91   613.68   384.56   613.68 " style="stroke-width: 1.42 ;&st7; "/>
	<path d=" M  439.80,  571.19  C  437.45   571.19   435.55   573.09   435.55   575.44 " style="stroke-width: 1.42 ;&st7; "/>
	<path d=" M  435.55,  575.44  C  435.55   577.79   437.45   579.69   439.80   579.69 " style="stroke-width: 1.42 ;&st7; "/>
	<path d=" M  444.05,  579.69  C  446.40   579.69   448.30   577.79   448.30   575.44 " style="stroke-width: 1.42 ;&st7; "/>
	<path d=" M  448.30,  575.44  C  448.30   573.09   446.40   571.19   444.05   571.19 " style="stroke-width: 1.42 ;&st7; "/>
	<text style="&st18;" transform="matrix(&st16;  137.11  585.91 )">12</text>
	<text style="&st18;" transform="matrix(&st17;  149.28  493.9 )">W-B</text>
	<text style="&st18;" transform="matrix(&st17;  21.8  375.07 )">W-R</text>
	<text style="&st18;" transform="matrix(&st17;  149.28  629.88 )">W-B</text>
	<text ewd:textID="12" style="&st18;" transform="matrix(&st17;  176.19  446.24 )">Junction <tspan dy="6" x="-0.01">Connector</tspan></text>
	<text style="&st18;" transform="matrix(&st17;  169.08  446.24 )">H46</text>
	<text style="&st18;" transform="matrix(&st16;  208.01  458.43 )">6C</text>
	<text style="&st18;" transform="matrix(&st16;  196.6  458.43 )">19</text>
	<text style="&st18;" transform="matrix(&st16;  208.01  500.92 )">6C</text>
	<text style="&st18;" transform="matrix(&st16;  196.6  500.92 )">17</text>
	<text style="&st18;" transform="matrix(&st16;  205.68  567.5 )">7</text>
	<text style="&st18;" transform="matrix(&st16;  207.17  578.82 )">SIL</text>
	<text style="&st18;" transform="matrix(&st16;  192.94  619.9 )">DLC3</text>
	<text style="&st18;" transform="matrix(&st16;  192.94  612.79 )">H23</text>
	<text style="&st18;" transform="matrix(&st17;  208.77  540.55 )">W</text>
	<text ewd:textID="13" style="&st18;" transform="matrix(&st17;  255.51  486.24 )">Security</text>
	<text style="&st18;" transform="matrix(&st16;  266.29  460.4 )">LP</text>
	<text style="&st18;" transform="matrix(&st16;  252.7  448.52 )">35</text>
	<text style="&st18;" transform="matrix(&st16;  256.67  502.9 )">7</text>
	<text style="&st18;" transform="matrix(&st16;  266.29  491.01 )">E1</text>
	<text ewd:textID="9" style="&st18;" transform="matrix(&st17;  242.76  497.23 )">Combination Meter</text>
	<text style="&st18;" transform="matrix(&st17;  235.66  497.23 )">H20</text>
	<text style="&st18;" transform="matrix(&st16;  249.42  585.91 )">1</text>
	<text style="&st18;" transform="matrix(&st17;  259.76  544.9 )">W-B</text>
	<text style="&st18;" transform="matrix(&st17;  259.76  638.38 )">W-B</text>
	<text style="&st18;" transform="matrix(&st16;  378.13  373.44 )">6B</text>
	<text style="&st18;" transform="matrix(&st16;  369.75  373.44 )">4</text>
	<text style="&st18;" transform="matrix(&st16;  378.13  415.94 )">6B</text>
	<text style="&st18;" transform="matrix(&st16;  369.75  415.94 )">2</text>
	<text style="&st18;" transform="matrix(&st16;  437.62  415.94 )">6B</text>
	<text style="&st18;" transform="matrix(&st16;  429.24  415.94 )">3</text>
	<text style="&st18;" transform="matrix(&st16;  378.34  577.41 )">6F</text>
	<text style="&st18;" transform="matrix(&st16;  366.57  577.41 )">16</text>
	<text style="&st18;" transform="matrix(&st16;  378.34  619.9 )">6F</text>
	<text style="&st18;" transform="matrix(&st16;  366.57  619.9 )">10</text>
	<text style="&st18;" transform="matrix(&st16;  437.83  577.41 )">6F</text>
	<text style="&st18;" transform="matrix(&st16;  426.06  577.41 )">17</text>
	<text style="&st18;" transform="matrix(&st17;  378.74  441.89 )">Y-B</text>
	<text style="&st18;" transform="matrix(&st17;  390.07  443.02 )">(A/T)</text>
	<text style="&st18;" transform="matrix(&st17;  438.23  437.54 )">Y</text>
	<text style="&st18;" transform="matrix(&st17;  449.56  443.58 )">(M/T)</text>
	<text style="&st18;" transform="matrix(&st17;  438.23  561.89 )">W-B</text>
	<text style="&st18;" transform="matrix(&st17;  449.56  562.56 )">(M/T)</text>
	<text style="&st18;" transform="matrix(&st17;  378.74  561.89 )">W-B</text>
	<text style="&st18;" transform="matrix(&st17;  390.07  562.0 )">(A/T)</text>
	<text style="&st18;" transform="matrix(&st16;  318.85  619.9 )">6F</text>
	<text style="&st18;" transform="matrix(&st16;  310.26  619.9 )">9</text>
	<text style="&st18;" transform="matrix(&st16;  318.85  653.9 )">6F</text>
	<text style="&st18;" transform="matrix(&st16;  311.03  653.9 )">1</text>
	<text style="&st18;" transform="matrix(&st17;  319.25  604.39 )">W-B</text>
	<text style="&st18;" transform="matrix(&st17;  319.25  676.62 )">W-B</text>
	<text ewd:textID="16" style="&st18;" transform="matrix(&st17;  364.29  514.22 )">Unlock <tspan dy="6" x="0">Warning SW</tspan></text>
	<text style="&st18;" transform="matrix(&st17;  357.19  514.22 )">H26</text>
	<text style="&st18;" transform="matrix(&st16;  479.97  415.94 )">6D</text>
	<text style="&st18;" transform="matrix(&st16;  468.55  415.94 )">18</text>
	<text style="&st18;" transform="matrix(&st16;  479.97  449.93 )">6D</text>
	<text style="&st18;" transform="matrix(&st16;  468.55  449.93 )">13</text>
	<text style="&st18;" transform="matrix(&st16;  479.97  500.92 )">5D</text>
	<text style="&st18;" transform="matrix(&st16;  471.73  500.92 )">7</text>
	<text style="&st18;" transform="matrix(&st16;  480.11  534.92 )">5E</text>
	<text style="&st18;" transform="matrix(&st16;  467.77  534.92 )">27</text>
	<text style="&st18;" transform="matrix(&st17;  480.72  577.65 )">R-L</text>
	<text style="&st18;" transform="matrix(&st17;  480.72  480.7 )">R-G</text>
	<text style="&st18;" transform="matrix(&st16;  21.05  101.49 )">5D</text>
	<text style="&st18;" transform="matrix(&st16;  13.58  101.49 )">1</text>
	<text style="&st18;" transform="matrix(&st17;  21.8  144.58 )">B-R</text>
	<text style="&st18;" transform="matrix(&st16;  6.73  398.94 )">52</text>
	<text style="&st18;" transform="matrix(&st16;  41.5  398.94 )">15</text>
	<text ewd:textID="11" style="&st18;" transform="matrix(&st16;  14.47  517.92 )">Engine ECU</text>
	<text style="&st18;" transform="matrix(&st16;  14.47  510.81 )">B7(B),B47(I)</text>
	<text style="&st18;" transform="matrix(&st16;  18.86  476.84 )">IMO</text>
	<text style="&st18;" transform="matrix(&st16;  54.62  476.84 )">IMI</text>
	<text style="&st18;" transform="matrix(&st16;  106.03  415.94 )">6C</text>
	<text style="&st18;" transform="matrix(&st16;  94.61  415.94 )">12</text>
	<text style="&st18;" transform="matrix(&st16;  106.03  458.43 )">6C</text>
	<text style="&st18;" transform="matrix(&st16;  95.39  458.43 )">11</text>
	<text style="&st18;" transform="matrix(&st17;  160.61  390.4 )">(*2)</text>
	<text style="&st18;" transform="matrix(&st17;  160.61  492.39 )">(*2)</text>
	<text style="&st18;" transform="matrix(&st17;  106.79  391.92 )">W-B</text>
	<text style="&st18;" transform="matrix(&st17;  118.12  390.01 )">(*1)</text>
	<text style="&st18;" transform="matrix(&st17;  106.79  493.9 )">W-B</text>
	<text style="&st18;" transform="matrix(&st17;  118.12  492.0 )">(*1)</text>
	<text style="&st18;" transform="matrix(&st17;  84.1  191.28 )">H46</text>
	<text ewd:textID="12" style="&st18;" transform="matrix(&st17;  91.2  191.28 )">Junction <tspan dy="6" x="0">Connector</tspan></text>
	<text style="&st18;" transform="matrix(&st16;  61.2  196.95 )">3</text>
	<text style="&st18;" transform="matrix(&st16;  61.98  168.07 )">1</text>
	<text style="&st18;" transform="matrix(&st17;  33.13  143.94 )">(*2)</text>
	<text style="&st18;" transform="matrix(&st17;  33.13  241.68 )">(*2)</text>
	<text style="&st18;" transform="matrix(&st17;  64.29  144.58 )">B-R</text>
	<text style="&st18;" transform="matrix(&st17;  75.62  143.55 )">(*1)</text>
	<text style="&st18;" transform="matrix(&st17;  64.29  242.31 )">B-R</text>
	<text style="&st18;" transform="matrix(&st17;  75.62  241.29 )">(*1)</text>
	<text ewd:textID="2" style="&st18;" transform="matrix(&st16;  294.93  29.25 )">* 2 :Except *1</text>
	<text ewd:textID="1" style="&st18;" transform="matrix(&st16;  294.93  20.75 )">* 1 :RHD From Sep. 2007 Production</text>
	<text ewd:textID="3" style="&st18;" transform="matrix(&st16;  294.93  37.75 )">* 3 :Before Apr. 2009 Production</text>
	<text ewd:textID="4" style="&st18;" transform="matrix(&st16;  294.93  46.25 )">* 4 :From Apr. 2009 Production</text>
	<text style="&st18;" transform="matrix(&st17;  285.26  595.89 )">W-B</text>
	<text style="&st18;" transform="matrix(&st17;  296.59  594.37 )">(*4)</text>
	<text style="&st18;" transform="matrix(&st17;  271.09  543.38 )">(*3)</text>
	<text style="&st18;" transform="matrix(&st17;  271.09  636.86 )">(*3)</text>
	<text style="&st18;" transform="matrix(&st16;  170.28  56.17 )">10A <tspan dy="6" x="0">ECU-B</tspan></text>
	<text style="&st18;" transform="matrix(&st16;  143.86  32.08 )">(BAT)</text>
	<text ewd:textID="5" style="&st18;" transform="matrix(&st16;  294.93  54.75 )">* 5 :1KD-FTV Before Aug. 2010 Production, 2KD-FTV</text>
	<text ewd:textID="6" style="&st18;" transform="matrix(&st16;  294.93  63.24 )">* 6 :1KD-FTV From Aug. 2010 Production</text>
	<text style="&st18;" transform="matrix(&st16;  65.46  466.64 )">(*6)</text>
	<text style="&st18;" transform="matrix(&st16;  44.66  466.64 )">28</text>
	<text style="&st18;" transform="matrix(&st16;  58.5  466.64 )">I</text>
	<text style="&st18;" transform="matrix(&st16;  65.46  457.58 )">(*5)</text>
	<text style="&st18;" transform="matrix(&st16;  44.66  457.58 )">30</text>
	<text style="&st18;" transform="matrix(&st16;  57.16  457.58 )">B</text>
	<text style="&st18;" transform="matrix(&st16;  11.44  348.8 )">12</text>
	<text ewd:textID="16" style="&st18;" transform="matrix(&st17;  423.78  514.22 )">Unlock <tspan dy="6" x="0">Warning SW</tspan></text>
	<text style="&st18;" transform="matrix(&st17;  416.68  514.22 )">H27</text>
	<text ewd:textID="7" style="&st18;" transform="matrix(&st16;  294.93  71.74 )">* 7 :Before Aug. 2010 Production</text>
	<text ewd:textID="8" style="&st18;" transform="matrix(&st16;  294.93  80.24 )">* 8 :From Aug. 2010 Production</text>
	<text ewd:textID="10" style="&st18;" transform="matrix(&st17;  466.28  658.7 )">Door Courtesy SW <tspan dy="6" x="0">(Front RH)</tspan></text>
	<text style="&st18;" transform="matrix(&st17;  459.17  658.7 )">B26(A),B57(B)</text>
	<text style="&st18;" transform="matrix(&st16;  490.39  619.62 )">(*8)</text>
	<text style="&st18;" transform="matrix(&st16;  482.09  619.62 )">B</text>
	<text style="&st18;" transform="matrix(&st16;  474.32  619.62 )">1</text>
	<text style="&st18;" transform="matrix(&st16;  490.39  610.55 )">(*7)</text>
	<text style="&st18;" transform="matrix(&st16;  482.09  610.55 )">A</text>
	<text style="&st18;" transform="matrix(&st16;  474.32  610.55 )">1</text>
	<text style="&st18;" transform="matrix(&st16;  376.42  519.89 )">1</text>
	<text style="&st18;" transform="matrix(&st16;  435.91  519.89 )">1</text>
	<text style="&st18;" transform="matrix(&st16;  435.14  474.02 )">2</text>
	<text style="&st18;" transform="matrix(&st16;  375.65  474.02 )">2</text>
	<text style="&st18;" transform="matrix(&st16;  10.66  466.64 )">29</text>
	<text style="&st18;" transform="matrix(&st16;  24.51  466.64 )">I</text>
	<text style="&st18;" transform="matrix(&st16;  10.66  457.58 )">29</text>
	<text style="&st18;" transform="matrix(&st16;  23.16  457.58 )">B</text>
	<text style="&st18;" transform="matrix(&st16;  14.62  279.67 )">2</text>
	<text style="&st18;" transform="matrix(&st16;  23.16  279.67 )">B</text>
	<text style="&st18;" transform="matrix(&st16;  14.62  270.61 )">2</text>
	<text style="&st18;" transform="matrix(&st16;  23.16  270.61 )">A</text>
	<text style="&st18;" transform="matrix(&st16;  142.87  279.67 )">1</text>
	<text style="&st18;" transform="matrix(&st16;  150.64  279.67 )">B</text>
	<text style="&st18;" transform="matrix(&st16;  142.87  270.61 )">1</text>
	<text style="&st18;" transform="matrix(&st16;  150.64  270.61 )">A</text>
	<text style="&st18;" transform="matrix(&st16;  295.07  279.67 )">4</text>
	<text style="&st18;" transform="matrix(&st16;  303.62  279.67 )">B</text>
	<text style="&st18;" transform="matrix(&st16;  295.07  270.61 )">4</text>
	<text style="&st18;" transform="matrix(&st16;  303.62  270.61 )">A</text>
	<text style="&st18;" transform="matrix(&st16;  354.42  279.67 )">(*8)</text>
	<text style="&st18;" transform="matrix(&st16;  337.57  279.67 )">5</text>
	<text style="&st18;" transform="matrix(&st16;  346.11  279.67 )">B</text>
	<text style="&st18;" transform="matrix(&st16;  354.42  270.61 )">(*7)</text>
	<text style="&st18;" transform="matrix(&st16;  337.57  270.61 )">5</text>
	<text style="&st18;" transform="matrix(&st16;  346.11  270.61 )">A</text>
	<text style="&st18;" transform="matrix(&st16;  201.59  339.73 )">9</text>
	<text style="&st18;" transform="matrix(&st16;  210.13  339.73 )">A</text>
	<text style="&st18;" transform="matrix(&st16;  201.59  348.8 )">9</text>
	<text style="&st18;" transform="matrix(&st16;  210.13  348.8 )">B</text>
	<text style="&st18;" transform="matrix(&st16;  252.58  339.73 )">8</text>
	<text style="&st18;" transform="matrix(&st16;  261.12  339.73 )">A</text>
	<text style="&st18;" transform="matrix(&st16;  252.58  348.8 )">8</text>
	<text style="&st18;" transform="matrix(&st16;  261.12  348.8 )">B</text>
	<text style="&st18;" transform="matrix(&st16;  371.56  339.73 )">3</text>
	<text style="&st18;" transform="matrix(&st16;  380.1  339.73 )">A</text>
	<text style="&st18;" transform="matrix(&st16;  371.56  348.8 )">3</text>
	<text style="&st18;" transform="matrix(&st16;  380.1  348.8 )">B</text>
	<text style="&st18;" transform="matrix(&st16;  490.39  339.73 )">(*7)</text>
	<text style="&st18;" transform="matrix(&st16;  473.54  339.73 )">7</text>
	<text style="&st18;" transform="matrix(&st16;  482.09  339.73 )">A</text>
	<text style="&st18;" transform="matrix(&st16;  490.39  348.8 )">(*8)</text>
	<text style="&st18;" transform="matrix(&st16;  473.54  348.8 )">7</text>
	<text style="&st18;" transform="matrix(&st16;  482.09  348.8 )">B</text>
	<text style="&st18;" transform="matrix(&st16;  261.12  279.67 )">B</text>
	<text style="&st18;" transform="matrix(&st16;  249.4  279.67 )">15</text>
	<text style="&st18;" transform="matrix(&st16;  261.12  270.61 )">A</text>
	<text style="&st18;" transform="matrix(&st16;  249.4  270.61 )">15</text>
	<text style="&st18;" transform="matrix(&st16;  218.63  279.67 )">B</text>
	<text style="&st18;" transform="matrix(&st16;  206.91  279.67 )">14</text>
	<text style="&st18;" transform="matrix(&st16;  218.63  270.61 )">A</text>
	<text style="&st18;" transform="matrix(&st16;  206.91  270.61 )">14</text>
	<text style="&st18;" transform="matrix(&st16;  150.64  339.73 )">A</text>
	<text style="&st18;" transform="matrix(&st16;  138.92  339.73 )">16</text>
	<text style="&st18;" transform="matrix(&st16;  150.64  348.8 )">B</text>
	<text style="&st18;" transform="matrix(&st16;  138.92  348.8 )">16</text>
	<text style="&st18;" transform="matrix(&st16;  57.16  339.73 )">A</text>
	<text style="&st18;" transform="matrix(&st16;  45.43  339.73 )">13</text>
	<text style="&st18;" transform="matrix(&st16;  57.16  348.8 )">B</text>
	<text style="&st18;" transform="matrix(&st16;  45.43  348.8 )">13</text>
	<text style="&st18;" transform="matrix(&st16;  23.16  339.73 )">A</text>
	<text style="&st18;" transform="matrix(&st16;  11.44  339.73 )">12</text>
	<text style="&st18;" transform="matrix(&st16;  23.16  348.8 )">B</text>
	<text style="&st18;" transform="matrix(&st16;  42.8  56.17 )">15A <tspan dy="6" x="0">IGN</tspan></text>
	<text style="&st18;" transform="matrix(&st16;  19.42  32.08 )">(IG)</text>
	<text style="&st18;" transform="matrix(&st17;  21.8  443.05 )">W-R</text>
	<text style="&st18;" transform="matrix(&st17;  55.8  442.91 )">B-W</text>
	<text style="&st18;" transform="matrix(&st16;  21.05  160.98 )">6C</text>
	<text style="&st18;" transform="matrix(&st16;  10.4  160.98 )">11</text>
	<text style="&st18;" transform="matrix(&st16;  21.05  203.47 )">6C</text>
	<text style="&st18;" transform="matrix(&st16;  9.63  203.47 )">13</text>
	<text style="&st18;" transform="matrix(&st16;  21.75  289.87 )">IG</text>
	<text style="&st18;" transform="matrix(&st17;  21.8  242.31 )">B-R</text>
	<text ewd:textID="15" style="&st18;" transform="matrix(&st16;  150.45  313.95 )">Transponder Key ECU</text>
	<text style="&st18;" transform="matrix(&st16;  150.45  306.85 )">H44(A),H60(B)</text>
	<text style="&st18;" transform="matrix(&st17;  149.28  145.6 )">W-R</text>
	<text style="&st18;" transform="matrix(&st16;  151.0  101.49 )">2</text>
	<text style="&st18;" transform="matrix(&st16;  146.19  86.47 )">2</text>
	<text style="&st18;" transform="matrix(&st16;  148.67  160.98 )">5E</text>
	<text style="&st18;" transform="matrix(&st16;  137.11  160.98 )">17</text>
	<text style="&st18;" transform="matrix(&st16;  148.67  203.47 )">5S</text>
	<text style="&st18;" transform="matrix(&st16;  140.28  203.47 )">2</text>
	<text style="&st18;" transform="matrix(&st16;  148.63  289.87 )">+B</text>
	<text style="&st18;" transform="matrix(&st17;  149.28  256.08 )">W-R</text>
	<text style="&st18;" transform="matrix(&st16;  214.18  289.87 )">VC5</text>
	<text style="&st18;" transform="matrix(&st16;  253.42  289.87 )">CODE</text>
	<text style="&st18;" transform="matrix(&st16;  296.91  289.87 )">TXCT</text>
	<text style="&st18;" transform="matrix(&st16;  338.41  289.87 )">AGND</text>
	<text style="&st18;" transform="matrix(&st16;  214.95  162.95 )">1</text>
	<text style="&st18;" transform="matrix(&st16;  256.67  162.95 )">4</text>
	<text style="&st18;" transform="matrix(&st16;  299.16  162.95 )">5</text>
	<text style="&st18;" transform="matrix(&st16;  341.65  162.95 )">7</text>
	<text style="&st18;" transform="matrix(&st16;  338.41  151.06 )">AGND</text>
	<text style="&st18;" transform="matrix(&st16;  296.91  151.06 )">TXCT</text>
	<text style="&st18;" transform="matrix(&st16;  253.42  151.06 )">CODE</text>
	<text style="&st18;" transform="matrix(&st16;  214.18  151.06 )">VC5</text>
	<text style="&st18;" transform="matrix(&st17;  217.27  216.58 )">V</text>
	<text style="&st18;" transform="matrix(&st17;  259.76  216.23 )">L</text>
	<text style="&st18;" transform="matrix(&st17;  302.25  216.58 )">Y</text>
	<text style="&st18;" transform="matrix(&st17;  344.75  219.48 )">GR</text>
	<text ewd:textID="14" style="&st18;" transform="matrix(&st16;  218.44  108.57 )">Transponder Key Amplifier</text>
	<text style="&st18;" transform="matrix(&st16;  218.44  101.46 )">H43</text>
	<text style="&st18;" transform="matrix(&st16;  209.99  329.53 )">D</text>
	<text style="&st18;" transform="matrix(&st17;  208.77  370.58 )">W</text>
	<text style="&st18;" transform="matrix(&st16;  257.52  329.53 )">IND</text>
	<text style="&st18;" transform="matrix(&st17;  259.76  369.7 )">R</text>
	<text style="&st18;" transform="matrix(&st16;  374.42  329.53 )">KSW</text>
	<text style="&st18;" transform="matrix(&st17;  378.74  361.06 )">Y</text>
	<text style="&st18;" transform="matrix(&st16;  477.5  329.53 )">CTY</text>
	<text style="&st18;" transform="matrix(&st17;  480.72  374.46 )">R-G</text>
	<text style="&st18;" transform="matrix(&st16;  51.3  329.53 )">EFIO</text>
	<text style="&st18;" transform="matrix(&st16;  19.07  329.53 )">EFII</text>
	<text style="&st18;" transform="matrix(&st16;  145.27  329.53 )">GND</text>
	<text style="&st18;" transform="matrix(&st17;  149.28  391.92 )">W-B</text>
	<text style="&st18;" transform="matrix(&st16;  146.96  451.9 )">1</text>
	<text style="&st18;" transform="matrix(&st16;  146.19  423.02 )">2</text>
	<text style="&st18;" transform="matrix(&st17;  55.8  374.92 )">B-W</text>
	<text style="&st18;" transform="matrix(&st16;  148.52  543.41 )">5C</text>
	<text style="&st18;" transform="matrix(&st16;  141.06  543.41 )">1</text>
	<text style="&st18;" transform="matrix(&st16;  148.67  585.91 )">5E</text>
	<a ewd:code="HB1" ewd:figID="25" ewd:figtype="w2w" ewd:pinNo="15" style="cursor:pointer;">
		<path d=" M   67.99,  392.72  L   50.99,  392.72  L   50.99,  401.22  L   67.99,  401.22  L   67.99,  392.72 " style="&st2;"/>
		<text style="&st8;" transform="matrix(&st16;  52.76  399.46 )"><tspan style="&st18;" x="0" y="0">HB1</tspan></text>
	</a>
	<a ewd:code="HB1" ewd:figID="26" ewd:figtype="w2w" ewd:pinNo="52" style="cursor:pointer;">
		<path d=" M   33.99,  392.72  L   17.00,  392.72  L   17.00,  401.22  L   33.99,  401.22  L   33.99,  392.72 " style="&st2;"/>
		<text style="&st8;" transform="matrix(&st16;  18.77  399.46 )"><tspan style="&st18;" x="0" y="0">HB1</tspan></text>
	</a>
	<a ewd:code="HH1" ewd:figID="27" ewd:figtype="w2w" ewd:pinNo="1" style="cursor:pointer;">
		<path d=" M  271.95,  579.69  L  254.96,  579.69  L  254.96,  588.19  L  271.95,  588.19  L  271.95,  579.69 " style="&st2;"/>
		<text style="&st8;" transform="matrix(&st16;  256.58  586.43 )"><tspan style="&st18;" x="0" y="0">HH1</tspan></text>
	</a>
	<a ewd:code="H2" ewd:figID="28" ewd:figtype="gp" style="cursor:pointer;">
		<path d=" M  252.83,  681.67  L  274.08,  681.67  L  263.46,  697.25  L  252.83,  681.67 " style="&st2;"/>
		<text style="&st8;" transform="matrix(&st16;  258.77  689.83 )"><tspan style="&st18;" x="0" y="0">H2</tspan></text>
	</a>
	<a ewd:code="B3" ewd:figID="29" ewd:figtype="gp" style="cursor:pointer;">
		<path d=" M  142.35,  681.67  L  163.60,  681.67  L  152.97,  697.25  L  142.35,  681.67 " style="&st2;"/>
		<text style="&st8;" transform="matrix(&st16;  148.44  689.83 )"><tspan style="&st18;" x="0" y="0">B3</tspan></text>
	</a>
	<a ewd:code="H2" ewd:figID="30" ewd:figtype="gp" style="cursor:pointer;">
		<path d=" M  312.32,  681.67  L  333.57,  681.67  L  322.95,  697.25  L  312.32,  681.67 " style="&st2;"/>
		<text style="&st8;" transform="matrix(&st16;  318.26  689.83 )"><tspan style="&st18;" x="0" y="0">H2</tspan></text>
	</a>
</g>
</svg>