﻿<?xml version="1.0" encoding="utf-8"?>
<!-- Generator: Adobe Illustrator 10.0, SVG Export Plug-In . SVG Version: 3.0.0 Build 77)  -->
<!DOCTYPE svg PUBLIC "-//W3C//DTD SVG 1.0//EN" "http://www.w3.org/TR/2001/REC-SVG-20010904/DTD/svg10.dtd"[
   <!ENTITY ns_flows "http://ns.adobe.com/Flows/1.0/">
   <!ENTITY ns_svg "http://www.w3.org/2000/svg">
   <!ENTITY ns_xlink "http://www.w3.org/1999/xlink">
   <!ENTITY st0 "font-size:7px;font-family:'MS-PGothic';adobe-font-script:japanese;">
   <!ENTITY st1 "font-size:6px;font-family:'ArialMT';">
   <!ENTITY st2 "fill:#FFFFFF;stroke:#000000; stroke-width:1.41;stroke-linecap:round;stroke-linejoin:round;">
   <!ENTITY st3 "fill:#FFFFCC;stroke:#FFFFCC; stroke-width:0.1;stroke-linecap:round;stroke-linejoin:round;">
   <!ENTITY st4 "fill:#CCCCCC;stroke:#CCCCCC; stroke-width:0.1;stroke-linecap:round;stroke-linejoin:round;">
   <!ENTITY st5 "fill:#CCECF4;stroke:#000000; stroke-width:1.133;stroke-linecap:round;stroke-linejoin:round;">
   <!ENTITY st6 "fill:none;stroke-linecap:butt; stroke-linejoin:round;">
   <!ENTITY st7 "fill:none;stroke:#000000;stroke-linecap:round;stroke-linejoin:round;">
   <!ENTITY st8 "enable-background:new;">
   <!ENTITY st9 "fill:#000000;stroke:#000000; stroke-linecap:round;stroke-linejoin:round;">
   <!ENTITY st10 "font-size:9px;font-family:'ArialMT';">
   <!ENTITY st11 "font-size:9px;font-family:'Svg Symbol';">
   <!ENTITY st12 "font-size:6px;font-family:'Svg Symbol';">
   <!ENTITY st13 "fill:none;stroke:#ff0000;stroke-linecap:round;stroke-linejoin:round;">
   <!ENTITY st14 "fill:#FFFF00;stroke:#FFFF00; stroke-width:0.1;stroke-linecap:round;stroke-linejoin:round;">
   <!ENTITY st15 "font-size:6px;font-family:'MS-PGothic';adobe-font-script:japanese;">
   <!ENTITY st16 "1.00 0.00 0.00 1.00">
   <!ENTITY st17 "0.00 -1.00 1.00 0.00">
   <!ENTITY st18 "font-size:6px;font-family:'Arial';">
   <!ENTITY st19 "font-size:9px;font-family:'Arial';">
   <!ENTITY st20 "font-size:6px;font-family:'MS-PGothic','MS PGothic';adobe-font-script:japanese;">
   <!ENTITY st21 "font-size:7px;font-family:'MS-PGothic','MS PGothic';adobe-font-script:japanese;">
   <!ATTLIST svg
       xmlns:ewd CDATA #FIXED "http://shcl.co.jp/ewd"
       xmlns:a CDATA #FIXED "http://ns.adobe.com/AdobeSVGViewerExtensions/3.0/"
       ewd:ver CDATA #IMPLIED >
   <!ATTLIST a
       ewd:lineID CDATA #IMPLIED
       ewd:groupID CDATA #IMPLIED
       ewd:figtype CDATA #IMPLIED
       ewd:code CDATA #IMPLIED
       ewd:figID CDATA #IMPLIED
       ewd:pinNo CDATA #IMPLIED
       ewd:comment CDATA #IMPLIED >
   <!ATTLIST g
       ewd:lineID CDATA #IMPLIED
       ewd:groupID CDATA #IMPLIED
       ewd:figtype CDATA #IMPLIED
       ewd:code CDATA #IMPLIED
       ewd:figID CDATA #IMPLIED
       ewd:pinNo CDATA #IMPLIED
       ewd:comment CDATA #IMPLIED >
   <!ATTLIST text
       ewd:textID CDATA #IMPLIED >
   <!ATTLIST title
       ewd:textID CDATA #IMPLIED >
]>
<svg xmlns="http://www.w3.org/2000/svg" xmlns:xlink="http://www.w3.org/1999/xlink" width="1571.21" height="721" viewBox="0 0 1571.21 721" xml:space="preserve" xmlns:ewd="http://shcl.co.jp/ewd" ewd:ver="2.0">
  
  <defs>
    <font horiz-adv-x="1229">
      <font-face font-family="Svg Symbol" units-per-em="2048" panose-1="5 5 1 2 1 7 6 2 5 7" ascent="2059" descent="450" alphabetic="0" />
      <missing-glyph d="M 103,0 l 0,1280 1024,0 0,-1280 -1024,0 z m 32,32 l 960,0 0,1216 -960,0 0,-1216 z" />
      <glyph d4p1:unicode="" horiz-adv-x="1573" d="M 1517,0 l -567,0 24,279 q 141,59 207.5,168 66.5,109 66.5,306 0,272 -132.5,417.5 -132.5,145.5 -333.5,145.5 -194,0 -328,-147.5 -134,-147.5 -134,-401.5 0,-200 68.5,-319 68.5,-119 206.5,-169 l 25,-279 -564,0 0,279 35,0 q 3,-61 32,-83 45,-35 137,-35 l 270,0 0,70 q -210,61 -324.5,209 -114.5,148 -114.5,349 0,252 186.5,425 186.5,173 504.5,173 195,0 358.5,-73.5 163.5,-73.5 252,-214.5 88.5,-141 88.5,-310 0,-207 -121.5,-360.5 -121.5,-153.5 -317.5,-197.5 l -8,-70 275,0 q 92,0 128,28 36,28 42,90 l 38,0 0,-279 z" xmlns:d4p1="def-glyph-attr-unicode" />
    </font>
  </defs>
  
<g ewd:figtype="jb" ewd:code="13" ewd:figID="2">
      <path style="fill:none;stroke:#000000;stroke-width:0.85;" d="M 1435.14,102.05 L 1435.14, 87.87 L 1392.62, 87.87 L 1392.62, 102.04" />
      <path style="fill:none;stroke:#000000;stroke-width:0.85;" d="M 1282.07,80.79 L 1282.07, 87.88" />
      <path style="fill:none;stroke:#000000;stroke-width:0.85;" d="M 1282.07,87.88 L 1282.07, 102.05" />
      <path style="fill:none;stroke:#000000;stroke-width:0.85;" d="M 1205.54,102.05 L 1205.54, 87.87 L 1154.52, 87.87 L 1154.52, 102.04" />
      <path style="fill:none;stroke:#000000;stroke-width:0.85;" d="M 1103.49,102.05 L 1103.49, 87.88" />
      <path style="fill:none;stroke:#000000;stroke-width:0.85;" d="M 1103.49,87.88 L 1103.49, 80.78999" />
      <path d="M 1435.14,102.05 L 1437.97, 99.22 L 1437.97, 96.39 L 1435.14, 99.22 L 1432.31, 96.39 L 1432.31, 99.22 L 1435.14, 102.05" style="stroke-linecap:round;stroke-linejoin:round;" />
      <path style="fill:none;stroke:#000000;stroke-width:0.85;stroke-linecap:round;stroke-linejoin:round;" d="M 1439.4,113.39 C 1442.53 113.39 1445.07 110.85 1445.07 107.72 C 1445.07 104.59 1442.53 102.05 1439.4 102.05 L 1430.9, 102.05 C 1427.77 102.05 1425.23 104.59 1425.23 107.72 C 1425.23 110.85 1427.77 113.39 1430.9 113.39 L 1439.4, 113.39" />
      <path d="M 1392.62,102.05 L 1395.45, 99.22 L 1395.45, 96.39 L 1392.62, 99.22 L 1389.79, 96.39 L 1389.79, 99.22 L 1392.62, 102.05" style="stroke-linecap:round;stroke-linejoin:round;" />
      <path style="fill:none;stroke:#000000;stroke-width:0.85;stroke-linecap:round;stroke-linejoin:round;" d="M 1396.88,113.39 C 1400.01 113.39 1402.55 110.85 1402.55 107.72 C 1402.55 104.59 1400.01 102.05 1396.88 102.05 L 1388.38, 102.05 C 1385.25 102.05 1382.71 104.59 1382.71 107.72 C 1382.71 110.85 1385.25 113.39 1388.38 113.39 L 1396.88, 113.39" />
      <path d="M 1282.07,102.05 L 1284.9, 99.22 L 1284.9, 96.39 L 1282.07, 99.22 L 1279.24, 96.39 L 1279.24, 99.22 L 1282.07, 102.05" style="stroke-linecap:round;stroke-linejoin:round;" />
      <path style="fill:none;stroke:#000000;stroke-width:0.85;stroke-linecap:round;stroke-linejoin:round;" d="M 1286.33,113.39 C 1289.46 113.39 1292 110.85 1292 107.72 C 1292 104.59 1289.46 102.05 1286.33 102.05 L 1277.83, 102.05 C 1274.7 102.05 1272.16 104.59 1272.16 107.72 C 1272.16 110.85 1274.7 113.39 1277.83 113.39 L 1286.33, 113.39" />
      <path style="fill:none;stroke:#000000;stroke-width:0.85;stroke-linecap:round;stroke-linejoin:round;" d="M 1282.07,80.79 C 1282.85 80.79 1283.49 80.15 1283.49 79.37 C 1283.49 78.59 1282.86 77.95 1282.07 77.95 C 1281.29 77.95 1280.65 78.59 1280.65 79.37 C 1280.66 80.15 1281.29 80.79 1282.07 80.79" />
      <path style="fill:none;stroke:#000000;stroke-width:0.85;stroke-linecap:round;stroke-linejoin:round;" d="M 1282.07,55.28 C 1282.85 55.28 1283.49 54.65 1283.49 53.86 C 1283.49 53.08 1282.86 52.44 1282.07 52.44 C 1281.29 52.44 1280.65 53.07 1280.65 53.86 C 1280.66 54.64 1281.29 55.28 1282.07 55.28" />
      <path style="fill:none;stroke:#000000;stroke-width:1.417;" d="M 1281.07,54.86 C 1281.07 54.86 1275 59.54 1282.07 66.61 C 1289.14 73.68 1283.07 78.36 1283.07 78.36" />
      <path style="fill:none;stroke:#000000;stroke-width:1.417;stroke-linecap:round;stroke-linejoin:round;" d="M 1294.83,87.88 L 1294.83, 45.36 L 1269.32, 45.36 L 1269.32, 87.88 L 1294.83, 87.88" />
      <path d="M 1205.54,102.05 L 1208.37, 99.22 L 1208.37, 96.39 L 1205.54, 99.22 L 1202.71, 96.39 L 1202.71, 99.22 L 1205.54, 102.05" style="stroke-linecap:round;stroke-linejoin:round;" />
      <path style="fill:none;stroke:#000000;stroke-width:0.85;stroke-linecap:round;stroke-linejoin:round;" d="M 1209.79,113.39 C 1212.92 113.39 1215.46 110.85 1215.46 107.72 C 1215.46 104.59 1212.92 102.05 1209.79 102.05 L 1201.29, 102.05 C 1198.16 102.05 1195.62 104.59 1195.62 107.72 C 1195.62 110.85 1198.16 113.39 1201.29 113.39 L 1209.79, 113.39" />
      <path d="M 1154.51,102.05 L 1157.34, 99.22 L 1157.34, 96.39 L 1154.51, 99.22 L 1151.68, 96.39 L 1151.68, 99.22 L 1154.51, 102.05" style="stroke-linecap:round;stroke-linejoin:round;" />
      <path style="fill:none;stroke:#000000;stroke-width:0.85;stroke-linecap:round;stroke-linejoin:round;" d="M 1158.77,113.39 C 1161.9 113.39 1164.44 110.85 1164.44 107.72 C 1164.44 104.59 1161.9 102.05 1158.77 102.05 L 1150.27, 102.05 C 1147.14 102.05 1144.6 104.59 1144.6 107.72 C 1144.6 110.85 1147.14 113.39 1150.27 113.39 L 1158.77, 113.39" />
      <path d="M 1103.49,102.05 L 1106.32, 99.22 L 1106.32, 96.39 L 1103.49, 99.22 L 1100.66, 96.39 L 1100.66, 99.22 L 1103.49, 102.05" style="stroke-linecap:round;stroke-linejoin:round;" />
      <path style="fill:none;stroke:#000000;stroke-width:0.85;stroke-linecap:round;stroke-linejoin:round;" d="M 1107.74,113.39 C 1110.87 113.39 1113.41 110.85 1113.41 107.72 C 1113.41 104.59 1110.87 102.05 1107.74 102.05 L 1099.24, 102.05 C 1096.11 102.05 1093.57 104.59 1093.57 107.72 C 1093.57 110.85 1096.11 113.39 1099.24 113.39 L 1107.74, 113.39" />
      <path style="fill:none;stroke:#000000;stroke-width:0.85;stroke-linecap:round;stroke-linejoin:round;" d="M 1103.49,80.79 C 1104.27 80.79 1104.91 80.15 1104.91 79.37 C 1104.91 78.59 1104.27 77.95 1103.49 77.95 C 1102.71 77.95 1102.07 78.59 1102.07 79.37 C 1102.07 80.15 1102.71 80.79 1103.49 80.79" />
      <path style="fill:none;stroke:#000000;stroke-width:0.85;stroke-linecap:round;stroke-linejoin:round;" d="M 1103.49,55.28 C 1104.27 55.28 1104.91 54.65 1104.91 53.86 C 1104.91 53.08 1104.27 52.44 1103.49 52.44 C 1102.71 52.44 1102.07 53.07 1102.07 53.86 C 1102.07 54.64 1102.71 55.28 1103.49 55.28" />
      <path style="fill:none;stroke:#000000;stroke-width:1.417;" d="M 1102.49,54.86 C 1102.49 54.86 1096.42 59.54 1103.49 66.61 C 1110.55998046875 73.6800012207031 1104.49 78.36 1104.49 78.36" />
      <path style="fill:none;stroke:#000000;stroke-width:1.417;stroke-linecap:round;stroke-linejoin:round;" d="M 1116.25,87.88 L 1116.25, 45.36 L 1090.74, 45.36 L 1090.74, 87.88 L 1116.25, 87.88" />
      <text transform="matrix(1 0 0 1 1429.8057 109.4233)" style="font-family:'Arial'; font-size:6px;">13E</text>
      <text transform="matrix(1 0 0 1 1417.1328 109.4233)" style="font-family:'Arial'; font-size:6px;">18</text>
      <text transform="matrix(1 0 0 1 1387.2861 109.4233)" style="font-family:'Arial'; font-size:6px;">13S</text>
      <text transform="matrix(1 0 0 1 1377.9492 109.4233)" style="font-family:'Arial'; font-size:6px;">8</text>
      <text transform="matrix(1 0 0 1 1276.2373 109.4233)" style="font-family:'Arial'; font-size:6px;">13M</text>
      <text transform="matrix(1 0 0 1 1267.3984 109.4233)" style="font-family:'Arial'; font-size:6px;">1</text>
      <text transform="matrix(1 0 0 1 1273.7754 95.251)" style="font-family:'Arial'; font-size:6px;">2</text>
      <text transform="matrix(1 0 0 1 1276.9072 41.3921)" style="font-family:'Arial'; font-size:6px;">(IG)</text>
      <text transform="matrix(1 0 0 1 1297.6631 64.7783)" style="font-family:'Arial'; font-size:6px;">10A<tspan x="0" dy="1em">MET IGN</tspan></text>
      <text transform="matrix(1 0 0 1 1200.0342 109.4233)" style="font-family:'Arial'; font-size:6px;">13H</text>
      <text transform="matrix(1 0 0 1 1190.8633 109.4233)" style="font-family:'Arial'; font-size:6px;">9</text>
      <text transform="matrix(1 0 0 1 1149.6768 109.4233)" style="font-family:'Arial'; font-size:6px;">13J</text>
      <text transform="matrix(1 0 0 1 1139.8398 109.4233)" style="font-family:'Arial'; font-size:6px;">4</text>
      <text transform="matrix(1 0 0 1 1098.6533 109.4233)" style="font-family:'Arial'; font-size:6px;">13J</text>
      <text transform="matrix(1 0 0 1 1088.8154 109.4233)" style="font-family:'Arial'; font-size:6px;">3</text>
      <text transform="matrix(1 0 0 1 1095.1924 95.251)" style="font-family:'Arial'; font-size:6px;">2</text>
      <text transform="matrix(1 0 0 1 1095.6572 41.3921)" style="font-family:'Arial'; font-size:6px;">(BAT)</text>
      <text transform="matrix(1 0 0 1 1119.0811 64.7783)" style="font-family:'Arial'; font-size:6px;">10A<tspan x="0" dy="1em">STOP NO. 1</tspan></text>
    </g><g ewd:figtype="w2w" ewd:code="BP2" ewd:pin_no="1" ewd:figID="48">
      <path style="fill:#FFFFFF;stroke:#FFFFFF;stroke-width:0;stroke-linecap:round;stroke-linejoin:round;" d="M 829.11,496.95 L 824.86, 492.7 L 820.61, 496.95 L 820.61, 490.4 L 829.11, 490.4 L 829.11, 496.95" />
      <path style="fill:#FFFFFF;stroke:#FFFFFF;stroke-width:0;stroke-linecap:round;stroke-linejoin:round;" d="M 829.11,494.11 L 824.86, 489.86 L 820.61, 494.11 L 820.61, 487.56 L 829.11, 487.56 L 829.11, 494.11" />
      <path style="fill:none;stroke:#000000;stroke-width:0.85;" d="M 829.11,494.65 L 824.86, 490.4 L 820.61, 494.65" />
      <path style="fill:none;stroke:#000000;stroke-width:0.85;" d="M 829.11,491.81 L 824.86, 487.56 L 820.61, 491.81" />
      <path style="fill:none;stroke:#000000;stroke-width:0.85;stroke-linecap:round;stroke-linejoin:round;" d="M 834.78,479.05 L 834.78, 487.55 L 814.94, 487.55 L 814.94, 479.05 L 834.78, 479.05" />
      <text transform="matrix(1 0 0 1 810.1846 485.0137)" style="font-family:'Arial'; font-size:6px;">1</text>
    </g><g ewd:figtype="w2w" ewd:code="BP2" ewd:pin_no="3" ewd:figID="49">
      <path style="fill:#FFFFFF;stroke:#FFFFFF;stroke-width:0;stroke-linecap:round;stroke-linejoin:round;" d="M 871.63,496.95 L 867.38, 492.7 L 863.13, 496.95 L 863.13, 490.4 L 871.63, 490.4 L 871.63, 496.95" />
      <path style="fill:#FFFFFF;stroke:#FFFFFF;stroke-width:0;stroke-linecap:round;stroke-linejoin:round;" d="M 871.63,494.11 L 867.38, 489.86 L 863.13, 494.11 L 863.13, 487.56 L 871.63, 487.56 L 871.63, 494.11" />
      <path style="fill:none;stroke:#000000;stroke-width:0.85;" d="M 871.63,494.65 L 867.38, 490.4 L 863.13, 494.65" />
      <path style="fill:none;stroke:#000000;stroke-width:0.85;" d="M 871.63,491.81 L 867.38, 487.56 L 863.13, 491.81" />
      <path style="fill:none;stroke:#000000;stroke-width:0.85;stroke-linecap:round;stroke-linejoin:round;" d="M 877.3,479.05 L 877.3, 487.55 L 857.46, 487.55 L 857.46, 479.05 L 877.3, 479.05" />
      <text transform="matrix(1 0 0 1 852.7051 485.0137)" style="font-family:'Arial'; font-size:6px;">3</text>
    </g><g ewd:figtype="w2w" ewd:code="BP2" ewd:pin_no="2" ewd:figID="50">
      <path style="fill:#FFFFFF;stroke:#FFFFFF;stroke-width:0;stroke-linecap:round;stroke-linejoin:round;" d="M 956.67,496.95 L 952.42, 492.7 L 948.17, 496.95 L 948.17, 490.4 L 956.67, 490.4 L 956.67, 496.95" />
      <path style="fill:#FFFFFF;stroke:#FFFFFF;stroke-width:0;stroke-linecap:round;stroke-linejoin:round;" d="M 956.67,494.11 L 952.42, 489.86 L 948.17, 494.11 L 948.17, 487.56 L 956.67, 487.56 L 956.67, 494.11" />
      <path style="fill:none;stroke:#000000;stroke-width:0.85;" d="M 956.67,494.65 L 952.42, 490.4 L 948.17, 494.65" />
      <path style="fill:none;stroke:#000000;stroke-width:0.85;" d="M 956.67,491.81 L 952.42, 487.56 L 948.17, 491.81" />
      <path style="fill:none;stroke:#000000;stroke-width:0.85;stroke-linecap:round;stroke-linejoin:round;" d="M 962.34,479.05 L 962.34, 487.55 L 942.5, 487.55 L 942.5, 479.05 L 962.34, 479.05" />
      <text transform="matrix(1 0 0 1 937.7441 485.0137)" style="font-family:'Arial'; font-size:6px;">2</text>
    </g><g ewd:figtype="w2w" ewd:code="BP2" ewd:pin_no="4" ewd:figID="39">
      <path style="fill:#FFFFFF;stroke:#FFFFFF;stroke-width:0;stroke-linecap:round;stroke-linejoin:round;" d="M 786.59,496.95 L 782.34, 492.7 L 778.09, 496.95 L 778.09, 490.4 L 786.59, 490.4 L 786.59, 496.95" />
      <path style="fill:#FFFFFF;stroke:#FFFFFF;stroke-width:0;stroke-linecap:round;stroke-linejoin:round;" d="M 786.59,494.11 L 782.34, 489.86 L 778.09, 494.11 L 778.09, 487.56 L 786.59, 487.56 L 786.59, 494.11" />
      <path style="fill:none;stroke:#000000;stroke-width:0.85;" d="M 786.59,494.65 L 782.34, 490.4 L 778.09, 494.65" />
      <path style="fill:none;stroke:#000000;stroke-width:0.85;" d="M 786.59,491.81 L 782.34, 487.56 L 778.09, 491.81" />
      <path style="fill:none;stroke:#000000;stroke-width:0.85;stroke-linecap:round;stroke-linejoin:round;" d="M 792.26,479.05 L 792.26, 487.55 L 772.42, 487.55 L 772.42, 479.05 L 792.26, 479.05" />
      <text transform="matrix(1 0 0 1 767.665 485.0137)" style="font-family:'Arial'; font-size:6px;">4</text>
    </g><g ewd:figtype="w2w" ewd:code="HB1" ewd:pin_no="28" ewd:figID="47">
      <path style="fill:#FFFFFF;stroke:#FFFFFF;stroke-width:0;stroke-linecap:round;stroke-linejoin:round;" d="M 1016.2,318.36 L 1011.95, 314.11 L 1007.7, 318.36 L 1007.7, 311.81 L 1016.2, 311.81 L 1016.2, 318.36" />
      <path style="fill:#FFFFFF;stroke:#FFFFFF;stroke-width:0;stroke-linecap:round;stroke-linejoin:round;" d="M 1016.2,315.53 L 1011.95, 311.28 L 1007.7, 315.53 L 1007.7, 308.98 L 1016.2, 308.98 L 1016.2, 315.53" />
      <path style="fill:none;stroke:#000000;stroke-width:0.85;" d="M 1016.2,316.06 L 1011.95, 311.81 L 1007.7, 316.06" />
      <path style="fill:none;stroke:#000000;stroke-width:0.85;" d="M 1016.2,313.23 L 1011.95, 308.98 L 1007.7, 313.23" />
      <path style="fill:none;stroke:#000000;stroke-width:0.85;stroke-linecap:round;stroke-linejoin:round;" d="M 1021.87,300.47 L 1021.87, 308.97 L 1002.03, 308.97 L 1002.03, 300.47 L 1021.87, 300.47" />
      <text transform="matrix(1 0 0 1 993.9346 306.4302)" style="font-family:'Arial'; font-size:6px;">28</text>
    </g><g ewd:figtype="w2w" ewd:code="DB5" ewd:pin_no="8" ewd:figID="53">
      <path style="fill:#FFFFFF;stroke:#FFFFFF;stroke-width:0;stroke-linecap:round;stroke-linejoin:round;" d="M 905.11,160.16 L 900.86, 164.41 L 905.11, 168.66 L 898.56, 168.66 L 898.56, 160.16 L 905.11, 160.16" />
      <path style="fill:#FFFFFF;stroke:#FFFFFF;stroke-width:0;stroke-linecap:round;stroke-linejoin:round;" d="M 902.28,160.16 L 898.03, 164.41 L 902.28, 168.66 L 895.73, 168.66 L 895.73, 160.16 L 902.28, 160.16" />
      <path style="fill:none;stroke:#000000;stroke-width:0.85;" d="M 902.81,160.16 L 898.56, 164.41 L 902.81, 168.66" />
      <path style="fill:none;stroke:#000000;stroke-width:0.85;" d="M 899.98,160.16 L 895.73, 164.41 L 899.98, 168.66" />
      <path style="fill:none;stroke:#000000;stroke-width:0.85;stroke-linecap:round;stroke-linejoin:round;" d="M 895.73,168.66 L 895.73, 160.16 L 875.89, 160.16 L 875.89, 168.66 L 895.73, 168.66" />
      <text transform="matrix(1 0 0 1 884.1357 157.9663)" style="font-family:'Arial'; font-size:6px;">8</text>
    </g><g ewd:figtype="w2w" ewd:code="HB4" ewd:pin_no="12" ewd:figID="54">
      <path style="fill:#FFFFFF;stroke:#FFFFFF;stroke-width:0;stroke-linecap:round;stroke-linejoin:round;" d="M 1016.2,180.53 L 1011.95, 184.78 L 1007.7, 180.53 L 1007.7, 187.08 L 1016.2, 187.08 L 1016.2, 180.53" />
      <path style="fill:#FFFFFF;stroke:#FFFFFF;stroke-width:0;stroke-linecap:round;stroke-linejoin:round;" d="M 1016.2,183.37 L 1011.95, 187.62 L 1007.7, 183.37 L 1007.7, 189.92 L 1016.2, 189.92 L 1016.2, 183.37" />
      <path style="fill:none;stroke:#000000;stroke-width:0.85;" d="M 1016.2,182.83 L 1011.95, 187.08 L 1007.7, 182.83" />
      <path style="fill:none;stroke:#000000;stroke-width:0.85;" d="M 1016.2,185.67 L 1011.95, 189.92 L 1007.7, 185.67" />
      <path style="fill:none;stroke:#000000;stroke-width:0.85;stroke-linecap:round;stroke-linejoin:round;" d="M 1021.87,198.42 L 1021.87, 189.92 L 1002.03, 189.92 L 1002.03, 198.42 L 1021.87, 198.42" />
      <text transform="matrix(1 0 0 1 993.9336 195.8779)" style="font-family:'Arial'; font-size:6px;">12</text>
    </g><g ewd:figtype="w2w" ewd:code="DB1" ewd:pin_no="17" ewd:comment="1" ewd:figID="55">
      <path style="fill:none;stroke:#000000;stroke-width:0.85;stroke-linecap:round;stroke-linejoin:round;" d="M 875.88,219.69 L 875.88, 211.19 L 856.04, 211.19 L 856.04, 219.69 L 875.88, 219.69" />
      <text transform="matrix(1 0 0 1 861.1279 226.3516)" style="font-family:'Arial'; font-size:6px;">(*1)</text>
      <text transform="matrix(1 0 0 1 862.625 208.9902)" style="font-family:'Arial'; font-size:6px;">17</text>
    </g><g ewd:figtype="w2w" ewd:code="DB2" ewd:pin_no="5" ewd:comment="2" ewd:figID="56">
      <path style="fill:#FFFFFF;stroke:#FFFFFF;stroke-width:0;stroke-linecap:round;stroke-linejoin:round;" d="M 905.11,211.18 L 900.86, 215.43 L 905.11, 219.68 L 898.56, 219.68 L 898.56, 211.18 L 905.11, 211.18" />
      <path style="fill:#FFFFFF;stroke:#FFFFFF;stroke-width:0;stroke-linecap:round;stroke-linejoin:round;" d="M 902.28,211.18 L 898.03, 215.43 L 902.28, 219.68 L 895.73, 219.68 L 895.73, 211.18 L 902.28, 211.18" />
      <path style="fill:none;stroke:#000000;stroke-width:0.85;" d="M 902.81,211.18 L 898.56, 215.43 L 902.81, 219.68" />
      <path style="fill:none;stroke:#000000;stroke-width:0.85;" d="M 899.98,211.18 L 895.73, 215.43 L 899.98, 219.68" />
      <path style="fill:none;stroke:#000000;stroke-width:0.85;stroke-linecap:round;stroke-linejoin:round;" d="M 895.73,219.69 L 895.73, 211.19 L 875.89, 211.19 L 875.89, 219.69 L 895.73, 219.69" />
      <text transform="matrix(1 0 0 1 880.9697 226.3516)" style="font-family:'Arial'; font-size:6px;">(*2)</text>
      <text transform="matrix(1 0 0 1 884.1357 208.9902)" style="font-family:'Arial'; font-size:6px;">5</text>
    </g><g ewd:figtype="conn" ewd:code="D37" ewd:figID="14">
      <path style="fill:none;stroke:#000000;stroke-width:1.417;stroke-linecap:round;stroke-linejoin:round;" d="M 816.36,147.4 L 765.34, 147.4 L 765.34, 223.94 L 816.36, 223.94 L 816.36, 147.4" />
      <path style="fill:none;stroke:#000000;stroke-width:0.85;" d="M 765.33,189.92 L 782.34, 189.92" />
      <path style="fill:none;stroke:#000000;stroke-width:0.85;" d="M 816.36,164.41 L 799.35, 164.41 L 799.35, 172.91" />
      <path style="fill:none;stroke:#000000;stroke-width:0.85;" d="M 816.36,215.43 L 799.35, 215.43 L 799.35, 206.93" />
      <path style="fill:none;stroke:#000000;stroke-width:0.85;stroke-linecap:round;stroke-linejoin:round;" d="M 799.35,206.93 C 800.13 206.93 800.77 206.3 800.77 205.51 C 800.77 204.73 800.14 204.09 799.35 204.09 C 798.559951171875 204.089992675781 797.93 204.72 797.93 205.51 C 797.93 206.3 798.56 206.93 799.35 206.93" />
      <path style="fill:none;stroke:#000000;stroke-width:0.85;stroke-linecap:round;stroke-linejoin:round;" d="M 799.35,175.75 C 800.13 175.75 800.77 175.12 800.77 174.33 C 800.77 173.55 800.14 172.91 799.35 172.91 C 798.559951171875 172.910007324219 797.93 173.54 797.93 174.33 C 797.93 175.11 798.56 175.75 799.35 175.75" />
      <path style="fill:none;stroke:#000000;stroke-width:0.85;stroke-linecap:round;stroke-linejoin:round;" d="M 783.76,191.34 C 784.54 191.34 785.18 190.71 785.18 189.92 C 785.179985351563 189.129996337891 784.55 188.5 783.76 188.5 C 782.97001953125 188.5 782.34 189.13 782.34 189.92 C 782.340053710937 190.709996337891 782.97 191.34 783.76 191.34" />
      <path style="fill:none;stroke:#000000;stroke-width:1.417;" d="M 793.78,179.9 L 784.76, 188.92" />
      <path d="M 799.79,173.89 L 792.57, 178.7 L 794.97, 181.1 L 799.79, 173.89" style="stroke-linecap:round;stroke-linejoin:round;" />
      <text transform="matrix(1 0 0 1 766.75 185.959)" style="font-family:'Arial'; font-size:6px;">RB</text>
      <text transform="matrix(1 0 0 1 807.5986 160.4473)" style="font-family:'Arial'; font-size:6px;">PL</text>
      <text transform="matrix(1 0 0 1 807.2676 211.4712)" style="font-family:'Arial'; font-size:6px;">NL</text>
      <text transform="matrix(1 0 0 1 759.8691 183.124)" style="font-family:'Arial'; font-size:6px;">2</text>
      <text transform="matrix(1 0 0 1 818.4814 157.6123)" style="font-family:'Arial'; font-size:6px;">6</text>
      <text transform="matrix(1 0 0 1 818.4814 208.6362)" style="font-family:'Arial'; font-size:6px;">9</text>
      <g ewd:figtype="title">
        <text transform="matrix(1 0 0 1 765.332 232.0215)" style="font-family:'Arial'; font-size:6px;">D37</text>
        <text transform="matrix(1 0 0 1 765.332 239.1084)" style="font-family:'Arial'; font-size:6px;" ewd:textID="7">Park/Neutral Position SW</text>
      </g>
    </g><g ewd:figtype="conn" ewd:code="B85" ewd:figID="15">
      <path style="fill:none;stroke:#000000;stroke-width:0.85;" d="M 943.92,215.43 L 952.42, 215.43 L 952.42, 257.95" />
      <path style="fill:none;stroke:#000000;stroke-width:0.85;" d="M 943.92,164.41 L 960.93, 164.41" />
      <path style="fill:none;stroke:#000000;stroke-width:1.417;stroke-linecap:round;stroke-linejoin:round;" d="M 960.92,257.95 L 960.92, 155.91 L 943.91, 155.91 L 943.91, 257.96 L 960.92, 257.96" />
      <text transform="matrix(1 0 0 1 935.1152 157.6118)" style="font-family:'Arial'; font-size:6px;">12</text>
      <text transform="matrix(1 0 0 1 938.4521 208.6357)" style="font-family:'Arial'; font-size:6px;">1</text>
      <text transform="matrix(1 0 0 1 957.3789 265.3291)" style="font-family:'Arial'; font-size:6px;">3</text>
      <text transform="matrix(1 0 0 1 963.0488 157.6118)" style="font-family:'Arial'; font-size:6px;">13</text>
      <g ewd:figtype="title">
        <text transform="matrix(0 -1 1 0 969.0078 257.9531)" style="font-family:'Arial'; font-size:6px;">B85</text>
        <text transform="matrix(0 -1 1 0 976.0938 257.9531)" style="font-family:'Arial'; font-size:6px;" ewd:textID="6">Junction Connector</text>
      </g>
    </g><g ewd:figtype="conn" ewd:code="H89" ewd:figID="16">
      <path style="fill:none;stroke:#000000;stroke-width:0.85;" d="M 1011.95,240.95 L 1011.95, 257.96" />
      <path style="fill:none;stroke:#000000;stroke-width:1.417;stroke-linecap:round;stroke-linejoin:round;" d="M 1020.45,257.95 L 1020.45, 240.94 L 1003.44, 240.94 L 1003.44, 257.95 L 1020.45, 257.95" />
      <text transform="matrix(1 0 0 1 1003.6484 265.3296)" style="font-family:'Arial'; font-size:6px;">9</text>
      <text transform="matrix(1 0 0 1 1003.6484 236.9829)" style="font-family:'Arial'; font-size:6px;">7</text>
      <g ewd:figtype="title">
        <text transform="matrix(0 -1 1 0 1028.5352 257.9531)" style="font-family:'Arial'; font-size:6px;">H89</text>
        <text transform="matrix(0 -1 1 0 1035.6211 257.9531)" style="font-family:'Arial'; font-size:6px;" ewd:textID="6">Junction Connector</text>
      </g>
    </g><g ewd:figtype="w2w" ewd:code="HB1" ewd:pin_no="12" ewd:figID="58">
      <path style="fill:#FFFFFF;stroke:#FFFFFF;stroke-width:0;stroke-linecap:round;stroke-linejoin:round;" d="M 1209.79,318.36 L 1205.54, 314.11 L 1201.29, 318.36 L 1201.29, 311.81 L 1209.79, 311.81 L 1209.79, 318.36" />
      <path style="fill:#FFFFFF;stroke:#FFFFFF;stroke-width:0;stroke-linecap:round;stroke-linejoin:round;" d="M 1209.79,315.53 L 1205.54, 311.28 L 1201.29, 315.53 L 1201.29, 308.98 L 1209.79, 308.98 L 1209.79, 315.53" />
      <path style="fill:none;stroke:#000000;stroke-width:0.85;" d="M 1209.79,316.06 L 1205.54, 311.81 L 1201.29, 316.06" />
      <path style="fill:none;stroke:#000000;stroke-width:0.85;" d="M 1209.79,313.23 L 1205.54, 308.98 L 1201.29, 313.23" />
      <path style="fill:none;stroke:#000000;stroke-width:0.85;stroke-linecap:round;stroke-linejoin:round;" d="M 1215.46,300.47 L 1215.46, 308.97 L 1195.62, 308.97 L 1195.62, 300.47 L 1215.46, 300.47" />
      <text transform="matrix(1 0 0 1 1187.5254 306.4302)" style="font-family:'Arial'; font-size:6px;">12</text>
    </g><g ewd:figtype="w2w" ewd:code="HB6" ewd:pin_no="19" ewd:comment="4" ewd:figID="59">
      <path style="fill:#FFFFFF;stroke:#FFFFFF;stroke-width:0;stroke-linecap:round;stroke-linejoin:round;" d="M 1158.77,173.8 L 1154.52, 169.55 L 1150.27, 173.8 L 1150.27, 167.25 L 1158.77, 167.25 L 1158.77, 173.8" />
      <path style="fill:#FFFFFF;stroke:#FFFFFF;stroke-width:0;stroke-linecap:round;stroke-linejoin:round;" d="M 1158.77,170.96 L 1154.52, 166.71 L 1150.27, 170.96 L 1150.27, 164.41 L 1158.77, 164.41 L 1158.77, 170.96" />
      <path style="fill:none;stroke:#000000;stroke-width:0.85;" d="M 1158.77,171.5 L 1154.52, 167.25 L 1150.27, 171.5" />
      <path style="fill:none;stroke:#000000;stroke-width:0.85;" d="M 1158.77,168.66 L 1154.52, 164.41 L 1150.27, 168.66" />
      <path style="fill:none;stroke:#000000;stroke-width:0.85;stroke-linecap:round;stroke-linejoin:round;" d="M 1164.44,155.91 L 1164.44, 164.41 L 1144.6, 164.41 L 1144.6, 155.91 L 1164.44, 155.91" />
      <text transform="matrix(1 0 0 1 1167.2744 161.8691)" style="font-family:'Arial'; font-size:6px;">(*4)</text>
      <text transform="matrix(1 0 0 1 1136.5029 161.8633)" style="font-family:'Arial'; font-size:6px;">19</text>
    </g><g ewd:figtype="w2w" ewd:code="HB1" ewd:pin_no="35" ewd:comment="3" ewd:figID="60">
      <path style="fill:none;stroke:#000000;stroke-width:0.85;stroke-linecap:round;stroke-linejoin:round;" d="M 1164.44,147.4 L 1164.44, 155.9 L 1144.6, 155.9 L 1144.6, 147.4 L 1164.44, 147.4" />
      <text transform="matrix(1 0 0 1 1167.2744 153.3652)" style="font-family:'Arial'; font-size:6px;">(*3)</text>
      <text transform="matrix(1 0 0 1 1136.5029 153.3594)" style="font-family:'Arial'; font-size:6px;">35</text>
    </g><g ewd:figtype="w2w" ewd:code="HB6" ewd:pin_no="18" ewd:comment="4" ewd:figID="61">
      <path style="fill:#FFFFFF;stroke:#FFFFFF;stroke-width:0;stroke-linecap:round;stroke-linejoin:round;" d="M 1107.74,173.8 L 1103.49, 169.55 L 1099.24, 173.8 L 1099.24, 167.25 L 1107.74, 167.25 L 1107.74, 173.8" />
      <path style="fill:#FFFFFF;stroke:#FFFFFF;stroke-width:0;stroke-linecap:round;stroke-linejoin:round;" d="M 1107.74,170.96 L 1103.49, 166.71 L 1099.24, 170.96 L 1099.24, 164.41 L 1107.74, 164.41 L 1107.74, 170.96" />
      <path style="fill:none;stroke:#000000;stroke-width:0.85;" d="M 1107.74,171.5 L 1103.49, 167.25 L 1099.24, 171.5" />
      <path style="fill:none;stroke:#000000;stroke-width:0.85;" d="M 1107.74,168.66 L 1103.49, 164.41 L 1099.24, 168.66" />
      <path style="fill:none;stroke:#000000;stroke-width:0.85;stroke-linecap:round;stroke-linejoin:round;" d="M 1113.41,155.91 L 1113.41, 164.41 L 1093.57, 164.41 L 1093.57, 155.91 L 1113.41, 155.91" />
      <text transform="matrix(1 0 0 1 1116.251 161.8691)" style="font-family:'Arial'; font-size:6px;">(*4)</text>
      <text transform="matrix(1 0 0 1 1085.4785 161.8633)" style="font-family:'Arial'; font-size:6px;">18</text>
    </g><g ewd:figtype="w2w" ewd:code="HB1" ewd:pin_no="57" ewd:comment="3" ewd:figID="62">
      <path style="fill:none;stroke:#000000;stroke-width:0.85;stroke-linecap:round;stroke-linejoin:round;" d="M 1113.41,147.4 L 1113.41, 155.9 L 1093.57, 155.9 L 1093.57, 147.4 L 1113.41, 147.4" />
      <text transform="matrix(1 0 0 1 1116.251 153.3652)" style="font-family:'Arial'; font-size:6px;">(*3)</text>
      <text transform="matrix(1 0 0 1 1085.4785 153.3594)" style="font-family:'Arial'; font-size:6px;">57</text>
    </g><g ewd:figtype="w2w" ewd:code="HB1" ewd:pin_no="50" ewd:figID="68">
      <path style="fill:#FFFFFF;stroke:#FFFFFF;stroke-width:0;stroke-linecap:round;stroke-linejoin:round;" d="M 1227.33,466.3 L 1231.58, 470.55 L 1227.33, 474.8 L 1233.88, 474.8 L 1233.88, 466.3 L 1227.33, 466.3" />
      <path style="fill:#FFFFFF;stroke:#FFFFFF;stroke-width:0;stroke-linecap:round;stroke-linejoin:round;" d="M 1230.17,466.3 L 1234.42, 470.55 L 1230.17, 474.8 L 1236.72, 474.8 L 1236.72, 466.3 L 1230.17, 466.3" />
      <path style="fill:none;stroke:#000000;stroke-width:0.85;" d="M 1229.63,466.3 L 1233.88, 470.55 L 1229.63, 474.8" />
      <path style="fill:none;stroke:#000000;stroke-width:0.85;" d="M 1232.47,466.3 L 1236.72, 470.55 L 1232.47, 474.8" />
      <path style="fill:none;stroke:#000000;stroke-width:0.85;stroke-linecap:round;stroke-linejoin:round;" d="M 1236.72,474.8 L 1236.72, 466.3 L 1256.56, 466.3 L 1256.56, 474.8 L 1236.72, 474.8" />
      <text transform="matrix(1 0 0 1 1243.3027 464.1074)" style="font-family:'Arial'; font-size:6px;">50</text>
    </g><g ewd:figtype="conn" ewd:code="B2" ewd:figID="18">
      <path style="fill:none;stroke:#000000;stroke-width:0.85;" d="M 1154.51,215.43 L 1154.51, 219.68" />
      <path style="fill:none;stroke:#000000;stroke-width:0.85;" d="M 1154.51,245.2 L 1154.51, 249.45" />
      <path style="fill:none;stroke:#000000;stroke-width:1.417;" d="M 1160.2,219.73 L 1154.88, 242.41" />
      <path style="fill:none;stroke:#000000;stroke-width:0.85;stroke-linecap:round;stroke-linejoin:round;" d="M 1154.51,222.52 C 1155.29 222.52 1155.93 221.89 1155.93 221.1 C 1155.93010742187 220.310012207031 1155.3 219.68 1154.51 219.68 C 1153.73 219.68 1153.09 220.31 1153.09 221.1 C 1153.08993164063 221.890012207031 1153.73 222.52 1154.51 222.52" />
      <path style="fill:none;stroke:#000000;stroke-width:0.85;stroke-linecap:round;stroke-linejoin:round;" d="M 1154.51,245.2 C 1155.29 245.2 1155.93 244.57 1155.93 243.78 C 1155.93010742187 242.989997558594 1155.3 242.36 1154.51 242.36 C 1153.73 242.36 1153.09 242.99 1153.09 243.78 C 1153.08993164063 244.569997558594 1153.73 245.2 1154.51 245.2" />
      <path style="fill:none;stroke:#000000;stroke-width:1.417;stroke-linecap:round;stroke-linejoin:round;" d="M 1163.02,249.45 L 1163.02, 215.43 L 1146.01, 215.43 L 1146.01, 249.45 L 1163.02, 249.45" />
      <text transform="matrix(1 0 0 1 1146.2168 211.4712)" style="font-family:'Arial'; font-size:6px;">1</text>
      <text transform="matrix(1 0 0 1 1146.2168 256.8252)" style="font-family:'Arial'; font-size:6px;">2</text>
      <g ewd:figtype="title">
        <text transform="matrix(0 -1 1 0 1171.1025 249.4492)" style="font-family:'Arial'; font-size:6px;">B2</text>
        <text transform="matrix(0 -1 1 0 1178.1895 249.4492)" style="font-family:'Arial'; font-size:6px;" ewd:textID="17">Stop Lamp SW</text>
      </g>
    </g><g ewd:figtype="conn" ewd:code="B83" ewd:figID="19">
      <path style="fill:none;stroke:#000000;stroke-width:0.85;" d="M 1103.49,487.56 L 1154.51, 487.56 L 1154.51, 496.06" />
      <path style="fill:none;stroke:#000000;stroke-width:0.85;" d="M 1103.49,479.05 L 1103.49, 496.06" />
      <path d="M 1103.49,488.98 C 1104.27 488.98 1104.91 488.35 1104.91 487.56 C 1104.91 486.78 1104.28 486.14 1103.49 486.14 C 1102.71 486.14 1102.07 486.77 1102.07 487.56 C 1102.07 488.34 1102.71 488.98 1103.49 488.98" style="stroke-linecap:round;stroke-linejoin:round;" />
      <path style="fill:none;stroke:#000000;stroke-width:1.417;stroke-linecap:round;stroke-linejoin:round;" d="M 1163.02,496.06 L 1163.02, 479.05 L 1094.99, 479.05 L 1094.99, 496.06 L 1163.02, 496.06" />
      <text transform="matrix(1 0 0 1 1091.8555 475.0918)" style="font-family:'Arial'; font-size:6px;">14</text>
      <text transform="matrix(1 0 0 1 1091.8555 503.4385)" style="font-family:'Arial'; font-size:6px;">13</text>
      <text transform="matrix(1 0 0 1 1142.8789 503.4385)" style="font-family:'Arial'; font-size:6px;">12</text>
      <g ewd:figtype="title">
        <text transform="matrix(1 0 0 1 1165.8525 485.7227)" style="font-family:'Arial'; font-size:6px;">B83</text>
        <text transform="matrix(1 0 0 1 1165.8525 492.8086)" style="font-family:'Arial'; font-size:6px;" ewd:textID="6">Junction Connector</text>
      </g>
    </g><g ewd:figtype="conn" ewd:code="B3" ewd:figID="20">
      <path style="fill:none;stroke:#000000;stroke-width:0.85;" d="M 1103.49,547.09 L 1103.49, 551.34" />
      <path style="fill:none;stroke:#000000;stroke-width:0.85;" d="M 1102.07,598.11 L 1104.91, 598.11" />
      <path style="fill:none;stroke:#000000;stroke-width:0.85;" d="M 1100.65,595.28 L 1106.32, 595.28" />
      <path style="fill:none;stroke:#000000;stroke-width:0.85;" d="M 1097.82,592.44 L 1109.16, 592.44" />
      <path style="fill:none;stroke:#000000;stroke-width:0.85;" d="M 1094.98,589.61 L 1111.99, 589.61" />
      <path style="fill:none;stroke:#000000;stroke-width:1.417;" d="M 1109.17,551.38 L 1103.85, 574.06" />
      <path style="fill:none;stroke:#000000;stroke-width:0.85;stroke-linecap:round;stroke-linejoin:round;" d="M 1103.49,554.17 C 1104.27 554.17 1104.91 553.54 1104.91 552.75 C 1104.91006835937 551.96 1104.28 551.33 1103.49 551.33 C 1102.71 551.33 1102.07 551.96 1102.07 552.75 C 1102.06989257813 553.54 1102.71 554.17 1103.49 554.17" />
      <path style="fill:none;stroke:#000000;stroke-width:0.85;stroke-linecap:round;stroke-linejoin:round;" d="M 1103.49,576.85 C 1104.27 576.85 1104.91 576.22 1104.91 575.43 C 1104.91 574.65 1104.28 574.01 1103.49 574.01 C 1102.71 574.01 1102.07 574.64 1102.07 575.43 C 1102.07 576.22 1102.71 576.85 1103.49 576.85" />
      <path style="fill:none;stroke:#000000;stroke-width:0.85;" d="M 1103.49,589.61 L 1103.49, 576.85" />
      <path style="fill:none;stroke:#000000;stroke-width:1.417;stroke-linecap:round;stroke-linejoin:round;" d="M 1111.99,581.1 L 1111.99, 547.08 L 1094.98, 547.08 L 1094.98, 581.1 L 1111.99, 581.1" />
      <text transform="matrix(1 0 0 1 1095.1924 543.124)" style="font-family:'Arial'; font-size:6px;">1</text>
      <g ewd:figtype="title">
        <text transform="matrix(0 -1 1 0 1120.0791 581.1016)" style="font-family:'Arial'; font-size:6px;">B3</text>
        <text transform="matrix(0 -1 1 0 1127.165 581.1016)" style="font-family:'Arial'; font-size:6px;" ewd:textID="8">Parking Brake SW</text>
      </g>
    </g><g ewd:figtype="comment" ewd:code="1" ewd:figID="1004">
      <text transform="matrix(1 0 0 1 986.4346 16.5884)" style="font-family:'Arial'; font-size:6px;">*1 : 1TR-FE, 2TR-FE</text>
    </g><g ewd:figtype="comment" ewd:code="2" ewd:figID="1003">
      <text transform="matrix(1 0 0 1 986.4346 25.0928)" style="font-family:'Arial'; font-size:6px;">*2 : 1KD-FTV, 2KD-FTV</text>
    </g><text transform="matrix(1 0 0 1 839.0371 160.4468)" style="font-family:'Arial'; font-size:6px;">W</text><text transform="matrix(1 0 0 1 837.3682 211.4707)" style="font-family:'Arial'; font-size:6px;">GR</text><text transform="matrix(1 0 0 1 915.5723 160.4468)" style="font-family:'Arial'; font-size:6px;">W</text><text transform="matrix(1 0 0 1 983.6035 160.4468)" style="font-family:'Arial'; font-size:6px;">W</text><text transform="matrix(1 0 0 1 913.9033 211.4707)" style="font-family:'Arial'; font-size:6px;">GR</text><text transform="matrix(0 -1 1 0 1007.9834 336.8218)" style="font-family:'Arial'; font-size:6px;">G</text><text transform="matrix(0 -1 1 0 948.4561 338.9883)" style="font-family:'Arial'; font-size:6px;">GR</text><text transform="matrix(0 -1 1 0 1007.9834 286.2964)" style="font-family:'Arial'; font-size:6px;">W</text><text transform="matrix(0 -1 1 0 1007.9834 218.2646)" style="font-family:'Arial'; font-size:6px;">W</text><text transform="matrix(0 -1 1 0 863.417 455.5449)" style="font-family:'Arial'; font-size:6px;">B</text><text transform="matrix(0 -1 1 0 820.8975 457.7109)" style="font-family:'Arial'; font-size:6px;">BR</text><text transform="matrix(0 -1 1 0 778.3779 457.7109)" style="font-family:'Arial'; font-size:6px;">BR</text><text transform="matrix(0 -1 1 0 820.8975 525.7422)" style="font-family:'Arial'; font-size:6px;">BR</text><text transform="matrix(0 -1 1 0 778.3779 525.7422)" style="font-family:'Arial'; font-size:6px;">BR</text><text transform="matrix(0 -1 1 0 948.4561 456.375)" style="font-family:'Arial'; font-size:6px;">W</text><text transform="matrix(0 -1 1 0 1007.9844 459.375)" style="font-family:'Arial'; font-size:6px;">W-B</text><text transform="matrix(0 -1 1 0 863.417 523.5762)" style="font-family:'Arial'; font-size:6px;">B</text><text transform="matrix(0 -1 1 0 948.4561 524.4063)" style="font-family:'Arial'; font-size:6px;">W</text><text transform="matrix(0 -1 1 0 1099.5273 134.894)" style="font-family:'Arial'; font-size:6px;">GR</text><text transform="matrix(0 -1 1 0 1150.5518 132.5605)" style="font-family:'Arial'; font-size:6px;">R</text><text transform="matrix(0 -1 1 0 1201.5752 132.5605)" style="font-family:'Arial'; font-size:6px;">R</text><text transform="matrix(0 -1 1 0 1201.5752 336.8218)" style="font-family:'Arial'; font-size:6px;">G</text><text transform="matrix(0 -1 1 0 1150.5508 192.0874)" style="font-family:'Arial'; font-size:6px;">R</text><text transform="matrix(0 -1 1 0 1099.5273 194.4209)" style="font-family:'Arial'; font-size:6px;">GR</text><text transform="matrix(0 -1 1 0 1099.5273 455.5449)" style="font-family:'Arial'; font-size:6px;">B</text><text transform="matrix(0 -1 1 0 1099.5273 523.5762)" style="font-family:'Arial'; font-size:6px;">B</text><text transform="matrix(0 -1 1 0 1150.5508 523.5762)" style="font-family:'Arial'; font-size:6px;">B</text><text transform="matrix(0 -1 1 0 1201.5742 455.7109)" style="font-family:'Arial'; font-size:6px;">R</text><g ewd:figID="1190">
      <path style="fill:none;stroke:#000000;stroke-width:0.85;stroke-dasharray:6 3;" d="M 850.37,445.04 L 850.37, 470.55 L 969.42, 470.55 L 969.42, 445.04" />
      <path style="fill:none;stroke:#000000;stroke-width:0.85;stroke-dasharray:6 3;" d="M 858.88,436.54 L 960.93, 436.54" />
      <g ewd:figtype="comment">
        <text transform="matrix(1 0 0 1 896.2256 432.5732)" style="font-family:'Arial'; font-size:6px;" ewd:textID="1">(Shielded)</text>
      </g>
    </g><g ewd:figID="1102">
      <path style="fill:none;stroke:#000000;stroke-width:0.85;stroke-dasharray:6 3;" d="M 850.37,530.08 L 850.37, 504.57 L 969.42, 504.57 L 969.42, 538.59 L 858.88, 538.59" />
      <g ewd:figtype="comment">
        <text transform="matrix(1 0 0 1 896.2256 500.6045)" style="font-family:'Arial'; font-size:6px;" ewd:textID="1">(Shielded)</text>
      </g>
    </g></svg>