﻿<?xml version="1.0" encoding="utf-8"?>
<!-- Generator: Adobe Illustrator 10.0, SVG Export Plug-In . SVG Version: 3.0.0 Build 77)  -->
<!DOCTYPE svg PUBLIC "-//W3C//DTD SVG 1.0//EN" "http://www.w3.org/TR/2001/REC-SVG-20010904/DTD/svg10.dtd"[
   <!ENTITY ns_flows "http://ns.adobe.com/Flows/1.0/">
   <!ENTITY ns_svg "http://www.w3.org/2000/svg">
   <!ENTITY ns_xlink "http://www.w3.org/1999/xlink">
   <!ENTITY st0 "font-size:7px;font-family:'MS-PGothic';adobe-font-script:japanese;">
   <!ENTITY st1 "font-size:6px;font-family:'ArialMT';">
   <!ENTITY st2 "fill:#FFFFFF;stroke:#000000; stroke-width:1.41;stroke-linecap:round;stroke-linejoin:round;">
   <!ENTITY st3 "fill:#FFFFCC;stroke:#FFFFCC; stroke-width:0.1;stroke-linecap:round;stroke-linejoin:round;">
   <!ENTITY st4 "fill:#CCCCCC;stroke:#CCCCCC; stroke-width:0.1;stroke-linecap:round;stroke-linejoin:round;">
   <!ENTITY st5 "fill:#CCECF4;stroke:#000000; stroke-width:1.133;stroke-linecap:round;stroke-linejoin:round;">
   <!ENTITY st6 "fill:none;stroke-linecap:butt; stroke-linejoin:round;">
   <!ENTITY st7 "fill:none;stroke:#000000;stroke-linecap:round;stroke-linejoin:round;">
   <!ENTITY st8 "enable-background:new;">
   <!ENTITY st9 "fill:#000000;stroke:#000000; stroke-linecap:round;stroke-linejoin:round;">
   <!ENTITY st10 "font-size:9px;font-family:'ArialMT';">
   <!ENTITY st11 "font-size:9px;font-family:'Svg Symbol';">
   <!ENTITY st12 "font-size:6px;font-family:'Svg Symbol';">
   <!ENTITY st13 "fill:none;stroke:#ff0000;stroke-linecap:round;stroke-linejoin:round;">
   <!ENTITY st14 "fill:#FFFF00;stroke:#FFFF00; stroke-width:0.1;stroke-linecap:round;stroke-linejoin:round;">
   <!ENTITY st15 "font-size:6px;font-family:'MS-PGothic';adobe-font-script:japanese;">
   <!ENTITY st16 "1.00 0.00 0.00 1.00">
   <!ENTITY st17 "0.00 -1.00 1.00 0.00">
   <!ENTITY st18 "font-size:6px;font-family:'Arial';">
   <!ENTITY st19 "font-size:9px;font-family:'Arial';">
   <!ENTITY st20 "font-size:6px;font-family:'MS-PGothic','MS PGothic';adobe-font-script:japanese;">
   <!ENTITY st21 "font-size:7px;font-family:'MS-PGothic','MS PGothic';adobe-font-script:japanese;">
   <!ATTLIST svg
       xmlns:ewd CDATA #FIXED "http://shcl.co.jp/ewd"
       xmlns:a CDATA #FIXED "http://ns.adobe.com/AdobeSVGViewerExtensions/3.0/"
       ewd:ver CDATA #IMPLIED >
   <!ATTLIST a
       ewd:lineID CDATA #IMPLIED
       ewd:groupID CDATA #IMPLIED
       ewd:figtype CDATA #IMPLIED
       ewd:code CDATA #IMPLIED
       ewd:figID CDATA #IMPLIED
       ewd:pinNo CDATA #IMPLIED
       ewd:comment CDATA #IMPLIED >
   <!ATTLIST g
       ewd:lineID CDATA #IMPLIED
       ewd:groupID CDATA #IMPLIED
       ewd:figtype CDATA #IMPLIED
       ewd:code CDATA #IMPLIED
       ewd:figID CDATA #IMPLIED
       ewd:pinNo CDATA #IMPLIED
       ewd:comment CDATA #IMPLIED >
   <!ATTLIST text
       ewd:textID CDATA #IMPLIED >
   <!ATTLIST title
       ewd:textID CDATA #IMPLIED >
]>
<svg xmlns="http://www.w3.org/2000/svg" xmlns:xlink="http://www.w3.org/1999/xlink" width="1571.21" height="721" viewBox="0 0 1571.21 721" xml:space="preserve" xmlns:ewd="http://shcl.co.jp/ewd" ewd:ver="2.0">
  
  <defs>
    <font horiz-adv-x="1229">
      <font-face font-family="Svg Symbol" units-per-em="2048" panose-1="5 5 1 2 1 7 6 2 5 7" ascent="2059" descent="450" alphabetic="0" />
      <missing-glyph d="M 103,0 l 0,1280 1024,0 0,-1280 -1024,0 z m 32,32 l 960,0 0,1216 -960,0 0,-1216 z" />
      <glyph d4p1:unicode="" horiz-adv-x="1573" d="M 1517,0 l -567,0 24,279 q 141,59 207.5,168 66.5,109 66.5,306 0,272 -132.5,417.5 -132.5,145.5 -333.5,145.5 -194,0 -328,-147.5 -134,-147.5 -134,-401.5 0,-200 68.5,-319 68.5,-119 206.5,-169 l 25,-279 -564,0 0,279 35,0 q 3,-61 32,-83 45,-35 137,-35 l 270,0 0,70 q -210,61 -324.5,209 -114.5,148 -114.5,349 0,252 186.5,425 186.5,173 504.5,173 195,0 358.5,-73.5 163.5,-73.5 252,-214.5 88.5,-141 88.5,-310 0,-207 -121.5,-360.5 -121.5,-153.5 -317.5,-197.5 l -8,-70 275,0 q 92,0 128,28 36,28 42,90 l 38,0 0,-279 z" xmlns:d4p1="def-glyph-attr-unicode" />
    </font>
  </defs>
  
<g ewd:figtype="jb" ewd:code="13" ewd:figID="4">
      <path style="fill:none;stroke:#000000;stroke-width:0.85;" d="M 450.69,102.05 L 450.69, 87.87 L 314.62, 87.87 L 314.62, 102.04" />
      <path style="fill:none;stroke:#000000;stroke-width:0.85;" d="M 493.21,102.05 L 493.21, 79.37 L 272.1, 79.37 L 272.1, 102.05" />
      <path style="fill:none;stroke:#000000;stroke-width:0.85;" d="M 178.56,80.79 L 178.56, 87.88" />
      <path style="fill:none;stroke:#000000;stroke-width:0.85;" d="M 178.56,87.88 L 178.56, 102.05" />
      <path d="M 450.69,102.05 L 453.52, 99.22 L 453.52, 96.39 L 450.69, 99.22 L 447.86, 96.39 L 447.86, 99.22 L 450.69, 102.05" style="stroke-linecap:round;stroke-linejoin:round;" />
      <path style="fill:none;stroke:#000000;stroke-width:0.85;stroke-linecap:round;stroke-linejoin:round;" d="M 454.94,113.39 C 458.07 113.39 460.61 110.85 460.61 107.72 C 460.61 104.59 458.07 102.05 454.94 102.05 L 446.44, 102.05 C 443.31 102.05 440.77 104.59 440.77 107.72 C 440.77 110.85 443.31 113.39 446.44 113.39 L 454.94, 113.39" />
      <path d="M 314.62,102.05 L 317.45, 99.22 L 317.45, 96.39 L 314.62, 99.22 L 311.79, 96.39 L 311.79, 99.22 L 314.62, 102.05" style="stroke-linecap:round;stroke-linejoin:round;" />
      <path style="fill:none;stroke:#000000;stroke-width:0.85;stroke-linecap:round;stroke-linejoin:round;" d="M 318.88,113.39 C 322.01 113.39 324.55 110.85 324.55 107.72 C 324.55 104.59 322.01 102.05 318.88 102.05 L 310.38, 102.05 C 307.25 102.05 304.71 104.59 304.71 107.72 C 304.71 110.85 307.25 113.39 310.38 113.39 L 318.88, 113.39" />
      <path d="M 493.21,102.05 L 496.04, 99.22 L 496.04, 96.39 L 493.21, 99.22 L 490.38, 96.39 L 490.38, 99.22 L 493.21, 102.05" style="stroke-linecap:round;stroke-linejoin:round;" />
      <path style="fill:none;stroke:#000000;stroke-width:0.85;stroke-linecap:round;stroke-linejoin:round;" d="M 497.46,113.39 C 500.59 113.39 503.13 110.85 503.13 107.72 C 503.13 104.59 500.59 102.05 497.46 102.05 L 488.96, 102.05 C 485.83 102.05 483.29 104.59 483.29 107.72 C 483.29 110.85 485.83 113.39 488.96 113.39 L 497.46, 113.39" />
      <path d="M 272.1,102.05 L 274.93, 99.22 L 274.93, 96.39 L 272.1, 99.22 L 269.26, 96.39 L 269.26, 99.22 L 272.1, 102.05" style="stroke-linecap:round;stroke-linejoin:round;" />
      <path style="fill:none;stroke:#000000;stroke-width:0.85;stroke-linecap:round;stroke-linejoin:round;" d="M 276.36,113.39 C 279.49 113.39 282.03 110.85 282.03 107.72 C 282.03 104.59 279.49 102.05 276.36 102.05 L 267.86, 102.05 C 264.73 102.05 262.19 104.59 262.19 107.72 C 262.19 110.85 264.73 113.39 267.86 113.39 L 276.36, 113.39" />
      <path d="M 178.56,102.05 L 181.39, 99.22 L 181.39, 96.39 L 178.56, 99.22 L 175.73, 96.39 L 175.73, 99.22 L 178.56, 102.05" style="stroke-linecap:round;stroke-linejoin:round;" />
      <path style="fill:none;stroke:#000000;stroke-width:0.85;stroke-linecap:round;stroke-linejoin:round;" d="M 182.81,113.39 C 185.94 113.39 188.48 110.85 188.48 107.72 C 188.48 104.59 185.94 102.05 182.81 102.05 L 174.31, 102.05 C 171.18 102.05 168.64 104.59 168.64 107.72 C 168.64 110.85 171.18 113.39 174.31 113.39 L 182.81, 113.39" />
      <path style="fill:none;stroke:#000000;stroke-width:0.85;stroke-linecap:round;stroke-linejoin:round;" d="M 178.56,80.79 C 179.34 80.79 179.98 80.15 179.98 79.37 C 179.98 78.59 179.34 77.95 178.56 77.95 C 177.779995117187 77.9499938964844 177.14 78.59 177.14 79.37 C 177.14 80.15 177.78 80.79 178.56 80.79" />
      <path style="fill:none;stroke:#000000;stroke-width:0.85;stroke-linecap:round;stroke-linejoin:round;" d="M 178.56,55.28 C 179.34 55.28 179.98 54.65 179.98 53.86 C 179.98 53.08 179.34 52.44 178.56 52.44 C 177.779995117187 52.439997253418 177.14 53.07 177.14 53.86 C 177.14 54.64 177.78 55.28 178.56 55.28" />
      <path style="fill:none;stroke:#000000;stroke-width:1.417;" d="M 177.56,54.86 C 177.56 54.86 171.49 59.54 178.56 66.61 C 185.629995117187 73.6800012207031 179.56 78.36 179.56 78.36" />
      <path style="fill:none;stroke:#000000;stroke-width:1.417;stroke-linecap:round;stroke-linejoin:round;" d="M 191.32,87.88 L 191.32, 45.36 L 165.8, 45.36 L 165.8, 87.88 L 191.32, 87.88" />
      <text transform="matrix(1 0 0 1 445.1831 109.4233)" style="font-family:'Arial'; font-size:6px;">13H</text>
      <text transform="matrix(1 0 0 1 432.6748 109.4233)" style="font-family:'Arial'; font-size:6px;">14</text>
      <text transform="matrix(1 0 0 1 309.2856 109.4233)" style="font-family:'Arial'; font-size:6px;">13B</text>
      <text transform="matrix(1 0 0 1 296.6113 109.4233)" style="font-family:'Arial'; font-size:6px;">25</text>
      <text transform="matrix(1 0 0 1 487.8682 109.4233)" style="font-family:'Arial'; font-size:6px;">13S</text>
      <text transform="matrix(1 0 0 1 478.5313 109.4233)" style="font-family:'Arial'; font-size:6px;">3</text>
      <text transform="matrix(1 0 0 1 266.7661 109.4233)" style="font-family:'Arial'; font-size:6px;">13B</text>
      <text transform="matrix(1 0 0 1 254.0923 109.4233)" style="font-family:'Arial'; font-size:6px;">26</text>
      <text transform="matrix(1 0 0 1 173.2222 109.4233)" style="font-family:'Arial'; font-size:6px;">13B</text>
      <text transform="matrix(1 0 0 1 163.8853 109.4233)" style="font-family:'Arial'; font-size:6px;">7</text>
      <text transform="matrix(1 0 0 1 170.2627 95.251)" style="font-family:'Arial'; font-size:6px;">2</text>
      <text transform="matrix(1 0 0 1 173.3955 41.3921)" style="font-family:'Arial'; font-size:6px;">(IG)</text>
      <text transform="matrix(1 0 0 1 194.1504 64.7783)" style="font-family:'Arial'; font-size:6px;">7.5A<tspan x="0" dy="1em">ECU-IG NO. 1</tspan></text>
    </g><g ewd:figtype="w2w" ewd:code="AB4" ewd:pin_no="12" ewd:figID="42">
      <path style="fill:#FFFFFF;stroke:#FFFFFF;stroke-width:0;stroke-linecap:round;stroke-linejoin:round;" d="M 46.75,267.34 L 42.5, 263.09 L 38.25, 267.34 L 38.25, 260.79 L 46.75, 260.79 L 46.75, 267.34" />
      <path style="fill:#FFFFFF;stroke:#FFFFFF;stroke-width:0;stroke-linecap:round;stroke-linejoin:round;" d="M 46.75,264.5 L 42.5, 260.25 L 38.25, 264.5 L 38.25, 257.95 L 46.75, 257.95 L 46.75, 264.5" />
      <path style="fill:none;stroke:#000000;stroke-width:0.85;" d="M 46.75,265.04 L 42.5, 260.79 L 38.25, 265.04" />
      <path style="fill:none;stroke:#000000;stroke-width:0.85;" d="M 46.75,262.2 L 42.5, 257.95 L 38.25, 262.2" />
      <path style="fill:none;stroke:#000000;stroke-width:0.85;stroke-linecap:round;stroke-linejoin:round;" d="M 52.42,249.45 L 52.42, 257.95 L 32.58, 257.95 L 32.58, 249.45 L 52.42, 249.45" />
      <text transform="matrix(1 0 0 1 24.4858 255.4063)" style="font-family:'Arial'; font-size:6px;">12</text>
    </g><g ewd:figtype="w2w" ewd:code="AB4" ewd:pin_no="13" ewd:figID="43">
      <path style="fill:#FFFFFF;stroke:#FFFFFF;stroke-width:0;stroke-linecap:round;stroke-linejoin:round;" d="M 182.81,267.34 L 178.56, 263.09 L 174.31, 267.34 L 174.31, 260.79 L 182.81, 260.79 L 182.81, 267.34" />
      <path style="fill:#FFFFFF;stroke:#FFFFFF;stroke-width:0;stroke-linecap:round;stroke-linejoin:round;" d="M 182.81,264.5 L 178.56, 260.25 L 174.31, 264.5 L 174.31, 257.95 L 182.81, 257.95 L 182.81, 264.5" />
      <path style="fill:none;stroke:#000000;stroke-width:0.85;" d="M 182.81,265.04 L 178.56, 260.79 L 174.31, 265.04" />
      <path style="fill:none;stroke:#000000;stroke-width:0.85;" d="M 182.81,262.2 L 178.56, 257.95 L 174.31, 262.2" />
      <path style="fill:none;stroke:#000000;stroke-width:0.85;stroke-linecap:round;stroke-linejoin:round;" d="M 188.48,249.45 L 188.48, 257.95 L 168.64, 257.95 L 168.64, 249.45 L 188.48, 249.45" />
      <text transform="matrix(1 0 0 1 160.5483 255.4063)" style="font-family:'Arial'; font-size:6px;">13</text>
    </g><g ewd:figtype="w2w" ewd:code="AB4" ewd:pin_no="11" ewd:figID="51">
      <path style="fill:#FFFFFF;stroke:#FFFFFF;stroke-width:0;stroke-linecap:round;stroke-linejoin:round;" d="M 89.27,267.34 L 85.02, 263.09 L 80.77, 267.34 L 80.77, 260.79 L 89.27, 260.79 L 89.27, 267.34" />
      <path style="fill:#FFFFFF;stroke:#FFFFFF;stroke-width:0;stroke-linecap:round;stroke-linejoin:round;" d="M 89.27,264.5 L 85.02, 260.25 L 80.77, 264.5 L 80.77, 257.95 L 89.27, 257.95 L 89.27, 264.5" />
      <path style="fill:none;stroke:#000000;stroke-width:0.85;" d="M 89.27,265.04 L 85.02, 260.79 L 80.77, 265.04" />
      <path style="fill:none;stroke:#000000;stroke-width:0.85;" d="M 89.27,262.2 L 85.02, 257.95 L 80.77, 262.2" />
      <path style="fill:none;stroke:#000000;stroke-width:0.85;stroke-linecap:round;stroke-linejoin:round;" d="M 94.94,249.45 L 94.94, 257.95 L 75.1, 257.95 L 75.1, 249.45 L 94.94, 249.45" />
      <text transform="matrix(1 0 0 1 67.0054 255.4063)" style="font-family:'Arial'; font-size:6px;">11</text>
    </g><g ewd:figtype="gp" ewd:code="B3" ewd:figID="57">
      <path style="fill:none;stroke:#000000;stroke-width:0.85;" d="M 85.02,708.66 L 85.02, 711.49" />
      <path style="fill:none;stroke:#000000;stroke-width:0.85;" d="M 83.6,720 L 86.43999, 720" />
      <path style="fill:none;stroke:#000000;stroke-width:0.85;" d="M 82.18,717.17 L 87.85, 717.17" />
      <path style="fill:none;stroke:#000000;stroke-width:0.85;" d="M 79.35,714.33 L 90.69, 714.33" />
      <path style="fill:none;stroke:#000000;stroke-width:0.85;" d="M 76.51,711.5 L 93.52, 711.5" />
    </g><g ewd:figtype="conn" ewd:code="A24" ewd:figID="9">
      <path style="fill:none;stroke:#000000;stroke-width:0.85;" d="M 178.56,155.91 L 178.56, 206.93" />
      <path style="fill:none;stroke:#000000;stroke-width:5;" d="M 178.56,155.91 L 178.56, 206.93" />
      <path style="fill:none;stroke:#FFFFFF;stroke-width:2.2;" d="M 178.56,155.91 L 178.56, 206.93" />
      <path style="fill:none;stroke:#FF0000;" d="M 178.56,155.91 L 178.56, 206.93" />
      <path style="fill:none;stroke:#000000;stroke-width:1.417;stroke-linecap:round;stroke-linejoin:round;" d="M 238.09,206.93 L 238.09, 155.91 L 25.49, 155.91 L 25.49, 206.93 L 238.09, 206.93" />
      <text transform="matrix(1 0 0 1 212.7827 214.3052)" style="font-family:'Arial'; font-size:6px;">5</text>
      <text transform="matrix(1 0 0 1 216.5776 202.9668)" style="font-family:'Arial'; font-size:6px;">SIL</text>
      <text transform="matrix(1 0 0 1 170.2632 151.9429)" style="font-family:'Arial'; font-size:6px;">1</text>
      <text transform="matrix(1 0 0 1 170.2632 214.3052)" style="font-family:'Arial'; font-size:6px;">4</text>
      <text transform="matrix(1 0 0 1 182.813 163.2822)" style="font-family:'Arial'; font-size:6px;">IG1</text>
      <text transform="matrix(1 0 0 1 182.813 202.9668)" style="font-family:'Arial'; font-size:6px;">IG2</text>
      <text transform="matrix(1 0 0 1 34.2002 214.3052)" style="font-family:'Arial'; font-size:6px;">3</text>
      <text transform="matrix(1 0 0 1 34.1631 202.9668)" style="font-family:'Arial'; font-size:6px;">GND1</text>
      <text transform="matrix(1 0 0 1 76.7202 214.3052)" style="font-family:'Arial'; font-size:6px;">6</text>
      <text transform="matrix(1 0 0 1 76.6826 202.9668)" style="font-family:'Arial'; font-size:6px;">GND2</text>
      <text transform="matrix(0 -1 1 0 174.5972 186.584)" style="font-family:'Arial'; font-size:6px;">B-R</text>
      <g ewd:figtype="title">
        <text transform="matrix(1 0 0 1 25.4897 144.1475)" style="font-family:'Arial'; font-size:6px;">A24</text>
        <text transform="matrix(1 0 0 1 25.4897 151.2339)" style="font-family:'Arial'; font-size:6px;" ewd:textID="10">Short Pin (Vacuum)</text>
      </g>
    </g><g ewd:figtype="conn" ewd:code="B20" ewd:figID="11">
      <path style="fill:none;stroke:#000000;stroke-width:0.85;" d="M 237.99,496.06 L 230.58, 496.06" />
      <path style="fill:none;stroke:#000000;stroke-width:0.85;" d="M 211.58,496.06 L 204.17, 496.06" />
      <path style="fill:none;stroke:#000000;stroke-width:0.85;" d="M 211.16,496.06 C 211.16 493.71 213.06 491.81 215.41 491.81 C 217.76 491.81 219.66 493.71 219.66 496.06 C 219.66 497.32 219.11 498.45 218.24 499.23 L 218.24, 499.23 C 217.37 498.45 216.82 497.32 216.82 496.06 C 216.82 493.71 218.72 491.81 221.07 491.81 C 223.42 491.81 225.32 493.71 225.32 496.06 C 225.32 497.32 224.77 498.45 223.9 499.23 L 223.9, 499.23 C 223.03 498.45 222.49 497.32 222.49 496.06 C 222.49 493.71 224.39 491.81 226.74 491.81 C 229.09 491.81 230.99 493.71 230.99 496.06" />
      <path style="fill:none;stroke:#000000;stroke-width:1.417;stroke-linecap:round;stroke-linejoin:round;" d="M 212.58,487.56 C 207.88 487.56 204.08 491.37 204.08 496.06 C 204.08 500.76 207.89 504.56 212.58 504.56 L 229.59, 504.56 C 234.29 504.56 238.09 500.75 238.09 496.06 C 238.09 491.36 234.28 487.56 229.59 487.56 L 212.58, 487.56" />
      <text transform="matrix(1 0 0 1 198.6099 489.2656)" style="font-family:'Arial'; font-size:6px;">2</text>
      <text transform="matrix(1 0 0 1 240.2144 489.2656)" style="font-family:'Arial'; font-size:6px;">1</text>
      <g ewd:figtype="title">
        <text transform="matrix(1 0 0 1 195.5684 512.6514)" style="font-family:'Arial'; font-size:6px;">B20</text>
        <text transform="matrix(1 0 0 1 195.5684 519.7383)" style="font-family:'Arial'; font-size:6px;" ewd:textID="13">Speed Sensor (Front LH)</text>
      </g>
    </g><g ewd:figtype="conn" ewd:code="B19" ewd:figID="24">
      <path style="fill:none;stroke:#000000;stroke-width:1.417;stroke-linecap:round;stroke-linejoin:round;" d="M 119.03,411.02 L 119.03, 360 L 1222.54, 360 L 1222.54, 411.02 L 119.03, 411.02" />
      <g ewd:lineID="18">
        <text transform="matrix(1 0 0 1 1193.9033 418.3994)" style="font-family:'Arial'; font-size:6px;">13</text>
        <text transform="matrix(1 0 0 1 1200.7041 407.0615)" style="font-family:'Arial'; font-size:6px;">WA</text>
      </g>
      <g ewd:lineID="19">
        <text transform="matrix(1 0 0 1 1091.8555 418.3994)" style="font-family:'Arial'; font-size:6px;">18</text>
        <text transform="matrix(1 0 0 1 1097.4873 407.0615)" style="font-family:'Arial'; font-size:6px;">PKB</text>
      </g>
      <g ewd:lineID="21">
        <text transform="matrix(1 0 0 1 1193.9033 356.0376)" style="font-family:'Arial'; font-size:6px;">10</text>
        <text transform="matrix(1 0 0 1 1199.7021 367.376)" style="font-family:'Arial'; font-size:6px;">STP</text>
      </g>
      <g ewd:lineID="31">
        <text transform="matrix(1 0 0 1 940.7842 418.3994)" style="font-family:'Arial'; font-size:6px;">34</text>
        <text transform="matrix(1 0 0 1 947.0869 407.0615)" style="font-family:'Arial'; font-size:6px;">RR-</text>
      </g>
      <g ewd:lineID="34">
        <text transform="matrix(1 0 0 1 855.7451 418.3994)" style="font-family:'Arial'; font-size:6px;">33</text>
        <text transform="matrix(1 0 0 1 861.2939 407.0615)" style="font-family:'Arial'; font-size:6px;">RR+</text>
      </g>
      <g ewd:lineID="39">
        <text transform="matrix(1 0 0 1 728.1855 418.3994)" style="font-family:'Arial'; font-size:6px;">12</text>
        <text transform="matrix(1 0 0 1 734.9863 407.0615)" style="font-family:'Arial'; font-size:6px;">RL-</text>
      </g>
      <g ewd:lineID="42">
        <text transform="matrix(1 0 0 1 643.1465 418.3994)" style="font-family:'Arial'; font-size:6px;">11</text>
        <text transform="matrix(1 0 0 1 649.1943 407.0615)" style="font-family:'Arial'; font-size:6px;">RL+</text>
      </g>
      <g ewd:lineID="43">
        <text transform="matrix(1 0 0 1 464.5635 418.3994)" style="font-family:'Arial'; font-size:6px;">30</text>
        <text transform="matrix(1 0 0 1 471.2002 407.0615)" style="font-family:'Arial'; font-size:6px;">FR-</text>
      </g>
      <g ewd:lineID="44">
        <text transform="matrix(1 0 0 1 379.5239 418.3994)" style="font-family:'Arial'; font-size:6px;">31</text>
        <text transform="matrix(1 0 0 1 385.4077 407.0615)" style="font-family:'Arial'; font-size:6px;">FR+</text>
      </g>
      <g ewd:lineID="45">
        <text transform="matrix(1 0 0 1 255.3018 418.3994)" style="font-family:'Arial'; font-size:6px;">8</text>
        <text transform="matrix(1 0 0 1 259.0996 407.0615)" style="font-family:'Arial'; font-size:6px;">FL-</text>
      </g>
      <g ewd:lineID="46">
        <text transform="matrix(1 0 0 1 170.2627 418.3994)" style="font-family:'Arial'; font-size:6px;">9</text>
        <text transform="matrix(1 0 0 1 173.3076 407.0615)" style="font-family:'Arial'; font-size:6px;">FL+</text>
      </g>
      <g ewd:lineID="54">
        <text transform="matrix(1 0 0 1 127.7427 356.0376)" style="font-family:'Arial'; font-size:6px;">2</text>
        <text transform="matrix(1 0 0 1 129.374 367.376)" style="font-family:'Arial'; font-size:6px;">GND</text>
      </g>
      <g ewd:lineID="57">
        <text transform="matrix(1 0 0 1 302.9888 356.0376)" style="font-family:'Arial'; font-size:6px;">16</text>
        <text transform="matrix(1 0 0 1 310.624 367.376)" style="font-family:'Arial'; font-size:6px;">TC</text>
      </g>
      <g ewd:lineID="58">
        <text transform="matrix(1 0 0 1 345.5083 356.0376)" style="font-family:'Arial'; font-size:6px;">15</text>
        <text transform="matrix(1 0 0 1 353.3096 367.376)" style="font-family:'Arial'; font-size:6px;">TS</text>
      </g>
      <g ewd:lineID="64">
        <text transform="matrix(1 0 0 1 260.4688 356.0376)" style="font-family:'Arial'; font-size:6px;">14</text>
        <text transform="matrix(1 0 0 1 266.77 367.376)" style="font-family:'Arial'; font-size:6px;">D/G</text>
      </g>
      <g ewd:lineID="67">
        <text transform="matrix(1 0 0 1 940.7842 356.0376)" style="font-family:'Arial'; font-size:6px;">20</text>
        <text transform="matrix(1 0 0 1 950.252 367.376)" style="font-family:'Arial'; font-size:6px;">N</text>
      </g>
      <g ewd:lineID="73">
        <text transform="matrix(1 0 0 1 1003.6484 356.0376)" style="font-family:'Arial'; font-size:6px;">6</text>
        <text transform="matrix(1 0 0 1 1009.9453 367.376)" style="font-family:'Arial'; font-size:6px;">P</text>
      </g>
      <g ewd:lineID="76">
        <text transform="matrix(1 0 0 1 634.6426 356.0376)" style="font-family:'Arial'; font-size:6px;">23</text>
        <text transform="matrix(1 0 0 1 640.0254 367.376)" style="font-family:'Arial'; font-size:6px;">+BM</text>
      </g>
      <g ewd:lineID="77">
        <text transform="matrix(1 0 0 1 586.9561 356.0376)" style="font-family:'Arial'; font-size:6px;">1</text>
        <text transform="matrix(1 0 0 1 589.499 367.376)" style="font-family:'Arial'; font-size:6px;">+BS</text>
      </g>
      <g ewd:lineID="80">
        <text transform="matrix(1 0 0 1 166.9258 356.0376)" style="font-family:'Arial'; font-size:6px;">25</text>
        <text transform="matrix(1 0 0 1 173.7246 367.376)" style="font-family:'Arial'; font-size:6px;">IG1</text>
      </g>
      <g ewd:lineID="81">
        <text transform="matrix(1 0 0 1 124.4058 418.3994)" style="font-family:'Arial'; font-size:6px;">24</text>
        <text transform="matrix(1 0 0 1 129.374 407.0615)" style="font-family:'Arial'; font-size:6px;">GND</text>
      </g>
      <g ewd:figtype="title">
        <text transform="matrix(1 0 0 1 289.1113 383.6748)" style="font-family:'Arial'; font-size:6px;">B19</text>
        <text transform="matrix(1 0 0 1 289.1113 390.7617)" style="font-family:'Arial'; font-size:6px;" ewd:textID="11">Skid Control ECU with Actuator</text>
      </g>
      <g ewd:figtype="title">
        <text transform="matrix(1 0 0 1 748.3242 383.6748)" style="font-family:'Arial'; font-size:6px;">B19</text>
        <text transform="matrix(1 0 0 1 748.3242 390.7617)" style="font-family:'Arial'; font-size:6px;" ewd:textID="11">Skid Control ECU with Actuator</text>
      </g>
      <g ewd:figtype="title">
        <text transform="matrix(1 0 0 1 1069.4746 383.6748)" style="font-family:'Arial'; font-size:6px;">B19</text>
        <text transform="matrix(1 0 0 1 1069.4746 390.7617)" style="font-family:'Arial'; font-size:6px;" ewd:textID="11">Skid Control ECU with Actuator</text>
      </g>
    </g><text transform="matrix(0 -1 1 0 174.5972 132.395)" style="font-family:'Arial'; font-size:6px;">B</text><text transform="matrix(0 -1 1 0 174.5972 336.4897)" style="font-family:'Arial'; font-size:6px;">B</text><text transform="matrix(0 -1 1 0 174.5972 234.4424)" style="font-family:'Arial'; font-size:6px;">B</text><text transform="matrix(0 -1 1 0 132.0781 340.3203)" style="font-family:'Arial'; font-size:6px;">W-B</text><text transform="matrix(0 -1 1 0 81.0542 340.3203)" style="font-family:'Arial'; font-size:6px;">W-B</text><text transform="matrix(0 -1 1 0 38.5342 340.3203)" style="font-family:'Arial'; font-size:6px;">W-B</text><text transform="matrix(0 -1 1 0 81.0542 289.2969)" style="font-family:'Arial'; font-size:6px;">W-B</text><text transform="matrix(0 -1 1 0 38.5347 238.2729)" style="font-family:'Arial'; font-size:6px;">W-B</text><text transform="matrix(0 -1 1 0 81.0542 238.2729)" style="font-family:'Arial'; font-size:6px;">W-B</text><text transform="matrix(0 -1 1 0 132.0781 663.4697)" style="font-family:'Arial'; font-size:6px;">W-B</text><text transform="matrix(0 -1 1 0 132.0781 459.376)" style="font-family:'Arial'; font-size:6px;">W-B</text><text transform="matrix(0 -1 1 0 217.1172 235.2729)" style="font-family:'Arial'; font-size:6px;">W</text><text transform="matrix(0 -1 1 0 174.5986 455.2119)" style="font-family:'Arial'; font-size:6px;">L</text><text transform="matrix(0 -1 1 0 81.0542 663.4697)" style="font-family:'Arial'; font-size:6px;">W-B</text><g ewd:figID="1101">
      <path style="fill:none;stroke:#000000;stroke-width:0.85;stroke-dasharray:6 3;" d="M 280.61,445.04 L 280.61, 470.55 L 161.55, 470.55 L 161.55, 436.53 L 272.1, 436.53" />
      <g ewd:figtype="comment">
        <text transform="matrix(1 0 0 1 207.4063 432.5732)" style="font-family:'Arial'; font-size:6px;" ewd:textID="1">(Shielded)</text>
      </g>
    </g></svg>