﻿<?xml version="1.0" encoding="utf-8"?>
<!-- Generator: Adobe Illustrator 10.0, SVG Export Plug-In . SVG Version: 3.0.0 Build 77)  -->
<!DOCTYPE svg PUBLIC "-//W3C//DTD SVG 1.0//EN" "http://www.w3.org/TR/2001/REC-SVG-20010904/DTD/svg10.dtd"[
   <!ENTITY ns_flows "http://ns.adobe.com/Flows/1.0/">
   <!ENTITY ns_svg "http://www.w3.org/2000/svg">
   <!ENTITY ns_xlink "http://www.w3.org/1999/xlink">
   <!ENTITY st0 "font-size:7px;font-family:'MS-PGothic';adobe-font-script:japanese;">
   <!ENTITY st1 "font-size:6px;font-family:'ArialMT';">
   <!ENTITY st2 "fill:#FFFFFF;stroke:#000000; stroke-width:1.41;stroke-linecap:round;stroke-linejoin:round;">
   <!ENTITY st3 "fill:#FFFFCC;stroke:#FFFFCC; stroke-width:0.1;stroke-linecap:round;stroke-linejoin:round;">
   <!ENTITY st4 "fill:#CCCCCC;stroke:#CCCCCC; stroke-width:0.1;stroke-linecap:round;stroke-linejoin:round;">
   <!ENTITY st5 "fill:#CCECF4;stroke:#000000; stroke-width:1.133;stroke-linecap:round;stroke-linejoin:round;">
   <!ENTITY st6 "fill:none;stroke-linecap:butt; stroke-linejoin:round;">
   <!ENTITY st7 "fill:none;stroke:#000000;stroke-linecap:round;stroke-linejoin:round;">
   <!ENTITY st8 "enable-background:new;">
   <!ENTITY st9 "fill:#000000;stroke:#000000; stroke-linecap:round;stroke-linejoin:round;">
   <!ENTITY st10 "font-size:9px;font-family:'ArialMT';">
   <!ENTITY st11 "font-size:9px;font-family:'Svg Symbol';">
   <!ENTITY st12 "font-size:6px;font-family:'Svg Symbol';">
   <!ENTITY st13 "fill:none;stroke:#ff0000;stroke-linecap:round;stroke-linejoin:round;">
   <!ENTITY st14 "fill:#FFFF00;stroke:#FFFF00; stroke-width:0.1;stroke-linecap:round;stroke-linejoin:round;">
   <!ENTITY st15 "font-size:6px;font-family:'MS-PGothic';adobe-font-script:japanese;">
   <!ENTITY st16 "1.00 0.00 0.00 1.00">
   <!ENTITY st17 "0.00 -1.00 1.00 0.00">
   <!ENTITY st18 "font-size:6px;font-family:'Arial';">
   <!ENTITY st19 "font-size:9px;font-family:'Arial';">
   <!ENTITY st20 "font-size:6px;font-family:'MS-PGothic','MS PGothic';adobe-font-script:japanese;">
   <!ENTITY st21 "font-size:7px;font-family:'MS-PGothic','MS PGothic';adobe-font-script:japanese;">
   <!ATTLIST svg
       xmlns:ewd CDATA #FIXED "http://shcl.co.jp/ewd"
       xmlns:a CDATA #FIXED "http://ns.adobe.com/AdobeSVGViewerExtensions/3.0/"
       ewd:ver CDATA #IMPLIED >
   <!ATTLIST a
       ewd:lineID CDATA #IMPLIED
       ewd:groupID CDATA #IMPLIED
       ewd:figtype CDATA #IMPLIED
       ewd:code CDATA #IMPLIED
       ewd:figID CDATA #IMPLIED
       ewd:pinNo CDATA #IMPLIED
       ewd:comment CDATA #IMPLIED >
   <!ATTLIST g
       ewd:lineID CDATA #IMPLIED
       ewd:groupID CDATA #IMPLIED
       ewd:figtype CDATA #IMPLIED
       ewd:code CDATA #IMPLIED
       ewd:figID CDATA #IMPLIED
       ewd:pinNo CDATA #IMPLIED
       ewd:comment CDATA #IMPLIED >
   <!ATTLIST text
       ewd:textID CDATA #IMPLIED >
   <!ATTLIST title
       ewd:textID CDATA #IMPLIED >
]>
<svg xmlns="http://www.w3.org/2000/svg" xmlns:xlink="http://www.w3.org/1999/xlink" width="4736.51" height="721" viewBox="0 0 4736.51 721" xml:space="preserve" xmlns:ewd="http://shcl.co.jp/ewd" ewd:ver="2.0">
  
  <defs>
    <font horiz-adv-x="1229">
      <font-face font-family="Svg Symbol" units-per-em="2048" panose-1="5 5 1 2 1 7 6 2 5 7" ascent="2059" descent="450" alphabetic="0" />
      <missing-glyph d="M 103,0 l 0,1280 1024,0 0,-1280 -1024,0 z m 32,32 l 960,0 0,1216 -960,0 0,-1216 z" />
      <glyph d4p1:unicode="" horiz-adv-x="1573" d="M 1517,0 l -567,0 24,279 q 141,59 207.5,168 66.5,109 66.5,306 0,272 -132.5,417.5 -132.5,145.5 -333.5,145.5 -194,0 -328,-147.5 -134,-147.5 -134,-401.5 0,-200 68.5,-319 68.5,-119 206.5,-169 l 25,-279 -564,0 0,279 35,0 q 3,-61 32,-83 45,-35 137,-35 l 270,0 0,70 q -210,61 -324.5,209 -114.5,148 -114.5,349 0,252 186.5,425 186.5,173 504.5,173 195,0 358.5,-73.5 163.5,-73.5 252,-214.5 88.5,-141 88.5,-310 0,-207 -121.5,-360.5 -121.5,-153.5 -317.5,-197.5 l -8,-70 275,0 q 92,0 128,28 36,28 42,90 l 38,0 0,-279 z" xmlns:d4p1="def-glyph-attr-unicode" />
    </font>
  </defs>
  
<g ewd:figtype="gp" ewd:code="D3" ewd:figID="113">
      <path style="fill:none;stroke:#000000;stroke-width:0.85;" d="M 3934.3,708.66 L 3934.3, 711.5" />
      <path style="fill:none;stroke:#000000;stroke-width:0.85;" d="M 3932.88,720 L 3935.72, 720" />
      <path style="fill:none;stroke:#000000;stroke-width:0.85;" d="M 3931.47,717.17 L 3937.14, 717.17" />
      <path style="fill:none;stroke:#000000;stroke-width:0.85;" d="M 3928.63,714.33 L 3939.97, 714.33" />
      <path style="fill:none;stroke:#000000;stroke-width:0.85;" d="M 3925.8,711.5 L 3942.81, 711.5" />
    </g><g ewd:figtype="conn" ewd:code="D79" ewd:figID="30">
      <path style="fill:none;stroke:#000000;stroke-width:0.85;" d="M 3900.29,164.31 L 3900.29, 156.9" />
      <path style="fill:none;stroke:#000000;stroke-width:0.85;" d="M 3900.29,137.91 L 3900.29, 130.5" />
      <path style="fill:none;stroke:#000000;stroke-width:0.85;" d="M 3900.29,137.48 C 3902.64 137.48 3904.54 139.38 3904.54 141.73 C 3904.54 144.08 3902.64 145.98 3900.29 145.98 C 3899.03 145.98 3897.9 145.43 3897.12 144.56 L 3897.12, 144.56 C 3897.9 143.69 3899.03 143.15 3900.29 143.15 C 3902.64 143.15 3904.54 145.05 3904.54 147.4 C 3904.54 149.75 3902.64 151.65 3900.29 151.65 C 3899.03 151.65 3897.9 151.1 3897.12 150.23 L 3897.12, 150.23 C 3897.9 149.36 3899.03 148.82 3900.29 148.82 C 3902.64 148.82 3904.54 150.72 3904.54 153.07 C 3904.540078125 155.420014648438 3902.64 157.32 3900.29 157.32" />
      <path style="fill:none;stroke:#000000;stroke-width:1.417;stroke-linecap:round;stroke-linejoin:round;" d="M 3908.79,138.9 C 3908.79 134.2 3904.98 130.4 3900.29 130.4 C 3895.600078125 130.399987792969 3891.79 134.21 3891.79 138.9 L 3891.79, 155.91 C 3891.79 160.61 3895.6 164.41 3900.29 164.41 C 3904.980078125 164.410007324219 3908.79 160.6 3908.79 155.91 L 3908.79, 138.9" />
      <text transform="matrix(1 0 0 1 3891.9893 126.4316)" style="font-family:'Arial'; font-size:6px;">1</text>
      <text transform="matrix(1 0 0 1 3891.9893 171.7861)" style="font-family:'Arial'; font-size:6px;">2</text>
      <g ewd:figtype="title">
        <text transform="matrix(0 -1 1 0 3916.875 164.4111)" style="font-family:'Arial'; font-size:6px;">D79</text>
        <text transform="matrix(0 -1 1 0 3923.9609 164.4111)" style="font-family:'Arial'; font-size:6px;" ewd:textID="27">Crankshaft Position Sensor</text>
      </g>
    </g><g ewd:figtype="conn" ewd:code="D32" ewd:figID="32">
      <path style="fill:none;stroke:#000000;stroke-width:0.85;" d="M 3993.83,127.56 L 3993.83, 139.25" />
      <path style="fill:none;stroke:#000000;stroke-width:0.85;" d="M 3993.83,155.55 L 3993.83, 167.24" />
      <path style="fill:none;stroke:#000000;stroke-width:1.417;stroke-linecap:round;stroke-linejoin:round;" d="M 4005.17,167.25 L 4005.17, 127.56 L 3982.49, 127.56 L 3982.49, 167.25 L 4005.17, 167.25" />
      <path style="fill:none;stroke:#000000;stroke-width:0.85;" d="M 3993.83,138.9 L 3996.28, 140.32 L 3991.37, 143.15 L 3996.28, 145.98 L 3991.37, 148.82 L 3996.28, 151.65 L 3991.37, 154.48 L 3993.83, 155.9" />
      <path style="fill:none;stroke:#000000;stroke-width:0.85;stroke-linecap:round;stroke-linejoin:round;" d="M 4002.33,138.9 C 4002.33 134.2 3998.52 130.4 3993.83 130.4 C 3989.13 130.4 3985.33 134.21 3985.33 138.9 L 3985.33, 155.91 C 3985.33 160.61 3989.14 164.41 3993.83 164.41 C 3998.53 164.41 4002.33 160.6 4002.33 155.91 L 4002.33, 138.9" />
      <text transform="matrix(1 0 0 1 3985.5322 174.6221)" style="font-family:'Arial'; font-size:6px;">2</text>
      <text transform="matrix(1 0 0 1 3985.5322 123.5972)" style="font-family:'Arial'; font-size:6px;">1</text>
      <g ewd:figtype="title">
        <text transform="matrix(0 -1 1 0 4013.252 172.9141)" style="font-family:'Arial'; font-size:6px;">D32</text>
        <text transform="matrix(0 -1 1 0 4020.3398 172.9141)" style="font-family:'Arial'; font-size:6px;" ewd:textID="47">Water Temp. Sensor (Engine Coolant)</text>
      </g>
    </g><g ewd:figtype="conn" ewd:code="D72" ewd:figID="50">
      <path style="fill:none;stroke:#000000;stroke-width:1.417;stroke-linecap:round;stroke-linejoin:round;" d="M 4172.41,130.39 L 4172.41, 96.38 L 4070.36, 96.38 L 4070.36, 130.4 L 4172.41, 130.4" />
      <g ewd:lineID="79">
        <text transform="matrix(1 0 0 1 4152.0723 126.4316)" style="font-family:'Arial'; font-size:6px;">G-</text>
        <text transform="matrix(1 0 0 1 4147.1064 137.7705)" style="font-family:'Arial'; font-size:6px;">3</text>
      </g>
      <g ewd:lineID="80">
        <text transform="matrix(1 0 0 1 4116.2227 126.4316)" style="font-family:'Arial'; font-size:6px;">NE-</text>
        <text transform="matrix(1 0 0 1 4113.0908 137.7705)" style="font-family:'Arial'; font-size:6px;">2</text>
      </g>
      <g ewd:lineID="81">
        <text transform="matrix(1 0 0 1 4083.2051 126.4316)" style="font-family:'Arial'; font-size:6px;">NE</text>
        <text transform="matrix(1 0 0 1 4079.0752 137.7705)" style="font-family:'Arial'; font-size:6px;">1</text>
      </g>
      <g ewd:figtype="title">
        <text transform="matrix(1 0 0 1 4070.3643 84.6206)" style="font-family:'Arial'; font-size:6px;">D72</text>
        <text transform="matrix(1 0 0 1 4070.3643 91.707)" style="font-family:'Arial'; font-size:6px;" ewd:textID="27">Crankshaft Position Sensor</text>
      </g>
    </g><g ewd:figtype="conn" ewd:code="B88,D105" ewd:figID="51">
      <path style="fill:none;stroke:#000000;stroke-width:1.417;stroke-linecap:round;stroke-linejoin:round;" d="M 4138.4,283.47 L 4138.4, 232.45 L 3976.83, 232.45 L 3976.83, 283.47 L 4138.4, 283.47" />
      <g ewd:lineID="100">
        <path style="fill:#FFFFFF;stroke:#000000;stroke-width:0.85;stroke-linecap:round;stroke-linejoin:round;" d="M 3993.83,294.8 C 3996.96 294.8 3999.5 292.26 3999.5 289.13 C 3999.5 286.000009765625 3996.96 283.46 3993.83 283.46 C 3990.70015625 283.459982910156 3988.16 286 3988.16 289.13 C 3988.15982421875 292.260009765625 3990.7 294.8 3993.83 294.8" />
        <text transform="matrix(1 0 0 1 3991.8301 290.8423)" style="font-family:'Arial'; font-size:6px;">A</text>
        <text transform="matrix(1 0 0 1 3983.2676 290.8423)" style="font-family:'Arial'; font-size:6px;">6</text>
        <text transform="matrix(1 0 0 1 3985.332 279.5034)" style="font-family:'Arial'; font-size:6px;">CANH</text>
      </g>
      <g ewd:lineID="101">
        <path style="fill:#FFFFFF;stroke:#000000;stroke-width:0.85;stroke-linecap:round;stroke-linejoin:round;" d="M 4036.35,294.8 C 4039.48 294.8 4042.02 292.26 4042.02 289.13 C 4042.0200390625 286.000009765625 4039.48 283.46 4036.35 283.46 C 4033.2201953125 283.459982910156 4030.68 286 4030.68 289.13 C 4030.67986328125 292.260009765625 4033.22 294.8 4036.35 294.8" />
        <text transform="matrix(1 0 0 1 4034.3506 290.8423)" style="font-family:'Arial'; font-size:6px;">A</text>
        <text transform="matrix(1 0 0 1 4025.7871 290.8423)" style="font-family:'Arial'; font-size:6px;">7</text>
        <text transform="matrix(1 0 0 1 4028.3496 279.5034)" style="font-family:'Arial'; font-size:6px;">CANL</text>
      </g>
      <g ewd:lineID="69">
        <path style="fill:#FFFFFF;stroke:#000000;stroke-width:0.85;stroke-linecap:round;stroke-linejoin:round;" d="M 4036.35,232.44 C 4039.48 232.44 4042.02 229.9 4042.02 226.77 C 4042.02 223.64 4039.48 221.1 4036.35 221.1 C 4033.22 221.1 4030.68 223.64 4030.68 226.77 C 4030.68 229.9 4033.22 232.44 4036.35 232.44" />
        <text transform="matrix(1 0 0 1 4034.3486 228.48)" style="font-family:'Arial'; font-size:6px;">B</text>
        <text transform="matrix(1 0 0 1 4022.4492 228.48)" style="font-family:'Arial'; font-size:6px;">88</text>
        <text transform="matrix(1 0 0 1 4027.5186 239.8188)" style="font-family:'Arial'; font-size:6px;">ETHW</text>
      </g>
      <g ewd:lineID="70">
        <path style="fill:#FFFFFF;stroke:#000000;stroke-width:0.85;stroke-linecap:round;stroke-linejoin:round;" d="M 3993.83,232.44 C 3996.96 232.44 3999.5 229.9 3999.5 226.77 C 3999.5 223.64 3996.96 221.1 3993.83 221.1 C 3990.70015625 221.100012207031 3988.16 223.64 3988.16 226.77 C 3988.16 229.9 3990.7 232.44 3993.83 232.44" />
        <text transform="matrix(1 0 0 1 3991.8301 228.48)" style="font-family:'Arial'; font-size:6px;">B</text>
        <text transform="matrix(1 0 0 1 3976.5928 228.48)" style="font-family:'Arial'; font-size:6px;">111</text>
        <text transform="matrix(1 0 0 1 3987 239.8188)" style="font-family:'Arial'; font-size:6px;">THW</text>
      </g>
      <g ewd:lineID="80">
        <path style="fill:#FFFFFF;stroke:#000000;stroke-width:0.85;stroke-linecap:round;stroke-linejoin:round;" d="M 4121.39,232.44 C 4124.52 232.44 4127.06 229.9 4127.06 226.77 C 4127.06 223.64 4124.52 221.1 4121.39 221.1 C 4118.26 221.1 4115.72 223.64 4115.72 226.77 C 4115.72 229.9 4118.26 232.44 4121.39 232.44" />
        <text transform="matrix(1 0 0 1 4119.3887 228.48)" style="font-family:'Arial'; font-size:6px;">B</text>
        <text transform="matrix(1 0 0 1 4104.1514 228.48)" style="font-family:'Arial'; font-size:6px;">102</text>
        <text transform="matrix(1 0 0 1 4116.2236 239.8188)" style="font-family:'Arial'; font-size:6px;">NE-</text>
      </g>
      <g ewd:lineID="81">
        <path style="fill:#FFFFFF;stroke:#000000;stroke-width:0.85;stroke-linecap:round;stroke-linejoin:round;" d="M 4087.37,232.44 C 4090.5 232.44 4093.04 229.9 4093.04 226.77 C 4093.04 223.64 4090.5 221.1 4087.37 221.1 C 4084.24 221.1 4081.7 223.64 4081.7 226.77 C 4081.71 229.9 4084.24 232.44 4087.37 232.44" />
        <text transform="matrix(1 0 0 1 4085.373 228.48)" style="font-family:'Arial'; font-size:6px;">B</text>
        <text transform="matrix(1 0 0 1 4070.1357 228.48)" style="font-family:'Arial'; font-size:6px;">103</text>
        <text transform="matrix(1 0 0 1 4081.4551 239.8188)" style="font-family:'Arial'; font-size:6px;">NE+</text>
      </g>
      <g ewd:figtype="title">
        <text transform="matrix(1 0 0 1 4032.0986 256.1177)" style="font-family:'Arial'; font-size:6px;">B88(A), D105(B)</text>
        <text transform="matrix(1 0 0 1 4032.0986 263.2046)" style="font-family:'Arial'; font-size:6px;" ewd:textID="29">Engine ECU</text>
      </g>
    </g><g ewd:figtype="conn" ewd:code="D103" ewd:figID="52">
      <path style="fill:none;stroke:#000000;stroke-width:0.85;" d="M 3934.3,555.59 L 3934.3, 538.58" />
      <path style="fill:none;stroke:#000000;stroke-width:1.417;stroke-linecap:round;stroke-linejoin:round;" d="M 3942.81,555.59 L 3942.81, 538.58 L 3925.8, 538.58 L 3925.8, 555.59 L 3942.81, 555.59" />
      <text transform="matrix(1 0 0 1 3926.0049 562.9678)" style="font-family:'Arial'; font-size:6px;">1</text>
      <text transform="matrix(1 0 0 1 3926.0049 534.6211)" style="font-family:'Arial'; font-size:6px;">5</text>
      <g ewd:figtype="title">
        <text transform="matrix(1 0 0 1 3945.6406 545.252)" style="font-family:'Arial'; font-size:6px;">D103</text>
        <text transform="matrix(1 0 0 1 3945.6406 552.3379)" style="font-family:'Arial'; font-size:6px;" ewd:textID="37">Junction Connector</text>
      </g>
    </g><g ewd:figtype="conn" ewd:code="H20" ewd:figID="53">
      <path style="fill:#FFFFFF;stroke:#000000;stroke-width:0.85;stroke-linecap:round;stroke-linejoin:round;" d="M 4521.08,215.43 C 4524.21 215.43 4526.75 212.89 4526.75 209.76 C 4526.75 206.629989013672 4524.21 204.09 4521.08 204.09 C 4517.95015625 204.089992675781 4515.41 206.63 4515.41 209.76 C 4515.4103125 212.889989013672 4517.94 215.43 4521.08 215.43" />
      <path style="fill:#FFFFFF;stroke:#000000;stroke-width:0.85;stroke-linecap:round;stroke-linejoin:round;" d="M 4470.05,215.43 C 4473.18 215.43 4475.72 212.89 4475.72 209.76 C 4475.7204296875 206.629989013672 4473.18 204.09 4470.05 204.09 C 4466.92 204.09 4464.38 206.63 4464.38 209.76 C 4464.379765625 212.889989013672 4466.92 215.43 4470.05 215.43" />
      <path style="fill:#FFFFFF;stroke:#000000;stroke-width:0.85;stroke-linecap:round;stroke-linejoin:round;" d="M 4699.66,379.84 C 4702.79 379.84 4705.33 377.3 4705.33 374.17 C 4705.33015625 371.040026855469 4702.79 368.5 4699.66 368.5 C 4696.5303125 368.5 4693.99 371.04 4693.99 374.17 C 4693.99046875 377.300026855469 4696.53 379.84 4699.66 379.84" />
      <path style="fill:#FFFFFF;stroke:#000000;stroke-width:0.85;stroke-linecap:round;stroke-linejoin:round;" d="M 4470.05,379.84 C 4473.18 379.84 4475.72 377.3 4475.72 374.17 C 4475.7204296875 371.040026855469 4473.18 368.5 4470.05 368.5 C 4466.92 368.5 4464.38 371.04 4464.38 374.17 C 4464.379765625 377.300026855469 4466.92 379.84 4470.05 379.84" />
      <path style="fill:#FFFFFF;stroke:#000000;stroke-width:0.85;stroke-linecap:round;stroke-linejoin:round;" d="M 4512.57,379.84 C 4515.7 379.84 4518.24 377.3 4518.24 374.17 C 4518.24046875 371.040026855469 4515.7 368.5 4512.57 368.5 C 4509.4396484375 368.5 4506.9 371.04 4506.9 374.17 C 4506.8998046875 377.300026855469 4509.44 379.84 4512.57 379.84" />
      <path style="fill:#FFFFFF;stroke:#000000;stroke-width:0.85;stroke-linecap:round;stroke-linejoin:round;" d="M 4359.5,379.84 C 4362.63 379.84 4365.17 377.3 4365.17 374.17 C 4365.16984375 371.040026855469 4362.63 368.5 4359.5 368.5 C 4356.37 368.5 4353.83 371.04 4353.83 374.17 C 4353.83015625 377.300026855469 4356.37 379.84 4359.5 379.84" />
      <path style="fill:#FFFFFF;stroke:#000000;stroke-width:0.85;stroke-linecap:round;stroke-linejoin:round;" d="M 4640.13,379.84 C 4643.26 379.84 4645.8 377.3 4645.8 374.17 C 4645.799609375 371.040026855469 4643.26 368.5 4640.13 368.5 C 4636.999765625 368.5 4634.46 371.04 4634.46 374.17 C 4634.459921875 377.300026855469 4637 379.84 4640.13 379.84" />
      <path style="fill:#FFFFFF;stroke:#000000;stroke-width:0.85;stroke-linecap:round;stroke-linejoin:round;" d="M 4265.96,379.84 C 4269.09 379.84 4271.63 377.3 4271.63 374.17 C 4271.629765625 371.040026855469 4269.09 368.5 4265.96 368.5 C 4262.829921875 368.5 4260.29 371.04 4260.29 374.17 C 4260.290078125 377.300026855469 4262.83 379.84 4265.96 379.84" />
      <path style="fill:#FFFFFF;stroke:#000000;stroke-width:0.85;stroke-linecap:round;stroke-linejoin:round;" d="M 4308.48,379.84 C 4311.61 379.84 4314.15 377.3 4314.15 374.17 C 4314.1498046875 371.040026855469 4311.61 368.5 4308.48 368.5 C 4305.3499609375 368.5 4302.81 371.04 4302.81 374.17 C 4302.8101171875 377.300026855469 4305.35 379.84 4308.48 379.84" />
      <path style="fill:none;stroke:#000000;stroke-width:0.85;" d="M 4640.13,368.5 L 4640.13, 342.99 L 4665.64, 342.99 L 4665.64, 351.49" />
      <path style="fill:none;stroke:#000000;stroke-width:0.85;" d="M 4664.22,360 L 4667.06, 360" />
      <path style="fill:none;stroke:#000000;stroke-width:0.85;" d="M 4662.81,357.17 L 4668.48, 357.17" />
      <path style="fill:none;stroke:#000000;stroke-width:0.85;" d="M 4659.97,354.33 L 4671.31, 354.33" />
      <path style="fill:none;stroke:#000000;stroke-width:0.85;" d="M 4657.14,351.5 L 4674.15, 351.5" />
      <path style="fill:none;stroke:#000000;stroke-width:0.85;" d="M 4359.5,368.5 L 4359.5, 342.99 L 4385.01, 342.99 L 4385.01, 351.49" />
      <path style="fill:none;stroke:#000000;stroke-width:0.85;" d="M 4383.59,360 L 4386.43, 360" />
      <path style="fill:none;stroke:#000000;stroke-width:0.85;" d="M 4382.18,357.17 L 4387.85, 357.17" />
      <path style="fill:none;stroke:#000000;stroke-width:0.85;" d="M 4379.34,354.33 L 4390.68, 354.33" />
      <path style="fill:none;stroke:#000000;stroke-width:0.85;" d="M 4376.51,351.5 L 4393.52, 351.5" />
      <path d="M 4515.41,232.44 L 4526.75, 232.44 L 4521.08, 240.94 L 4515.41, 232.44" style="stroke-linecap:round;stroke-linejoin:round;" />
      <path style="fill:none;stroke:#000000;stroke-width:0.85;" d="M 4515.41,240.95 L 4526.75, 240.95" />
      <path d="M 4464.38,232.44 L 4475.72, 232.44 L 4470.05, 240.94 L 4464.38, 232.44" style="stroke-linecap:round;stroke-linejoin:round;" />
      <path style="fill:none;stroke:#000000;stroke-width:0.85;" d="M 4464.38,240.95 L 4475.72, 240.95" />
      <path style="fill:none;stroke:#000000;stroke-width:0.85;" d="M 4436.04,274.96 L 4436.04, 283.46 L 4495.57, 283.46" />
      <path style="fill:none;stroke:#000000;stroke-width:0.85;" d="M 4393.52,274.96 L 4393.52, 291.97" />
      <path style="fill:none;stroke:#000000;stroke-width:0.85;" d="M 4351,274.96 L 4351, 291.97" />
      <path style="fill:none;stroke:#000000;stroke-width:0.85;" d="M 4308.48,274.96 L 4308.48, 368.5" />
      <path style="fill:none;stroke:#000000;stroke-width:0.85;" d="M 4265.96,274.96 L 4265.96, 368.5" />
      <path style="fill:none;stroke:#000000;stroke-width:1.417;stroke-linecap:round;stroke-linejoin:round;" d="M 4444.54,274.96 L 4444.54, 257.95 L 4257.45, 257.95 L 4257.45, 274.96 L 4444.54, 274.96" />
      <path style="fill:none;stroke:#000000;stroke-width:0.85;" d="M 4512.57,351.5 L 4512.57, 368.51" />
      <path style="fill:none;stroke:#000000;stroke-width:0.85;" d="M 4512.57,325.99 L 4512.57, 334.49" />
      <path style="fill:none;stroke:#000000;stroke-width:0.85;" d="M 4470.05,325.99 L 4470.05, 334.49" />
      <path style="fill:none;stroke:#000000;stroke-width:0.85;" d="M 4470.05,351.5 L 4470.05, 368.51" />
      <path d="M 4495.56,284.88 C 4496.34 284.88 4496.98 284.25 4496.98 283.46 C 4496.98 282.68 4496.35 282.04 4495.56 282.04 C 4494.78 282.04 4494.14 282.67 4494.14 283.46 C 4494.15 284.25 4494.78 284.88 4495.56 284.88" style="stroke-linecap:round;stroke-linejoin:round;" />
      <path d="M 4495.56,250.87 C 4496.34 250.87 4496.98 250.24 4496.98 249.45 C 4496.98 248.67 4496.35 248.03 4495.56 248.03 C 4494.78 248.03 4494.14 248.66 4494.14 249.45 C 4494.15 250.23 4494.78 250.87 4495.56 250.87" style="stroke-linecap:round;stroke-linejoin:round;" />
      <path style="fill:none;stroke:#000000;stroke-width:1.417;stroke-linecap:round;stroke-linejoin:round;" d="M 4529.58,351.5 L 4529.58, 334.49 L 4453.04, 334.49 L 4453.04, 351.5 L 4529.58, 351.5" />
      <path style="fill:none;stroke:#000000;stroke-width:1.417;stroke-linecap:round;stroke-linejoin:round;" d="M 4521.07,274.96 L 4521.07, 257.95 L 4470.05, 257.95 L 4470.05, 274.96 L 4521.07, 274.96" />
      <path style="fill:none;stroke:#000000;stroke-width:0.85;" d="M 4699.66,325.99 L 4699.66, 368.51" />
      <path style="fill:none;stroke:#000000;stroke-width:0.85;" d="M 4470.05,215.43 L 4470.05, 249.45 L 4521.07, 249.45 L 4521.07, 215.43" />
      <path style="fill:none;stroke:#000000;stroke-width:0.85;" d="M 4495.56,249.45 L 4495.56, 257.95" />
      <path style="fill:none;stroke:#000000;stroke-width:0.85;" d="M 4495.56,274.96 L 4495.56, 291.97" />
      <path style="fill:none;stroke:#000000;stroke-width:1.417;stroke-linecap:round;stroke-linejoin:round;" d="M 4716.67,325.98 L 4716.67, 291.96 L 4342.5, 291.96 L 4342.5, 325.98 L 4716.67, 325.98" />
      <path style="fill:none;stroke:#000000;stroke-width:1.417;stroke-linecap:round;stroke-linejoin:round;" d="M 4725.17,368.5 L 4725.17, 215.43 L 4248.95, 215.43 L 4248.95, 368.5 L 4725.17, 368.5" />
      <text transform="matrix(1 0 0 1 4294.5752 375.8809)" style="font-family:'Arial'; font-size:6px;">22</text>
      <text transform="matrix(1 0 0 1 4306.4746 375.8809)" style="font-family:'Arial'; font-size:6px;">A</text>
      <text transform="matrix(1 0 0 1 4252.0557 375.8809)" style="font-family:'Arial'; font-size:6px;">23</text>
      <text transform="matrix(1 0 0 1 4263.9551 375.8809)" style="font-family:'Arial'; font-size:6px;">A</text>
      <text transform="matrix(1 0 0 1 4626.2285 375.8809)" style="font-family:'Arial'; font-size:6px;">36</text>
      <text transform="matrix(1 0 0 1 4638.1289 375.8809)" style="font-family:'Arial'; font-size:6px;">A</text>
      <text transform="matrix(1 0 0 1 4345.5986 375.8809)" style="font-family:'Arial'; font-size:6px;">35</text>
      <text transform="matrix(1 0 0 1 4357.499 375.8809)" style="font-family:'Arial'; font-size:6px;">A</text>
      <text transform="matrix(1 0 0 1 4498.6699 375.8809)" style="font-family:'Arial'; font-size:6px;">37</text>
      <text transform="matrix(1 0 0 1 4510.5703 375.8809)" style="font-family:'Arial'; font-size:6px;">A</text>
      <text transform="matrix(1 0 0 1 4459.4863 375.8809)" style="font-family:'Arial'; font-size:6px;">7</text>
      <text transform="matrix(1 0 0 1 4468.0498 375.8809)" style="font-family:'Arial'; font-size:6px;">A</text>
      <text transform="matrix(1 0 0 1 4685.7568 375.8809)" style="font-family:'Arial'; font-size:6px;">21</text>
      <text transform="matrix(1 0 0 1 4697.6563 375.8809)" style="font-family:'Arial'; font-size:6px;">A</text>
      <text transform="matrix(1 0 0 1 4459.4863 211.4727)" style="font-family:'Arial'; font-size:6px;">2</text>
      <text transform="matrix(1 0 0 1 4468.0498 211.4727)" style="font-family:'Arial'; font-size:6px;">A</text>
      <text transform="matrix(1 0 0 1 4510.5107 211.4727)" style="font-family:'Arial'; font-size:6px;">1</text>
      <text transform="matrix(1 0 0 1 4519.0742 211.4727)" style="font-family:'Arial'; font-size:6px;">A</text>
      <text transform="matrix(1 0 0 1 4267.374 364.5425)" style="font-family:'Arial'; font-size:6px;">CANH</text>
      <text transform="matrix(1 0 0 1 4309.8936 364.5425)" style="font-family:'Arial'; font-size:6px;">CANL</text>
      <text transform="matrix(1 0 0 1 4340.3291 268.1636)" style="font-family:'Arial'; font-size:6px;">CAN I/F</text>
      <text transform="matrix(1 0 0 1 4641.5469 364.5425)" style="font-family:'Arial'; font-size:6px;">TX1+</text>
      <text transform="matrix(1 0 0 1 4360.917 364.5425)" style="font-family:'Arial'; font-size:6px;">E3</text>
      <text transform="matrix(1 0 0 1 4513.9883 364.5425)" style="font-family:'Arial'; font-size:6px;">TX1-</text>
      <text transform="matrix(1 0 0 1 4471.4688 364.5425)" style="font-family:'Arial'; font-size:6px;">SI</text>
      <text transform="matrix(1 0 0 1 4701.0752 364.5425)" style="font-family:'Arial'; font-size:6px;">E1</text>
      <text transform="matrix(1 0 0 1 4523.2451 310.6841)" style="font-family:'Arial'; font-size:6px;">CPU</text>
      <text transform="matrix(1 0 0 1 4487.8105 344.6997)" style="font-family:'Arial'; font-size:6px;">I/F</text>
      <text transform="matrix(1 0 0 1 4488.0596 268.1646)" style="font-family:'Arial'; font-size:6px;">5V IC</text>
      <text transform="matrix(1 0 0 1 4471.4678 222.8105)" style="font-family:'Arial'; font-size:6px;">IG+</text>
      <text transform="matrix(1 0 0 1 4522.4912 222.8105)" style="font-family:'Arial'; font-size:6px;">L</text>
      <g ewd:figtype="title">
        <text transform="matrix(1 0 0 1 4623.1201 203.6768)" style="font-family:'Arial'; font-size:6px;">H20(A)</text>
        <text transform="matrix(1 0 0 1 4623.1201 210.7632)" style="font-family:'Arial'; font-size:6px;" ewd:textID="26">Combination Meter</text>
      </g>
    </g><g ewd:figtype="comment" ewd:code="19" ewd:figID="1003">
      <text transform="matrix(1 0 0 1 3801.0732 25.0928)" style="font-family:'Arial'; font-size:6px;">*19 : 2KD-FTV</text>
    </g><g ewd:figtype="comment" ewd:code="20" ewd:figID="1002">
      <text transform="matrix(1 0 0 1 3894.6172 25.0928)" style="font-family:'Arial'; font-size:6px;" ewd:textID="8">*20 : 1KD-FTV w/ DPF, 2KD-FTV</text>
    </g><g ewd:figtype="comment" ewd:code="3" ewd:figID="1001">
      <text transform="matrix(1 0 0 1 4226.2725 16.5884)" style="font-family:'Arial'; font-size:6px;" ewd:textID="12">*3 : 2TR-FE, 1KD-FTV except Thailand Long Wheelbase Complete Build-Up Type, 2KD-FTV</text>
    </g><g ewd:figtype="comment" ewd:code="21" ewd:figID="1000">
      <text transform="matrix(1 0 0 1 4226.2725 25.0928)" style="font-family:'Arial'; font-size:6px;" ewd:textID="9">*21 : 1TR-FE, 1KD-FTV Thailand Long Wheelbase Complete Build-Up Type</text>
    </g><text transform="matrix(0 -1 1 0 4083.4111 157.9077)" style="font-family:'Arial'; font-size:6px;">B</text><text transform="matrix(0 -1 1 0 4117.4268 158.7383)" style="font-family:'Arial'; font-size:6px;">W</text><text transform="matrix(0 -1 1 0 4151.4424 160.0742)" style="font-family:'Arial'; font-size:6px;">BR</text><text transform="matrix(0 -1 1 0 4151.4424 313.145)" style="font-family:'Arial'; font-size:6px;">BR</text><text transform="matrix(0 -1 1 0 3930.3398 313.145)" style="font-family:'Arial'; font-size:6px;">BR</text><text transform="matrix(0 -1 1 0 3989.8691 310.9785)" style="font-family:'Arial'; font-size:6px;">B</text><text transform="matrix(0 -1 1 0 4032.3887 311.8091)" style="font-family:'Arial'; font-size:6px;">W</text><text transform="matrix(0 -1 1 0 3751.7578 204.4233)" style="font-family:'Arial'; font-size:6px;">R-W</text><text transform="matrix(0 -1 1 0 3794.2773 200.7598)" style="font-family:'Arial'; font-size:6px;">G</text><text transform="matrix(0 -1 1 0 3989.8682 204.4233)" style="font-family:'Arial'; font-size:6px;">R-W</text><text transform="matrix(0 -1 1 0 4032.3867 200.4272)" style="font-family:'Arial'; font-size:6px;">Y</text><text transform="matrix(0 -1 1 0 3853.8057 200.4272)" style="font-family:'Arial'; font-size:6px;">B</text><text transform="matrix(0 -1 1 0 3896.3242 201.2578)" style="font-family:'Arial'; font-size:6px;">W</text><text transform="matrix(0 -1 1 0 3930.3398 663.4707)" style="font-family:'Arial'; font-size:6px;">W-B</text><text transform="matrix(0 -1 1 0 3751.7578 310.9785)" style="font-family:'Arial'; font-size:6px;">B</text><text transform="matrix(0 -1 1 0 3794.2773 311.8091)" style="font-family:'Arial'; font-size:6px;">W</text><text transform="matrix(0 -1 1 0 3941.6797 313.8115)" style="font-family:'Arial'; font-size:6px;">(*5)</text><text transform="matrix(0 -1 1 0 3941.6797 509.4023)" style="font-family:'Arial'; font-size:6px;">(*5)</text><text transform="matrix(0 -1 1 0 4162.7813 162.4092)" style="font-family:'Arial'; font-size:6px;">(*19)</text><text transform="matrix(0 -1 1 0 4128.7656 162.4092)" style="font-family:'Arial'; font-size:6px;">(*19)</text><text transform="matrix(0 -1 1 0 4094.75 162.4092)" style="font-family:'Arial'; font-size:6px;">(*19)</text><text transform="matrix(0 -1 1 0 4162.7813 315.48)" style="font-family:'Arial'; font-size:6px;">(*19)</text><text transform="matrix(0 -1 1 0 4162.7813 511.0703)" style="font-family:'Arial'; font-size:6px;">(*19)</text><text transform="matrix(0 -1 1 0 3763.0977 313.8115)" style="font-family:'Arial'; font-size:6px;">(*5)</text><text transform="matrix(0 -1 1 0 3805.6172 313.8115)" style="font-family:'Arial'; font-size:6px;">(*5)</text><text transform="matrix(0 -1 1 0 4001.207 315.48)" style="font-family:'Arial'; font-size:6px;">(*19)</text><text transform="matrix(0 -1 1 0 4043.7275 315.48)" style="font-family:'Arial'; font-size:6px;">(*19)</text><text transform="matrix(1 0 0 1 4193.0898 648.0059)" style="font-family:'Arial'; font-size:6px;">(*3)</text><text transform="matrix(1 0 0 1 4244.1152 648.0059)" style="font-family:'Arial'; font-size:6px;">(*3)</text><text transform="matrix(0 -1 1 0 3907.6641 203.2607)" style="font-family:'Arial'; font-size:6px;">(*5)</text><text transform="matrix(0 -1 1 0 3865.1445 203.2607)" style="font-family:'Arial'; font-size:6px;">(*5)</text><text transform="matrix(0 -1 1 0 4043.7266 204.9292)" style="font-family:'Arial'; font-size:6px;">(*19)</text><text transform="matrix(0 -1 1 0 4001.207 102.8818)" style="font-family:'Arial'; font-size:6px;">(*19)</text><text transform="matrix(0 -1 1 0 4001.207 204.9292)" style="font-family:'Arial'; font-size:6px;">(*19)</text><text transform="matrix(0 -1 1 0 3805.6162 203.2607)" style="font-family:'Arial'; font-size:6px;">(*5)</text><text transform="matrix(0 -1 1 0 3763.0977 101.2134)" style="font-family:'Arial'; font-size:6px;">(*5)</text><text transform="matrix(0 -1 1 0 3763.0977 203.2607)" style="font-family:'Arial'; font-size:6px;">(*5)</text><text transform="matrix(0 -1 1 0 3941.6797 664.1406)" style="font-family:'Arial'; font-size:6px;">(*20)</text><text transform="matrix(1 0 0 1 4195.5898 611.1553)" style="font-family:'Arial'; font-size:6px;">G</text><text transform="matrix(1 0 0 1 4195.0918 585.6436)" style="font-family:'Arial'; font-size:6px;">W</text><text transform="matrix(1 0 0 1 4196.2559 636.666)" style="font-family:'Arial'; font-size:6px;">L</text><text transform="matrix(0 -1 1 0 3751.7578 98.7129)" style="font-family:'Arial'; font-size:6px;">G</text><text transform="matrix(0 -1 1 0 3989.8682 98.3799)" style="font-family:'Arial'; font-size:6px;">Y</text><text transform="matrix(0 -1 1 0 4151.4424 508.7354)" style="font-family:'Arial'; font-size:6px;">BR</text><text transform="matrix(0 -1 1 0 3930.3398 508.7354)" style="font-family:'Arial'; font-size:6px;">BR</text><text transform="matrix(1 0 0 1 4246.6152 611.1553)" style="font-family:'Arial'; font-size:6px;">G</text><text transform="matrix(1 0 0 1 4246.1172 585.6436)" style="font-family:'Arial'; font-size:6px;">W</text><text transform="matrix(1 0 0 1 4247.2803 636.666)" style="font-family:'Arial'; font-size:6px;">L</text><g ewd:figID="1190">
      <path style="fill:none;stroke:#000000;stroke-width:0.85;stroke-dasharray:6 3;" d="M 4129.89,181.42 L 4070.36, 181.42 L 4070.36, 215.44 L 4129.89, 215.44" />
      <path style="fill:none;stroke:#000000;stroke-width:0.85;stroke-dasharray:6 3;" d="M 4138.4,189.92 L 4138.4, 206.93" />
      <g ewd:figtype="comment">
        <text transform="matrix(0 -1 1 0 4066.4043 212.1006)" style="font-family:'Arial'; font-size:6px;" ewd:textID="1">(Shielded)</text>
      </g>
    </g><g ewd:figID="1100">
      <path style="fill:none;stroke:#000000;stroke-width:0.85;stroke-dasharray:6 3;" d="M 3917.29,206.93 L 3917.29, 181.42 L 3840.76, 181.42 L 3840.76, 215.44 L 3908.79, 215.44" />
      <g ewd:figtype="comment">
        <text transform="matrix(0 -1 1 0 3836.7979 212.1006)" style="font-family:'Arial'; font-size:6px;" ewd:textID="1">(Shielded)</text>
      </g>
    </g></svg>