﻿<?xml version="1.0" encoding="utf-8"?>
<!-- Generator: Adobe Illustrator 10.0, SVG Export Plug-In . SVG Version: 3.0.0 Build 77)  -->
<!DOCTYPE svg PUBLIC "-//W3C//DTD SVG 1.0//EN" "http://www.w3.org/TR/2001/REC-SVG-20010904/DTD/svg10.dtd"[
   <!ENTITY ns_flows "http://ns.adobe.com/Flows/1.0/">
   <!ENTITY ns_svg "http://www.w3.org/2000/svg">
   <!ENTITY ns_xlink "http://www.w3.org/1999/xlink">
   <!ENTITY st0 "font-size:7px;font-family:'MS-PGothic';adobe-font-script:japanese;">
   <!ENTITY st1 "font-size:6px;font-family:'ArialMT';">
   <!ENTITY st2 "fill:#FFFFFF;stroke:#000000; stroke-width:1.41;stroke-linecap:round;stroke-linejoin:round;">
   <!ENTITY st3 "fill:#FFFFCC;stroke:#FFFFCC; stroke-width:0.1;stroke-linecap:round;stroke-linejoin:round;">
   <!ENTITY st4 "fill:#CCCCCC;stroke:#CCCCCC; stroke-width:0.1;stroke-linecap:round;stroke-linejoin:round;">
   <!ENTITY st5 "fill:#CCECF4;stroke:#000000; stroke-width:1.133;stroke-linecap:round;stroke-linejoin:round;">
   <!ENTITY st6 "fill:none;stroke-linecap:butt; stroke-linejoin:round;">
   <!ENTITY st7 "fill:none;stroke:#000000;stroke-linecap:round;stroke-linejoin:round;">
   <!ENTITY st8 "enable-background:new;">
   <!ENTITY st9 "fill:#000000;stroke:#000000; stroke-linecap:round;stroke-linejoin:round;">
   <!ENTITY st10 "font-size:9px;font-family:'ArialMT';">
   <!ENTITY st11 "font-size:9px;font-family:'Svg Symbol';">
   <!ENTITY st12 "font-size:6px;font-family:'Svg Symbol';">
   <!ENTITY st13 "fill:none;stroke:#ff0000;stroke-linecap:round;stroke-linejoin:round;">
   <!ENTITY st14 "fill:#FFFF00;stroke:#FFFF00; stroke-width:0.1;stroke-linecap:round;stroke-linejoin:round;">
   <!ENTITY st15 "font-size:6px;font-family:'MS-PGothic';adobe-font-script:japanese;">
   <!ENTITY st16 "1.00 0.00 0.00 1.00">
   <!ENTITY st17 "0.00 -1.00 1.00 0.00">
   <!ENTITY st18 "font-size:6px;font-family:'Arial';">
   <!ENTITY st19 "font-size:9px;font-family:'Arial';">
   <!ENTITY st20 "font-size:6px;font-family:'MS-PGothic','MS PGothic';adobe-font-script:japanese;">
   <!ENTITY st21 "font-size:7px;font-family:'MS-PGothic','MS PGothic';adobe-font-script:japanese;">
   <!ATTLIST svg
       xmlns:ewd CDATA #FIXED "http://shcl.co.jp/ewd"
       xmlns:a CDATA #FIXED "http://ns.adobe.com/AdobeSVGViewerExtensions/3.0/"
       ewd:ver CDATA #IMPLIED >
   <!ATTLIST a
       ewd:lineID CDATA #IMPLIED
       ewd:groupID CDATA #IMPLIED
       ewd:figtype CDATA #IMPLIED
       ewd:code CDATA #IMPLIED
       ewd:figID CDATA #IMPLIED
       ewd:pinNo CDATA #IMPLIED
       ewd:comment CDATA #IMPLIED >
   <!ATTLIST g
       ewd:lineID CDATA #IMPLIED
       ewd:groupID CDATA #IMPLIED
       ewd:figtype CDATA #IMPLIED
       ewd:code CDATA #IMPLIED
       ewd:figID CDATA #IMPLIED
       ewd:pinNo CDATA #IMPLIED
       ewd:comment CDATA #IMPLIED >
   <!ATTLIST text
       ewd:textID CDATA #IMPLIED >
   <!ATTLIST title
       ewd:textID CDATA #IMPLIED >
]>
<svg xmlns="http://www.w3.org/2000/svg" xmlns:xlink="http://www.w3.org/1999/xlink" width="4736.51" height="721" viewBox="0 0 4736.51 721" xml:space="preserve" xmlns:ewd="http://shcl.co.jp/ewd" onload="call_execInitLoadProc_svg('system')" ewd:ver="2.0">
  <script type="text/javascript" xlink:href="../../../../../system/js/ewd/fig/svgfig.js" />
  <defs>
    <font horiz-adv-x="1229">
      <font-face font-family="Svg Symbol" units-per-em="2048" panose-1="5 5 1 2 1 7 6 2 5 7" ascent="2059" descent="450" alphabetic="0" />
      <missing-glyph d="M 103,0 l 0,1280 1024,0 0,-1280 -1024,0 z m 32,32 l 960,0 0,1216 -960,0 0,-1216 z" />
      <glyph d4p1:unicode="" horiz-adv-x="1573" d="M 1517,0 l -567,0 24,279 q 141,59 207.5,168 66.5,109 66.5,306 0,272 -132.5,417.5 -132.5,145.5 -333.5,145.5 -194,0 -328,-147.5 -134,-147.5 -134,-401.5 0,-200 68.5,-319 68.5,-119 206.5,-169 l 25,-279 -564,0 0,279 35,0 q 3,-61 32,-83 45,-35 137,-35 l 270,0 0,70 q -210,61 -324.5,209 -114.5,148 -114.5,349 0,252 186.5,425 186.5,173 504.5,173 195,0 358.5,-73.5 163.5,-73.5 252,-214.5 88.5,-141 88.5,-310 0,-207 -121.5,-360.5 -121.5,-153.5 -317.5,-197.5 l -8,-70 275,0 q 92,0 128,28 36,28 42,90 l 38,0 0,-279 z" xmlns:d4p1="def-glyph-attr-unicode" />
    </font>
  </defs>
  <g id="ewd_top">
    <a ewd:lineID="138" style="cursor:pointer;">
      <path style="fill:none;stroke:#0A50A1;stroke-width:5;" d="M 2777.77,155.91 L 2777.77, 158.71 L 2800.47, 172.91 L 2947.87, 172.91 L 2947.87, 274.91" />
    </a>
    <a ewd:lineID="134" style="cursor:pointer;">
      <path style="fill:none;stroke:#0A50A1;stroke-width:5;" d="M 2888.27,326.01 L 2888.27, 189.91 L 2800.47, 189.91 L 2777.77, 158.71 L 2777.77, 155.91" />
    </a>
    <a ewd:lineID="110" style="cursor:pointer;">
      <path style="fill:none;stroke:#FFF200;stroke-width:5;" d="M 2224.97,351.51 L 2224.97, 317.51 L 2213.67, 317.51 L 2199.47, 303.31 L 2199.47, 292.01" />
    </a>
    <a ewd:lineID="109" style="cursor:pointer;">
      <path style="fill:none;stroke:#FFF200;stroke-width:5;" d="M 2199.47,445.01 L 2199.47, 442.21 L 2213.67, 428.01 L 2224.97, 428.01 L 2224.97, 368.51" />
    </a>
    <a ewd:lineID="107" style="cursor:pointer;">
      <path style="fill:none;stroke:#0A50A1;stroke-width:5;" d="M 2293.07,377.01 L 2293.07, 317.51 L 2281.67, 317.51 L 2267.57, 303.31 L 2267.57, 292.01" />
    </a>
    <a ewd:lineID="106" style="cursor:pointer;">
      <path style="fill:none;stroke:#000000;stroke-width:5;" d="M 2267.57,445.01 L 2267.57, 442.21 L 2281.67, 428.01 L 2293.07, 428.01 L 2293.07, 394.01" />
      <path style="fill:none;stroke:#FFFFFF;stroke-width:3.8;" d="M 2267.57,445.01 L 2267.57, 442.21 L 2281.67, 428.01 L 2293.07, 428.01 L 2293.07, 394.01" />
    </a>
    <a ewd:lineID="103" style="cursor:pointer;">
      <path style="fill:none;stroke:#FFF200;stroke-width:5;" d="M 3270.97,155.91 L 3270.97, 153.11 L 3276.67, 147.41 L 3296.47, 147.41 L 3296.47, 62.41 L 3279.47, 62.41" />
      <path style="fill:none;stroke:#FFFFFF;stroke-width:2.2;" d="M 3270.97,155.91 L 3270.97, 153.11 L 3276.67, 147.41 L 3296.47, 147.41 L 3296.47, 62.41 L 3279.47, 62.41" />
      <path style="fill:none;stroke:#FF0000;" d="M 3270.97,155.91 L 3270.97, 153.11 L 3276.67, 147.41 L 3296.47, 147.41 L 3296.47, 62.41 L 3279.47, 62.41" />
    </a>
    <a ewd:lineID="58" style="cursor:pointer;">
      <path style="fill:none;stroke:#F4449F;stroke-width:5;" d="M 4470.07,479.01 L 4470.07, 481.91 L 4455.87, 496.01 L 4401.97, 496.01 L 4401.97, 538.61" />
    </a>
    <a ewd:lineID="178" style="cursor:pointer;">
      <path style="fill:none;stroke:#000000;stroke-width:5;" d="M 1003.47,130.41 L 1003.47, 133.21 L 989.27, 147.41 L 932.57, 147.41 L 918.37, 133.21 L 918.37, 130.41" />
      <path style="fill:none;stroke:#FFFFFF;stroke-width:3.8;" d="M 1003.47,130.41 L 1003.47, 133.21 L 989.27, 147.41 L 932.57, 147.41 L 918.37, 133.21 L 918.37, 130.41" />
    </a>
    <a ewd:lineID="177" style="cursor:pointer;">
      <path style="fill:none;stroke:#0A50A1;stroke-width:5;" d="M 595.27,470.51 L 595.27, 334.51 L 649.07, 334.51 L 663.27, 320.31 L 663.27, 317.51" />
    </a>
    <a ewd:lineID="174" style="cursor:pointer;">
      <path style="fill:none;stroke:#000000;stroke-width:5;" d="M 382.67,411.01 L 382.67, 674.61 L 328.77, 674.61 L 314.67, 688.81 L 314.67, 691.61" />
      <path style="fill:none;stroke:#FFFFFF;stroke-width:3.8;" d="M 382.67,411.01 L 382.67, 674.61 L 328.77, 674.61 L 314.67, 688.81 L 314.67, 691.61" />
      <path style="fill:none;stroke:#000000;" d="M 382.67,411.01 L 382.67, 674.61 L 328.77, 674.61 L 314.67, 688.81 L 314.67, 691.61" />
    </a>
    <a ewd:lineID="173" style="cursor:pointer;">
      <path style="fill:none;stroke:#000000;stroke-width:5;" d="M 50.97,257.91 L 50.97, 674.61 L 300.47, 674.61 L 314.67, 688.81 L 314.67, 691.61" />
      <path style="fill:none;stroke:#FFFFFF;stroke-width:3.8;" d="M 50.97,257.91 L 50.97, 674.61 L 300.47, 674.61 L 314.67, 688.81 L 314.67, 691.61" />
      <path style="fill:none;stroke:#000000;" d="M 50.97,257.91 L 50.97, 674.61 L 300.47, 674.61 L 314.67, 688.81 L 314.67, 691.61" />
    </a>
    <a ewd:lineID="151" style="cursor:pointer;">
      <path style="fill:none;stroke:#FF0000;stroke-width:5;" d="M 1237.57,206.91 L 1237.57, 218.31 L 1251.77, 232.41 L 1280.07, 232.41" />
    </a>
    <a ewd:lineID="143" style="cursor:pointer;">
      <path style="fill:none;stroke:#000000;stroke-width:5;" d="M 2947.87,572.61 L 2947.87, 674.61 L 2825.97, 674.61 L 2811.77, 688.81 L 2811.77, 691.61" />
      <path style="fill:none;stroke:#FFFFFF;stroke-width:3.8;" d="M 2947.87,572.61 L 2947.87, 674.61 L 2825.97, 674.61 L 2811.77, 688.81 L 2811.77, 691.61" />
      <path style="fill:none;stroke:#000000;" d="M 2947.87,572.61 L 2947.87, 674.61 L 2825.97, 674.61 L 2811.77, 688.81 L 2811.77, 691.61" />
    </a>
    <a ewd:lineID="102" style="cursor:pointer;">
      <path style="fill:none;stroke:#FFF200;stroke-width:5;" d="M 3270.97,221.11 L 3270.97, 218.31 L 3276.67, 212.61 L 3296.47, 212.61 L 3296.47, 181.41 L 3276.67, 181.41 L 3270.97, 175.71 L 3270.97, 172.91" />
      <path style="fill:none;stroke:#FFFFFF;stroke-width:2.2;" d="M 3270.97,221.11 L 3270.97, 218.31 L 3276.67, 212.61 L 3296.47, 212.61 L 3296.47, 181.41 L 3276.67, 181.41 L 3270.97, 175.71 L 3270.97, 172.91" />
      <path style="fill:none;stroke:#FF0000;" d="M 3270.97,221.11 L 3270.97, 218.31 L 3276.67, 212.61 L 3296.47, 212.61 L 3296.47, 181.41 L 3276.67, 181.41 L 3270.97, 175.71 L 3270.97, 172.91" />
    </a>
    <a ewd:lineID="101" style="cursor:pointer;">
      <path style="fill:none;stroke:#000000;stroke-width:5;" d="M 4036.37,294.81 L 4036.37, 428.01 L 3287.97, 428.01 L 3262.47, 442.21 L 3262.47, 453.51" />
      <path style="fill:none;stroke:#FFFFFF;stroke-width:3.8;" d="M 4036.37,294.81 L 4036.37, 428.01 L 3287.97, 428.01 L 3262.47, 442.21 L 3262.47, 453.51" />
    </a>
    <a ewd:lineID="100" style="cursor:pointer;">
      <path style="fill:none;stroke:#000000;stroke-width:5;" d="M 3993.87,294.81 L 3993.87, 368.51 L 3245.47, 368.51 L 3219.97, 442.21 L 3219.97, 453.51" />
    </a>
    <a ewd:lineID="99" style="cursor:pointer;">
      <path style="fill:none;stroke:#000000;stroke-width:5;" d="M 3798.27,294.81 L 3798.27, 402.51 L 3287.97, 402.51 L 3262.47, 442.21 L 3262.47, 453.51" />
      <path style="fill:none;stroke:#FFFFFF;stroke-width:3.8;" d="M 3798.27,294.81 L 3798.27, 402.51 L 3287.97, 402.51 L 3262.47, 442.21 L 3262.47, 453.51" />
    </a>
    <a ewd:lineID="98" style="cursor:pointer;">
      <path style="fill:none;stroke:#000000;stroke-width:5;" d="M 3755.67,294.81 L 3755.67, 343.01 L 3245.47, 343.01 L 3219.97, 442.21 L 3219.97, 453.51" />
    </a>
    <a ewd:lineID="97" style="cursor:pointer;">
      <path style="fill:none;stroke:#000000;stroke-width:5;" d="M 3517.57,294.81 L 3517.57, 385.51 L 3279.47, 385.51 L 3262.47, 442.21 L 3262.47, 453.51" />
      <path style="fill:none;stroke:#FFFFFF;stroke-width:3.8;" d="M 3517.57,294.81 L 3517.57, 385.51 L 3279.47, 385.51 L 3262.47, 442.21 L 3262.47, 453.51" />
    </a>
    <a ewd:lineID="96" style="cursor:pointer;">
      <path style="fill:none;stroke:#000000;stroke-width:5;" d="M 3475.07,294.81 L 3475.07, 326.01 L 3236.97, 326.01 L 3219.97, 442.21 L 3219.97, 453.51" />
    </a>
    <a ewd:lineID="95" style="cursor:pointer;">
      <path style="fill:none;stroke:#000000;stroke-width:5;" d="M 3517.57,555.61 L 3517.57, 558.41 L 3531.77, 572.61 L 3568.67, 572.61 L 3568.67, 691.61" />
      <path style="fill:none;stroke:#FFFFFF;stroke-width:3.8;" d="M 3517.57,555.61 L 3517.57, 558.41 L 3531.77, 572.61 L 3568.67, 572.61 L 3568.67, 691.61" />
      <path style="fill:none;stroke:#000000;" d="M 3517.57,555.61 L 3517.57, 558.41 L 3531.77, 572.61 L 3568.67, 572.61 L 3568.67, 691.61" />
    </a>
    <a ewd:lineID="94" style="cursor:pointer;">
      <path style="fill:none;stroke:#7F0000;stroke-width:5;" d="M 4146.87,215.41 L 4155.37, 215.41 L 4155.37, 521.61 L 3948.47, 521.61 L 3934.27, 535.71 L 3934.27, 538.61" />
    </a>
    <a ewd:lineID="2" style="cursor:pointer;">
      <path style="fill:none;stroke:#000000;stroke-width:5;" d="M 1195.07,155.91 L 1195.07, 198.41" />
    </a>
    <a ewd:lineID="3" style="cursor:pointer;">
      <path style="fill:none;stroke:#000000;stroke-width:5;" d="M 1195.07,206.91 L 1195.07, 309.01 L 756.8699, 309.01 L 756.8699, 257.91" />
      <path style="fill:none;stroke:#FFFFFF;stroke-width:3.8;" d="M 1195.07,206.91 L 1195.07, 309.01 L 756.8699, 309.01 L 756.8699, 257.91" />
      <path style="fill:none;stroke:#000000;" d="M 1195.07,206.91 L 1195.07, 309.01 L 756.8699, 309.01 L 756.8699, 257.91" />
    </a>
    <a ewd:lineID="4" style="cursor:pointer;">
      <path style="fill:none;stroke:#FFF200;stroke-width:5;" d="M 756.87,223.91 L 756.87, 172.91" />
    </a>
    <a ewd:lineID="5" style="cursor:pointer;">
      <path style="fill:none;stroke:#FF0000;stroke-width:5;" d="M 756.87,164.41 L 756.87, 130.41" />
    </a>
    <a ewd:lineID="6" style="cursor:pointer;">
      <path style="fill:none;stroke:#FF0000;stroke-width:5;" d="M 1152.47,155.91 L 1152.47, 283.51 L 816.37, 283.51 L 816.37, 240.91" />
    </a>
    <a ewd:lineID="7" style="cursor:pointer;">
      <path style="fill:none;stroke:#FF0000;stroke-width:5;" d="M 816.37,223.91 L 816.37, 130.41" />
    </a>
    <a ewd:lineID="8" style="cursor:pointer;">
      <path style="fill:none;stroke:#000000;stroke-width:5;" d="M 1109.97,155.91 L 1109.97, 257.91 L 875.87, 257.91 L 875.87, 215.41" />
      <path style="fill:none;stroke:#FFFFFF;stroke-width:3.8;" d="M 1109.97,155.91 L 1109.97, 257.91 L 875.87, 257.91 L 875.87, 215.41" />
    </a>
    <a ewd:lineID="9" style="cursor:pointer;">
      <path style="fill:none;stroke:#000000;stroke-width:5;" d="M 875.87,164.41 L 875.87, 130.41" />
      <path style="fill:none;stroke:#FFFFFF;stroke-width:3.8;" d="M 875.87,164.41 L 875.87, 130.41" />
    </a>
    <a ewd:lineID="10" style="cursor:pointer;">
      <path style="fill:none;stroke:#000000;stroke-width:5;" d="M 918.37,130.41 L 918.37, 181.41 L 952.37, 181.41" />
      <path style="fill:none;stroke:#FFFFFF;stroke-width:3.8;" d="M 918.37,130.41 L 918.37, 181.41 L 952.37, 181.41" />
    </a>
    <a ewd:lineID="11" style="cursor:pointer;">
      <path style="fill:none;stroke:#000000;stroke-width:5;" d="M 969.47,181.41 L 1003.47, 181.41 L 1003.47, 130.41" />
      <path style="fill:none;stroke:#FFFFFF;stroke-width:3.8;" d="M 969.47,181.41 L 1003.47, 181.41 L 1003.47, 130.41" />
    </a>
    <a ewd:lineID="12" style="cursor:pointer;">
      <path style="fill:none;stroke:#56017D;stroke-width:5;" d="M 1237.57,155.91 L 1237.57, 198.41" />
    </a>
    <a ewd:lineID="13" style="cursor:pointer;">
      <path style="fill:none;stroke:#56017D;stroke-width:5;" d="M 1237.57,206.91 L 1237.57, 334.51 L 688.77, 334.51 L 688.77, 317.51" />
    </a>
    <a ewd:lineID="14" style="cursor:pointer;">
      <path style="fill:none;stroke:#FF0000;stroke-width:5;" d="M 688.77,215.41 L 688.77, 172.91 L 671.77, 172.91" />
    </a>
    <a ewd:lineID="15" style="cursor:pointer;">
      <path style="fill:none;stroke:#7F7F7F;stroke-width:5;" d="M 1866.87,155.91 L 1866.87, 589.61 L 450.67, 589.61 L 450.67, 232.41 L 382.67, 232.41" />
    </a>
    <a ewd:lineID="16" style="cursor:pointer;">
      <path style="fill:none;stroke:#7F7F7F;stroke-width:5;" d="M 314.67,232.41 L 229.57, 232.41" />
    </a>
    <a ewd:lineID="17" style="cursor:pointer;">
      <path style="fill:none;stroke:#0A50A1;stroke-width:5;" d="M 1756.27,334.51 L 1756.27, 564.11 L 476.17, 564.11 L 476.17, 130.41 L 229.57, 130.41" />
    </a>
    <a ewd:lineID="18" style="cursor:pointer;">
      <path style="fill:none;stroke:#7F7F7F;stroke-width:5;" d="M 2002.87,360.01 L 2002.87, 402.51" />
    </a>
    <a ewd:lineID="19" style="cursor:pointer;">
      <path style="fill:none;stroke:#7F7F7F;stroke-width:5;" d="M 2002.87,411.01 L 2002.87, 453.51" />
    </a>
    <a ewd:lineID="20" style="cursor:pointer;">
      <path style="fill:none;stroke:#0A50A1;stroke-width:5;" d="M 2002.87,547.11 L 2002.87, 589.61" />
    </a>
    <a ewd:lineID="21" style="cursor:pointer;">
      <path style="fill:none;stroke:#0A50A1;stroke-width:5;" d="M 2002.87,598.11 L 2002.87, 615.11 L 93.47, 615.11 L 93.47, 300.51 L 127.57, 300.51" />
    </a>
    <a ewd:lineID="22" style="cursor:pointer;">
      <path style="fill:none;stroke:#000000;stroke-width:5;" d="M 1331.07,155.91 L 1331.07, 198.41" />
      <path style="fill:none;stroke:#FFFFFF;stroke-width:3.8;" d="M 1331.07,155.91 L 1331.07, 198.41" />
    </a>
    <a ewd:lineID="23" style="cursor:pointer;">
      <path style="fill:none;stroke:#000000;stroke-width:5;" d="M 1331.07,206.91 L 1331.07, 292.01" />
      <path style="fill:none;stroke:#FFFFFF;stroke-width:3.8;" d="M 1331.07,206.91 L 1331.07, 292.01" />
    </a>
    <a ewd:lineID="24" style="cursor:pointer;">
      <path style="fill:none;stroke:#000000;stroke-width:5;" d="M 1331.07,300.51 L 1331.07, 360.01 L 714.27, 360.01 L 714.27, 428.01" />
      <path style="fill:none;stroke:#FFFFFF;stroke-width:3.8;" d="M 1331.07,300.51 L 1331.07, 360.01 L 714.27, 360.01 L 714.27, 428.01" />
    </a>
    <a ewd:lineID="25" style="cursor:pointer;">
      <path style="fill:none;stroke:#000000;stroke-width:5;" d="M 1484.17,155.91 L 1484.17, 198.41" />
    </a>
    <a ewd:lineID="26" style="cursor:pointer;">
      <path style="fill:none;stroke:#000000;stroke-width:5;" d="M 1484.17,249.41 L 1484.17, 283.51" />
    </a>
    <a ewd:lineID="27" style="cursor:pointer;">
      <path style="fill:none;stroke:#000000;stroke-width:5;" d="M 1484.17,292.01 L 1484.17, 343.01" />
    </a>
    <a ewd:lineID="28" style="cursor:pointer;">
      <path style="fill:none;stroke:#000000;stroke-width:5;" d="M 1484.17,351.51 L 1484.17, 385.51 L 756.8701, 385.51 L 756.8701, 428.01" />
    </a>
    <a ewd:lineID="29" style="cursor:pointer;">
      <path style="fill:none;stroke:#000000;stroke-width:5;" d="M 3219.97,294.81 L 3219.97, 453.51" />
    </a>
    <a ewd:lineID="30" style="cursor:pointer;">
      <path style="fill:none;stroke:#000000;stroke-width:5;" d="M 3219.97,462.01 L 3219.97, 493.21" />
    </a>
    <a ewd:lineID="31" style="cursor:pointer;">
      <path style="fill:none;stroke:#FF0000;stroke-width:5;" d="M 3219.97,541.41 L 3219.97, 615.11 L 3075.37, 615.11 L 3075.37, 155.91" />
    </a>
    <a ewd:lineID="32" style="cursor:pointer;">
      <path style="fill:none;stroke:#000000;stroke-width:5;" d="M 3262.47,294.81 L 3262.47, 453.51" />
      <path style="fill:none;stroke:#FFFFFF;stroke-width:3.8;" d="M 3262.47,294.81 L 3262.47, 453.51" />
    </a>
    <a ewd:lineID="33" style="cursor:pointer;">
      <path style="fill:none;stroke:#000000;stroke-width:5;" d="M 3262.47,462.01 L 3262.47, 493.21" />
      <path style="fill:none;stroke:#FFFFFF;stroke-width:3.8;" d="M 3262.47,462.01 L 3262.47, 493.21" />
    </a>
    <a ewd:lineID="34" style="cursor:pointer;">
      <path style="fill:none;stroke:#000000;stroke-width:5;" d="M 3262.47,541.41 L 3262.47, 589.61 L 3117.97, 589.61 L 3117.97, 155.91" />
      <path style="fill:none;stroke:#FFFFFF;stroke-width:3.8;" d="M 3262.47,541.41 L 3262.47, 589.61 L 3117.97, 589.61 L 3117.97, 155.91" />
    </a>
    <a ewd:lineID="35" style="cursor:pointer;">
      <path style="fill:none;stroke:#0A50A1;stroke-width:5;" d="M 4359.47,589.61 L 4359.47, 640.61 L 425.17, 640.61 L 425.17, 164.41 L 391.17, 164.41" />
    </a>
    <a ewd:lineID="36" style="cursor:pointer;">
      <path style="fill:none;stroke:#0A50A1;stroke-width:5;" d="M 374.17,164.41 L 340.17, 164.41" />
    </a>
    <a ewd:lineID="37" style="cursor:pointer;">
      <path style="fill:none;stroke:#0A50A1;stroke-width:5;" d="M 320.27,164.41 L 280.57, 164.41" />
    </a>
    <a ewd:lineID="38" style="cursor:pointer;">
      <path style="fill:none;stroke:#0A50A1;stroke-width:5;" d="M 263.57,164.41 L 229.57, 164.41" />
    </a>
    <a ewd:lineID="39" style="cursor:pointer;">
      <path style="fill:none;stroke:#008837;stroke-width:5;" d="M 4265.97,379.81 L 4265.97, 615.11 L 3424.07, 615.11 L 3424.07, 541.41" />
    </a>
    <a ewd:lineID="40" style="cursor:pointer;">
      <path style="fill:none;stroke:#000000;stroke-width:5;" d="M 4308.47,379.81 L 4308.47, 589.61 L 3466.57, 589.61 L 3466.57, 541.41" />
      <path style="fill:none;stroke:#FFFFFF;stroke-width:3.8;" d="M 4308.47,379.81 L 4308.47, 589.61 L 3466.57, 589.61 L 3466.57, 541.41" />
    </a>
    <a ewd:lineID="41" style="cursor:pointer;">
      <path style="fill:none;stroke:#000000;stroke-width:5;" d="M 4470.07,113.41 L 4470.07, 204.11" />
    </a>
    <a ewd:lineID="42" style="cursor:pointer;">
      <path style="fill:none;stroke:#FF0000;stroke-width:5;" d="M 4631.67,113.41 L 4631.67, 172.91 L 4606.07, 172.91" />
    </a>
    <a ewd:lineID="43" style="cursor:pointer;">
      <path style="fill:none;stroke:#FF0000;stroke-width:5;" d="M 4589.07,172.91 L 4563.57, 172.91 L 4563.57, 113.41" />
    </a>
    <a ewd:lineID="44" style="cursor:pointer;">
      <path style="fill:none;stroke:#FF0000;stroke-width:5;" d="M 4521.07,113.41 L 4521.07, 204.11" />
    </a>
    <a ewd:lineID="45" style="cursor:pointer;">
      <path style="fill:none;stroke:#000000;stroke-width:5;" d="M 4699.67,379.81 L 4699.67, 428.01" />
      <path style="fill:none;stroke:#FFFFFF;stroke-width:3.8;" d="M 4699.67,379.81 L 4699.67, 428.01" />
      <path style="fill:none;stroke:#000000;" d="M 4699.67,379.81 L 4699.67, 428.01" />
    </a>
    <a ewd:lineID="46" style="cursor:pointer;">
      <path style="fill:none;stroke:#000000;stroke-width:5;" d="M 4699.67,479.01 L 4699.67, 691.61" />
      <path style="fill:none;stroke:#FFFFFF;stroke-width:3.8;" d="M 4699.67,479.01 L 4699.67, 691.61" />
      <path style="fill:none;stroke:#000000;" d="M 4699.67,479.01 L 4699.67, 691.61" />
    </a>
    <a ewd:lineID="47" style="cursor:pointer;">
      <path style="fill:none;stroke:#0A50A1;stroke-width:5;" d="M 4512.57,530.11 L 4512.57, 589.61" />
    </a>
    <a ewd:lineID="48" style="cursor:pointer;">
      <path style="fill:none;stroke:#F4449F;stroke-width:5;" d="M 4555.07,530.11 L 4555.07, 589.61" />
    </a>
    <a ewd:lineID="49" style="cursor:pointer;">
      <path style="fill:none;stroke:#FF0000;stroke-width:5;" d="M 4597.57,530.11 L 4597.57, 589.61" />
    </a>
    <a ewd:lineID="50" style="cursor:pointer;">
      <path style="fill:none;stroke:#000000;stroke-width:5;" d="M 4640.17,530.11 L 4640.17, 589.61" />
      <path style="fill:none;stroke:#FFFFFF;stroke-width:3.8;" d="M 4640.17,530.11 L 4640.17, 589.61" />
    </a>
    <a ewd:lineID="51" style="cursor:pointer;">
      <path style="fill:none;stroke:#FF0000;stroke-width:5;" d="M 4512.57,623.61 L 4512.57, 683.11" />
    </a>
    <a ewd:lineID="52" style="cursor:pointer;">
      <path style="fill:none;stroke:#008837;stroke-width:5;" d="M 4555.07,623.61 L 4555.07, 683.11" />
    </a>
    <a ewd:lineID="53" style="cursor:pointer;">
      <path style="fill:none;stroke:#000000;stroke-width:5;" d="M 4597.57,623.61 L 4597.57, 683.11" />
    </a>
    <a ewd:lineID="54" style="cursor:pointer;">
      <path style="fill:none;stroke:#000000;stroke-width:5;" d="M 4640.17,623.61 L 4640.17, 683.11" />
      <path style="fill:none;stroke:#FFFFFF;stroke-width:3.8;" d="M 4640.17,623.61 L 4640.17, 683.11" />
    </a>
    <a ewd:lineID="55" style="cursor:pointer;">
      <path style="fill:none;stroke:#008837;stroke-width:5;" d="M 4359.47,379.81 L 4359.47, 411.01" />
    </a>
    <a ewd:lineID="56" style="cursor:pointer;">
      <path style="fill:none;stroke:#008837;stroke-width:5;" d="M 4359.47,419.51 L 4359.47, 470.51" />
    </a>
    <a ewd:lineID="57" style="cursor:pointer;">
      <path style="fill:none;stroke:#008837;stroke-width:5;" d="M 4359.47,479.01 L 4359.47, 538.61" />
    </a>
    <a ewd:lineID="59" style="cursor:pointer;">
      <path style="fill:none;stroke:#000000;stroke-width:5;" d="M 4640.17,379.81 L 4640.17, 411.01" />
      <path style="fill:none;stroke:#FFFFFF;stroke-width:3.8;" d="M 4640.17,379.81 L 4640.17, 411.01" />
    </a>
    <a ewd:lineID="60" style="cursor:pointer;">
      <path style="fill:none;stroke:#000000;stroke-width:5;" d="M 4640.17,419.51 L 4640.17, 445.01 L 4596.17, 445.01" />
      <path style="fill:none;stroke:#FFFFFF;stroke-width:3.8;" d="M 4640.17,419.51 L 4640.17, 445.01 L 4596.17, 445.01" />
    </a>
    <a ewd:lineID="61" style="cursor:pointer;">
      <path style="fill:none;stroke:#008837;stroke-width:5;" d="M 4556.47,445.01 L 4512.57, 445.01 L 4512.57, 419.51" />
    </a>
    <a ewd:lineID="62" style="cursor:pointer;">
      <path style="fill:none;stroke:#008837;stroke-width:5;" d="M 4512.57,411.01 L 4512.57, 379.81" />
    </a>
    <a ewd:lineID="63" style="cursor:pointer;">
      <path style="fill:none;stroke:#F4449F;stroke-width:5;" d="M 4470.07,589.61 L 4470.07, 538.61" />
    </a>
    <a ewd:lineID="64" style="cursor:pointer;">
      <path style="fill:none;stroke:#F4449F;stroke-width:5;" d="M 4470.07,530.11 L 4470.07, 479.01" />
    </a>
    <a ewd:lineID="65" style="cursor:pointer;">
      <path style="fill:none;stroke:#F4449F;stroke-width:5;" d="M 4470.07,470.51 L 4470.07, 419.51" />
    </a>
    <a ewd:lineID="66" style="cursor:pointer;">
      <path style="fill:none;stroke:#F4449F;stroke-width:5;" d="M 4470.07,411.01 L 4470.07, 379.81" />
    </a>
    <a ewd:lineID="67" style="cursor:pointer;">
      <path style="fill:none;stroke:#000000;stroke-width:5;" d="M 3900.27,221.11 L 3900.27, 164.41" />
      <path style="fill:none;stroke:#FFFFFF;stroke-width:3.8;" d="M 3900.27,221.11 L 3900.27, 164.41" />
    </a>
    <a ewd:lineID="68" style="cursor:pointer;">
      <path style="fill:none;stroke:#000000;stroke-width:5;" d="M 3900.27,130.41 L 3900.27, 104.91 L 3857.77, 104.91 L 3857.77, 221.11" />
    </a>
    <a ewd:lineID="69" style="cursor:pointer;">
      <path style="fill:none;stroke:#FFF200;stroke-width:5;" d="M 4036.37,221.11 L 4036.37, 62.41 L 3993.87, 62.41 L 3993.87, 127.51" />
    </a>
    <a ewd:lineID="70" style="cursor:pointer;">
      <path style="fill:none;stroke:#FF0000;stroke-width:5;" d="M 3993.87,167.21 L 3993.87, 221.11" />
      <path style="fill:none;stroke:#FFFFFF;stroke-width:2.2;" d="M 3993.87,167.21 L 3993.87, 221.11" />
    </a>
    <a ewd:lineID="71" style="cursor:pointer;">
      <path style="fill:none;stroke:#008837;stroke-width:5;" d="M 3798.27,221.11 L 3798.27, 62.41 L 3755.67, 62.41 L 3755.67, 127.51" />
    </a>
    <a ewd:lineID="72" style="cursor:pointer;">
      <path style="fill:none;stroke:#FF0000;stroke-width:5;" d="M 3755.67,167.21 L 3755.67, 221.11" />
      <path style="fill:none;stroke:#FFFFFF;stroke-width:2.2;" d="M 3755.67,167.21 L 3755.67, 221.11" />
    </a>
    <a ewd:lineID="73" style="cursor:pointer;">
      <path style="fill:none;stroke:#FFF200;stroke-width:5;" d="M 3517.57,221.11 L 3517.57, 62.41 L 3475.07, 62.41 L 3475.07, 127.51" />
    </a>
    <a ewd:lineID="74" style="cursor:pointer;">
      <path style="fill:none;stroke:#FF0000;stroke-width:5;" d="M 3475.07,167.21 L 3475.07, 221.11" />
    </a>
    <a ewd:lineID="75" style="cursor:pointer;">
      <path style="fill:none;stroke:#FFF200;stroke-width:5;" d="M 3270.97,221.11 L 3270.97, 172.91" />
    </a>
    <a ewd:lineID="76" style="cursor:pointer;">
      <path style="fill:none;stroke:#FFF200;stroke-width:5;" d="M 3270.97,155.91 L 3270.97, 70.91" />
    </a>
    <a ewd:lineID="77" style="cursor:pointer;">
      <path style="fill:none;stroke:#000000;stroke-width:5;" d="M 3934.27,691.61 L 3934.27, 555.61" />
      <path style="fill:none;stroke:#FFFFFF;stroke-width:3.8;" d="M 3934.27,691.61 L 3934.27, 555.61" />
      <path style="fill:none;stroke:#000000;" d="M 3934.27,691.61 L 3934.27, 555.61" />
    </a>
    <a ewd:lineID="78" style="cursor:pointer;">
      <path style="fill:none;stroke:#7F0000;stroke-width:5;" d="M 3934.27,538.61 L 3934.27, 215.41 L 3925.77, 215.41" />
    </a>
    <a ewd:lineID="79" style="cursor:pointer;">
      <path style="fill:none;stroke:#7F0000;stroke-width:5;" d="M 4155.37,130.41 L 4155.37, 181.41 L 4146.87, 181.41" />
    </a>
    <a ewd:lineID="80" style="cursor:pointer;">
      <path style="fill:none;stroke:#000000;stroke-width:5;" d="M 4121.37,221.11 L 4121.37, 130.41" />
      <path style="fill:none;stroke:#FFFFFF;stroke-width:3.8;" d="M 4121.37,221.11 L 4121.37, 130.41" />
    </a>
    <a ewd:lineID="81" style="cursor:pointer;">
      <path style="fill:none;stroke:#000000;stroke-width:5;" d="M 4087.37,221.11 L 4087.37, 130.41" />
    </a>
    <a ewd:lineID="82" style="cursor:pointer;">
      <path style="fill:none;stroke:#7F0000;stroke-width:5;" d="M 3628.17,215.41 L 3636.67, 215.41 L 3636.67, 538.61" />
    </a>
    <a ewd:lineID="83" style="cursor:pointer;">
      <path style="fill:none;stroke:#7F0000;stroke-width:5;" d="M 3636.67,130.41 L 3636.67, 181.41 L 3628.17, 181.41" />
    </a>
    <a ewd:lineID="84" style="cursor:pointer;">
      <path style="fill:none;stroke:#000000;stroke-width:5;" d="M 3602.67,221.11 L 3602.67, 130.41" />
      <path style="fill:none;stroke:#FFFFFF;stroke-width:3.8;" d="M 3602.67,221.11 L 3602.67, 130.41" />
    </a>
    <a ewd:lineID="85" style="cursor:pointer;">
      <path style="fill:none;stroke:#000000;stroke-width:5;" d="M 3568.67,221.11 L 3568.67, 130.41" />
    </a>
    <a ewd:lineID="86" style="cursor:pointer;">
      <path style="fill:none;stroke:#7F0000;stroke-width:5;" d="M 3407.07,215.41 L 3415.57, 215.41 L 3415.57, 445.01 L 3517.57, 445.01 L 3517.57, 462.01" />
    </a>
    <a ewd:lineID="87" style="cursor:pointer;">
      <path style="fill:none;stroke:#7F0000;stroke-width:5;" d="M 3517.57,479.01 L 3517.57, 538.61" />
    </a>
    <a ewd:lineID="88" style="cursor:pointer;">
      <path style="fill:none;stroke:#000000;stroke-width:5;" d="M 3517.57,555.61 L 3517.57, 691.61" />
      <path style="fill:none;stroke:#FFFFFF;stroke-width:3.8;" d="M 3517.57,555.61 L 3517.57, 691.61" />
      <path style="fill:none;stroke:#000000;" d="M 3517.57,555.61 L 3517.57, 691.61" />
    </a>
    <a ewd:lineID="89" style="cursor:pointer;">
      <path style="fill:none;stroke:#000000;stroke-width:5;" d="M 3415.57,130.41 L 3415.57, 181.41 L 3407.07, 181.41" />
    </a>
    <a ewd:lineID="90" style="cursor:pointer;">
      <path style="fill:none;stroke:#000000;stroke-width:5;" d="M 3381.57,221.11 L 3381.57, 130.41" />
    </a>
    <a ewd:lineID="91" style="cursor:pointer;">
      <path style="fill:none;stroke:#000000;stroke-width:5;" d="M 3347.57,221.11 L 3347.57, 130.41" />
      <path style="fill:none;stroke:#FFFFFF;stroke-width:3.8;" d="M 3347.57,221.11 L 3347.57, 130.41" />
    </a>
    <a ewd:lineID="92" style="cursor:pointer;">
      <path style="fill:none;stroke:#FFF200;stroke-width:5;" d="M 3321.97,541.41 L 3321.97, 581.11" />
    </a>
    <a ewd:lineID="93" style="cursor:pointer;">
      <path style="fill:none;stroke:#000000;stroke-width:5;" d="M 3364.57,541.41 L 3364.57, 581.11" />
      <path style="fill:none;stroke:#FFFFFF;stroke-width:3.8;" d="M 3364.57,541.41 L 3364.57, 581.11" />
    </a>
    <a ewd:lineID="104" style="cursor:pointer;">
      <path style="fill:none;stroke:#FFF200;stroke-width:5;" d="M 3262.47,62.41 L 3202.97, 62.41 L 3202.97, 127.51" />
    </a>
    <a ewd:lineID="105" style="cursor:pointer;">
      <path style="fill:none;stroke:#FF0000;stroke-width:5;" d="M 3202.97,167.21 L 3202.97, 221.11" />
      <path style="fill:none;stroke:#FFFFFF;stroke-width:2.2;" d="M 3202.97,167.21 L 3202.97, 221.11" />
    </a>
    <a ewd:lineID="108" style="cursor:pointer;">
      <path style="fill:none;stroke:#000000;stroke-width:5;" d="M 2386.57,309.01 L 2386.57, 385.51 L 2301.57, 385.51" />
      <path style="fill:none;stroke:#FFFFFF;stroke-width:3.8;" d="M 2386.57,309.01 L 2386.57, 385.51 L 2301.57, 385.51" />
    </a>
    <a ewd:lineID="111" style="cursor:pointer;">
      <path style="fill:none;stroke:#FFF200;stroke-width:5;" d="M 2344.07,309.01 L 2344.07, 360.01 L 2233.47, 360.01" />
    </a>
    <a ewd:lineID="112" style="cursor:pointer;">
      <path style="fill:none;stroke:#FFF200;stroke-width:5;" d="M 2199.47,155.91 L 2199.47, 283.51" />
    </a>
    <a ewd:lineID="113" style="cursor:pointer;">
      <path style="fill:none;stroke:#FFF200;stroke-width:5;" d="M 2199.47,292.01 L 2199.47, 445.01" />
    </a>
    <a ewd:lineID="114" style="cursor:pointer;">
      <path style="fill:none;stroke:#0A50A1;stroke-width:5;" d="M 2267.57,155.91 L 2267.57, 206.91" />
    </a>
    <a ewd:lineID="115" style="cursor:pointer;">
      <path style="fill:none;stroke:#0A50A1;stroke-width:5;" d="M 2267.57,223.91 L 2267.57, 283.51" />
    </a>
    <a ewd:lineID="116" style="cursor:pointer;">
      <path style="fill:none;stroke:#000000;stroke-width:5;" d="M 2267.57,292.01 L 2267.57, 445.01" />
      <path style="fill:none;stroke:#FFFFFF;stroke-width:3.8;" d="M 2267.57,292.01 L 2267.57, 445.01" />
    </a>
    <a ewd:lineID="117" style="cursor:pointer;">
      <path style="fill:none;stroke:#56017D;stroke-width:5;" d="M 2344.07,155.91 L 2344.07, 206.91" />
    </a>
    <a ewd:lineID="118" style="cursor:pointer;">
      <path style="fill:none;stroke:#56017D;stroke-width:5;" d="M 2344.07,215.41 L 2344.07, 274.91" />
    </a>
    <a ewd:lineID="119" style="cursor:pointer;">
      <path style="fill:none;stroke:#000000;stroke-width:5;" d="M 2582.17,155.91 L 2582.17, 343.01" />
      <path style="fill:none;stroke:#FFFFFF;stroke-width:3.8;" d="M 2582.17,155.91 L 2582.17, 343.01" />
      <path style="fill:none;stroke:#000000;" d="M 2582.17,155.91 L 2582.17, 343.01" />
    </a>
    <a ewd:lineID="120" style="cursor:pointer;">
      <path style="fill:none;stroke:#000000;stroke-width:5;" d="M 2582.17,394.01 L 2582.17, 691.61" />
      <path style="fill:none;stroke:#FFFFFF;stroke-width:3.8;" d="M 2582.17,394.01 L 2582.17, 691.61" />
      <path style="fill:none;stroke:#000000;" d="M 2582.17,394.01 L 2582.17, 691.61" />
    </a>
    <a ewd:lineID="121" style="cursor:pointer;">
      <path style="fill:none;stroke:#000000;stroke-width:5;" d="M 2514.17,445.01 L 2514.17, 394.01" />
      <path style="fill:none;stroke:#FFFFFF;stroke-width:3.8;" d="M 2514.17,445.01 L 2514.17, 394.01" />
      <path style="fill:none;stroke:#000000;" d="M 2514.17,445.01 L 2514.17, 394.01" />
    </a>
    <a ewd:lineID="122" style="cursor:pointer;">
      <path style="fill:none;stroke:#FF0000;stroke-width:5;" d="M 2446.07,155.91 L 2446.07, 343.01" />
    </a>
    <a ewd:lineID="123" style="cursor:pointer;">
      <path style="fill:none;stroke:#FF0000;stroke-width:5;" d="M 2446.07,394.01 L 2446.07, 445.01" />
    </a>
    <a ewd:lineID="124" style="cursor:pointer;">
      <path style="fill:none;stroke:#000000;stroke-width:5;" d="M 2811.77,385.51 L 2811.77, 428.01" />
      <path style="fill:none;stroke:#FFFFFF;stroke-width:3.8;" d="M 2811.77,385.51 L 2811.77, 428.01" />
      <path style="fill:none;stroke:#000000;" d="M 2811.77,385.51 L 2811.77, 428.01" />
    </a>
    <a ewd:lineID="125" style="cursor:pointer;">
      <path style="fill:none;stroke:#000000;stroke-width:5;" d="M 2811.77,445.01 L 2811.77, 479.01" />
      <path style="fill:none;stroke:#FFFFFF;stroke-width:3.8;" d="M 2811.77,445.01 L 2811.77, 479.01" />
      <path style="fill:none;stroke:#000000;" d="M 2811.77,445.01 L 2811.77, 479.01" />
    </a>
    <a ewd:lineID="126" style="cursor:pointer;">
      <path style="fill:none;stroke:#000000;stroke-width:5;" d="M 2811.77,530.11 L 2811.77, 691.61" />
      <path style="fill:none;stroke:#FFFFFF;stroke-width:3.8;" d="M 2811.77,530.11 L 2811.77, 691.61" />
      <path style="fill:none;stroke:#000000;" d="M 2811.77,530.11 L 2811.77, 691.61" />
    </a>
    <a ewd:lineID="127" style="cursor:pointer;">
      <path style="fill:none;stroke:#000000;stroke-width:5;" d="M 3015.87,155.91 L 3015.87, 206.91" />
      <path style="fill:none;stroke:#FFFFFF;stroke-width:3.8;" d="M 3015.87,155.91 L 3015.87, 206.91" />
    </a>
    <a ewd:lineID="128" style="cursor:pointer;">
      <path style="fill:none;stroke:#000000;stroke-width:5;" d="M 3015.87,215.41 L 3015.87, 292.01" />
      <path style="fill:none;stroke:#FFFFFF;stroke-width:3.8;" d="M 3015.87,215.41 L 3015.87, 292.01" />
    </a>
    <a ewd:lineID="129" style="cursor:pointer;">
      <path style="fill:none;stroke:#000000;stroke-width:5;" d="M 3015.87,309.01 L 3015.87, 377.01" />
      <path style="fill:none;stroke:#FFFFFF;stroke-width:3.8;" d="M 3015.87,309.01 L 3015.87, 377.01" />
    </a>
    <a ewd:lineID="130" style="cursor:pointer;">
      <path style="fill:none;stroke:#000000;stroke-width:5;" d="M 3015.87,385.51 L 3015.87, 425.21" />
      <path style="fill:none;stroke:#FFFFFF;stroke-width:3.8;" d="M 3015.87,385.51 L 3015.87, 425.21" />
    </a>
    <a ewd:lineID="131" style="cursor:pointer;">
      <path style="fill:none;stroke:#0A50A1;stroke-width:5;" d="M 2777.77,155.91 L 2777.77, 300.51" />
    </a>
    <a ewd:lineID="132" style="cursor:pointer;">
      <path style="fill:none;stroke:#000000;stroke-width:5;" d="M 2692.77,385.51 L 2692.77, 436.51 L 2803.27, 436.51" />
      <path style="fill:none;stroke:#FFFFFF;stroke-width:3.8;" d="M 2692.77,385.51 L 2692.77, 436.51 L 2803.27, 436.51" />
      <path style="fill:none;stroke:#000000;" d="M 2692.77,385.51 L 2692.77, 436.51 L 2803.27, 436.51" />
    </a>
    <a ewd:lineID="133" style="cursor:pointer;">
      <path style="fill:none;stroke:#000000;stroke-width:5;" d="M 2820.27,436.51 L 2888.27, 436.51 L 2888.27, 360.01" />
      <path style="fill:none;stroke:#FFFFFF;stroke-width:3.8;" d="M 2820.27,436.51 L 2888.27, 436.51 L 2888.27, 360.01" />
      <path style="fill:none;stroke:#000000;" d="M 2820.27,436.51 L 2888.27, 436.51 L 2888.27, 360.01" />
    </a>
    <a ewd:lineID="135" style="cursor:pointer;">
      <path style="fill:none;stroke:#FF0000;stroke-width:5;" d="M 2692.77,155.91 L 2692.77, 300.51" />
    </a>
    <a ewd:lineID="136" style="cursor:pointer;">
      <path style="fill:none;stroke:#FF0000;stroke-width:5;" d="M 2156.97,155.91 L 2156.97, 283.51" />
    </a>
    <a ewd:lineID="137" style="cursor:pointer;">
      <path style="fill:none;stroke:#FF0000;stroke-width:5;" d="M 2156.97,292.01 L 2156.97, 445.01" />
    </a>
    <a ewd:lineID="139" style="cursor:pointer;">
      <path style="fill:none;stroke:#0A50A1;stroke-width:5;" d="M 2947.87,283.51 L 2947.87, 326.01" />
    </a>
    <a ewd:lineID="140" style="cursor:pointer;">
      <path style="fill:none;stroke:#000000;stroke-width:5;" d="M 2947.87,360.01 L 2947.87, 428.01" />
      <path style="fill:none;stroke:#FFFFFF;stroke-width:3.8;" d="M 2947.87,360.01 L 2947.87, 428.01" />
      <path style="fill:none;stroke:#000000;" d="M 2947.87,360.01 L 2947.87, 428.01" />
    </a>
    <a ewd:lineID="141" style="cursor:pointer;">
      <path style="fill:none;stroke:#000000;stroke-width:5;" d="M 2947.87,445.01 L 2947.87, 484.71" />
      <path style="fill:none;stroke:#FFFFFF;stroke-width:3.8;" d="M 2947.87,445.01 L 2947.87, 484.71" />
      <path style="fill:none;stroke:#000000;" d="M 2947.87,445.01 L 2947.87, 484.71" />
    </a>
    <a ewd:lineID="142" style="cursor:pointer;">
      <path style="fill:none;stroke:#000000;stroke-width:5;" d="M 2947.87,532.91 L 2947.87, 564.11" />
      <path style="fill:none;stroke:#FFFFFF;stroke-width:3.8;" d="M 2947.87,532.91 L 2947.87, 564.11" />
      <path style="fill:none;stroke:#000000;" d="M 2947.87,532.91 L 2947.87, 564.11" />
    </a>
    <a ewd:lineID="144" style="cursor:pointer;">
      <path style="fill:none;stroke:#008837;stroke-width:5;" d="M 1926.37,155.91 L 1926.37, 206.91" />
    </a>
    <a ewd:lineID="145" style="cursor:pointer;">
      <path style="fill:none;stroke:#FFF200;stroke-width:5;" d="M 1968.87,155.91 L 1968.87, 206.91" />
    </a>
    <a ewd:lineID="146" style="cursor:pointer;">
      <path style="fill:none;stroke:#000000;stroke-width:5;" d="M 1790.27,155.91 L 1790.27, 206.91" />
    </a>
    <a ewd:lineID="147" style="cursor:pointer;">
      <path style="fill:none;stroke:#000000;stroke-width:5;" d="M 1662.77,155.91 L 1662.77, 206.91" />
    </a>
    <a ewd:lineID="148" style="cursor:pointer;">
      <path style="fill:none;stroke:#000000;stroke-width:5;" d="M 1373.57,155.91 L 1373.57, 246.61" />
      <path style="fill:none;stroke:#FFFFFF;stroke-width:3.8;" d="M 1373.57,155.91 L 1373.57, 246.61" />
    </a>
    <a ewd:lineID="149" style="cursor:pointer;">
      <path style="fill:none;stroke:#000000;stroke-width:5;" d="M 1373.57,286.31 L 1373.57, 334.51 L 1441.67, 334.51 L 1441.67, 249.41" />
    </a>
    <a ewd:lineID="150" style="cursor:pointer;">
      <path style="fill:none;stroke:#000000;stroke-width:5;" d="M 1526.67,249.41 L 1526.67, 385.51 L 1645.77, 385.51 L 1645.77, 334.51" />
    </a>
    <a ewd:lineID="152" style="cursor:pointer;">
      <path style="fill:none;stroke:#FF0000;stroke-width:5;" d="M 1288.57,240.91 L 1288.57, 292.01" />
    </a>
    <a ewd:lineID="153" style="cursor:pointer;">
      <path style="fill:none;stroke:#FF0000;stroke-width:5;" d="M 1288.57,300.51 L 1288.57, 411.01" />
    </a>
    <a ewd:lineID="154" style="cursor:pointer;">
      <path style="fill:none;stroke:#000000;stroke-width:5;" d="M 1288.57,445.01 L 1288.57, 487.51" />
      <path style="fill:none;stroke:#FFFFFF;stroke-width:3.8;" d="M 1288.57,445.01 L 1288.57, 487.51" />
      <path style="fill:none;stroke:#000000;" d="M 1288.57,445.01 L 1288.57, 487.51" />
    </a>
    <a ewd:lineID="155" style="cursor:pointer;">
      <path style="fill:none;stroke:#000000;stroke-width:5;" d="M 1288.57,496.11 L 1288.57, 538.61" />
      <path style="fill:none;stroke:#FFFFFF;stroke-width:3.8;" d="M 1288.57,496.11 L 1288.57, 538.61" />
      <path style="fill:none;stroke:#000000;" d="M 1288.57,496.11 L 1288.57, 538.61" />
    </a>
    <a ewd:lineID="156" style="cursor:pointer;">
      <path style="fill:none;stroke:#000000;stroke-width:5;" d="M 1288.57,555.61 L 1288.57, 691.61" />
      <path style="fill:none;stroke:#FFFFFF;stroke-width:3.8;" d="M 1288.57,555.61 L 1288.57, 691.61" />
      <path style="fill:none;stroke:#000000;" d="M 1288.57,555.61 L 1288.57, 691.61" />
    </a>
    <a ewd:lineID="157" style="cursor:pointer;">
      <path style="fill:none;stroke:#000000;stroke-width:5;" d="M 314.67,547.11 L 314.67, 623.61" />
      <path style="fill:none;stroke:#FFFFFF;stroke-width:3.8;" d="M 314.67,547.11 L 314.67, 623.61" />
      <path style="fill:none;stroke:#000000;" d="M 314.67,547.11 L 314.67, 623.61" />
    </a>
    <a ewd:lineID="158" style="cursor:pointer;">
      <path style="fill:none;stroke:#000000;stroke-width:5;" d="M 314.67,640.61 L 314.67, 691.61" />
      <path style="fill:none;stroke:#FFFFFF;stroke-width:3.8;" d="M 314.67,640.61 L 314.67, 691.61" />
      <path style="fill:none;stroke:#000000;" d="M 314.67,640.61 L 314.67, 691.61" />
    </a>
    <a ewd:lineID="159" style="cursor:pointer;">
      <path style="fill:none;stroke:#FF0000;stroke-width:5;" d="M 314.67,411.01 L 314.67, 496.01" />
    </a>
    <a ewd:lineID="160" style="cursor:pointer;">
      <path style="fill:none;stroke:#000000;stroke-width:5;" d="M 280.57,411.01 L 280.57, 496.01" />
    </a>
    <a ewd:lineID="161" style="cursor:pointer;">
      <path style="fill:none;stroke:#0A50A1;stroke-width:5;" d="M 246.57,411.01 L 246.57, 436.51 L 144.57, 436.51" />
      <path style="fill:none;stroke:#FFFFFF;stroke-width:2.2;" d="M 246.57,411.01 L 246.57, 436.51 L 144.57, 436.51" />
    </a>
    <a ewd:lineID="162" style="cursor:pointer;">
      <path style="fill:none;stroke:#7F7F7F;stroke-width:5;" d="M 348.67,257.91 L 348.67, 309.01" />
    </a>
    <a ewd:lineID="163" style="cursor:pointer;">
      <path style="fill:none;stroke:#FF0000;stroke-width:5;" d="M 663.27,130.41 L 663.27, 164.41" />
    </a>
    <a ewd:lineID="164" style="cursor:pointer;">
      <path style="fill:none;stroke:#FF0000;stroke-width:5;" d="M 663.27,181.41 L 663.27, 215.41" />
    </a>
    <a ewd:lineID="165" style="cursor:pointer;">
      <path style="fill:none;stroke:#0A50A1;stroke-width:5;" d="M 663.27,317.51 L 663.27, 377.01" />
    </a>
    <a ewd:lineID="166" style="cursor:pointer;">
      <path style="fill:none;stroke:#0A50A1;stroke-width:5;" d="M 663.27,385.51 L 663.27, 428.01" />
    </a>
    <a ewd:lineID="167" style="cursor:pointer;">
      <path style="fill:none;stroke:#000000;stroke-width:5;" d="M 50.97,113.41 L 50.97, 130.41 L 84.97, 130.41" />
      <path style="fill:none;stroke:#FFFFFF;stroke-width:2.2;" d="M 50.97,113.41 L 50.97, 130.41 L 84.97, 130.41" />
      <path style="fill:none;stroke:#FF0000;" d="M 50.97,113.41 L 50.97, 130.41 L 84.97, 130.41" />
    </a>
    <a ewd:lineID="168" style="cursor:pointer;">
      <path style="fill:none;stroke:#000000;stroke-width:5;" d="M 102.07,130.41 L 136.07, 130.41 L 136.07, 147.41" />
      <path style="fill:none;stroke:#FFFFFF;stroke-width:2.2;" d="M 102.07,130.41 L 136.07, 130.41 L 136.07, 147.41" />
      <path style="fill:none;stroke:#FF0000;" d="M 102.07,130.41 L 136.07, 130.41 L 136.07, 147.41" />
    </a>
    <a ewd:lineID="169" style="cursor:pointer;">
      <path style="fill:none;stroke:#0A50A1;stroke-width:5;" d="M 136.07,257.91 L 136.07, 292.01" />
    </a>
    <a ewd:lineID="170" style="cursor:pointer;">
      <path style="fill:none;stroke:#0A50A1;stroke-width:5;" d="M 136.07,309.01 L 136.07, 355.71" />
    </a>
    <a ewd:lineID="171" style="cursor:pointer;">
      <path style="fill:none;stroke:#0A50A1;stroke-width:5;" d="M 136.07,381.21 L 136.07, 428.01" />
      <path style="fill:none;stroke:#FFFFFF;stroke-width:2.2;" d="M 136.07,381.21 L 136.07, 428.01" />
    </a>
    <a ewd:lineID="172" style="cursor:pointer;">
      <path style="fill:none;stroke:#0A50A1;stroke-width:5;" d="M 136.07,445.01 L 136.07, 496.01" />
      <path style="fill:none;stroke:#FFFFFF;stroke-width:2.2;" d="M 136.07,445.01 L 136.07, 496.01" />
    </a>
    <a ewd:lineID="175" style="cursor:pointer;">
      <path style="fill:none;stroke:#000000;stroke-width:5;" d="M 595.27,691.61 L 595.27, 555.61" />
      <path style="fill:none;stroke:#FFFFFF;stroke-width:3.8;" d="M 595.27,691.61 L 595.27, 555.61" />
      <path style="fill:none;stroke:#000000;" d="M 595.27,691.61 L 595.27, 555.61" />
    </a>
    <a ewd:lineID="176" style="cursor:pointer;">
      <path style="fill:none;stroke:#000000;stroke-width:5;" d="M 595.27,538.61 L 595.27, 496.01" />
      <path style="fill:none;stroke:#FFFFFF;stroke-width:3.8;" d="M 595.27,538.61 L 595.27, 496.01" />
      <path style="fill:none;stroke:#000000;" d="M 595.27,538.61 L 595.27, 496.01" />
    </a>
    <a ewd:figtype="jb" ewd:code="13" style="cursor:pointer;" ewd:figID="9">
      <path style="fill:#CCCCCC;stroke-linecap:round;stroke-linejoin:round;" d="M 31.16,147.4 L 31.16, 257.95 L 229.59, 257.95 L 229.59, 45.36 L 144.55, 45.36 L 144.55, 147.4 L 31.16, 147.4" />
    </a>
    <a ewd:figtype="jb" ewd:code="6" style="cursor:pointer;" ewd:figID="8">
      <path style="fill:#CCCCCC;stroke-linecap:round;stroke-linejoin:round;" d="M 382.65,257.95 L 382.65, 216.85 L 314.62, 216.85 L 314.62, 257.95 L 382.65, 257.95" />
    </a>
    <a ewd:figtype="jb" ewd:code="13" style="cursor:pointer;" ewd:figID="7">
      <path style="fill:#CCCCCC;stroke-linecap:round;stroke-linejoin:round;" d="M 929.74,130.39 L 929.74, 45.35 L 643.44, 45.35 L 643.44, 130.39 L 929.74, 130.39" />
    </a>
    <a ewd:figtype="jb" ewd:code="6" style="cursor:pointer;" ewd:figID="6">
      <path style="fill:#CCCCCC;stroke-linecap:round;stroke-linejoin:round;" d="M 887.22,215.43 L 887.22, 164.41 L 856.04, 164.41 L 856.04, 215.43 L 887.22, 215.43" />
    </a>
    <a ewd:figtype="jb" ewd:code="6" style="cursor:pointer;" ewd:figID="5">
      <path style="fill:#CCCCCC;stroke-linecap:round;stroke-linejoin:round;" d="M 1538.03,249.45 L 1538.03, 198.43 L 1421.81, 198.43 L 1421.81, 249.45 L 1538.03, 249.45" />
    </a>
    <a ewd:figtype="jb" ewd:code="6" style="cursor:pointer;" ewd:figID="4">
      <path style="fill:#CCCCCC;stroke-linecap:round;stroke-linejoin:round;" d="M 2593.52,394.02 L 2593.52, 343 L 2426.28, 343 L 2426.28, 394.02 L 2593.52, 394.02" />
    </a>
    <a ewd:figtype="jb" ewd:code="6" style="cursor:pointer;" ewd:figID="3">
      <path style="fill:#CCCCCC;stroke-linecap:round;stroke-linejoin:round;" d="M 2823.12,530.08 L 2823.12, 479.06 L 2791.94, 479.06 L 2791.94, 530.08 L 2823.12, 530.08" />
    </a>
    <a ewd:figtype="jb" ewd:code="13" style="cursor:pointer;" ewd:figID="2">
      <path style="fill:#CCCCCC;stroke-linecap:round;stroke-linejoin:round;" d="M 4574.93,113.39 L 4574.93, 45.36 L 4450.21, 45.36 L 4450.21, 113.39 L 4574.93, 113.39" />
    </a>
    <a ewd:figtype="jb" ewd:code="6" style="cursor:pointer;" ewd:figID="1">
      <path style="fill:#CCCCCC;stroke-linecap:round;stroke-linejoin:round;" d="M 4710.97,479.04 L 4710.97, 428.02 L 4679.79, 428.02 L 4679.79, 479.04 L 4710.97, 479.04" />
    </a>
    <a ewd:figtype="rb" ewd:code="FUSE115" style="cursor:pointer;" ewd:figID="58">
      <path style="fill:#CCECF4;stroke:#000000;stroke-width:1.133;stroke-linecap:round;stroke-linejoin:round;" d="M 63.76,87.88 L 63.76, 45.36 L 38.25, 45.36 L 38.25, 87.88 L 63.76, 87.88" />
    </a>
    <a ewd:figtype="conn" ewd:code="H18" style="cursor:pointer;" ewd:figID="57">
      <path style="fill:#CCECF4;stroke:#000000;stroke-width:1.133;stroke-linecap:round;stroke-linejoin:round;" d="M 1092.99,155.91 L 1092.99, 104.89 L 3134.93, 104.89 L 3134.93, 155.91 L 1092.99, 155.91" />
      <title ewd:textID="16">A/C Amplifier</title>
    </a>
    <a ewd:figtype="conn" ewd:code="B19" style="cursor:pointer;" ewd:figID="56">
      <path style="fill:#CCECF4;stroke:#000000;stroke-width:1.133;stroke-linecap:round;stroke-linejoin:round;" d="M 4657.14,623.61 L 4657.14, 589.59 L 4453.05, 589.59 L 4453.05, 623.61 L 4657.14, 623.61" />
      <title ewd:textID="42">Skid Control ECU with Actuator</title>
    </a>
    <a ewd:figtype="conn" ewd:code="A14" style="cursor:pointer;" ewd:figID="55">
      <path style="fill:#CCECF4;stroke:#000000;stroke-width:1.133;stroke-linecap:round;stroke-linejoin:round;" d="M 4596.19,456.37 L 4596.19, 433.69 L 4556.51, 433.69 L 4556.51, 456.37 L 4596.19, 456.37" />
      <title ewd:textID="22">Ambient Temp. Sensor</title>
    </a>
    <a ewd:figtype="conn" ewd:code="D38" style="cursor:pointer;" ewd:figID="54">
      <path style="fill:#CCECF4;stroke:#000000;stroke-width:1.133;stroke-linecap:round;stroke-linejoin:round;" d="M 4419.03,589.61 L 4419.03, 538.59 L 4342.49, 538.59 L 4342.49, 589.61 L 4419.03, 589.61" />
      <title ewd:textID="43">Speed Sensor</title>
    </a>
    <a ewd:figtype="conn" ewd:code="H20" style="cursor:pointer;" ewd:figID="53">
      <path style="fill:#CCECF4;stroke:#000000;stroke-width:1.133;stroke-linecap:round;stroke-linejoin:round;" d="M 4725.17,368.5 L 4725.17, 215.43 L 4248.95, 215.43 L 4248.95, 368.5 L 4725.17, 368.5" />
      <title ewd:textID="26">Combination Meter</title>
    </a>
    <a ewd:figtype="conn" ewd:code="D103" style="cursor:pointer;" ewd:figID="52">
      <path style="fill:#CCECF4;stroke:#000000;stroke-width:1.133;stroke-linecap:round;stroke-linejoin:round;" d="M 3942.81,555.59 L 3942.81, 538.58 L 3925.8, 538.58 L 3925.8, 555.59 L 3942.81, 555.59" />
      <title ewd:textID="37">Junction Connector</title>
    </a>
    <a ewd:figtype="conn" ewd:code="B88,D105" style="cursor:pointer;" ewd:figID="51">
      <path style="fill:#CCECF4;stroke:#000000;stroke-width:1.133;stroke-linecap:round;stroke-linejoin:round;" d="M 4138.4,283.47 L 4138.4, 232.45 L 3976.83, 232.45 L 3976.83, 283.47 L 4138.4, 283.47" />
      <title ewd:textID="29">Engine ECU</title>
    </a>
    <a ewd:figtype="conn" ewd:code="D72" style="cursor:pointer;" ewd:figID="50">
      <path style="fill:#CCECF4;stroke:#000000;stroke-width:1.133;stroke-linecap:round;stroke-linejoin:round;" d="M 4172.41,130.39 L 4172.41, 96.38 L 4070.36, 96.38 L 4070.36, 130.4 L 4172.41, 130.4" />
      <title ewd:textID="27">Crankshaft Position Sensor</title>
    </a>
    <a ewd:figtype="conn" ewd:code="H62,H63,H64,H65" style="cursor:pointer;" ewd:figID="49">
      <path style="fill:#CCECF4;stroke:#000000;stroke-width:1.133;stroke-linecap:round;stroke-linejoin:round;" d="M 3475.09,530.08 L 3475.09, 504.57 L 3211.47, 504.57 L 3211.47, 530.08 L 3475.09, 530.08" />
      <title ewd:textID="37">Junction Connector</title>
    </a>
    <a ewd:figtype="conn" ewd:code="B71,D97" style="cursor:pointer;" ewd:figID="48">
      <path style="fill:#CCECF4;stroke:#000000;stroke-width:1.133;stroke-linecap:round;stroke-linejoin:round;" d="M 3398.56,283.47 L 3398.56, 232.45 L 3185.96, 232.45 L 3185.96, 283.47 L 3398.56, 283.47" />
      <title ewd:textID="29">Engine ECU</title>
    </a>
    <a ewd:figtype="conn" ewd:code="D72" style="cursor:pointer;" ewd:figID="47">
      <path style="fill:#CCECF4;stroke:#000000;stroke-width:1.133;stroke-linecap:round;stroke-linejoin:round;" d="M 3432.57,130.39 L 3432.57, 96.38 L 3330.52, 96.38 L 3330.52, 130.4 L 3432.57, 130.4" />
      <title ewd:textID="27">Crankshaft Position Sensor</title>
    </a>
    <a ewd:figtype="conn" ewd:code="D104" style="cursor:pointer;" ewd:figID="46">
      <path style="fill:#CCECF4;stroke:#000000;stroke-width:1.133;stroke-linecap:round;stroke-linejoin:round;" d="M 3279.5,172.91 L 3279.5, 155.9 L 3262.49, 155.9 L 3262.49, 172.91 L 3279.5, 172.91" />
      <title ewd:textID="37">Junction Connector</title>
    </a>
    <a ewd:figtype="conn" ewd:code="D32" style="cursor:pointer;" ewd:figID="45">
      <path style="fill:#CCECF4;stroke:#000000;stroke-width:1.133;stroke-linecap:round;stroke-linejoin:round;" d="M 3214.3,167.25 L 3214.3, 127.56 L 3191.62, 127.56 L 3191.62, 167.25 L 3214.3, 167.25" />
      <title ewd:textID="47">Water Temp. Sensor (Engine Coolant)</title>
    </a>
    <a ewd:figtype="conn" ewd:code="A26" style="cursor:pointer;" ewd:figID="44">
      <path style="fill:#CCECF4;stroke:#000000;stroke-width:1.133;stroke-linecap:round;stroke-linejoin:round;" d="M 2403.59,308.98 L 2403.59, 274.96 L 2327.05, 274.96 L 2327.05, 308.98 L 2403.59, 308.98" />
      <title ewd:textID="20">A/C Pressure Sensor No.2</title>
    </a>
    <a ewd:figtype="conn" ewd:code="A4" style="cursor:pointer;" ewd:figID="43">
      <path style="fill:#CCECF4;stroke:#000000;stroke-width:1.133;stroke-linecap:round;stroke-linejoin:round;" d="M 2284.54,479.06 L 2284.54, 445.04 L 2139.97, 445.04 L 2139.97, 479.06 L 2284.54, 479.06" />
      <title ewd:textID="19">A/C Pressure Sensor No.1</title>
    </a>
    <a ewd:figtype="conn" ewd:code="H88" style="cursor:pointer;" ewd:figID="42">
      <path style="fill:#CCECF4;stroke:#000000;stroke-width:1.133;stroke-linecap:round;stroke-linejoin:round;" d="M 2276.03,223.94 L 2276.03, 206.93 L 2259.02, 206.93 L 2259.02, 223.94 L 2276.03, 223.94" />
      <title ewd:textID="37">Junction Connector</title>
    </a>
    <a ewd:figtype="conn" ewd:code="H88" style="cursor:pointer;" ewd:figID="41">
      <path style="fill:#CCECF4;stroke:#000000;stroke-width:1.133;stroke-linecap:round;stroke-linejoin:round;" d="M 824.86,240.95 L 824.86, 223.94 L 807.85, 223.94 L 807.85, 240.95 L 824.86, 240.95" />
      <title ewd:textID="37">Junction Connector</title>
    </a>
    <a ewd:figtype="conn" ewd:code="A28" style="cursor:pointer;" ewd:figID="40">
      <path style="fill:#CCECF4;stroke:#000000;stroke-width:1.133;stroke-linecap:round;stroke-linejoin:round;" d="M 765.33,257.95 L 765.33, 223.93 L 748.32, 223.93 L 748.32, 257.95 L 765.33, 257.95" />
      <title ewd:textID="39">Magnet Valve</title>
    </a>
    <a ewd:figtype="conn" ewd:code="D14" style="cursor:pointer;" ewd:figID="39">
      <path style="fill:#CCECF4;stroke:#000000;stroke-width:1.133;stroke-linecap:round;stroke-linejoin:round;" d="M 773.84,504.57 L 773.84, 428.03 L 646.28, 428.03 L 646.28, 504.57 L 773.84, 504.57" />
      <title ewd:textID="17">A/C Compressor</title>
    </a>
    <a ewd:figtype="conn" ewd:code="B59" style="cursor:pointer;" ewd:figID="38">
      <path style="fill:#CCECF4;stroke:#000000;stroke-width:1.133;stroke-linecap:round;stroke-linejoin:round;" d="M 603.76,470.55 L 603.76, 496.06 L 586.75, 496.06 L 586.75, 470.55 L 603.76, 470.55" />
      <title ewd:textID="28">Diode (Magnet Clutch)</title>
    </a>
    <a ewd:figtype="conn" ewd:code="H1" style="cursor:pointer;" ewd:figID="37">
      <path style="fill:#CCECF4;stroke:#000000;stroke-width:1.133;stroke-linecap:round;stroke-linejoin:round;" d="M 340.13,547.09 L 340.13, 496.07 L 127.53, 496.07 L 127.53, 547.09 L 340.13, 547.09" />
      <title ewd:textID="24">Blower Resistor (Front A/C)</title>
    </a>
    <a ewd:figtype="conn" ewd:code="H70" style="cursor:pointer;" ewd:figID="36">
      <path style="fill:#CCECF4;stroke:#000000;stroke-width:1.133;stroke-linecap:round;stroke-linejoin:round;" d="M 399.66,411.02 L 399.66, 308.97 L 195.57, 308.97 L 195.57, 411.02 L 399.66, 411.02" />
      <title ewd:textID="25">Blower SW (Front A/C)</title>
    </a>
    <a ewd:figtype="conn" ewd:code="H2" style="cursor:pointer;" ewd:figID="35">
      <path style="fill:#CCECF4;stroke:#000000;stroke-width:1.133;stroke-linecap:round;stroke-linejoin:round;" d="M 140.29,381.26 L 131.79, 381.26 L 131.79, 375.87 C 129.26 374.4 127.54 371.64 127.54 368.5 C 127.540001831055 365.36 129.26 362.6 131.79 361.13 L 131.79, 355.74 L 140.29, 355.74 L 140.29, 361.13 C 142.82 362.6 144.54 365.36 144.54 368.5 C 144.539986572266 371.64 142.82 374.4 140.29 375.87 L 140.29, 381.26" />
      <title ewd:textID="23">Blower Motor (Front A/C)</title>
    </a>
    <a ewd:figtype="rb" ewd:code="FUSE130" style="cursor:pointer;" ewd:figID="34">
      <path style="fill:#CCECF4;stroke:#000000;stroke-width:1.133;stroke-linecap:round;stroke-linejoin:round;" d="M 4644.38,87.88 L 4644.38, 45.36 L 4618.87, 45.36 L 4618.87, 87.88 L 4644.38, 87.88" />
    </a>
    <a ewd:figtype="rb" ewd:code="FUSE146" style="cursor:pointer;" ewd:figID="33">
      <path style="fill:#CCECF4;stroke:#000000;stroke-width:1.133;stroke-linecap:round;stroke-linejoin:round;" d="M 2015.66,521.57 L 2015.66, 479.05 L 1990.15, 479.05 L 1990.15, 521.57 L 2015.66, 521.57" />
    </a>
    <a ewd:figtype="conn" ewd:code="D32" style="cursor:pointer;" ewd:figID="32">
      <path style="fill:#CCECF4;stroke:#000000;stroke-width:1.133;stroke-linecap:round;stroke-linejoin:round;" d="M 4005.17,167.25 L 4005.17, 127.56 L 3982.49, 127.56 L 3982.49, 167.25 L 4005.17, 167.25" />
      <title ewd:textID="47">Water Temp. Sensor (Engine Coolant)</title>
    </a>
    <a ewd:figtype="conn" ewd:code="B73,D99" style="cursor:pointer;" ewd:figID="31">
      <path style="fill:#CCECF4;stroke:#000000;stroke-width:1.133;stroke-linecap:round;stroke-linejoin:round;" d="M 3917.29,283.47 L 3917.29, 232.45 L 3738.71, 232.45 L 3738.71, 283.47 L 3917.29, 283.47" />
      <title ewd:textID="29">Engine ECU</title>
    </a>
    <a ewd:figtype="conn" ewd:code="D79" style="cursor:pointer;" ewd:figID="30">
      <path style="fill:#CCECF4;stroke:#000000;stroke-width:1.133;stroke-linecap:round;stroke-linejoin:round;" d="M 3908.79,138.9 C 3908.79 134.2 3904.98 130.4 3900.29 130.4 C 3895.600078125 130.399987792969 3891.79 134.21 3891.79 138.9 L 3891.79, 155.91 C 3891.79 160.61 3895.6 164.41 3900.29 164.41 C 3904.980078125 164.410007324219 3908.79 160.6 3908.79 155.91 L 3908.79, 138.9" />
      <title ewd:textID="27">Crankshaft Position Sensor</title>
    </a>
    <a ewd:figtype="conn" ewd:code="D32" style="cursor:pointer;" ewd:figID="29">
      <path style="fill:#CCECF4;stroke:#000000;stroke-width:1.133;stroke-linecap:round;stroke-linejoin:round;" d="M 3767.06,167.25 L 3767.06, 127.56 L 3744.38, 127.56 L 3744.38, 167.25 L 3767.06, 167.25" />
      <title ewd:textID="47">Water Temp. Sensor (Engine Coolant)</title>
    </a>
    <a ewd:figtype="conn" ewd:code="D103" style="cursor:pointer;" ewd:figID="28">
      <path style="fill:#CCECF4;stroke:#000000;stroke-width:1.133;stroke-linecap:round;stroke-linejoin:round;" d="M 3645.17,555.59 L 3645.17, 538.58 L 3509.11, 538.58 L 3509.11, 555.59 L 3645.17, 555.59" />
      <title ewd:textID="37">Junction Connector</title>
    </a>
    <a ewd:figtype="conn" ewd:code="D101" style="cursor:pointer;" ewd:figID="27">
      <path style="fill:#CCECF4;stroke:#000000;stroke-width:1.133;stroke-linecap:round;stroke-linejoin:round;" d="M 3526.11,479.06 L 3526.11, 462.05 L 3509.1, 462.05 L 3509.1, 479.06 L 3526.11, 479.06" />
      <title ewd:textID="37">Junction Connector</title>
    </a>
    <a ewd:figtype="conn" ewd:code="B72,D98" style="cursor:pointer;" ewd:figID="26">
      <path style="fill:#CCECF4;stroke:#000000;stroke-width:1.133;stroke-linecap:round;stroke-linejoin:round;" d="M 3619.66,283.47 L 3619.66, 232.45 L 3458.08, 232.45 L 3458.08, 283.47 L 3619.66, 283.47" />
      <title ewd:textID="29">Engine ECU</title>
    </a>
    <a ewd:figtype="conn" ewd:code="D72" style="cursor:pointer;" ewd:figID="25">
      <path style="fill:#CCECF4;stroke:#000000;stroke-width:1.133;stroke-linecap:round;stroke-linejoin:round;" d="M 3653.67,130.39 L 3653.67, 96.38 L 3551.62, 96.38 L 3551.62, 130.4 L 3653.67, 130.4" />
      <title ewd:textID="27">Crankshaft Position Sensor</title>
    </a>
    <a ewd:figtype="conn" ewd:code="D32" style="cursor:pointer;" ewd:figID="24">
      <path style="fill:#CCECF4;stroke:#000000;stroke-width:1.133;stroke-linecap:round;stroke-linejoin:round;" d="M 3486.43,167.25 L 3486.43, 127.56 L 3463.75, 127.56 L 3463.75, 167.25 L 3486.43, 167.25" />
      <title ewd:textID="47">Water Temp. Sensor (Engine Coolant)</title>
    </a>
    <a ewd:figtype="conn" ewd:code="H23" style="cursor:pointer;" ewd:figID="23">
      <path style="fill:#CCECF4;stroke:#000000;stroke-width:1.133;stroke-linecap:round;stroke-linejoin:round;" d="M 3381.55,615.12 L 3381.55, 581.1 L 3305.01, 581.1 L 3305.01, 615.12 L 3381.55, 615.12" />
      <title>DLC3</title>
    </a>
    <a ewd:figtype="conn" ewd:code="D6" style="cursor:pointer;" ewd:figID="22">
      <path style="fill:#CCECF4;stroke:#000000;stroke-width:1.133;stroke-linecap:round;stroke-linejoin:round;" d="M 3032.88,470.55 L 3032.88, 436.53 L 2998.86, 436.53 L 2998.86, 470.55 L 3032.88, 470.55" />
      <title ewd:textID="21">Alternator</title>
    </a>
    <a ewd:figtype="conn" ewd:code="B79" style="cursor:pointer;" ewd:figID="21">
      <path style="fill:#CCECF4;stroke:#000000;stroke-width:1.133;stroke-linecap:round;stroke-linejoin:round;" d="M 3024.38,308.98 L 3024.38, 291.97 L 3007.37, 291.97 L 3007.37, 308.98 L 3024.38, 308.98" />
      <title ewd:textID="37">Junction Connector</title>
    </a>
    <a ewd:figtype="conn" ewd:code="I12,I13" style="cursor:pointer;" ewd:figID="20">
      <path style="fill:#CCECF4;stroke:#000000;stroke-width:1.133;stroke-linecap:round;stroke-linejoin:round;" d="M 2956.35,521.58 L 2956.35, 496.07 L 2939.34, 496.07 L 2939.34, 521.58 L 2956.35, 521.58" />
      <title ewd:textID="37">Junction Connector</title>
    </a>
    <a ewd:figtype="conn" ewd:code="I24" style="cursor:pointer;" ewd:figID="19">
      <path style="fill:#CCECF4;stroke:#000000;stroke-width:1.133;stroke-linecap:round;stroke-linejoin:round;" d="M 2956.35,360 L 2956.35, 325.98 L 2939.34, 325.98 L 2939.34, 360 L 2956.35, 360" />
      <title ewd:textID="36">Idle-Up SW</title>
    </a>
    <a ewd:figtype="conn" ewd:code="H82" style="cursor:pointer;" ewd:figID="18">
      <path style="fill:#CCECF4;stroke:#000000;stroke-width:1.133;stroke-linecap:round;stroke-linejoin:round;" d="M 2896.82,360 L 2896.82, 325.98 L 2879.81, 325.98 L 2879.81, 360 L 2896.82, 360" />
      <title ewd:textID="36">Idle-Up SW</title>
    </a>
    <a ewd:figtype="conn" ewd:code="H91" style="cursor:pointer;" ewd:figID="17">
      <path style="fill:#CCECF4;stroke:#000000;stroke-width:1.133;stroke-linecap:round;stroke-linejoin:round;" d="M 2837.29,385.51 L 2837.29, 300.47 L 2675.71, 300.47 L 2675.71, 385.51 L 2837.29, 385.51" />
      <title ewd:textID="34">Heater Switch Assembly</title>
    </a>
    <a ewd:figtype="conn" ewd:code="H74" style="cursor:pointer;" ewd:figID="16">
      <path style="fill:#CCECF4;stroke:#000000;stroke-width:1.133;stroke-linecap:round;stroke-linejoin:round;" d="M 2539.66,564.09 L 2539.66, 445.04 L 2335.57, 445.04 L 2335.57, 564.09 L 2539.66, 564.09" />
      <title ewd:textID="33">Headlamp Dimmer Switch Assembly</title>
    </a>
    <a ewd:figtype="conn" ewd:code="H16" style="cursor:pointer;" ewd:figID="15">
      <path style="fill:#CCECF4;stroke:#000000;stroke-width:1.133;stroke-linecap:round;stroke-linejoin:round;" d="M 2028.42,360 L 2028.42, 206.93 L 1909.36, 206.93 L 1909.36, 360 L 2028.42, 360" />
      <title>A/C SW</title>
    </a>
    <a ewd:figtype="conn" ewd:code="H17" style="cursor:pointer;" ewd:figID="14">
      <path style="fill:#CCECF4;stroke:#000000;stroke-width:1.133;stroke-linecap:round;stroke-linejoin:round;" d="M 1824.33,334.49 L 1824.33, 206.93 L 1628.74, 206.93 L 1628.74, 334.49 L 1824.33, 334.49" />
      <title ewd:textID="41">Rear Window Defogger SW</title>
    </a>
    <a ewd:figtype="conn" ewd:code="H8" style="cursor:pointer;" ewd:figID="13">
      <path style="fill:#CCECF4;stroke:#000000;stroke-width:1.133;stroke-linecap:round;stroke-linejoin:round;" d="M 1384.96,286.3 L 1384.96, 246.62 L 1362.28, 246.62 L 1362.28, 286.3 L 1384.96, 286.3" />
      <title ewd:textID="18">A/C Evaporator Temp. Sensor (Front A/C)</title>
    </a>
    <a ewd:figtype="conn" ewd:code="D13" style="cursor:pointer;" ewd:figID="12">
      <path style="fill:#CCECF4;stroke:#000000;stroke-width:1.133;stroke-linecap:round;stroke-linejoin:round;" d="M 1297.08,445.04 L 1297.08, 411.02 L 1280.07, 411.02 L 1280.07, 445.04 L 1297.08, 445.04" />
      <title ewd:textID="17">A/C Compressor</title>
    </a>
    <a ewd:figtype="rb" ewd:code="FUSE132" style="cursor:pointer;" ewd:figID="11">
      <path style="fill:#CCECF4;stroke:#000000;stroke-width:1.133;stroke-linecap:round;stroke-linejoin:round;" d="M 1016.2,87.88 L 1016.2, 45.36 L 990.69, 45.36 L 990.69, 87.88 L 1016.2, 87.88" />
    </a>
    <a ewd:figtype="rb" ewd:code="12" style="cursor:pointer;" ewd:figID="10">
      <path style="fill:#CCECF4;stroke:#000000;stroke-width:1.133;stroke-linecap:round;stroke-linejoin:round;" d="M 697.3,283.46 L 697.3, 249.44 L 654.78, 249.44 L 654.78, 283.46 L 697.3, 283.46" />
    </a>
    <a ewd:figtype="sp" ewd:code="50020" style="cursor:pointer;" ewd:figID="82">
      <path style="fill:#FFFFFF;stroke:#000000;stroke-width:0.85;stroke-linecap:round;stroke-linejoin:round;" d="M 4601.15,164.41 L 4594.06, 164.41 L 4589.1, 169.37 L 4589.1, 176.46 L 4594.06, 181.42 L 4601.15, 181.42 L 4606.11, 176.46 L 4606.11, 169.37 L 4601.15, 164.41" />
    </a>
    <a ewd:figtype="sp" ewd:code="50021" style="cursor:pointer;" ewd:figID="81">
      <path style="fill:#FFFFFF;stroke:#000000;stroke-width:0.85;stroke-linecap:round;stroke-linejoin:round;" d="M 4141.94,206.93 L 4134.85, 206.93 L 4129.89, 211.89 L 4129.89, 218.98 L 4134.85, 223.94 L 4141.94, 223.94 L 4146.9, 218.98 L 4146.9, 211.89 L 4141.94, 206.93" />
    </a>
    <a ewd:figtype="sp" ewd:code="50022" style="cursor:pointer;" ewd:figID="80">
      <path style="fill:#FFFFFF;stroke:#000000;stroke-width:0.85;stroke-linecap:round;stroke-linejoin:round;" d="M 4141.94,172.91 L 4134.85, 172.91 L 4129.89, 177.87 L 4129.89, 184.96 L 4134.85, 189.92 L 4141.94, 189.92 L 4146.9, 184.96 L 4146.9, 177.87 L 4141.94, 172.91" />
    </a>
    <a ewd:figtype="sp" ewd:code="50023" style="cursor:pointer;" ewd:figID="79">
      <path style="fill:#FFFFFF;stroke:#000000;stroke-width:0.85;stroke-linecap:round;stroke-linejoin:round;" d="M 3920.84,206.93 L 3913.75, 206.93 L 3908.79, 211.89 L 3908.79, 218.98 L 3913.75, 223.94 L 3920.84, 223.94 L 3925.8, 218.98 L 3925.8, 211.89 L 3920.84, 206.93" />
    </a>
    <a ewd:figtype="sp" ewd:code="50024" style="cursor:pointer;" ewd:figID="78">
      <path style="fill:#FFFFFF;stroke:#000000;stroke-width:0.85;stroke-linecap:round;stroke-linejoin:round;" d="M 3623.2,206.93 L 3616.11, 206.93 L 3611.15, 211.89 L 3611.15, 218.98 L 3616.11, 223.94 L 3623.2, 223.94 L 3628.16, 218.98 L 3628.16, 211.89 L 3623.2, 206.93" />
    </a>
    <a ewd:figtype="sp" ewd:code="50025" style="cursor:pointer;" ewd:figID="77">
      <path style="fill:#FFFFFF;stroke:#000000;stroke-width:0.85;stroke-linecap:round;stroke-linejoin:round;" d="M 3623.2,172.91 L 3616.11, 172.91 L 3611.15, 177.87 L 3611.15, 184.96 L 3616.11, 189.92 L 3623.2, 189.92 L 3628.16, 184.96 L 3628.16, 177.87 L 3623.2, 172.91" />
    </a>
    <a ewd:figtype="sp" ewd:code="50041" style="cursor:pointer;" ewd:figID="76">
      <path style="fill:#FFFFFF;stroke:#000000;stroke-width:0.85;stroke-linecap:round;stroke-linejoin:round;" d="M 3402.1,206.93 L 3395.01, 206.93 L 3390.05, 211.89 L 3390.05, 218.98 L 3395.01, 223.94 L 3402.1, 223.94 L 3407.06, 218.98 L 3407.06, 211.89 L 3402.1, 206.93" />
    </a>
    <a ewd:figtype="sp" ewd:code="50042" style="cursor:pointer;" ewd:figID="75">
      <path style="fill:#FFFFFF;stroke:#000000;stroke-width:0.85;stroke-linecap:round;stroke-linejoin:round;" d="M 3402.1,172.91 L 3395.01, 172.91 L 3390.05, 177.87 L 3390.05, 184.96 L 3395.01, 189.92 L 3402.1, 189.92 L 3407.06, 184.96 L 3407.06, 177.87 L 3402.1, 172.91" />
    </a>
    <a ewd:figtype="sp" ewd:code="50043" style="cursor:pointer;" ewd:figID="74">
      <path style="fill:#FFFFFF;stroke:#000000;stroke-width:0.85;stroke-linecap:round;stroke-linejoin:round;" d="M 3274.54,53.86 L 3267.45, 53.86 L 3262.49, 58.82 L 3262.49, 65.91 L 3267.45, 70.87 L 3274.54, 70.87 L 3279.5, 65.91 L 3279.5, 58.82 L 3274.54, 53.86" />
    </a>
    <a ewd:figtype="sp" ewd:code="50026" style="cursor:pointer;" ewd:figID="73">
      <path style="fill:#FFFFFF;stroke:#000000;stroke-width:0.85;stroke-linecap:round;stroke-linejoin:round;" d="M 2951.39,428.03 L 2944.3, 428.03 L 2939.34, 432.99 L 2939.34, 440.08 L 2944.3, 445.04 L 2951.39, 445.04 L 2956.35, 440.08 L 2956.35, 432.99 L 2951.39, 428.03" />
    </a>
    <a ewd:figtype="sp" ewd:code="50027" style="cursor:pointer;" ewd:figID="72">
      <path style="fill:#FFFFFF;stroke:#000000;stroke-width:0.85;stroke-linecap:round;stroke-linejoin:round;" d="M 2815.33,428.03 L 2808.24, 428.03 L 2803.28, 432.99 L 2803.28, 440.08 L 2808.24, 445.04 L 2815.33, 445.04 L 2820.29, 440.08 L 2820.29, 432.99 L 2815.33, 428.03" />
    </a>
    <a ewd:figtype="sp" ewd:code="50028" style="cursor:pointer;" ewd:figID="71">
      <path style="fill:#FFFFFF;stroke:#000000;stroke-width:0.85;stroke-linecap:round;stroke-linejoin:round;" d="M 2228.55,351.49 L 2221.46, 351.49 L 2216.5, 356.45 L 2216.5, 363.54 L 2221.46, 368.5 L 2228.55, 368.5 L 2233.51, 363.54 L 2233.51, 356.45 L 2228.55, 351.49" />
    </a>
    <a ewd:figtype="sp" ewd:code="50029" style="cursor:pointer;" ewd:figID="70">
      <path style="fill:#FFFFFF;stroke:#000000;stroke-width:0.85;stroke-linecap:round;stroke-linejoin:round;" d="M 2296.59,377.01 L 2289.5, 377.01 L 2284.54, 381.97 L 2284.54, 389.06 L 2289.5, 394.02 L 2296.59, 394.02 L 2301.55, 389.06 L 2301.55, 381.97 L 2296.59, 377.01" />
    </a>
    <a ewd:figtype="sp" ewd:code="50030" style="cursor:pointer;" ewd:figID="69">
      <path style="fill:#FFFFFF;stroke:#000000;stroke-width:0.85;stroke-linecap:round;stroke-linejoin:round;" d="M 1292.12,538.58 L 1285.03, 538.58 L 1280.07, 543.54 L 1280.07, 550.63 L 1285.03, 555.59 L 1292.12, 555.59 L 1297.08, 550.63 L 1297.08, 543.54 L 1292.12, 538.58" />
    </a>
    <a ewd:figtype="sp" ewd:code="50031" style="cursor:pointer;" ewd:figID="68">
      <path style="fill:#FFFFFF;stroke:#000000;stroke-width:0.85;stroke-linecap:round;stroke-linejoin:round;" d="M 1292.13,223.91 L 1285.04, 223.91 L 1280.08, 228.87 L 1280.08, 235.96 L 1285.04, 240.92 L 1292.13, 240.92 L 1297.09, 235.96 L 1297.09, 228.87 L 1292.13, 223.91" />
    </a>
    <a ewd:figtype="sp" ewd:code="50032" style="cursor:pointer;" ewd:figID="67">
      <path style="fill:#FFFFFF;stroke:#000000;stroke-width:0.85;stroke-linecap:round;stroke-linejoin:round;" d="M 386.2,155.9 L 379.11, 155.9 L 374.15, 160.86 L 374.15, 167.95 L 379.11, 172.91 L 386.2, 172.91 L 391.16, 167.95 L 391.16, 160.86 L 386.2, 155.9" />
    </a>
    <a ewd:figtype="sp" ewd:code="50033" style="cursor:pointer;" ewd:figID="66">
      <path style="fill:#FFFFFF;stroke:#000000;stroke-width:0.85;stroke-linecap:round;stroke-linejoin:round;" d="M 275.65,155.9 L 268.56, 155.9 L 263.6, 160.86 L 263.6, 167.95 L 268.56, 172.91 L 275.65, 172.91 L 280.61, 167.95 L 280.61, 160.86 L 275.65, 155.9" />
    </a>
    <a ewd:figtype="sp" ewd:code="50034" style="cursor:pointer;" ewd:figID="65">
      <path style="fill:#FFFFFF;stroke:#000000;stroke-width:0.85;stroke-linecap:round;stroke-linejoin:round;" d="M 964.47,172.91 L 957.3799, 172.91 L 952.4199, 177.87 L 952.4199, 184.96 L 957.3799, 189.92 L 964.4699, 189.92 L 969.4299, 184.96 L 969.4299, 177.87 L 964.47, 172.91" />
    </a>
    <a ewd:figtype="sp" ewd:code="50035" style="cursor:pointer;" ewd:figID="64">
      <path style="fill:#FFFFFF;stroke:#000000;stroke-width:0.85;stroke-linecap:round;stroke-linejoin:round;" d="M 666.83,164.41 L 659.74, 164.41 L 654.78, 169.37 L 654.78, 176.46 L 659.7401, 181.42 L 666.8301, 181.42 L 671.7901, 176.46 L 671.7901, 169.37 L 666.83, 164.41" />
    </a>
    <a ewd:figtype="sp" ewd:code="50036" style="cursor:pointer;" ewd:figID="63">
      <path style="fill:#FFFFFF;stroke:#000000;stroke-width:0.85;stroke-linecap:round;stroke-linejoin:round;" d="M 139.58,291.97 L 132.49, 291.97 L 127.53, 296.93 L 127.53, 304.02 L 132.49, 308.98 L 139.58, 308.98 L 144.54, 304.02 L 144.54, 296.93 L 139.58, 291.97" />
    </a>
    <a ewd:figtype="sp" ewd:code="50037" style="cursor:pointer;" ewd:figID="62">
      <path style="fill:#FFFFFF;stroke:#000000;stroke-width:0.85;stroke-linecap:round;stroke-linejoin:round;" d="M 139.58,428.03 L 132.49, 428.03 L 127.53, 432.99 L 127.53, 440.08 L 132.49, 445.04 L 139.58, 445.04 L 144.54, 440.08 L 144.54, 432.99 L 139.58, 428.03" />
    </a>
    <a ewd:figtype="sp" ewd:code="50038" style="cursor:pointer;" ewd:figID="61">
      <path style="fill:#FFFFFF;stroke:#000000;stroke-width:0.85;stroke-linecap:round;stroke-linejoin:round;" d="M 598.8,538.58 L 591.71, 538.58 L 586.75, 543.54 L 586.75, 550.63 L 591.71, 555.59 L 598.8, 555.59 L 603.76, 550.63 L 603.76, 543.54 L 598.8, 538.58" />
    </a>
    <a ewd:figtype="sp" ewd:code="50039" style="cursor:pointer;" ewd:figID="60">
      <path style="fill:#FFFFFF;stroke:#000000;stroke-width:0.85;stroke-linecap:round;stroke-linejoin:round;" d="M 318.17,623.62 L 311.08, 623.62 L 306.12, 628.58 L 306.12, 635.67 L 311.08, 640.63 L 318.17, 640.63 L 323.13, 635.67 L 323.13, 628.58 L 318.17, 623.62" />
    </a>
    <a ewd:figtype="sp" ewd:code="50040" style="cursor:pointer;" ewd:figID="59">
      <path style="fill:#FFFFFF;stroke:#000000;stroke-width:0.85;stroke-linecap:round;stroke-linejoin:round;" d="M 97.06,121.89 L 89.97, 121.89 L 85.01, 126.85 L 85.01, 133.94 L 89.97, 138.9 L 97.06, 138.9 L 102.02, 133.94 L 102.02, 126.85 L 97.06, 121.89" />
    </a>
    <a ewd:figtype="fuse" ewd:code="FUSE115" style="cursor:pointer;" ewd:figID="128">
      <path style="fill:none;stroke:#000000;stroke-width:0.5;stroke-linecap:round;stroke-linejoin:round;" d="M 63.76,87.88 L 63.76, 45.36 L 38.25, 45.36 L 38.25, 87.88 L 63.76, 87.88" />
    </a>
    <a ewd:figtype="fuse" ewd:code="FUSE130" style="cursor:pointer;" ewd:figID="127">
      <path style="fill:none;stroke:#000000;stroke-width:0.5;stroke-linecap:round;stroke-linejoin:round;" d="M 4644.38,87.88 L 4644.38, 45.36 L 4618.87, 45.36 L 4618.87, 87.88 L 4644.38, 87.88" />
    </a>
    <a ewd:figtype="fuse" ewd:code="FUSE173" style="cursor:pointer;" ewd:figID="126">
      <path style="fill:none;stroke:#000000;stroke-width:0.5;stroke-linecap:round;stroke-linejoin:round;" d="M 4482.81,87.88 L 4482.81, 45.36 L 4457.3, 45.36 L 4457.3, 87.88 L 4482.81, 87.88" />
    </a>
    <a ewd:figtype="fuse" ewd:code="FUSE146" style="cursor:pointer;" ewd:figID="125">
      <path style="fill:none;stroke:#000000;stroke-width:0.5;stroke-linecap:round;stroke-linejoin:round;" d="M 2015.66,521.57 L 2015.66, 479.05 L 1990.15, 479.05 L 1990.15, 521.57 L 2015.66, 521.57" />
    </a>
    <a ewd:figtype="fuse" ewd:code="FUSE132" style="cursor:pointer;" ewd:figID="124">
      <path style="fill:none;stroke:#000000;stroke-width:0.5;stroke-linecap:round;stroke-linejoin:round;" d="M 1016.2,87.88 L 1016.2, 45.36 L 990.69, 45.36 L 990.69, 87.88 L 1016.2, 87.88" />
    </a>
    <a ewd:figtype="fuse" ewd:code="FUSE168" style="cursor:pointer;" ewd:figID="123">
      <path style="fill:none;stroke:#000000;stroke-width:0.5;stroke-linecap:round;stroke-linejoin:round;" d="M 676.04,87.88 L 676.04, 45.36 L 650.53, 45.36 L 650.53, 87.88 L 676.04, 87.88" />
    </a>
    <a ewd:figtype="fuse" ewd:code="FUSE172" style="cursor:pointer;" ewd:figID="122">
      <path style="fill:none;stroke:#000000;stroke-width:0.5;stroke-linecap:round;stroke-linejoin:round;" d="M 174.31,87.88 L 174.31, 45.36 L 148.8, 45.36 L 148.8, 87.88 L 174.31, 87.88" />
    </a>
    
    
    
    
    
    
    
    
    
    
    
    
    
    
    
    
    
    
    
    
    
    
    
    
    
    
    
    
    
    
    
    
    
    
    
    
    
    
    
    
    
    
    
    
    
    
    
    
    
    
    
    
    
    
    
    
    
    
    
    
    
    
    
    
    
    
    
    
    
    
    
    
    
    
    
    
    
    
    
    
    
    
    
    
    
    
    
    
    
    
    
    
    
    
    
    
    
    
    
    
    
    
    
    
    
    
    
    
    
    
    
    
    
    
    
    
    
    
    
    
    
    
    
    
    
    
    
    
    
    
    
    
    
    
    
    
    
    
    
    
    
    
    
    
    
    
    
    
    
    
    
    
    
    
    
    
    
    
    
    
    
    
    
    
    
    
    
    
    
    
    
    
    
    
    
    
    
    
    
    
    
    
    
    
    
    
    
    
    
    
    
    
    
    
    
    
    
    
    
    
    
    
    
    
    
    
    
    
    
    
    
    
    
    
    
    
    
    
    
    
    
    
    
    
    
    
    
    
    
    
    
    
    
    
    
    
    
    
    
    
    
    
    
    
    
    
    
    
    
    
    
    
    
    
    
    
    
    
    
    
    
    
    
    
    
    
    
    
    
    
    
    
    
    
    
    
    
    
    
    
    
    
    
    
    
    
    
    
    
    
    
    
    
    
    
    
    
    
    
    
    
    
    
    
    
    
    
    
    
    
    
    
    
    
    
    
    
    
    
    
    
    
    
    
    
    
    
    
    
    
    
    
    
    
    
    
    
    
    
    
    
    
    
    
    
    
    
    
    
    
    
    
    
    
    
    
    
    
    
    
    
    
    
    
    
    
    
    
    
    
    
    
    
    
    
    
    
    
    
    
    
    
    
    
    
    
    
    
    
    
    
    
    
    
    
    
    
    
    
    
    
    
    
    
    
    
    
    
    
    
    
    
    
    
    
    
    
    
    
    
    
    
    
    
    
    
    
    
    
    
    
    
    
    
    
    
    
    
    
    
    
    
    
    
    
    
    
    
    
    
    
    
    
    
    
    
    
    
    
    
    
    
    
    
    
    
    
    
    
    
    
    
    
    
    
    
    
    
    
    
    
    
    
    
    
    
    
    
    
    
    
    
    
    
    
    
    
    
    
    
    
    
    
    
    
    
    
    
    
    
    
    
    
    
    
    
    
    
    
    
    
    
    
    
    
    
    
    
    
    
    
    
    
    
    
    
    
    
    
    
    
    
    
    
    
    
    
    
    
    
    
    
    
    
    
    
    
    
    
    
    
    
    
    
    
    
    
    
    
    
    
    
    
    <a style="cursor:pointer;" ewd:figID="121" ewd:figtype="w2w" ewd:code="DB4" ewd:pin_no="7">
      <path style="fill:#FFFFFF;stroke:#000000;stroke-width:0.85;stroke-linecap:round;stroke-linejoin:round;" d="M 4369.42,479.05 L 4369.42, 470.55 L 4349.58, 470.55 L 4349.58, 479.05 L 4369.42, 479.05" />
      <text transform="matrix(1 0 0 1 4353.6631 476.8574)" style="font-family:'Arial'; font-size:6px;">DB4</text>
    </a>
    <a style="cursor:pointer;" ewd:figID="120" ewd:figtype="w2w" ewd:code="HB4" ewd:pin_no="17">
      <path style="fill:#FFFFFF;stroke:#000000;stroke-width:0.85;stroke-linecap:round;stroke-linejoin:round;" d="M 4369.42,411.02 L 4369.42, 419.52 L 4349.58, 419.52 L 4349.58, 411.02 L 4369.42, 411.02" />
      <text transform="matrix(1 0 0 1 4353.6631 417.3311)" style="font-family:'Arial'; font-size:6px;">HB4</text>
    </a>
    <a style="cursor:pointer;" ewd:figID="119" ewd:figtype="w2w" ewd:code="DB4" ewd:pin_no="3">
      <path style="fill:#FFFFFF;stroke:#000000;stroke-width:0.85;stroke-linecap:round;stroke-linejoin:round;" d="M 4479.97,479.05 L 4479.97, 470.55 L 4460.13, 470.55 L 4460.13, 479.05 L 4479.97, 479.05" />
      <text transform="matrix(1 0 0 1 4464.2139 476.8574)" style="font-family:'Arial'; font-size:6px;">DB4</text>
    </a>
    <a style="cursor:pointer;" ewd:figID="118" ewd:figtype="w2w" ewd:code="DB4" ewd:pin_no="6">
      <path style="fill:#FFFFFF;stroke:#000000;stroke-width:0.85;stroke-linecap:round;stroke-linejoin:round;" d="M 4479.97,530.08 L 4479.97, 538.58 L 4460.13, 538.58 L 4460.13, 530.08 L 4479.97, 530.08" />
      <text transform="matrix(1 0 0 1 4464.2139 536.3857)" style="font-family:'Arial'; font-size:6px;">DB4</text>
    </a>
    <a style="cursor:pointer;" ewd:figID="117" ewd:figtype="w2w" ewd:code="HA1" ewd:pin_no="12">
      <path style="fill:#FFFFFF;stroke:#000000;stroke-width:0.85;stroke-linecap:round;stroke-linejoin:round;" d="M 4650.05,411.02 L 4650.05, 419.52 L 4630.21, 419.52 L 4630.21, 411.02 L 4650.05, 411.02" />
      <text transform="matrix(1 0 0 1 4634.293 417.3311)" style="font-family:'Arial'; font-size:6px;">HA1</text>
    </a>
    <a style="cursor:pointer;" ewd:figID="116" ewd:figtype="w2w" ewd:code="HA1" ewd:pin_no="21">
      <path style="fill:#FFFFFF;stroke:#000000;stroke-width:0.85;stroke-linecap:round;stroke-linejoin:round;" d="M 4522.49,411.02 L 4522.49, 419.52 L 4502.65, 419.52 L 4502.65, 411.02 L 4522.49, 411.02" />
      <text transform="matrix(1 0 0 1 4506.7334 417.3311)" style="font-family:'Arial'; font-size:6px;">HA1</text>
    </a>
    <a style="cursor:pointer;" ewd:figID="115" ewd:figtype="w2w" ewd:code="HB4" ewd:pin_no="16">
      <path style="fill:#FFFFFF;stroke:#000000;stroke-width:0.85;stroke-linecap:round;stroke-linejoin:round;" d="M 4479.97,411.02 L 4479.97, 419.52 L 4460.13, 419.52 L 4460.13, 411.02 L 4479.97, 411.02" />
      <text transform="matrix(1 0 0 1 4464.2139 417.3311)" style="font-family:'Arial'; font-size:6px;">HB4</text>
    </a>
    <a style="cursor:pointer;" ewd:figID="114" ewd:figtype="gp" ewd:code="H1">
      <path style="fill:#FFFFFF;stroke:#000000;stroke-width:0.85;stroke-linecap:round;stroke-linejoin:round;" d="M 4686.87,691.64 L 4712.38, 691.64 L 4699.63, 708.65 L 4686.87, 691.64" />
      <text transform="matrix(1 0 0 1 4695.7969 698.5146)" style="font-family:'Arial'; font-size:6px;">H1</text>
    </a>
    <a style="cursor:pointer;" ewd:figID="113" ewd:figtype="gp" ewd:code="D3">
      <path style="fill:#FFFFFF;stroke:#000000;stroke-width:0.85;stroke-linecap:round;stroke-linejoin:round;" d="M 3921.54,691.65 L 3947.05, 691.65 L 3934.29, 708.66 L 3921.54, 691.65" />
      <text transform="matrix(1 0 0 1 3930.4668 698.5273)" style="font-family:'Arial'; font-size:6px;">D3</text>
    </a>
    <a style="cursor:pointer;" ewd:figID="112" ewd:figtype="gp" ewd:code="D3">
      <path style="fill:#FFFFFF;stroke:#000000;stroke-width:0.85;stroke-linecap:round;stroke-linejoin:round;" d="M 3555.88,691.65 L 3581.39, 691.65 L 3568.64, 708.66 L 3555.88, 691.65" />
      <text transform="matrix(1 0 0 1 3564.7988 698.5273)" style="font-family:'Arial'; font-size:6px;">D3</text>
    </a>
    <a style="cursor:pointer;" ewd:figID="111" ewd:figtype="gp" ewd:code="D1">
      <path style="fill:#FFFFFF;stroke:#000000;stroke-width:0.85;stroke-linecap:round;stroke-linejoin:round;" d="M 3504.85,691.65 L 3530.36, 691.65 L 3517.6, 708.66 L 3504.85, 691.65" />
      <text transform="matrix(1 0 0 1 3513.7744 698.5273)" style="font-family:'Arial'; font-size:6px;">D1</text>
    </a>
    <a style="cursor:pointer;" ewd:figID="110" ewd:figtype="w2w" ewd:code="IH6" ewd:pin_no="17">
      <path style="fill:#FFFFFF;stroke:#000000;stroke-width:0.85;stroke-linecap:round;stroke-linejoin:round;" d="M 2957.77,564.09 L 2957.77, 572.59 L 2937.93, 572.59 L 2937.93, 564.09 L 2957.77, 564.09" />
      <text transform="matrix(1 0 0 1 2943.1777 570.4023)" style="font-family:'Arial'; font-size:6px;">IH6</text>
    </a>
    <a style="cursor:pointer;" ewd:figID="109" ewd:figtype="w2w" ewd:code="DB3" ewd:pin_no="2">
      <path style="fill:#FFFFFF;stroke:#000000;stroke-width:0.85;stroke-linecap:round;stroke-linejoin:round;" d="M 3025.8,385.51 L 3025.8, 377.01 L 3005.96, 377.01 L 3005.96, 385.51 L 3025.8, 385.51" />
      <text transform="matrix(1 0 0 1 3010.041 383.3154)" style="font-family:'Arial'; font-size:6px;">DB3</text>
    </a>
    <a style="cursor:pointer;" ewd:figID="108" ewd:figtype="w2w" ewd:code="IH6" ewd:pin_no="16">
      <path style="fill:#FFFFFF;stroke:#000000;stroke-width:0.85;stroke-linecap:round;stroke-linejoin:round;" d="M 2957.77,283.47 L 2957.77, 274.97 L 2937.93, 274.97 L 2937.93, 283.47 L 2957.77, 283.47" />
      <text transform="matrix(1 0 0 1 2943.1777 281.2686)" style="font-family:'Arial'; font-size:6px;">IH6</text>
    </a>
    <a style="cursor:pointer;" ewd:figID="107" ewd:figtype="w2w" ewd:code="HA1" ewd:pin_no="34">
      <path style="fill:#FFFFFF;stroke:#000000;stroke-width:0.85;stroke-linecap:round;stroke-linejoin:round;" d="M 2209.42,283.47 L 2209.42, 291.97 L 2189.58, 291.97 L 2189.58, 283.47 L 2209.42, 283.47" />
      <text transform="matrix(1 0 0 1 2193.6636 289.7729)" style="font-family:'Arial'; font-size:6px;">HA1</text>
    </a>
    <a style="cursor:pointer;" ewd:figID="106" ewd:figtype="w2w" ewd:code="HB1" ewd:pin_no="13">
      <path style="fill:#FFFFFF;stroke:#000000;stroke-width:0.85;stroke-linecap:round;stroke-linejoin:round;" d="M 3025.8,206.93 L 3025.8, 215.43 L 3005.96, 215.43 L 3005.96, 206.93 L 3025.8, 206.93" />
      <text transform="matrix(1 0 0 1 3010.041 213.2373)" style="font-family:'Arial'; font-size:6px;">HB1</text>
    </a>
    <a style="cursor:pointer;" ewd:figID="105" ewd:figtype="w2w" ewd:code="HA1" ewd:pin_no="31">
      <path style="fill:#FFFFFF;stroke:#000000;stroke-width:0.85;stroke-linecap:round;stroke-linejoin:round;" d="M 2353.99,206.93 L 2353.99, 215.43 L 2334.15, 215.43 L 2334.15, 206.93 L 2353.99, 206.93" />
      <text transform="matrix(1 0 0 1 2338.23 213.2373)" style="font-family:'Arial'; font-size:6px;">HA1</text>
    </a>
    <a style="cursor:pointer;" ewd:figID="104" ewd:figtype="w2w" ewd:code="HA1" ewd:pin_no="19">
      <path style="fill:#FFFFFF;stroke:#000000;stroke-width:0.85;stroke-linecap:round;stroke-linejoin:round;" d="M 2166.9,283.47 L 2166.9, 291.97 L 2147.06, 291.97 L 2147.06, 283.47 L 2166.9, 283.47" />
      <text transform="matrix(1 0 0 1 2151.144 289.7729)" style="font-family:'Arial'; font-size:6px;">HA1</text>
    </a>
    <a style="cursor:pointer;" ewd:figID="103" ewd:figtype="w2w" ewd:code="DB5" ewd:pin_no="7">
      <path style="fill:#FFFFFF;stroke:#000000;stroke-width:0.85;stroke-linecap:round;stroke-linejoin:round;" d="M 1298.5,300.47 L 1298.5, 291.97 L 1278.66, 291.97 L 1278.66, 300.47 L 1298.5, 300.47" />
      <text transform="matrix(1 0 0 1 1282.7412 298.2749)" style="font-family:'Arial'; font-size:6px;">DB5</text>
    </a>
    <a style="cursor:pointer;" ewd:figID="102" ewd:figtype="w2w" ewd:code="HA1" ewd:pin_no="7">
      <path style="fill:#FFFFFF;stroke:#000000;stroke-width:0.85;stroke-linecap:round;stroke-linejoin:round;" d="M 1204.96,198.42 L 1204.96, 206.92 L 1185.12, 206.92 L 1185.12, 198.42 L 1204.96, 198.42" />
      <text transform="matrix(1 0 0 1 1189.1982 204.7314)" style="font-family:'Arial'; font-size:6px;">HA1</text>
    </a>
    <a style="cursor:pointer;" ewd:figID="101" ewd:figtype="w2w" ewd:code="HB1" ewd:pin_no="10">
      <path style="fill:#FFFFFF;stroke:#000000;stroke-width:0.85;stroke-linecap:round;stroke-linejoin:round;" d="M 1494.09,283.46 L 1494.09, 291.96 L 1474.25, 291.96 L 1474.25, 283.46 L 1494.09, 283.46" />
      <text transform="matrix(1 0 0 1 1478.332 289.771)" style="font-family:'Arial'; font-size:6px;">HB1</text>
    </a>
    <a style="cursor:pointer;" ewd:figID="100" ewd:figtype="w2w" ewd:code="HB1" ewd:pin_no="26">
      <path style="fill:#FFFFFF;stroke:#000000;stroke-width:0.85;stroke-linecap:round;stroke-linejoin:round;" d="M 1341.02,198.42 L 1341.02, 206.92 L 1321.18, 206.92 L 1321.18, 198.42 L 1341.02, 198.42" />
      <text transform="matrix(1 0 0 1 1325.2617 204.7314)" style="font-family:'Arial'; font-size:6px;">HB1</text>
    </a>
    <a style="cursor:pointer;" ewd:figID="99" ewd:figtype="w2w" ewd:code="HB1" ewd:pin_no="48">
      <path style="fill:#FFFFFF;stroke:#000000;stroke-width:0.85;stroke-linecap:round;stroke-linejoin:round;" d="M 1247.48,198.42 L 1247.48, 206.92 L 1227.64, 206.92 L 1227.64, 198.42 L 1247.48, 198.42" />
      <text transform="matrix(1 0 0 1 1231.7178 204.7314)" style="font-family:'Arial'; font-size:6px;">HB1</text>
    </a>
    <a style="cursor:pointer;" ewd:figID="98" ewd:figtype="gp" ewd:code="B2">
      <path style="fill:#FFFFFF;stroke:#000000;stroke-width:0.85;stroke-linecap:round;stroke-linejoin:round;" d="M 1275.82,691.65 L 1301.33, 691.65 L 1288.58, 708.66 L 1275.82, 691.65" />
      <text transform="matrix(1 0 0 1 1284.9087 698.5234)" style="font-family:'Arial'; font-size:6px;">B2</text>
    </a>
    <a style="cursor:pointer;" ewd:figID="97" ewd:figtype="w2w" ewd:code="DB4" ewd:pin_no="5">
      <path style="fill:#FFFFFF;stroke:#000000;stroke-width:0.85;stroke-linecap:round;stroke-linejoin:round;" d="M 320.29,168.66 L 320.29, 160.16 L 340.13, 160.16 L 340.13, 168.66 L 320.29, 168.66" />
      <text transform="matrix(1 0 0 1 324.377 166.4639)" style="font-family:'Arial'; font-size:6px;">DB4</text>
    </a>
    <a style="cursor:pointer;" ewd:figID="96" ewd:figtype="w2w" ewd:code="DB5" ewd:pin_no="2">
      <path style="fill:#FFFFFF;stroke:#000000;stroke-width:0.85;stroke-linecap:round;stroke-linejoin:round;" d="M 673.21,385.51 L 673.21, 377.01 L 653.37, 377.01 L 653.37, 385.51 L 673.21, 385.51" />
      <text transform="matrix(1 0 0 1 657.4492 383.3154)" style="font-family:'Arial'; font-size:6px;">DB5</text>
    </a>
    <a style="cursor:pointer;" ewd:figID="95" ewd:figtype="w2w" ewd:code="HA1" ewd:pin_no="16">
      <path style="fill:#FFFFFF;stroke:#000000;stroke-width:0.85;stroke-linecap:round;stroke-linejoin:round;" d="M 766.75,164.41 L 766.75, 172.91 L 746.91, 172.91 L 746.91, 164.41 L 766.75, 164.41" />
      <text transform="matrix(1 0 0 1 750.9922 170.7168)" style="font-family:'Arial'; font-size:6px;">HA1</text>
    </a>
    <a style="cursor:pointer;" ewd:figID="94" ewd:figtype="gp" ewd:code="B4">
      <path style="fill:#FFFFFF;stroke:#000000;stroke-width:0.85;stroke-linecap:round;stroke-linejoin:round;" d="M 582.5,691.65 L 608.01, 691.65 L 595.26, 708.66 L 582.5, 691.65" />
      <text transform="matrix(1 0 0 1 591.5845 698.5234)" style="font-family:'Arial'; font-size:6px;">B4</text>
    </a>
    <a style="cursor:pointer;" ewd:figID="93" ewd:figtype="gp" ewd:code="H1">
      <path style="fill:#FFFFFF;stroke:#000000;stroke-width:0.85;stroke-linecap:round;stroke-linejoin:round;" d="M 301.87,691.65 L 327.38, 691.65 L 314.63, 708.66 L 301.87, 691.65" />
      <text transform="matrix(1 0 0 1 310.7891 698.5234)" style="font-family:'Arial'; font-size:6px;">H1</text>
    </a>
    <a style="cursor:pointer;" ewd:figID="92" ewd:figtype="w2w" ewd:code="HB1" ewd:pin_no="31">
      <path style="fill:#FFFFFF;stroke:#000000;stroke-width:0.85;stroke-linecap:round;stroke-linejoin:round;" d="M 3272.41,462.05 L 3272.41, 453.54 L 3252.57, 453.54 L 3252.57, 462.05 L 3272.41, 462.05" />
      <text transform="matrix(1 0 0 1 3256.6572 459.8516)" style="font-family:'Arial'; font-size:6px;">HB1</text>
    </a>
    <a style="cursor:pointer;" ewd:figID="91" ewd:figtype="w2w" ewd:code="HB1" ewd:pin_no="15">
      <path style="fill:#FFFFFF;stroke:#000000;stroke-width:0.85;stroke-linecap:round;stroke-linejoin:round;" d="M 3229.89,462.05 L 3229.89, 453.54 L 3210.05, 453.54 L 3210.05, 462.05 L 3229.89, 462.05" />
      <text transform="matrix(1 0 0 1 3214.1377 459.8516)" style="font-family:'Arial'; font-size:6px;">HB1</text>
    </a>
    <a style="cursor:pointer;" ewd:figID="90" ewd:figtype="w2w" ewd:code="HA1" ewd:pin_no="10">
      <path style="fill:#FFFFFF;stroke:#000000;stroke-width:0.85;stroke-linecap:round;stroke-linejoin:round;" d="M 2277.45,283.47 L 2277.45, 291.97 L 2257.61, 291.97 L 2257.61, 283.47 L 2277.45, 283.47" />
      <text transform="matrix(1 0 0 1 2261.6948 289.7725)" style="font-family:'Arial'; font-size:6px;">HA1</text>
    </a>
    <a style="cursor:pointer;" ewd:figID="89" ewd:figtype="gp" ewd:code="H1">
      <path style="fill:#FFFFFF;stroke:#000000;stroke-width:0.85;stroke-linecap:round;stroke-linejoin:round;" d="M 2799.03,691.65 L 2824.54, 691.65 L 2811.78, 708.66 L 2799.03, 691.65" />
      <text transform="matrix(1 0 0 1 2807.9482 698.5234)" style="font-family:'Arial'; font-size:6px;">H1</text>
    </a>
    <a style="cursor:pointer;" ewd:figID="88" ewd:figtype="gp" ewd:code="H1">
      <path style="fill:#FFFFFF;stroke:#000000;stroke-width:0.85;stroke-linecap:round;stroke-linejoin:round;" d="M 2569.42,691.65 L 2594.93, 691.65 L 2582.18, 708.66 L 2569.42, 691.65" />
      <text transform="matrix(1 0 0 1 2578.3428 698.5234)" style="font-family:'Arial'; font-size:6px;">H1</text>
    </a>
    <a style="cursor:pointer;" ewd:figID="87" ewd:figtype="w2w" ewd:code="HB2" ewd:pin_no="5">
      <path style="fill:#FFFFFF;stroke:#000000;stroke-width:0.85;stroke-linecap:round;stroke-linejoin:round;" d="M 2012.83,598.11 L 2012.83, 589.61 L 1992.99, 589.61 L 1992.99, 598.11 L 2012.83, 598.11" />
      <text transform="matrix(1 0 0 1 1997.0723 595.9131)" style="font-family:'Arial'; font-size:6px;">HB2</text>
    </a>
    <a style="cursor:pointer;" ewd:figID="86" ewd:figtype="w2w" ewd:code="HB1" ewd:pin_no="11">
      <path style="fill:#FFFFFF;stroke:#000000;stroke-width:0.85;stroke-linecap:round;stroke-linejoin:round;" d="M 2012.83,402.52 L 2012.83, 411.02 L 1992.99, 411.02 L 1992.99, 402.52 L 2012.83, 402.52" />
      <text transform="matrix(1 0 0 1 1997.0723 408.8271)" style="font-family:'Arial'; font-size:6px;">HB1</text>
    </a>
    <a style="cursor:pointer;" ewd:figID="85" ewd:figtype="w2w" ewd:code="DB5" ewd:pin_no="3">
      <path style="fill:#FFFFFF;stroke:#000000;stroke-width:0.85;stroke-linecap:round;stroke-linejoin:round;" d="M 1298.5,487.56 L 1298.5, 496.06 L 1278.66, 496.06 L 1278.66, 487.56 L 1298.5, 487.56" />
      <text transform="matrix(1 0 0 1 1282.7412 493.8662)" style="font-family:'Arial'; font-size:6px;">DB5</text>
    </a>
    <a style="cursor:pointer;" ewd:figID="84" ewd:figtype="w2w" ewd:code="DB5" ewd:pin_no="7">
      <path style="fill:#FFFFFF;stroke:#000000;stroke-width:0.85;stroke-linecap:round;stroke-linejoin:round;" d="M 1494.09,351.5 L 1494.09, 343 L 1474.25, 343 L 1474.25, 351.5 L 1494.09, 351.5" />
      <text transform="matrix(1 0 0 1 1478.332 349.2988)" style="font-family:'Arial'; font-size:6px;">DB5</text>
    </a>
    <a style="cursor:pointer;" ewd:figID="83" ewd:figtype="w2w" ewd:code="DB5" ewd:pin_no="3">
      <path style="fill:#FFFFFF;stroke:#000000;stroke-width:0.85;stroke-linecap:round;stroke-linejoin:round;" d="M 1341.02,300.47 L 1341.02, 291.97 L 1321.18, 291.97 L 1321.18, 300.47 L 1341.02, 300.47" />
      <text transform="matrix(1 0 0 1 1325.2617 298.2749)" style="font-family:'Arial'; font-size:6px;">DB5</text>
    </a>
    
    
    
    
  </g>
</svg>