﻿<?xml version="1.0" encoding="utf-8"?>
<!-- Generator: Adobe Illustrator 10.0, SVG Export Plug-In . SVG Version: 3.0.0 Build 77)  -->
<!DOCTYPE svg PUBLIC "-//W3C//DTD SVG 1.0//EN" "http://www.w3.org/TR/2001/REC-SVG-20010904/DTD/svg10.dtd"[
   <!ENTITY ns_flows "http://ns.adobe.com/Flows/1.0/">
   <!ENTITY ns_svg "http://www.w3.org/2000/svg">
   <!ENTITY ns_xlink "http://www.w3.org/1999/xlink">
   <!ENTITY st0 "font-size:7px;font-family:'MS-PGothic';adobe-font-script:japanese;">
   <!ENTITY st1 "font-size:6px;font-family:'ArialMT';">
   <!ENTITY st2 "fill:#FFFFFF;stroke:#000000; stroke-width:1.41;stroke-linecap:round;stroke-linejoin:round;">
   <!ENTITY st3 "fill:#FFFFCC;stroke:#FFFFCC; stroke-width:0.1;stroke-linecap:round;stroke-linejoin:round;">
   <!ENTITY st4 "fill:#CCCCCC;stroke:#CCCCCC; stroke-width:0.1;stroke-linecap:round;stroke-linejoin:round;">
   <!ENTITY st5 "fill:#CCECF4;stroke:#000000; stroke-width:1.133;stroke-linecap:round;stroke-linejoin:round;">
   <!ENTITY st6 "fill:none;stroke-linecap:butt; stroke-linejoin:round;">
   <!ENTITY st7 "fill:none;stroke:#000000;stroke-linecap:round;stroke-linejoin:round;">
   <!ENTITY st8 "enable-background:new;">
   <!ENTITY st9 "fill:#000000;stroke:#000000; stroke-linecap:round;stroke-linejoin:round;">
   <!ENTITY st10 "font-size:9px;font-family:'ArialMT';">
   <!ENTITY st11 "font-size:9px;font-family:'Svg Symbol';">
   <!ENTITY st12 "font-size:6px;font-family:'Svg Symbol';">
   <!ENTITY st13 "fill:none;stroke:#ff0000;stroke-linecap:round;stroke-linejoin:round;">
   <!ENTITY st14 "fill:#FFFF00;stroke:#FFFF00; stroke-width:0.1;stroke-linecap:round;stroke-linejoin:round;">
   <!ENTITY st15 "font-size:6px;font-family:'MS-PGothic';adobe-font-script:japanese;">
   <!ENTITY st16 "1.00 0.00 0.00 1.00">
   <!ENTITY st17 "0.00 -1.00 1.00 0.00">
   <!ENTITY st18 "font-size:6px;font-family:'Arial';">
   <!ENTITY st19 "font-size:9px;font-family:'Arial';">
   <!ENTITY st20 "font-size:6px;font-family:'MS-PGothic','MS PGothic';adobe-font-script:japanese;">
   <!ENTITY st21 "font-size:7px;font-family:'MS-PGothic','MS PGothic';adobe-font-script:japanese;">
   <!ATTLIST svg
       xmlns:ewd CDATA #FIXED "http://shcl.co.jp/ewd"
       xmlns:a CDATA #FIXED "http://ns.adobe.com/AdobeSVGViewerExtensions/3.0/"
       ewd:ver CDATA #IMPLIED >
   <!ATTLIST a
       ewd:lineID CDATA #IMPLIED
       ewd:groupID CDATA #IMPLIED
       ewd:figtype CDATA #IMPLIED
       ewd:code CDATA #IMPLIED
       ewd:figID CDATA #IMPLIED
       ewd:pinNo CDATA #IMPLIED
       ewd:comment CDATA #IMPLIED >
   <!ATTLIST g
       ewd:lineID CDATA #IMPLIED
       ewd:groupID CDATA #IMPLIED
       ewd:figtype CDATA #IMPLIED
       ewd:code CDATA #IMPLIED
       ewd:figID CDATA #IMPLIED
       ewd:pinNo CDATA #IMPLIED
       ewd:comment CDATA #IMPLIED >
   <!ATTLIST text
       ewd:textID CDATA #IMPLIED >
   <!ATTLIST title
       ewd:textID CDATA #IMPLIED >
]>
<svg xmlns="http://www.w3.org/2000/svg" xmlns:xlink="http://www.w3.org/1999/xlink" width="1049.77" height="720.99" viewBox="0 0 1049.77 720.99" xml:space="preserve" xmlns:ewd="http://shcl.co.jp/ewd" ewd:ver="2.0">
  
  <defs>
    <font horiz-adv-x="1229">
      <font-face font-family="Svg Symbol" units-per-em="2048" panose-1="5 5 1 2 1 7 6 2 5 7" ascent="2059" descent="450" alphabetic="0" />
      <missing-glyph d="M 103,0 l 0,1280 1024,0 0,-1280 -1024,0 z m 32,32 l 960,0 0,1216 -960,0 0,-1216 z" />
      <glyph d4p1:unicode="" horiz-adv-x="1573" d="M 1517,0 l -567,0 24,279 q 141,59 207.5,168 66.5,109 66.5,306 0,272 -132.5,417.5 -132.5,145.5 -333.5,145.5 -194,0 -328,-147.5 -134,-147.5 -134,-401.5 0,-200 68.5,-319 68.5,-119 206.5,-169 l 25,-279 -564,0 0,279 35,0 q 3,-61 32,-83 45,-35 137,-35 l 270,0 0,70 q -210,61 -324.5,209 -114.5,148 -114.5,349 0,252 186.5,425 186.5,173 504.5,173 195,0 358.5,-73.5 163.5,-73.5 252,-214.5 88.5,-141 88.5,-310 0,-207 -121.5,-360.5 -121.5,-153.5 -317.5,-197.5 l -8,-70 275,0 q 92,0 128,28 36,28 42,90 l 38,0 0,-279 z" xmlns:d4p1="def-glyph-attr-unicode" />
    </font>
  </defs>
  
<g ewd:figtype="rb" ewd:code="FUSE145" ewd:figID="13">
      <path style="fill:none;stroke:#000000;stroke-width:0.85;" d="M 773.81,102.04 L 773.81, 87.87" />
      <path style="fill:none;stroke:#000000;stroke-width:0.85;" d="M 773.81,87.87 L 773.81, 80.78" />
      <path style="fill:none;stroke:#000000;stroke-width:1.417;" d="M 774.81,78.36 C 774.81 78.36 784.31 72.23 773.93 63.06 C 769.75 59.37 772.8 54.86 772.8 54.86" />
      <path style="fill:none;stroke:#000000;stroke-width:1.417;" d="M 772.81,54.85 C 772.81 54.85 763.31 60.98 773.69 70.15 C 777.87 73.84 774.82 78.36 774.82 78.36" />
      <path style="fill:none;stroke:#000000;stroke-width:0.85;stroke-linecap:round;stroke-linejoin:round;" d="M 773.81,80.78 C 774.59 80.78 775.23 80.15 775.23 79.36 C 775.2299609375 78.5700012207031 774.6 77.94 773.81 77.94 C 773.019995117187 77.9400048828125 772.39 78.57 772.39 79.36 C 772.390029296875 80.1500012207031 773.03 80.78 773.81 80.78" />
      <path style="fill:none;stroke:#000000;stroke-width:0.85;stroke-linecap:round;stroke-linejoin:round;" d="M 773.81,55.27 C 774.59 55.27 775.23 54.64 775.23 53.85 C 775.23 53.07 774.6 52.43 773.81 52.43 C 773.019995117187 52.4300006103516 772.39 53.06 772.39 53.85 C 772.39 54.63 773.03 55.27 773.81 55.27" />
      <path style="fill:none;stroke:#000000;stroke-width:1.417;" d="M 772.81,54.85 C 772.81 54.85 766.74 59.53 773.81 66.6 C 780.88 73.67 774.81 78.35 774.81 78.35" />
      <path style="fill:none;stroke:#000000;stroke-width:1.417;stroke-linecap:round;stroke-linejoin:round;" d="M 786.57,87.87 L 786.57, 45.35 L 761.06, 45.35 L 761.06, 87.87 L 786.57, 87.87" />
      <path d="M 773.81,102.04 L 776.64, 99.21 L 776.64, 96.37 L 773.81, 99.21 L 770.98, 96.37 L 770.98, 99.21 L 773.81, 102.04" style="stroke-linecap:round;stroke-linejoin:round;" />
      <path style="fill:none;stroke:#000000;stroke-width:0.85;stroke-linecap:round;stroke-linejoin:round;" d="M 778.06,113.38 C 781.19 113.38 783.73 110.84 783.73 107.71 C 783.73 104.58 781.19 102.04 778.06 102.04 L 769.56, 102.04 C 766.43 102.04 763.89 104.58 763.89 107.71 C 763.89 110.84 766.43 113.38 769.56 113.38 L 778.06, 113.38" />
      <text transform="matrix(1 0 0 1 765.5137 95.2412)" style="font-family:'Arial'; font-size:6px;">2</text>
      <text transform="matrix(1 0 0 1 765.9785 41.3818)" style="font-family:'Arial'; font-size:6px;">(BAT)</text>
      <text transform="matrix(1 0 0 1 789.4014 64.7686)" style="font-family:'Arial'; font-size:6px;">40A<tspan x="0" dy="1em">HEAD</tspan></text>
      <text transform="matrix(1 0 0 1 770.4736 109.4136)" style="font-family:'Arial'; font-size:6px;">11</text>
    </g><g ewd:figtype="jb" ewd:code="12" ewd:figID="1">
      <path d="M 892.87,106.29 C 893.65 106.29 894.29 105.66 894.29 104.87 C 894.289956054688 104.080005493164 893.66 103.45 892.87 103.45 C 892.079990234375 103.449993896484 891.45 104.08 891.45 104.87 C 891.450024414062 105.660005493164 892.08 106.29 892.87 106.29" style="stroke-linecap:round;stroke-linejoin:round;" />
      <path d="M 977.9,106.29 C 978.6801 106.29 979.32 105.66 979.32 104.87 C 979.320014648437 104.080005493164 978.69 103.45 977.9 103.45 C 977.12 103.45 976.48 104.08 976.48 104.87 C 976.4799609375 105.660005493164 977.12 106.29 977.9 106.29" style="stroke-linecap:round;stroke-linejoin:round;" />
      <path style="fill:none;stroke:#000000;stroke-width:0.85;" d="M 972.23,172.9 C 972.23 172.9 975.05 176.15 977.9 172.9 C 980.750048828125 169.649987792969 983.57 172.9 983.57 172.9" />
      <path style="fill:none;stroke:#000000;stroke-width:0.85;" d="M 887.2,172.9 C 887.2 172.9 890.02 176.15 892.87 172.9 C 895.72 169.65 898.54 172.9 898.54 172.9" />
      <path style="fill:none;stroke:#000000;stroke-width:0.85;" d="M 977.9,104.87 L 1003.41, 104.87 L 1003.41, 121.88" />
      <path style="fill:none;stroke:#000000;stroke-width:0.85;" d="M 1003.42,121.88 L 1003.42, 129.39" />
      <path style="fill:none;stroke:#000000;stroke-width:0.85;" d="M 1003.42,148.38 L 1003.42, 155.89" />
      <path style="fill:none;stroke:#000000;stroke-width:0.85;" d="M 1003.42,155.9 L 1003.42, 187.08" />
      <path style="fill:none;stroke:#000000;stroke-width:0.85;" d="M 977.9,80.78 L 977.9, 87.87" />
      <path style="fill:none;stroke:#000000;stroke-width:0.85;" d="M 977.9,87.87 L 977.9, 121.89" />
      <path style="fill:none;stroke:#000000;stroke-width:0.85;" d="M 977.9,121.88 L 977.9, 126.13" />
      <path style="fill:none;stroke:#000000;stroke-width:0.85;" d="M 977.9,151.64 L 977.9, 155.89" />
      <path style="fill:none;stroke:#000000;stroke-width:0.85;" d="M 977.9,155.9 L 977.9, 172.91" />
      <path style="fill:none;stroke:#000000;stroke-width:0.85;" d="M 892.87,104.87 L 918.38, 104.87 L 918.38, 121.88" />
      <path style="fill:none;stroke:#000000;stroke-width:0.85;" d="M 918.38,121.88 L 918.38, 129.39" />
      <path style="fill:none;stroke:#000000;stroke-width:0.85;" d="M 918.38,148.38 L 918.38, 155.89" />
      <path style="fill:none;stroke:#000000;stroke-width:0.85;" d="M 918.38,155.9 L 918.38, 187.08" />
      <path style="fill:none;stroke:#000000;stroke-width:0.85;" d="M 892.87,80.78 L 892.87, 87.87" />
      <path style="fill:none;stroke:#000000;stroke-width:0.85;" d="M 892.87,87.87 L 892.87, 121.89" />
      <path style="fill:none;stroke:#000000;stroke-width:0.85;" d="M 892.87,121.88 L 892.87, 126.13" />
      <path style="fill:none;stroke:#000000;stroke-width:0.85;" d="M 892.87,151.64 L 892.87, 155.89" />
      <path style="fill:none;stroke:#000000;stroke-width:0.85;" d="M 892.87,155.9 L 892.87, 172.91" />
      <path d="M 1003.41,187.08 L 1006.24, 184.25 L 1006.24, 181.42 L 1003.41, 184.25 L 1000.58, 181.42 L 1000.58, 184.25 L 1003.41, 187.08" style="stroke-linecap:round;stroke-linejoin:round;" />
      <path style="fill:none;stroke:#000000;stroke-width:0.85;stroke-linecap:round;stroke-linejoin:round;" d="M 1007.67,198.42 C 1010.8 198.42 1013.34 195.88 1013.34 192.75 C 1013.34 189.62 1010.8 187.08 1007.67 187.08 L 999.17, 187.08 C 996.04 187.08 993.5 189.62 993.5 192.75 C 993.5 195.88 996.04 198.42 999.17 198.42 L 1007.67, 198.42" />
      <path style="fill:none;stroke:#000000;stroke-width:0.85;stroke-linecap:round;stroke-linejoin:round;" d="M 977.9,151.64 C 977.12 151.64 976.48 151.01 976.48 150.22 C 976.48 149.44 977.11 148.8 977.9 148.8 C 978.690048828125 148.800006103516 979.32 149.43 979.32 150.22 C 979.32 151.01 978.68 151.64 977.9 151.64" />
      <path style="fill:none;stroke:#000000;stroke-width:1.417;" d="M 977.54,148.86 L 972.24, 126.13" />
      <path style="fill:none;stroke:#000000;stroke-width:0.85;stroke-linecap:round;stroke-linejoin:round;" d="M 977.9,128.97 C 977.12 128.97 976.48 128.34 976.48 127.55 C 976.48 126.77 977.11 126.13 977.9 126.13 C 978.690048828125 126.129994506836 979.32 126.76 979.32 127.55 C 979.32 128.33 978.68 128.97 977.9 128.97" />
      <path style="fill:none;stroke:#000000;stroke-width:0.85;stroke-linecap:round;" d="M 1000.27,141.7 C 1001.05 140.84 1002.17 140.3 1003.42 140.3 C 1005.77 140.3 1007.67 142.2 1007.67 144.55 C 1007.67 146.9 1005.77 148.8 1003.42 148.8" />
      <path style="fill:none;stroke:#000000;stroke-width:0.85;stroke-linecap:round;" d="M 1000.21,141.68 C 1000.99 142.57 1002.14 143.14 1003.42 143.14 C 1005.77 143.14 1007.67 141.24 1007.67 138.89 C 1007.67 136.54 1005.77 134.64 1003.42 134.64 C 1002.14 134.64 1001 135.2 1000.22 136.09" />
      <path style="fill:none;stroke:#000000;stroke-width:0.85;stroke-linecap:round;" d="M 1000.23,136.04 C 1001.01 136.92 1002.15 137.47 1003.41 137.47 C 1005.76 137.47 1007.66 135.57 1007.66 133.22 C 1007.66 130.87 1005.76 128.97 1003.41 128.97" />
      <path style="fill:none;stroke:#000000;stroke-width:1.417;stroke-linecap:round;stroke-linejoin:round;" d="M 1011.92,155.9 L 1011.92, 121.88 L 969.4, 121.88 L 969.4, 155.9 L 1011.92, 155.9" />
      <path style="fill:none;stroke:#000000;stroke-width:0.85;stroke-linecap:round;stroke-linejoin:round;" d="M 977.9,80.78 C 978.6801 80.78 979.32 80.15 979.32 79.36 C 979.320014648437 78.5700012207031 978.69 77.94 977.9 77.94 C 977.110048828125 77.9400048828125 976.48 78.57 976.48 79.36 C 976.4799609375 80.1500012207031 977.12 80.78 977.9 80.78" />
      <path style="fill:none;stroke:#000000;stroke-width:0.85;stroke-linecap:round;stroke-linejoin:round;" d="M 977.9,55.27 C 978.6801 55.27 979.32 54.64 979.32 53.85 C 979.32 53.07 978.69 52.43 977.9 52.43 C 977.110048828125 52.4300006103516 976.48 53.06 976.48 53.85 C 976.49 54.63 977.12 55.27 977.9 55.27" />
      <path style="fill:none;stroke:#000000;stroke-width:1.417;" d="M 976.9,54.85 C 976.9 54.85 970.83 59.53 977.9 66.6 C 984.970048828125 73.6699969482422 978.9 78.35 978.9 78.35" />
      <path style="fill:none;stroke:#000000;stroke-width:1.417;stroke-linecap:round;stroke-linejoin:round;" d="M 990.66,87.87 L 990.66, 45.35 L 965.15, 45.35 L 965.15, 87.87 L 990.66, 87.87" />
      <path d="M 918.38,187.08 L 921.21, 184.25 L 921.21, 181.42 L 918.38, 184.25 L 915.54, 181.42 L 915.54, 184.25 L 918.38, 187.08" style="stroke-linecap:round;stroke-linejoin:round;" />
      <path style="fill:none;stroke:#000000;stroke-width:0.85;stroke-linecap:round;stroke-linejoin:round;" d="M 922.63,198.42 C 925.76 198.42 928.3 195.88 928.3 192.75 C 928.3 189.62 925.76 187.08 922.63 187.08 L 914.13, 187.08 C 911 187.08 908.46 189.62 908.46 192.75 C 908.46 195.88 911 198.42 914.13 198.42 L 922.63, 198.42" />
      <path style="fill:none;stroke:#000000;stroke-width:0.85;stroke-linecap:round;stroke-linejoin:round;" d="M 892.86,151.64 C 892.08 151.64 891.44 151.01 891.44 150.22 C 891.44 149.44 892.08 148.8 892.86 148.8 C 893.64 148.8 894.28 149.43 894.28 150.22 C 894.28 151.01 893.65 151.64 892.86 151.64" />
      <path style="fill:none;stroke:#000000;stroke-width:1.417;" d="M 892.5,148.86 L 887.2, 126.13" />
      <path style="fill:none;stroke:#000000;stroke-width:0.85;stroke-linecap:round;stroke-linejoin:round;" d="M 892.86,128.97 C 892.08 128.97 891.44 128.34 891.44 127.55 C 891.44 126.77 892.08 126.13 892.86 126.13 C 893.64 126.13 894.28 126.76 894.28 127.55 C 894.28 128.33 893.65 128.97 892.86 128.97" />
      <path style="fill:none;stroke:#000000;stroke-width:0.85;stroke-linecap:round;" d="M 915.23,141.7 C 916.01 140.84 917.13 140.3 918.38 140.3 C 920.73 140.3 922.63 142.2 922.63 144.55 C 922.63 146.9 920.73 148.8 918.38 148.8" />
      <path style="fill:none;stroke:#000000;stroke-width:0.85;stroke-linecap:round;" d="M 915.17,141.68 C 915.95 142.57 917.1 143.14 918.37 143.14 C 920.72 143.14 922.62 141.24 922.62 138.89 C 922.62 136.54 920.72 134.64 918.37 134.64 C 917.09 134.64 915.95 135.2 915.17 136.09" />
      <path style="fill:none;stroke:#000000;stroke-width:0.85;stroke-linecap:round;" d="M 915.2,136.04 C 915.98 136.92 917.12 137.47 918.38 137.47 C 920.73 137.47 922.63 135.57 922.63 133.22 C 922.63 130.87 920.73 128.97 918.38 128.97" />
      <path style="fill:none;stroke:#000000;stroke-width:1.417;stroke-linecap:round;stroke-linejoin:round;" d="M 926.88,155.9 L 926.88, 121.88 L 884.36, 121.88 L 884.36, 155.9 L 926.88, 155.9" />
      <path style="fill:none;stroke:#000000;stroke-width:0.85;stroke-linecap:round;stroke-linejoin:round;" d="M 892.87,80.78 C 893.65 80.78 894.29 80.15 894.29 79.36 C 894.289956054688 78.5700012207031 893.65 77.94 892.87 77.94 C 892.09 77.94 891.45 78.57 891.45 79.36 C 891.450024414062 80.1500012207031 892.08 80.78 892.87 80.78" />
      <path style="fill:none;stroke:#000000;stroke-width:0.85;stroke-linecap:round;stroke-linejoin:round;" d="M 892.87,55.27 C 893.65 55.27 894.29 54.64 894.29 53.85 C 894.29 53.07 893.65 52.43 892.87 52.43 C 892.09 52.43 891.45 53.06 891.45 53.85 C 891.45 54.63 892.08 55.27 892.87 55.27" />
      <path style="fill:none;stroke:#000000;stroke-width:1.417;" d="M 891.86,54.85 C 891.86 54.85 885.79 59.53 892.86 66.6 C 899.929970703125 73.6699969482422 893.86 78.35 893.86 78.35" />
      <path style="fill:none;stroke:#000000;stroke-width:1.417;stroke-linecap:round;stroke-linejoin:round;" d="M 905.62,87.87 L 905.62, 45.35 L 880.11, 45.35 L 880.11, 87.87 L 905.62, 87.87" />
      <text transform="matrix(1 0 0 1 997.9111 194.4526)" style="font-family:'Arial'; font-size:6px;">12D</text>
      <text transform="matrix(1 0 0 1 988.7393 194.4526)" style="font-family:'Arial'; font-size:6px;">4</text>
      <text transform="matrix(1 0 0 1 1014.7539 133.5073)" style="font-family:'Arial'; font-size:6px;" ewd:textID="8">HD-LP <tspan x="0" dy="1em">Relay </tspan><tspan x="0" dy="1em">NO.1</tspan></text>
      <text transform="matrix(1 0 0 1 969.6064 95.2412)" style="font-family:'Arial'; font-size:6px;">2</text>
      <text transform="matrix(1 0 0 1 970.0703 41.3818)" style="font-family:'Arial'; font-size:6px;">(BAT)</text>
      <text transform="matrix(1 0 0 1 993.4941 64.7686)" style="font-family:'Arial'; font-size:6px;">10A<tspan x="0" dy="1em">H-LP RH-LO</tspan></text>
      <text transform="matrix(1 0 0 1 913.0391 194.4526)" style="font-family:'Arial'; font-size:6px;">12B</text>
      <text transform="matrix(1 0 0 1 900.3652 194.4526)" style="font-family:'Arial'; font-size:6px;">10</text>
      <text transform="matrix(1 0 0 1 929.7158 133.5073)" style="font-family:'Arial'; font-size:6px;" ewd:textID="9">HD-LP <tspan x="0" dy="1em">Relay </tspan><tspan x="0" dy="1em">NO.2</tspan></text>
      <text transform="matrix(1 0 0 1 884.5674 95.2412)" style="font-family:'Arial'; font-size:6px;">2</text>
      <text transform="matrix(1 0 0 1 885.0332 41.3818)" style="font-family:'Arial'; font-size:6px;">(BAT)</text>
      <text transform="matrix(1 0 0 1 908.4561 64.7686)" style="font-family:'Arial'; font-size:6px;">10A<tspan x="0" dy="1em">H-LP LH-LO</tspan></text>
    </g><g ewd:figtype="rb" ewd:code="12" ewd:figID="14">
      <path style="fill:none;stroke:#000000;stroke-width:0.85;" d="M 824.83,255.11 L 824.83, 232.43" />
      <path style="fill:none;stroke:#000000;stroke-width:0.85;" d="M 824.83,232.43 L 824.83, 224.92" />
      <path style="fill:none;stroke:#000000;stroke-width:0.85;" d="M 824.83,205.93 L 824.83, 198.42" />
      <path style="fill:none;stroke:#000000;stroke-width:0.85;" d="M 824.83,198.42 L 824.83, 175.74" />
      <path style="fill:none;stroke:#000000;stroke-width:0.85;" d="M 799.32,175.74 L 799.32, 198.42" />
      <path style="fill:none;stroke:#000000;stroke-width:0.85;" d="M 799.32,198.42 L 799.32, 202.67" />
      <path style="fill:none;stroke:#000000;stroke-width:0.85;" d="M 799.32,228.18 L 799.32, 232.43" />
      <path style="fill:none;stroke:#000000;stroke-width:0.85;" d="M 799.32,232.43 L 799.32, 255.11" />
      <path style="fill:none;stroke:#000000;stroke-width:0.85;stroke-linecap:round;stroke-linejoin:round;" d="M 799.32,228.18 C 798.54 228.18 797.9 227.55 797.9 226.76 C 797.900048828125 225.969989013672 798.53 225.34 799.32 225.34 C 800.1 225.34 800.74 225.97 800.74 226.76 C 800.73998046875 227.549989013672 800.1 228.18 799.32 228.18" />
      <path style="fill:none;stroke:#000000;stroke-width:1.417;" d="M 798.95,225.39 L 793.65, 202.66" />
      <path style="fill:none;stroke:#000000;stroke-width:0.85;stroke-linecap:round;stroke-linejoin:round;" d="M 799.32,205.5 C 798.54 205.5 797.9 204.87 797.9 204.08 C 797.900048828125 203.290003662109 798.53 202.66 799.32 202.66 C 800.1 202.66 800.74 203.29 800.74 204.08 C 800.73998046875 204.870003662109 800.1 205.5 799.32 205.5" />
      <path style="fill:none;stroke:#000000;stroke-width:0.85;stroke-linecap:round;" d="M 821.68,218.24 C 822.46 217.38 823.58 216.84 824.83 216.84 C 827.18 216.84 829.08 218.74 829.08 221.09 C 829.080034179687 223.439992675781 827.18 225.34 824.83 225.34" />
      <path style="fill:none;stroke:#000000;stroke-width:0.85;stroke-linecap:round;" d="M 821.63,218.22 C 822.41 219.11 823.56 219.68 824.83 219.68 C 827.18 219.68 829.08 217.78 829.08 215.43 C 829.08 213.08 827.18 211.18 824.83 211.18 C 823.55 211.18 822.41 211.74 821.63 212.63" />
      <path style="fill:none;stroke:#000000;stroke-width:0.85;stroke-linecap:round;" d="M 821.65,212.57 C 822.4301 213.45 823.57 214 824.83 214 C 827.18 214 829.08 212.1 829.08 209.75 C 829.080034179687 207.4 827.18 205.5 824.83 205.5" />
      <path style="fill:none;stroke:#000000;stroke-width:1.417;stroke-linecap:round;stroke-linejoin:round;" d="M 833.34,232.43 L 833.34, 198.41 L 790.82, 198.41 L 790.82, 232.43 L 833.34, 232.43" />
      <path d="M 824.83,255.11 L 827.67, 252.28 L 827.67, 249.45 L 824.83, 252.28 L 822, 249.45 L 822, 252.28 L 824.83, 255.11" style="stroke-linecap:round;stroke-linejoin:round;" />
      <path style="fill:none;stroke:#000000;stroke-width:0.85;stroke-linecap:round;stroke-linejoin:round;" d="M 829.08,266.45 C 832.21 266.45 834.75 263.91 834.75 260.78 C 834.75 257.65 832.21 255.11 829.08 255.11 L 820.58, 255.11 C 817.45 255.11 814.91 257.65 814.91 260.78 C 814.91 263.91 817.45 266.45 820.58 266.45 L 829.08, 266.45" />
      <path d="M 799.32,255.11 L 802.15, 252.28 L 802.15, 249.45 L 799.32, 252.28 L 796.49, 249.45 L 796.49, 252.28 L 799.32, 255.11" style="stroke-linecap:round;stroke-linejoin:round;" />
      <path style="fill:none;stroke:#000000;stroke-width:0.85;stroke-linecap:round;stroke-linejoin:round;" d="M 803.57,266.45 C 806.7 266.45 809.24 263.91 809.24 260.78 C 809.24 257.65 806.7 255.11 803.57 255.11 L 795.07, 255.11 C 791.94 255.11 789.4 257.65 789.4 260.78 C 789.4 263.91 791.94 266.45 795.07 266.45 L 803.57, 266.45" />
      <path d="M 799.32,175.74 L 802.15, 178.57 L 802.15, 181.4 L 799.32, 178.57 L 796.49, 181.4 L 796.49, 178.57 L 799.32, 175.74" style="stroke-linecap:round;stroke-linejoin:round;" />
      <path style="fill:none;stroke:#000000;stroke-width:0.85;stroke-linecap:round;stroke-linejoin:round;" d="M 803.57,175.74 C 806.7 175.74 809.24 173.2 809.24 170.07 C 809.24 166.94 806.7 164.4 803.57 164.4 L 795.07, 164.4 C 791.94 164.4 789.4 166.94 789.4 170.07 C 789.4 173.2 791.94 175.74 795.07 175.74 L 803.57, 175.74" />
      <path d="M 824.83,175.74 L 827.67, 178.57 L 827.67, 181.4 L 824.83, 178.57 L 822, 181.4 L 822, 178.57 L 824.83, 175.74" style="stroke-linecap:round;stroke-linejoin:round;" />
      <path style="fill:none;stroke:#000000;stroke-width:0.85;stroke-linecap:round;stroke-linejoin:round;" d="M 829.08,175.74 C 832.21 175.74 834.75 173.2 834.75 170.07 C 834.75 166.94 832.21 164.4 829.08 164.4 L 820.58, 164.4 C 817.45 164.4 814.91 166.94 814.91 170.07 C 814.91 173.2 817.45 175.74 820.58 175.74 L 829.08, 175.74" />
      <text transform="matrix(1 0 0 1 791.0225 239.8066)" style="font-family:'Arial'; font-size:6px;">5</text>
      <text transform="matrix(1 0 0 1 816.5342 239.8066)" style="font-family:'Arial'; font-size:6px;">2</text>
      <text transform="matrix(1 0 0 1 791.0225 194.4521)" style="font-family:'Arial'; font-size:6px;">3</text>
      <text transform="matrix(1 0 0 1 816.5342 194.4521)" style="font-family:'Arial'; font-size:6px;">1</text>
      <text transform="matrix(1 0 0 1 821.4961 262.4834)" style="font-family:'Arial'; font-size:6px;">12</text>
      <text transform="matrix(1 0 0 1 795.9844 262.4834)" style="font-family:'Arial'; font-size:6px;">12</text>
      <text transform="matrix(1 0 0 1 836.1709 213.5854)" style="font-family:'Arial'; font-size:6px;" ewd:textID="11">HEAD <tspan x="0" dy="1em">Relay</tspan></text>
      <text transform="matrix(1 0 0 1 795.9844 171.7744)" style="font-family:'Arial'; font-size:6px;">12</text>
      <text transform="matrix(1 0 0 1 821.4961 171.7744)" style="font-family:'Arial'; font-size:6px;">12</text>
    </g><path style="fill:none;stroke:#000000;stroke-width:0.85;" d="M 793.65,308.97 C 793.65 308.97 796.47 312.22 799.32 308.97 C 802.17 305.72 804.99 308.97 804.99 308.97" /><text transform="matrix(0 -1 1 0 820.8711 136.3809)" style="font-family:'Arial'; font-size:6px;">W-R</text><text transform="matrix(0 -1 1 0 914.4141 287.9546)" style="font-family:'Arial'; font-size:6px;">GR</text><text transform="matrix(0 -1 1 0 820.8711 285.6211)" style="font-family:'Arial'; font-size:6px;">R</text><text transform="matrix(0 -1 1 0 795.3594 288.9536)" style="font-family:'Arial'; font-size:6px;">W-L</text><text transform="matrix(0 -1 1 0 999.4521 285.6211)" style="font-family:'Arial'; font-size:6px;">R</text><text transform="matrix(0 -1 1 0 1010.793 288.2886)" style="font-family:'Arial'; font-size:6px;">(*6)</text><text transform="matrix(0 -1 1 0 914.415 370.6602)" style="font-family:'Arial'; font-size:6px;">R</text><text transform="matrix(0 -1 1 0 769.8477 136.3809)" style="font-family:'Arial'; font-size:6px;">W-R</text><text transform="matrix(0 -1 1 0 832.21 288.2886)" style="font-family:'Arial'; font-size:6px;">(*5)</text><text transform="matrix(0 -1 1 0 832.21 135.2173)" style="font-family:'Arial'; font-size:6px;">(*5)</text><text transform="matrix(0 -1 1 0 806.6992 288.2886)" style="font-family:'Arial'; font-size:6px;">(*5)</text><text transform="matrix(0 -1 1 0 925.7539 288.2886)" style="font-family:'Arial'; font-size:6px;">(*6)</text><text transform="matrix(0 -1 1 0 781.1875 135.2173)" style="font-family:'Arial'; font-size:6px;">(*5)</text></svg>