﻿<?xml version="1.0" encoding="utf-8"?>
<!-- Generator: Adobe Illustrator 10.0, SVG Export Plug-In . SVG Version: 3.0.0 Build 77)  -->
<!DOCTYPE svg PUBLIC "-//W3C//DTD SVG 1.0//EN" "http://www.w3.org/TR/2001/REC-SVG-20010904/DTD/svg10.dtd"[
   <!ENTITY ns_flows "http://ns.adobe.com/Flows/1.0/">
   <!ENTITY ns_svg "http://www.w3.org/2000/svg">
   <!ENTITY ns_xlink "http://www.w3.org/1999/xlink">
   <!ENTITY st0 "font-size:7px;font-family:'MS-PGothic';adobe-font-script:japanese;">
   <!ENTITY st1 "font-size:6px;font-family:'ArialMT';">
   <!ENTITY st2 "fill:#FFFFFF;stroke:#000000; stroke-width:1.41;stroke-linecap:round;stroke-linejoin:round;">
   <!ENTITY st3 "fill:#FFFFCC;stroke:#FFFFCC; stroke-width:0.1;stroke-linecap:round;stroke-linejoin:round;">
   <!ENTITY st4 "fill:#CCCCCC;stroke:#CCCCCC; stroke-width:0.1;stroke-linecap:round;stroke-linejoin:round;">
   <!ENTITY st5 "fill:#CCECF4;stroke:#000000; stroke-width:1.133;stroke-linecap:round;stroke-linejoin:round;">
   <!ENTITY st6 "fill:none;stroke-linecap:butt; stroke-linejoin:round;">
   <!ENTITY st7 "fill:none;stroke:#000000;stroke-linecap:round;stroke-linejoin:round;">
   <!ENTITY st8 "enable-background:new;">
   <!ENTITY st9 "fill:#000000;stroke:#000000; stroke-linecap:round;stroke-linejoin:round;">
   <!ENTITY st10 "font-size:9px;font-family:'ArialMT';">
   <!ENTITY st11 "font-size:9px;font-family:'Svg Symbol';">
   <!ENTITY st12 "font-size:6px;font-family:'Svg Symbol';">
   <!ENTITY st13 "fill:none;stroke:#ff0000;stroke-linecap:round;stroke-linejoin:round;">
   <!ENTITY st14 "fill:#FFFF00;stroke:#FFFF00; stroke-width:0.1;stroke-linecap:round;stroke-linejoin:round;">
   <!ENTITY st15 "font-size:6px;font-family:'MS-PGothic';adobe-font-script:japanese;">
   <!ENTITY st16 "1.00 0.00 0.00 1.00">
   <!ENTITY st17 "0.00 -1.00 1.00 0.00">
   <!ENTITY st18 "font-size:6px;font-family:'Arial';">
   <!ENTITY st19 "font-size:9px;font-family:'Arial';">
   <!ENTITY st20 "font-size:6px;font-family:'MS-PGothic','MS PGothic';adobe-font-script:japanese;">
   <!ENTITY st21 "font-size:7px;font-family:'MS-PGothic','MS PGothic';adobe-font-script:japanese;">
   <!ATTLIST svg
       xmlns:ewd CDATA #FIXED "http://shcl.co.jp/ewd"
       xmlns:a CDATA #FIXED "http://ns.adobe.com/AdobeSVGViewerExtensions/3.0/"
       ewd:ver CDATA #IMPLIED >
   <!ATTLIST a
       ewd:lineID CDATA #IMPLIED
       ewd:groupID CDATA #IMPLIED
       ewd:figtype CDATA #IMPLIED
       ewd:code CDATA #IMPLIED
       ewd:figID CDATA #IMPLIED
       ewd:pinNo CDATA #IMPLIED
       ewd:comment CDATA #IMPLIED >
   <!ATTLIST g
       ewd:lineID CDATA #IMPLIED
       ewd:groupID CDATA #IMPLIED
       ewd:figtype CDATA #IMPLIED
       ewd:code CDATA #IMPLIED
       ewd:figID CDATA #IMPLIED
       ewd:pinNo CDATA #IMPLIED
       ewd:comment CDATA #IMPLIED >
   <!ATTLIST text
       ewd:textID CDATA #IMPLIED >
   <!ATTLIST title
       ewd:textID CDATA #IMPLIED >
]>
<svg xmlns="http://www.w3.org/2000/svg" xmlns:xlink="http://www.w3.org/1999/xlink" width="2444.69" height="721" viewBox="0 0 2444.69 721" xml:space="preserve" xmlns:ewd="http://shcl.co.jp/ewd" ewd:ver="2.0">
  
  <defs>
    <font horiz-adv-x="1229">
      <font-face font-family="Svg Symbol" units-per-em="2048" panose-1="5 5 1 2 1 7 6 2 5 7" ascent="2059" descent="450" alphabetic="0" />
      <missing-glyph d="M 103,0 l 0,1280 1024,0 0,-1280 -1024,0 z m 32,32 l 960,0 0,1216 -960,0 0,-1216 z" />
      <glyph d4p1:unicode="" horiz-adv-x="1573" d="M 1517,0 l -567,0 24,279 q 141,59 207.5,168 66.5,109 66.5,306 0,272 -132.5,417.5 -132.5,145.5 -333.5,145.5 -194,0 -328,-147.5 -134,-147.5 -134,-401.5 0,-200 68.5,-319 68.5,-119 206.5,-169 l 25,-279 -564,0 0,279 35,0 q 3,-61 32,-83 45,-35 137,-35 l 270,0 0,70 q -210,61 -324.5,209 -114.5,148 -114.5,349 0,252 186.5,425 186.5,173 504.5,173 195,0 358.5,-73.5 163.5,-73.5 252,-214.5 88.5,-141 88.5,-310 0,-207 -121.5,-360.5 -121.5,-153.5 -317.5,-197.5 l -8,-70 275,0 q 92,0 128,28 36,28 42,90 l 38,0 0,-279 z" xmlns:d4p1="def-glyph-attr-unicode" />
    </font>
  </defs>
  
<g ewd:figtype="w2w" ewd:code="HA1" ewd:pin_no="10" ewd:figID="47">
      <path style="fill:#FFFFFF;stroke:#FFFFFF;stroke-width:0;stroke-linecap:round;stroke-linejoin:round;" d="M 2416.35,335.35 L 2412.1, 331.1 L 2407.85, 335.35 L 2407.85, 328.8 L 2416.35, 328.8 L 2416.35, 335.35" />
      <path style="fill:#FFFFFF;stroke:#FFFFFF;stroke-width:0;stroke-linecap:round;stroke-linejoin:round;" d="M 2416.35,332.51 L 2412.1, 328.26 L 2407.85, 332.51 L 2407.85, 325.96 L 2416.35, 325.96 L 2416.35, 332.51" />
      <path style="fill:none;stroke:#000000;stroke-width:0.85;" d="M 2416.35,333.05 L 2412.1, 328.8 L 2407.85, 333.05" />
      <path style="fill:none;stroke:#000000;stroke-width:0.85;" d="M 2416.35,330.21 L 2412.1, 325.96 L 2407.85, 330.21" />
      <path style="fill:none;stroke:#000000;stroke-width:0.85;stroke-linecap:round;stroke-linejoin:round;" d="M 2422.02,317.46 L 2422.02, 325.96 L 2402.18, 325.96 L 2402.18, 317.46 L 2422.02, 317.46" />
      <text transform="matrix(1 0 0 1 2394.0874 323.415)" style="font-family:'Arial'; font-size:6px;">10</text>
    </g><g ewd:figtype="w2w" ewd:code="HA1" ewd:pin_no="34" ewd:figID="48">
      <path style="fill:#FFFFFF;stroke:#FFFFFF;stroke-width:0;stroke-linecap:round;stroke-linejoin:round;" d="M 2348.32,335.35 L 2344.07, 331.1 L 2339.82, 335.35 L 2339.82, 328.8 L 2348.32, 328.8 L 2348.32, 335.35" />
      <path style="fill:#FFFFFF;stroke:#FFFFFF;stroke-width:0;stroke-linecap:round;stroke-linejoin:round;" d="M 2348.32,332.51 L 2344.07, 328.26 L 2339.82, 332.51 L 2339.82, 325.96 L 2348.32, 325.96 L 2348.32, 332.51" />
      <path style="fill:none;stroke:#000000;stroke-width:0.85;" d="M 2348.32,333.05 L 2344.07, 328.8 L 2339.82, 333.05" />
      <path style="fill:none;stroke:#000000;stroke-width:0.85;" d="M 2348.32,330.21 L 2344.07, 325.96 L 2339.82, 330.21" />
      <path style="fill:none;stroke:#000000;stroke-width:0.85;stroke-linecap:round;stroke-linejoin:round;" d="M 2353.99,317.46 L 2353.99, 325.96 L 2334.15, 325.96 L 2334.15, 317.46 L 2353.99, 317.46" />
      <text transform="matrix(1 0 0 1 2326.0522 323.415)" style="font-family:'Arial'; font-size:6px;">34</text>
    </g><g ewd:figtype="w2w" ewd:code="HA1" ewd:pin_no="19" ewd:figID="49">
      <path style="fill:#FFFFFF;stroke:#FFFFFF;stroke-width:0;stroke-linecap:round;stroke-linejoin:round;" d="M 2297.29,335.35 L 2293.04, 331.1 L 2288.79, 335.35 L 2288.79, 328.8 L 2297.29, 328.8 L 2297.29, 335.35" />
      <path style="fill:#FFFFFF;stroke:#FFFFFF;stroke-width:0;stroke-linecap:round;stroke-linejoin:round;" d="M 2297.29,332.51 L 2293.04, 328.26 L 2288.79, 332.51 L 2288.79, 325.96 L 2297.29, 325.96 L 2297.29, 332.51" />
      <path style="fill:none;stroke:#000000;stroke-width:0.85;" d="M 2297.29,333.05 L 2293.04, 328.8 L 2288.79, 333.05" />
      <path style="fill:none;stroke:#000000;stroke-width:0.85;" d="M 2297.29,330.21 L 2293.04, 325.96 L 2288.79, 330.21" />
      <path style="fill:none;stroke:#000000;stroke-width:0.85;stroke-linecap:round;stroke-linejoin:round;" d="M 2302.96,317.46 L 2302.96, 325.96 L 2283.12, 325.96 L 2283.12, 317.46 L 2302.96, 317.46" />
      <text transform="matrix(1 0 0 1 2275.0288 323.415)" style="font-family:'Arial'; font-size:6px;">19</text>
    </g><g ewd:figtype="conn" ewd:code="A4" ewd:figID="23">
      <path style="fill:none;stroke:#000000;stroke-width:1.417;stroke-linecap:round;stroke-linejoin:round;" d="M 2429.11,555.57 L 2429.11, 513.05 L 2276.03, 513.05 L 2276.03, 555.57 L 2429.11, 555.57" />
      <g ewd:lineID="16">
        <text transform="matrix(1 0 0 1 2411.0981 520.4248)" style="font-family:'Arial'; font-size:6px;">-</text>
        <text transform="matrix(1 0 0 1 2403.7974 509.0879)" style="font-family:'Arial'; font-size:6px;">1</text>
      </g>
      <g ewd:lineID="18">
        <text transform="matrix(1 0 0 1 2288.8882 520.4258)" style="font-family:'Arial'; font-size:6px;">PR</text>
        <text transform="matrix(1 0 0 1 2284.7446 509.0928)" style="font-family:'Arial'; font-size:6px;">2</text>
      </g>
      <g ewd:lineID="20">
        <text transform="matrix(1 0 0 1 2342.314 520.4258)" style="font-family:'Arial'; font-size:6px;">+</text>
        <text transform="matrix(1 0 0 1 2335.7661 509.0879)" style="font-family:'Arial'; font-size:6px;">3</text>
      </g>
      <g ewd:figtype="title">
        <text transform="matrix(1 0 0 1 2276.063 563.6582)" style="font-family:'Arial'; font-size:6px;">A4</text>
        <text transform="matrix(1 0 0 1 2276.063 570.7461)" style="font-family:'Arial'; font-size:6px;" ewd:textID="6">A/C Pressure <tspan x="0" dy="1em">Sensor No.1</tspan></text>
      </g>
    </g><g ewd:figtype="conn" ewd:code="H88" ewd:figID="24">
      <path style="fill:none;stroke:#000000;stroke-width:0.85;" d="M 2412.1,249.42 L 2412.1, 266.43" />
      <path style="fill:none;stroke:#000000;stroke-width:1.417;stroke-linecap:round;stroke-linejoin:round;" d="M 2420.57,266.43 L 2420.57, 249.42 L 2403.56, 249.42 L 2403.56, 266.43 L 2420.57, 266.43" />
      <text transform="matrix(1 0 0 1 2400.4302 273.8018)" style="font-family:'Arial'; font-size:6px;">10</text>
      <text transform="matrix(1 0 0 1 2403.7671 245.4551)" style="font-family:'Arial'; font-size:6px;">8</text>
      <g ewd:figtype="title">
        <text transform="matrix(0 -1 1 0 2428.6528 269.2617)" style="font-family:'Arial'; font-size:6px;">H88</text>
        <text transform="matrix(0 -1 1 0 2435.7407 269.2617)" style="font-family:'Arial'; font-size:6px;" ewd:textID="13">Junction  <tspan x="0" dy="1em">Connector</tspan></text>
      </g>
    </g><text transform="matrix(0 -1 1 0 2340.0972 223.0767)" style="font-family:'Arial'; font-size:6px;">Y</text><text transform="matrix(0 -1 1 0 2289.0698 223.2422)" style="font-family:'Arial'; font-size:6px;">R</text><text transform="matrix(0 -1 1 0 2408.1245 222.7441)" style="font-family:'Arial'; font-size:6px;">L</text><text transform="matrix(0 -1 1 0 2408.1245 299.2798)" style="font-family:'Arial'; font-size:6px;">L</text><text transform="matrix(0 -1 1 0 2408.1479 460.875)" style="font-family:'Arial'; font-size:6px;">L</text><text transform="matrix(0 -1 1 0 2340.1167 461.208)" style="font-family:'Arial'; font-size:6px;">Y</text><text transform="matrix(0 -1 1 0 2289.0933 461.373)" style="font-family:'Arial'; font-size:6px;">R</text></svg>