﻿<?xml version="1.0" encoding="utf-8"?>
<!-- Generator: Adobe Illustrator 10.0, SVG Export Plug-In . SVG Version: 3.0.0 Build 77)  -->
<!DOCTYPE svg PUBLIC "-//W3C//DTD SVG 1.0//EN" "http://www.w3.org/TR/2001/REC-SVG-20010904/DTD/svg10.dtd"[
   <!ENTITY ns_flows "http://ns.adobe.com/Flows/1.0/">
   <!ENTITY ns_svg "http://www.w3.org/2000/svg">
   <!ENTITY ns_xlink "http://www.w3.org/1999/xlink">
   <!ENTITY st0 "font-size:7px;font-family:'MS-PGothic';adobe-font-script:japanese;">
   <!ENTITY st1 "font-size:6px;font-family:'ArialMT';">
   <!ENTITY st2 "fill:#FFFFFF;stroke:#000000; stroke-width:1.41;stroke-linecap:round;stroke-linejoin:round;">
   <!ENTITY st3 "fill:#FFFFCC;stroke:#FFFFCC; stroke-width:0.1;stroke-linecap:round;stroke-linejoin:round;">
   <!ENTITY st4 "fill:#CCCCCC;stroke:#CCCCCC; stroke-width:0.1;stroke-linecap:round;stroke-linejoin:round;">
   <!ENTITY st5 "fill:#CCECF4;stroke:#000000; stroke-width:1.133;stroke-linecap:round;stroke-linejoin:round;">
   <!ENTITY st6 "fill:none;stroke-linecap:butt; stroke-linejoin:round;">
   <!ENTITY st7 "fill:none;stroke:#000000;stroke-linecap:round;stroke-linejoin:round;">
   <!ENTITY st8 "enable-background:new;">
   <!ENTITY st9 "fill:#000000;stroke:#000000; stroke-linecap:round;stroke-linejoin:round;">
   <!ENTITY st10 "font-size:9px;font-family:'ArialMT';">
   <!ENTITY st11 "font-size:9px;font-family:'Svg Symbol';">
   <!ENTITY st12 "font-size:6px;font-family:'Svg Symbol';">
   <!ENTITY st13 "fill:none;stroke:#ff0000;stroke-linecap:round;stroke-linejoin:round;">
   <!ENTITY st14 "fill:#FFFF00;stroke:#FFFF00; stroke-width:0.1;stroke-linecap:round;stroke-linejoin:round;">
   <!ENTITY st15 "font-size:6px;font-family:'MS-PGothic';adobe-font-script:japanese;">
   <!ENTITY st16 "1.00 0.00 0.00 1.00">
   <!ENTITY st17 "0.00 -1.00 1.00 0.00">
   <!ENTITY st18 "font-size:6px;font-family:'Arial';">
   <!ENTITY st19 "font-size:9px;font-family:'Arial';">
   <!ENTITY st20 "font-size:6px;font-family:'MS-PGothic','MS PGothic';adobe-font-script:japanese;">
   <!ENTITY st21 "font-size:7px;font-family:'MS-PGothic','MS PGothic';adobe-font-script:japanese;">
   <!ATTLIST svg
       xmlns:ewd CDATA #FIXED "http://shcl.co.jp/ewd"
       xmlns:a CDATA #FIXED "http://ns.adobe.com/AdobeSVGViewerExtensions/3.0/"
       ewd:ver CDATA #IMPLIED >
   <!ATTLIST a
       ewd:lineID CDATA #IMPLIED
       ewd:groupID CDATA #IMPLIED
       ewd:figtype CDATA #IMPLIED
       ewd:code CDATA #IMPLIED
       ewd:figID CDATA #IMPLIED
       ewd:pinNo CDATA #IMPLIED
       ewd:comment CDATA #IMPLIED >
   <!ATTLIST g
       ewd:lineID CDATA #IMPLIED
       ewd:groupID CDATA #IMPLIED
       ewd:figtype CDATA #IMPLIED
       ewd:code CDATA #IMPLIED
       ewd:figID CDATA #IMPLIED
       ewd:pinNo CDATA #IMPLIED
       ewd:comment CDATA #IMPLIED >
   <!ATTLIST text
       ewd:textID CDATA #IMPLIED >
   <!ATTLIST title
       ewd:textID CDATA #IMPLIED >
]>
<svg xmlns="http://www.w3.org/2000/svg" xmlns:xlink="http://www.w3.org/1999/xlink" width="4220.21" height="721" viewBox="0 0 4220.21 721" xml:space="preserve" xmlns:ewd="http://shcl.co.jp/ewd" ewd:ver="2.0">
  
  <defs>
    <font horiz-adv-x="1229">
      <font-face font-family="Svg Symbol" units-per-em="2048" panose-1="5 5 1 2 1 7 6 2 5 7" ascent="2059" descent="450" alphabetic="0" />
      <missing-glyph d="M 103,0 l 0,1280 1024,0 0,-1280 -1024,0 z m 32,32 l 960,0 0,1216 -960,0 0,-1216 z" />
      <glyph d4p1:unicode="" horiz-adv-x="1573" d="M 1517,0 l -567,0 24,279 q 141,59 207.5,168 66.5,109 66.5,306 0,272 -132.5,417.5 -132.5,145.5 -333.5,145.5 -194,0 -328,-147.5 -134,-147.5 -134,-401.5 0,-200 68.5,-319 68.5,-119 206.5,-169 l 25,-279 -564,0 0,279 35,0 q 3,-61 32,-83 45,-35 137,-35 l 270,0 0,70 q -210,61 -324.5,209 -114.5,148 -114.5,349 0,252 186.5,425 186.5,173 504.5,173 195,0 358.5,-73.5 163.5,-73.5 252,-214.5 88.5,-141 88.5,-310 0,-207 -121.5,-360.5 -121.5,-153.5 -317.5,-197.5 l -8,-70 275,0 q 92,0 128,28 36,28 42,90 l 38,0 0,-279 z" xmlns:d4p1="def-glyph-attr-unicode" />
    </font>
  </defs>
  
<g ewd:figtype="rb" ewd:code="FUSE136" ewd:figID="13">
      <path style="fill:none;stroke:#000000;stroke-width:0.85;" d="M 3323.03,102.01 L 3323.03, 87.84" />
      <path style="fill:none;stroke:#000000;stroke-width:0.85;" d="M 3323.03,87.84 L 3323.03, 80.75" />
      <path d="M 3323.03,102.01 L 3325.86, 99.18 L 3325.86, 96.35 L 3323.03, 99.18 L 3320.2, 96.35 L 3320.2, 99.18 L 3323.03, 102.01" style="stroke-linecap:round;stroke-linejoin:round;" />
      <path style="fill:none;stroke:#000000;stroke-width:0.85;stroke-linecap:round;stroke-linejoin:round;" d="M 3327.28,113.35 C 3330.41 113.35 3332.95 110.81 3332.95 107.68 C 3332.95 104.55 3330.41 102.01 3327.28 102.01 L 3318.78, 102.01 C 3315.65 102.01 3313.11 104.55 3313.11 107.68 C 3313.11 110.81 3315.65 113.35 3318.78 113.35 L 3327.28, 113.35" />
      <path style="fill:none;stroke:#000000;stroke-width:0.85;stroke-linecap:round;stroke-linejoin:round;" d="M 3323.03,80.75 C 3323.81 80.75 3324.45 80.12 3324.45 79.33 C 3324.44990234375 78.5400036621094 3323.82 77.91 3323.03 77.91 C 3322.24005859375 77.9100073242188 3321.61 78.54 3321.61 79.33 C 3321.61021484375 80.1200036621094 3322.24 80.75 3323.03 80.75" />
      <path style="fill:none;stroke:#000000;stroke-width:0.85;stroke-linecap:round;stroke-linejoin:round;" d="M 3323.03,55.24 C 3323.81 55.24 3324.45 54.61 3324.45 53.82 C 3324.44990234375 53.0299993896484 3323.82 52.4 3323.03 52.4 C 3322.24005859375 52.4000030517578 3321.61 53.03 3321.61 53.82 C 3321.61021484375 54.6099993896484 3322.24 55.24 3323.03 55.24" />
      <path style="fill:none;stroke:#000000;stroke-width:1.417;" d="M 3322.02,54.82 C 3322.02 54.82 3315.95 59.5 3323.02 66.57 C 3330.0900390625 73.6399993896484 3324.02 78.32 3324.02 78.32" />
      <path style="fill:none;stroke:#000000;stroke-width:1.417;stroke-linecap:round;stroke-linejoin:round;" d="M 3335.78,87.84 L 3335.78, 45.32 L 3310.27, 45.32 L 3310.27, 87.84 L 3335.78, 87.84" />
      <text transform="matrix(1 0 0 1 3319.6885 109.3848)" style="font-family:'Arial'; font-size:6px;">11</text>
      <text transform="matrix(1 0 0 1 3314.7285 95.2114)" style="font-family:'Arial'; font-size:6px;">2</text>
      <text transform="matrix(1 0 0 1 3315.1934 41.3521)" style="font-family:'Arial'; font-size:6px;">(BAT)</text>
      <text transform="matrix(1 0 0 1 3338.6162 64.7388)" style="font-family:'Arial'; font-size:6px;">15A<tspan x="0" dy="1em">TRN&amp;HAZ</tspan></text>
    </g><g ewd:figtype="jb" ewd:code="6" ewd:figID="2">
      <path d="M 3826.2,657.64 C 3826.2 658.42 3825.57 659.06 3824.78 659.06 C 3823.99005859375 659.059995117188 3823.36 658.43 3823.36 657.64 C 3823.36 656.86 3823.99 656.22 3824.78 656.22 C 3825.57005859375 656.21994140625 3826.2 656.85 3826.2 657.64" style="stroke-linecap:round;stroke-linejoin:round;" />
      <path style="fill:none;stroke:#000000;stroke-width:0.85;" d="M 3824.78,643.46 L 3824.78, 657.62" />
      <path style="fill:none;stroke:#000000;stroke-width:0.85;" d="M 3892.81,643.46 L 3892.81, 657.62 L 3756.75, 657.62 L 3756.75, 643.46" />
      <path d="M 3824.78,643.46 L 3827.61, 646.3 L 3827.61, 649.13 L 3824.78, 646.3 L 3821.94, 649.13 L 3821.94, 646.3 L 3824.78, 643.46" style="stroke-linecap:round;stroke-linejoin:round;" />
      <path style="fill:none;stroke:#000000;stroke-width:0.85;stroke-linecap:round;stroke-linejoin:round;" d="M 3829.03,643.46 C 3832.16 643.46 3834.7 640.92 3834.7 637.79 C 3834.7 634.66 3832.16 632.12 3829.03 632.12 L 3820.53, 632.12 C 3817.4 632.12 3814.86 634.66 3814.86 637.79 C 3814.86 640.92 3817.4 643.46 3820.53 643.46 L 3829.03, 643.46" />
      <path d="M 3892.81,643.46 L 3895.64, 646.3 L 3895.64, 649.13 L 3892.81, 646.3 L 3889.97, 649.13 L 3889.97, 646.3 L 3892.81, 643.46" style="stroke-linecap:round;stroke-linejoin:round;" />
      <path style="fill:none;stroke:#000000;stroke-width:0.85;stroke-linecap:round;stroke-linejoin:round;" d="M 3897.06,643.46 C 3900.19 643.46 3902.73 640.92 3902.73 637.79 C 3902.73 634.66 3900.19 632.12 3897.06 632.12 L 3888.56, 632.12 C 3885.43 632.12 3882.89 634.66 3882.89 637.79 C 3882.89 640.92 3885.43 643.46 3888.56 643.46 L 3897.06, 643.46" />
      <path d="M 3756.75,643.46 L 3759.58, 646.3 L 3759.58, 649.13 L 3756.75, 646.3 L 3753.92, 649.13 L 3753.92, 646.3 L 3756.75, 643.46" style="stroke-linecap:round;stroke-linejoin:round;" />
      <path style="fill:none;stroke:#000000;stroke-width:0.85;stroke-linecap:round;stroke-linejoin:round;" d="M 3761,643.46 C 3764.13 643.46 3766.67 640.92 3766.67 637.79 C 3766.67 634.66 3764.13 632.12 3761 632.12 L 3752.5, 632.12 C 3749.37 632.12 3746.83 634.66 3746.83 637.79 C 3746.83 640.92 3749.37 643.46 3752.5 643.46 L 3761, 643.46" />
      <text transform="matrix(1 0 0 1 3820.9443 639.501)" style="font-family:'Arial'; font-size:6px;">6D</text>
      <text transform="matrix(1 0 0 1 3810.1045 639.501)" style="font-family:'Arial'; font-size:6px;">3</text>
      <text transform="matrix(1 0 0 1 3888.9756 639.501)" style="font-family:'Arial'; font-size:6px;">6D</text>
      <text transform="matrix(1 0 0 1 3878.1357 639.501)" style="font-family:'Arial'; font-size:6px;">1</text>
      <text transform="matrix(1 0 0 1 3752.9121 639.501)" style="font-family:'Arial'; font-size:6px;">6D</text>
      <text transform="matrix(1 0 0 1 3742.0723 639.501)" style="font-family:'Arial'; font-size:6px;">2</text>
    </g><g ewd:figtype="gp" ewd:code="A2" ewd:figID="108">
      <path style="fill:none;stroke:#000000;stroke-width:0.85;" d="M 3331.53,708.63 L 3331.53, 711.46" />
      <path style="fill:none;stroke:#000000;stroke-width:0.85;" d="M 3330.11,719.97 L 3332.95, 719.97" />
      <path style="fill:none;stroke:#000000;stroke-width:0.85;" d="M 3328.7,717.14 L 3334.37, 717.14" />
      <path style="fill:none;stroke:#000000;stroke-width:0.85;" d="M 3325.86,714.3 L 3337.2, 714.3" />
      <path style="fill:none;stroke:#000000;stroke-width:0.85;" d="M 3323.03,711.47 L 3340.04, 711.47" />
    </g><g ewd:figtype="w2w" ewd:code="HB2" ewd:pin_no="17" ewd:figID="76">
      <path style="fill:#FFFFFF;stroke:#FFFFFF;stroke-width:0;stroke-linecap:round;stroke-linejoin:round;" d="M 3327.28,157.83 L 3323.03, 162.08 L 3318.78, 157.83 L 3318.78, 164.38 L 3327.28, 164.38 L 3327.28, 157.83" />
      <path style="fill:#FFFFFF;stroke:#FFFFFF;stroke-width:0;stroke-linecap:round;stroke-linejoin:round;" d="M 3327.28,154.99 L 3323.03, 159.24 L 3318.78, 154.99 L 3318.78, 161.54 L 3327.28, 161.54 L 3327.28, 154.99" />
      <path style="fill:none;stroke:#000000;stroke-width:0.85;" d="M 3327.28,157.29 L 3323.03, 161.54 L 3318.78, 157.29" />
      <path style="fill:none;stroke:#000000;stroke-width:0.85;" d="M 3327.28,160.13 L 3323.03, 164.38 L 3318.78, 160.13" />
      <path style="fill:none;stroke:#000000;stroke-width:0.85;stroke-linecap:round;stroke-linejoin:round;" d="M 3332.95,172.88 L 3332.95, 164.38 L 3313.11, 164.38 L 3313.11, 172.88 L 3332.95, 172.88" />
      <text transform="matrix(1 0 0 1 3305.0146 170.335)" style="font-family:'Arial'; font-size:6px;">17</text>
    </g><g ewd:figtype="w2w" ewd:code="HB6" ewd:pin_no="10" ewd:figID="77">
      <path style="fill:#FFFFFF;stroke:#FFFFFF;stroke-width:0;stroke-linecap:round;stroke-linejoin:round;" d="M 3437.84,146.49 L 3433.59, 150.74 L 3429.34, 146.49 L 3429.34, 153.04 L 3437.84, 153.04 L 3437.84, 146.49" />
      <path style="fill:#FFFFFF;stroke:#FFFFFF;stroke-width:0;stroke-linecap:round;stroke-linejoin:round;" d="M 3437.84,149.32 L 3433.59, 153.57 L 3429.34, 149.32 L 3429.34, 155.87 L 3437.84, 155.87 L 3437.84, 149.32" />
      <path style="fill:none;stroke:#000000;stroke-width:0.85;" d="M 3437.84,148.79 L 3433.59, 153.04 L 3429.34, 148.79" />
      <path style="fill:none;stroke:#000000;stroke-width:0.85;" d="M 3437.84,151.62 L 3433.59, 155.87 L 3429.34, 151.62" />
      <path style="fill:none;stroke:#000000;stroke-width:0.85;stroke-linecap:round;stroke-linejoin:round;" d="M 3443.51,164.38 L 3443.51, 155.88 L 3423.67, 155.88 L 3423.67, 164.38 L 3443.51, 164.38" />
      <text transform="matrix(1 0 0 1 3415.5762 161.8311)" style="font-family:'Arial'; font-size:6px;">10</text>
    </g><g ewd:figtype="conn" ewd:code="H60" ewd:figID="22">
      <path style="fill:none;stroke:#000000;stroke-width:1.417;stroke-linecap:round;stroke-linejoin:round;" d="M 3535.63,104.85 L 3535.63, 70.83 L 3501.61, 70.83 L 3501.61, 104.84 L 3535.63, 104.84" />
      <text transform="matrix(1 0 0 1 3513.46 100.8862)" style="font-family:'Arial'; font-size:6px;">IND</text>
      <text transform="matrix(1 0 0 1 3510.3291 112.2246)" style="font-family:'Arial'; font-size:6px;">8</text>
      <g ewd:figtype="title">
        <text transform="matrix(0 -1 1 0 3543.7197 104.8486)" style="font-family:'Arial'; font-size:6px;">H60</text>
        <text transform="matrix(0 -1 1 0 3550.8057 104.8486)" style="font-family:'Arial'; font-size:6px;" ewd:textID="87">Transponder Key ECU</text>
      </g>
    </g><g ewd:figtype="conn" ewd:code="B75" ewd:figID="23">
      <path style="fill:#FFFFFF;stroke:#000000;stroke-width:0.85;stroke-linecap:round;stroke-linejoin:round;" d="M 3433.59,116.19 C 3436.72 116.19 3439.26 113.65 3439.26 110.52 C 3439.26001953125 107.389993286133 3436.72 104.85 3433.59 104.85 C 3430.46017578125 104.849996948242 3427.92 107.39 3427.92 110.52 C 3427.91984375 113.649993286133 3430.46 116.19 3433.59 116.19" />
      <path style="fill:none;stroke:#000000;stroke-width:1.417;stroke-linecap:round;stroke-linejoin:round;" d="M 3450.6,104.85 L 3450.6, 70.83 L 3416.58, 70.83 L 3416.58, 104.84 L 3450.6, 104.84" />
      <text transform="matrix(1 0 0 1 3428.4209 100.8862)" style="font-family:'Arial'; font-size:6px;">IND</text>
      <text transform="matrix(1 0 0 1 3419.6865 112.2236)" style="font-family:'Arial'; font-size:6px;">15</text>
      <text transform="matrix(1 0 0 1 3431.5869 112.2236)" style="font-family:'Arial'; font-size:6px;">A</text>
      <g ewd:figtype="title">
        <text transform="matrix(0 -1 1 0 3458.6807 104.8486)" style="font-family:'Arial'; font-size:6px;">B75</text>
        <text transform="matrix(0 -1 1 0 3465.7666 104.8486)" style="font-family:'Arial'; font-size:6px;" ewd:textID="81">Smart Key Computer <tspan x="0" dy="1em">Assembly</tspan></text>
      </g>
    </g><g ewd:figtype="w2w" ewd:code="HA1" ewd:pin_no="37" ewd:figID="78">
      <path style="fill:#FFFFFF;stroke:#FFFFFF;stroke-width:0;stroke-linecap:round;stroke-linejoin:round;" d="M 3752.47,172 L 3748.22, 176.25 L 3743.97, 172 L 3743.97, 178.55 L 3752.47, 178.55 L 3752.47, 172" />
      <path style="fill:#FFFFFF;stroke:#FFFFFF;stroke-width:0;stroke-linecap:round;stroke-linejoin:round;" d="M 3752.47,174.83 L 3748.22, 179.08 L 3743.97, 174.83 L 3743.97, 181.38 L 3752.47, 181.38 L 3752.47, 174.83" />
      <path style="fill:none;stroke:#000000;stroke-width:0.85;" d="M 3752.47,174.3 L 3748.22, 178.55 L 3743.97, 174.3" />
      <path style="fill:none;stroke:#000000;stroke-width:0.85;" d="M 3752.47,177.13 L 3748.22, 181.38 L 3743.97, 177.13" />
      <path style="fill:none;stroke:#000000;stroke-width:0.85;stroke-linecap:round;stroke-linejoin:round;" d="M 3758.14,189.89 L 3758.14, 181.39 L 3738.3, 181.39 L 3738.3, 189.89 L 3758.14, 189.89" />
      <text transform="matrix(1 0 0 1 3730.2051 187.3418)" style="font-family:'Arial'; font-size:6px;">37</text>
    </g><g ewd:figtype="w2w" ewd:code="HA2" ewd:pin_no="14" ewd:figID="81">
      <path style="fill:#FFFFFF;stroke:#FFFFFF;stroke-width:0;stroke-linecap:round;stroke-linejoin:round;" d="M 3299.81,670.36 L 3295.56, 674.61 L 3299.81, 678.86 L 3293.26, 678.86 L 3293.26, 670.36 L 3299.81, 670.36" />
      <path style="fill:#FFFFFF;stroke:#FFFFFF;stroke-width:0;stroke-linecap:round;stroke-linejoin:round;" d="M 3296.97,670.36 L 3292.72, 674.61 L 3296.97, 678.86 L 3290.42, 678.86 L 3290.42, 670.36 L 3296.97, 670.36" />
      <path style="fill:none;stroke:#000000;stroke-width:0.85;" d="M 3297.51,670.36 L 3293.26, 674.61 L 3297.51, 678.86" />
      <path style="fill:none;stroke:#000000;stroke-width:0.85;" d="M 3294.67,670.36 L 3290.42, 674.61 L 3294.67, 678.86" />
      <path style="fill:none;stroke:#000000;stroke-width:0.85;stroke-linecap:round;stroke-linejoin:round;" d="M 3290.42,678.87 L 3290.42, 670.37 L 3270.58, 670.37 L 3270.58, 678.87 L 3290.42, 678.87" />
      <text transform="matrix(1 0 0 1 3277.1631 668.1699)" style="font-family:'Arial'; font-size:6px;">14</text>
    </g><g ewd:figtype="annex" ewd:code="" ewd:figID="1302">
      <path style="fill:none;stroke:#000000;stroke-width:1.417;stroke-linecap:round;stroke-linejoin:round;" d="M 3660.35,170.05 L 3654.68, 181.39 L 3649.01, 170.05" />
      <text transform="matrix(0 -1 1 0 3656.3887 161.5405)" style="font-family:'Arial'; font-size:6px;" ewd:textID="52">FOG RR Relay</text>
    </g><g ewd:figtype="annex" ewd:code="" ewd:figID="1303">
      <path style="fill:none;stroke:#000000;stroke-width:1.417;stroke-linecap:round;stroke-linejoin:round;" d="M 3592.32,170.05 L 3586.65, 181.39 L 3580.98, 170.05" />
      <text transform="matrix(0 -1 1 0 3588.3574 161.5405)" style="font-family:'Arial'; font-size:6px;" ewd:textID="53">FR FOG Relay</text>
    </g><g ewd:figtype="annex" ewd:code="" ewd:figID="1304">
      <path style="fill:none;stroke:#000000;stroke-width:1.417;" d="M 3487.43,510.22 L 3491.68, 514.47 L 3533.5, 514.47 L 3535.63, 518.72 L 3537.76, 514.47 L 3579.57, 514.47 L 3583.82, 510.22" />
      <path style="fill:none;stroke:#000000;stroke-width:1.417;stroke-linecap:round;stroke-linejoin:round;" d="M 3583.82,493.19 L 3578.15, 504.53 L 3572.48, 493.19" />
      <path style="fill:none;stroke:#000000;stroke-width:1.417;stroke-linecap:round;stroke-linejoin:round;" d="M 3541.3,493.19 L 3535.63, 504.53 L 3529.96, 493.19" />
      <path style="fill:none;stroke:#000000;stroke-width:1.417;stroke-linecap:round;stroke-linejoin:round;" d="M 3498.78,493.19 L 3493.11, 504.53 L 3487.44, 493.19" />
      <text transform="matrix(0 -1 1 0 3536.624 627.3018)" style="font-family:'Arial'; font-size:6px;" ewd:textID="61">Headlamp Dimmer Switch Assembly</text>
    </g><g ewd:figtype="annex" ewd:code="" ewd:figID="1305">
      <path style="fill:none;stroke:#000000;stroke-width:1.417;" d="M 3317.35,510.22 L 3321.6, 514.47 L 3346.41, 514.47 L 3348.54, 518.72 L 3350.67, 514.47 L 3375.47, 514.47 L 3379.72, 510.22" />
      <path style="fill:none;stroke:#000000;stroke-width:1.417;stroke-linecap:round;stroke-linejoin:round;" d="M 3379.72,493.19 L 3374.05, 504.53 L 3368.38, 493.19" />
      <path style="fill:none;stroke:#000000;stroke-width:1.417;stroke-linecap:round;stroke-linejoin:round;" d="M 3328.7,493.19 L 3323.03, 504.53 L 3317.36, 493.19" />
      <text transform="matrix(0 -1 1 0 3355.1992 628.3018)" style="font-family:'Arial'; font-size:6px;" ewd:textID="76">Rear Combination Light Assemblies</text>
      <text transform="matrix(0 -1 1 0 3346.6953 628.3018)" style="font-family:'Arial'; font-size:6px;" ewd:textID="64">Headlight Assemblies</text>
    </g><g ewd:figtype="comment" ewd:code="6" ewd:figID="1016">
      <text transform="matrix(1 0 0 1 3427.8994 13.7119)" style="font-family:'Arial'; font-size:6px;" ewd:textID="20">*6 : w/ Entry and Start System</text>
    </g><g ewd:figtype="comment" ewd:code="10" ewd:figID="1014">
      <text transform="matrix(1 0 0 1 3427.8994 22.2158)" style="font-family:'Arial'; font-size:6px;" ewd:textID="2">*10 : w/o Entry and Start System</text>
    </g><text transform="matrix(0 -1 1 0 3319.0771 463.6758)" style="font-family:'Arial'; font-size:6px;">L</text><text transform="matrix(0 -1 1 0 3370.0176 464.1738)" style="font-family:'Arial'; font-size:6px;">R</text><text transform="matrix(0 -1 1 0 3319.0635 140.5327)" style="font-family:'Arial'; font-size:6px;">L</text><text transform="matrix(0 -1 1 0 3319.0625 200.0601)" style="font-family:'Arial'; font-size:6px;">L</text><text transform="matrix(0 -1 1 0 3514.6631 132.5269)" style="font-family:'Arial'; font-size:6px;">R</text><text transform="matrix(1 0 0 1 3305.8516 670.6504)" style="font-family:'Arial'; font-size:6px;">W-B</text><text transform="matrix(0 -1 1 0 3429.624 132.0288)" style="font-family:'Arial'; font-size:6px;">L</text><text transform="matrix(0 -1 1 0 3429.624 192.0542)" style="font-family:'Arial'; font-size:6px;">R</text><text transform="matrix(0 -1 1 0 3744.2529 208.8965)" style="font-family:'Arial'; font-size:6px;">B</text><text transform="matrix(0 -1 1 0 3744.2529 166.377)" style="font-family:'Arial'; font-size:6px;">B</text><text transform="matrix(0 -1 1 0 3582.665 200.3955)" style="font-family:'Arial'; font-size:6px;">Y</text><text transform="matrix(0 -1 1 0 3650.6963 200.561)" style="font-family:'Arial'; font-size:6px;">R</text><text transform="matrix(0 -1 1 0 3489.1602 463.6953)" style="font-family:'Arial'; font-size:6px;">GR</text><text transform="matrix(0 -1 1 0 3531.6797 461.1953)" style="font-family:'Arial'; font-size:6px;">B</text><text transform="matrix(0 -1 1 0 3574.1992 461.1953)" style="font-family:'Arial'; font-size:6px;">Y</text><text transform="matrix(0 -1 1 0 3440.9639 135.1943)" style="font-family:'Arial'; font-size:6px;">(*6)</text><text transform="matrix(0 -1 1 0 3440.9639 194.7217)" style="font-family:'Arial'; font-size:6px;">(*6)</text><text transform="matrix(0 -1 1 0 3526.0029 136.8628)" style="font-family:'Arial'; font-size:6px;">(*10)</text></svg>