﻿<?xml version="1.0" encoding="utf-8"?>
<!-- Generator: Adobe Illustrator 10.0, SVG Export Plug-In . SVG Version: 3.0.0 Build 77)  -->
<!DOCTYPE svg PUBLIC "-//W3C//DTD SVG 1.0//EN" "http://www.w3.org/TR/2001/REC-SVG-20010904/DTD/svg10.dtd"[
   <!ENTITY ns_flows "http://ns.adobe.com/Flows/1.0/">
   <!ENTITY ns_svg "http://www.w3.org/2000/svg">
   <!ENTITY ns_xlink "http://www.w3.org/1999/xlink">
   <!ENTITY st0 "font-size:7px;font-family:'MS-PGothic';adobe-font-script:japanese;">
   <!ENTITY st1 "font-size:6px;font-family:'ArialMT';">
   <!ENTITY st2 "fill:#FFFFFF;stroke:#000000; stroke-width:1.41;stroke-linecap:round;stroke-linejoin:round;">
   <!ENTITY st3 "fill:#FFFFCC;stroke:#FFFFCC; stroke-width:0.1;stroke-linecap:round;stroke-linejoin:round;">
   <!ENTITY st4 "fill:#CCCCCC;stroke:#CCCCCC; stroke-width:0.1;stroke-linecap:round;stroke-linejoin:round;">
   <!ENTITY st5 "fill:#CCECF4;stroke:#000000; stroke-width:1.133;stroke-linecap:round;stroke-linejoin:round;">
   <!ENTITY st6 "fill:none;stroke-linecap:butt; stroke-linejoin:round;">
   <!ENTITY st7 "fill:none;stroke:#000000;stroke-linecap:round;stroke-linejoin:round;">
   <!ENTITY st8 "enable-background:new;">
   <!ENTITY st9 "fill:#000000;stroke:#000000; stroke-linecap:round;stroke-linejoin:round;">
   <!ENTITY st10 "font-size:9px;font-family:'ArialMT';">
   <!ENTITY st11 "font-size:9px;font-family:'Svg Symbol';">
   <!ENTITY st12 "font-size:6px;font-family:'Svg Symbol';">
   <!ENTITY st13 "fill:none;stroke:#ff0000;stroke-linecap:round;stroke-linejoin:round;">
   <!ENTITY st14 "fill:#FFFF00;stroke:#FFFF00; stroke-width:0.1;stroke-linecap:round;stroke-linejoin:round;">
   <!ENTITY st15 "font-size:6px;font-family:'MS-PGothic';adobe-font-script:japanese;">
   <!ENTITY st16 "1.00 0.00 0.00 1.00">
   <!ENTITY st17 "0.00 -1.00 1.00 0.00">
   <!ENTITY st18 "font-size:6px;font-family:'Arial';">
   <!ENTITY st19 "font-size:9px;font-family:'Arial';">
   <!ENTITY st20 "font-size:6px;font-family:'MS-PGothic','MS PGothic';adobe-font-script:japanese;">
   <!ENTITY st21 "font-size:7px;font-family:'MS-PGothic','MS PGothic';adobe-font-script:japanese;">
   <!ATTLIST svg
       xmlns:ewd CDATA #FIXED "http://shcl.co.jp/ewd"
       xmlns:a CDATA #FIXED "http://ns.adobe.com/AdobeSVGViewerExtensions/3.0/"
       ewd:ver CDATA #IMPLIED >
   <!ATTLIST a
       ewd:lineID CDATA #IMPLIED
       ewd:groupID CDATA #IMPLIED
       ewd:figtype CDATA #IMPLIED
       ewd:code CDATA #IMPLIED
       ewd:figID CDATA #IMPLIED
       ewd:pinNo CDATA #IMPLIED
       ewd:comment CDATA #IMPLIED >
   <!ATTLIST g
       ewd:lineID CDATA #IMPLIED
       ewd:groupID CDATA #IMPLIED
       ewd:figtype CDATA #IMPLIED
       ewd:code CDATA #IMPLIED
       ewd:figID CDATA #IMPLIED
       ewd:pinNo CDATA #IMPLIED
       ewd:comment CDATA #IMPLIED >
   <!ATTLIST text
       ewd:textID CDATA #IMPLIED >
   <!ATTLIST title
       ewd:textID CDATA #IMPLIED >
]>
<svg xmlns="http://www.w3.org/2000/svg" xmlns:xlink="http://www.w3.org/1999/xlink" width="4220.21" height="721" viewBox="0 0 4220.21 721" xml:space="preserve" xmlns:ewd="http://shcl.co.jp/ewd" ewd:ver="2.0">
  
  <defs>
    <font horiz-adv-x="1229">
      <font-face font-family="Svg Symbol" units-per-em="2048" panose-1="5 5 1 2 1 7 6 2 5 7" ascent="2059" descent="450" alphabetic="0" />
      <missing-glyph d="M 103,0 l 0,1280 1024,0 0,-1280 -1024,0 z m 32,32 l 960,0 0,1216 -960,0 0,-1216 z" />
      <glyph d4p1:unicode="" horiz-adv-x="1573" d="M 1517,0 l -567,0 24,279 q 141,59 207.5,168 66.5,109 66.5,306 0,272 -132.5,417.5 -132.5,145.5 -333.5,145.5 -194,0 -328,-147.5 -134,-147.5 -134,-401.5 0,-200 68.5,-319 68.5,-119 206.5,-169 l 25,-279 -564,0 0,279 35,0 q 3,-61 32,-83 45,-35 137,-35 l 270,0 0,70 q -210,61 -324.5,209 -114.5,148 -114.5,349 0,252 186.5,425 186.5,173 504.5,173 195,0 358.5,-73.5 163.5,-73.5 252,-214.5 88.5,-141 88.5,-310 0,-207 -121.5,-360.5 -121.5,-153.5 -317.5,-197.5 l -8,-70 275,0 q 92,0 128,28 36,28 42,90 l 38,0 0,-279 z" xmlns:d4p1="def-glyph-attr-unicode" />
    </font>
  </defs>
  
<g ewd:figtype="jb" ewd:code="6" ewd:figID="3">
      <path style="fill:none;stroke:#000000;stroke-width:0.85;" d="M 3220.97,544.23 L 3220.97, 515.88" />
      <path d="M 3220.99,544.23 L 3223.82, 541.4 L 3223.82, 538.57 L 3220.99, 541.4 L 3218.15, 538.57 L 3218.15, 541.4 L 3220.99, 544.23" style="stroke-linecap:round;stroke-linejoin:round;" />
      <path style="fill:none;stroke:#000000;stroke-width:0.85;stroke-linecap:round;stroke-linejoin:round;" d="M 3225.24,555.57 C 3228.37 555.57 3230.91 553.03 3230.91 549.9 C 3230.91 546.77 3228.37 544.23 3225.24 544.23 L 3216.74, 544.23 C 3213.61 544.23 3211.07 546.77 3211.07 549.9 C 3211.07 553.03 3213.61 555.57 3216.74 555.57 L 3225.24, 555.57" />
      <path d="M 3220.99,515.88 L 3223.82, 518.72 L 3223.82, 521.55 L 3220.99, 518.72 L 3218.15, 521.55 L 3218.15, 518.72 L 3220.99, 515.88" style="stroke-linecap:round;stroke-linejoin:round;" />
      <path style="fill:none;stroke:#000000;stroke-width:0.85;stroke-linecap:round;stroke-linejoin:round;" d="M 3225.24,515.88 C 3228.37 515.88 3230.91 513.34 3230.91 510.21 C 3230.91 507.08 3228.37 504.54 3225.24 504.54 L 3216.74, 504.54 C 3213.61 504.54 3211.07 507.08 3211.07 510.21 C 3211.07 513.34 3213.61 515.88 3216.74 515.88 L 3225.24, 515.88" />
      <text transform="matrix(1 0 0 1 3217.4893 551.6064)" style="font-family:'Arial'; font-size:6px;">6F</text>
      <text transform="matrix(1 0 0 1 3206.3154 551.6064)" style="font-family:'Arial'; font-size:6px;">1</text>
      <text transform="matrix(1 0 0 1 3217.4893 511.9199)" style="font-family:'Arial'; font-size:6px;">6F</text>
      <text transform="matrix(1 0 0 1 3206.3154 511.9199)" style="font-family:'Arial'; font-size:6px;">2</text>
    </g><g ewd:figtype="gp" ewd:code="B5" ewd:figID="72">
      <path style="fill:none;stroke:#000000;stroke-width:0.85;" d="M 2786.26,708.66 L 2786.26, 711.49" />
      <path style="fill:none;stroke:#000000;stroke-width:0.85;" d="M 2784.84,720 L 2787.68, 720" />
      <path style="fill:none;stroke:#000000;stroke-width:0.85;" d="M 2783.43,717.17 L 2789.1, 717.17" />
      <path style="fill:none;stroke:#000000;stroke-width:0.85;" d="M 2780.59,714.33 L 2791.93, 714.33" />
      <path style="fill:none;stroke:#000000;stroke-width:0.85;" d="M 2777.76,711.5 L 2794.77, 711.5" />
    </g><g ewd:figtype="w2w" ewd:code="HB4" ewd:pin_no="3" ewd:figID="74">
      <path style="fill:#FFFFFF;stroke:#FFFFFF;stroke-width:0;stroke-linecap:round;stroke-linejoin:round;" d="M 2841.55,496.93 L 2837.3, 492.68 L 2833.05, 496.93 L 2833.05, 490.38 L 2841.55, 490.38 L 2841.55, 496.93" />
      <path style="fill:#FFFFFF;stroke:#FFFFFF;stroke-width:0;stroke-linecap:round;stroke-linejoin:round;" d="M 2841.55,494.1 L 2837.3, 489.85 L 2833.05, 494.1 L 2833.05, 487.55 L 2841.55, 487.55 L 2841.55, 494.1" />
      <path style="fill:none;stroke:#000000;stroke-width:0.85;" d="M 2841.55,494.63 L 2837.3, 490.38 L 2833.05, 494.63" />
      <path style="fill:none;stroke:#000000;stroke-width:0.85;" d="M 2841.55,491.8 L 2837.3, 487.55 L 2833.05, 491.8" />
      <path style="fill:none;stroke:#000000;stroke-width:0.85;stroke-linecap:round;stroke-linejoin:round;" d="M 2847.22,479.04 L 2847.22, 487.54 L 2827.38, 487.54 L 2827.38, 479.04 L 2847.22, 479.04" />
      <text transform="matrix(1 0 0 1 2822.6211 484.9971)" style="font-family:'Arial'; font-size:6px;">3</text>
    </g><g ewd:figtype="w2w" ewd:code="BP1" ewd:pin_no="3" ewd:figID="75">
      <path style="fill:#FFFFFF;stroke:#FFFFFF;stroke-width:0;stroke-linecap:round;stroke-linejoin:round;" d="M 2841.55,539.45 L 2837.3, 535.2 L 2833.05, 539.45 L 2833.05, 532.9 L 2841.55, 532.9 L 2841.55, 539.45" />
      <path style="fill:#FFFFFF;stroke:#FFFFFF;stroke-width:0;stroke-linecap:round;stroke-linejoin:round;" d="M 2841.55,536.62 L 2837.3, 532.37 L 2833.05, 536.62 L 2833.05, 530.07 L 2841.55, 530.07 L 2841.55, 536.62" />
      <path style="fill:none;stroke:#000000;stroke-width:0.85;" d="M 2841.55,537.15 L 2837.3, 532.9 L 2833.05, 537.15" />
      <path style="fill:none;stroke:#000000;stroke-width:0.85;" d="M 2841.55,534.32 L 2837.3, 530.07 L 2833.05, 534.32" />
      <path style="fill:none;stroke:#000000;stroke-width:0.85;stroke-linecap:round;stroke-linejoin:round;" d="M 2847.22,521.56 L 2847.22, 530.06 L 2827.38, 530.06 L 2827.38, 521.56 L 2847.22, 521.56" />
      <text transform="matrix(1 0 0 1 2822.6211 527.5166)" style="font-family:'Arial'; font-size:6px;">3</text>
    </g><g ewd:figtype="w2w" ewd:code="Ph1" ewd:pin_no="2" ewd:figID="101">
      <path style="fill:#FFFFFF;stroke:#FFFFFF;stroke-width:0;stroke-linecap:round;stroke-linejoin:round;" d="M 2841.55,581.97 L 2837.3, 577.72 L 2833.05, 581.97 L 2833.05, 575.42 L 2841.55, 575.42 L 2841.55, 581.97" />
      <path style="fill:#FFFFFF;stroke:#FFFFFF;stroke-width:0;stroke-linecap:round;stroke-linejoin:round;" d="M 2841.55,579.13 L 2837.3, 574.88 L 2833.05, 579.13 L 2833.05, 572.58 L 2841.55, 572.58 L 2841.55, 579.13" />
      <path style="fill:none;stroke:#000000;stroke-width:0.85;" d="M 2841.55,579.67 L 2837.3, 575.42 L 2833.05, 579.67" />
      <path style="fill:none;stroke:#000000;stroke-width:0.85;" d="M 2841.55,576.83 L 2837.3, 572.58 L 2833.05, 576.83" />
      <path style="fill:none;stroke:#000000;stroke-width:0.85;stroke-linecap:round;stroke-linejoin:round;" d="M 2847.22,564.08 L 2847.22, 572.58 L 2827.38, 572.58 L 2827.38, 564.08 L 2847.22, 564.08" />
      <text transform="matrix(1 0 0 1 2822.6211 570.0361)" style="font-family:'Arial'; font-size:6px;">2</text>
    </g><g ewd:figtype="w2w" ewd:code="HB4" ewd:pin_no="14" ewd:figID="102">
      <path style="fill:#FFFFFF;stroke:#FFFFFF;stroke-width:0;stroke-linecap:round;stroke-linejoin:round;" d="M 2892.57,496.93 L 2888.32, 492.68 L 2884.07, 496.93 L 2884.07, 490.38 L 2892.57, 490.38 L 2892.57, 496.93" />
      <path style="fill:#FFFFFF;stroke:#FFFFFF;stroke-width:0;stroke-linecap:round;stroke-linejoin:round;" d="M 2892.57,494.1 L 2888.32, 489.85 L 2884.07, 494.1 L 2884.07, 487.55 L 2892.57, 487.55 L 2892.57, 494.1" />
      <path style="fill:none;stroke:#000000;stroke-width:0.85;" d="M 2892.57,494.63 L 2888.32, 490.38 L 2884.07, 494.63" />
      <path style="fill:none;stroke:#000000;stroke-width:0.85;" d="M 2892.57,491.8 L 2888.32, 487.55 L 2884.07, 491.8" />
      <path style="fill:none;stroke:#000000;stroke-width:0.85;stroke-linecap:round;stroke-linejoin:round;" d="M 2898.24,479.04 L 2898.24, 487.54 L 2878.4, 487.54 L 2878.4, 479.04 L 2898.24, 479.04" />
      <text transform="matrix(1 0 0 1 2870.3076 484.9971)" style="font-family:'Arial'; font-size:6px;">14</text>
    </g><g ewd:figtype="w2w" ewd:code="BP1" ewd:pin_no="7" ewd:figID="103">
      <path style="fill:#FFFFFF;stroke:#FFFFFF;stroke-width:0;stroke-linecap:round;stroke-linejoin:round;" d="M 2892.57,539.45 L 2888.32, 535.2 L 2884.07, 539.45 L 2884.07, 532.9 L 2892.57, 532.9 L 2892.57, 539.45" />
      <path style="fill:#FFFFFF;stroke:#FFFFFF;stroke-width:0;stroke-linecap:round;stroke-linejoin:round;" d="M 2892.57,536.62 L 2888.32, 532.37 L 2884.07, 536.62 L 2884.07, 530.07 L 2892.57, 530.07 L 2892.57, 536.62" />
      <path style="fill:none;stroke:#000000;stroke-width:0.85;" d="M 2892.57,537.15 L 2888.32, 532.9 L 2884.07, 537.15" />
      <path style="fill:none;stroke:#000000;stroke-width:0.85;" d="M 2892.57,534.32 L 2888.32, 530.07 L 2884.07, 534.32" />
      <path style="fill:none;stroke:#000000;stroke-width:0.85;stroke-linecap:round;stroke-linejoin:round;" d="M 2898.24,521.56 L 2898.24, 530.06 L 2878.4, 530.06 L 2878.4, 521.56 L 2898.24, 521.56" />
      <text transform="matrix(1 0 0 1 2873.6445 527.5166)" style="font-family:'Arial'; font-size:6px;">7</text>
    </g><g ewd:figtype="w2w" ewd:code="Ph1" ewd:pin_no="4" ewd:figID="104">
      <path style="fill:#FFFFFF;stroke:#FFFFFF;stroke-width:0;stroke-linecap:round;stroke-linejoin:round;" d="M 2892.57,581.97 L 2888.32, 577.72 L 2884.07, 581.97 L 2884.07, 575.42 L 2892.57, 575.42 L 2892.57, 581.97" />
      <path style="fill:#FFFFFF;stroke:#FFFFFF;stroke-width:0;stroke-linecap:round;stroke-linejoin:round;" d="M 2892.57,579.13 L 2888.32, 574.88 L 2884.07, 579.13 L 2884.07, 572.58 L 2892.57, 572.58 L 2892.57, 579.13" />
      <path style="fill:none;stroke:#000000;stroke-width:0.85;" d="M 2892.57,579.67 L 2888.32, 575.42 L 2884.07, 579.67" />
      <path style="fill:none;stroke:#000000;stroke-width:0.85;" d="M 2892.57,576.83 L 2888.32, 572.58 L 2884.07, 576.83" />
      <path style="fill:none;stroke:#000000;stroke-width:0.85;stroke-linecap:round;stroke-linejoin:round;" d="M 2898.24,564.08 L 2898.24, 572.58 L 2878.4, 572.58 L 2878.4, 564.08 L 2898.24, 564.08" />
      <text transform="matrix(1 0 0 1 2873.6445 570.0361)" style="font-family:'Arial'; font-size:6px;">4</text>
    </g><g ewd:figtype="conn" ewd:code="h1" ewd:figID="43">
      <path style="fill:none;stroke:#000000;stroke-width:0.85;" d="M 2888.32,683.13 L 2888.32, 674.27" />
      <path style="fill:none;stroke:#000000;stroke-width:0.85;" d="M 2888.32,657.97 L 2888.32, 649.11" />
      <path d="M 2893.99,656.41 L 2889.68, 660.47 L 2892.63, 662.17 L 2893.99, 656.41" style="stroke-linecap:round;stroke-linejoin:round;" />
      <path style="fill:none;stroke:#000000;stroke-width:0.85;" d="M 2882.65,676.05 L 2891.15, 661.32" />
      <path style="fill:none;stroke:#000000;stroke-width:0.85;" d="M 2888.32,657.62 L 2890.78, 659.04 L 2885.87, 661.87 L 2890.78, 664.7 L 2885.87, 667.54 L 2890.78, 670.37 L 2885.87, 673.2 L 2888.33, 674.62" />
      <path style="fill:none;stroke:#000000;stroke-width:1.417;stroke-linecap:round;stroke-linejoin:round;" d="M 2896.82,683.13 L 2896.82, 649.12 L 2879.81, 649.12 L 2879.81, 683.13 L 2896.82, 683.13" />
      <text transform="matrix(1 0 0 1 2880.0215 690.5088)" style="font-family:'Arial'; font-size:6px;">2</text>
      <text transform="matrix(1 0 0 1 2880.0215 645.1543)" style="font-family:'Arial'; font-size:6px;">3</text>
      <g ewd:figtype="title">
        <text transform="matrix(0 -1 1 0 2904.9072 691.6357)" style="font-family:'Arial'; font-size:6px;">h1</text>
        <text transform="matrix(0 -1 1 0 2911.9951 691.6357)" style="font-family:'Arial'; font-size:6px;" ewd:textID="58">Fuel Sender Gage</text>
      </g>
    </g><g ewd:figtype="conn" ewd:code="h2" ewd:figID="44">
      <path style="fill:none;stroke:#000000;stroke-width:0.85;" d="M 2990.37,683.13 L 2990.37, 674.27" />
      <path style="fill:none;stroke:#000000;stroke-width:0.85;" d="M 2990.37,657.97 L 2990.37, 649.11" />
      <path d="M 2996.04,656.41 L 2991.73, 660.47 L 2994.68, 662.17 L 2996.04, 656.41" style="stroke-linecap:round;stroke-linejoin:round;" />
      <path style="fill:none;stroke:#000000;stroke-width:0.85;" d="M 2984.7,676.05 L 2993.2, 661.32" />
      <path style="fill:none;stroke:#000000;stroke-width:0.85;" d="M 2990.37,657.62 L 2992.83, 659.04 L 2987.92, 661.87 L 2992.83, 664.7 L 2987.92, 667.54 L 2992.83, 670.37 L 2987.92, 673.2 L 2990.38, 674.62" />
      <path style="fill:none;stroke:#000000;stroke-width:1.417;stroke-linecap:round;stroke-linejoin:round;" d="M 2998.87,683.13 L 2998.87, 649.12 L 2981.86, 649.12 L 2981.86, 683.13 L 2998.87, 683.13" />
      <text transform="matrix(1 0 0 1 2982.0684 690.5088)" style="font-family:'Arial'; font-size:6px;">2</text>
      <text transform="matrix(1 0 0 1 2982.0684 645.1543)" style="font-family:'Arial'; font-size:6px;">3</text>
      <g ewd:figtype="title">
        <text transform="matrix(0 -1 1 0 3006.9541 691.6357)" style="font-family:'Arial'; font-size:6px;">h2</text>
        <text transform="matrix(0 -1 1 0 3014.042 691.6357)" style="font-family:'Arial'; font-size:6px;" ewd:textID="59">Fuel Suction Pump and Gage <tspan x="0" dy="1em">Assembly</tspan></text>
      </g>
    </g><g ewd:figtype="w2w" ewd:code="HA1" ewd:pin_no="21" ewd:figID="105">
      <path style="fill:#FFFFFF;stroke:#FFFFFF;stroke-width:0;stroke-linecap:round;stroke-linejoin:round;" d="M 3062.66,496.93 L 3058.41, 492.68 L 3054.16, 496.93 L 3054.16, 490.38 L 3062.66, 490.38 L 3062.66, 496.93" />
      <path style="fill:#FFFFFF;stroke:#FFFFFF;stroke-width:0;stroke-linecap:round;stroke-linejoin:round;" d="M 3062.66,494.1 L 3058.41, 489.85 L 3054.16, 494.1 L 3054.16, 487.55 L 3062.66, 487.55 L 3062.66, 494.1" />
      <path style="fill:none;stroke:#000000;stroke-width:0.85;" d="M 3062.66,494.63 L 3058.41, 490.38 L 3054.16, 494.63" />
      <path style="fill:none;stroke:#000000;stroke-width:0.85;" d="M 3062.66,491.8 L 3058.41, 487.55 L 3054.16, 491.8" />
      <path style="fill:none;stroke:#000000;stroke-width:0.85;stroke-linecap:round;stroke-linejoin:round;" d="M 3068.33,479.04 L 3068.33, 487.54 L 3048.49, 487.54 L 3048.49, 479.04 L 3068.33, 479.04" />
      <text transform="matrix(1 0 0 1 3040.3975 484.9971)" style="font-family:'Arial'; font-size:6px;">21</text>
    </g><g ewd:figtype="w2w" ewd:code="HA1" ewd:pin_no="12" ewd:figID="106">
      <path style="fill:#FFFFFF;stroke:#FFFFFF;stroke-width:0;stroke-linecap:round;stroke-linejoin:round;" d="M 3113.68,496.93 L 3109.43, 492.68 L 3105.18, 496.93 L 3105.18, 490.38 L 3113.68, 490.38 L 3113.68, 496.93" />
      <path style="fill:#FFFFFF;stroke:#FFFFFF;stroke-width:0;stroke-linecap:round;stroke-linejoin:round;" d="M 3113.68,494.1 L 3109.43, 489.85 L 3105.18, 494.1 L 3105.18, 487.55 L 3113.68, 487.55 L 3113.68, 494.1" />
      <path style="fill:none;stroke:#000000;stroke-width:0.85;" d="M 3113.68,494.63 L 3109.43, 490.38 L 3105.18, 494.63" />
      <path style="fill:none;stroke:#000000;stroke-width:0.85;" d="M 3113.68,491.8 L 3109.43, 487.55 L 3105.18, 491.8" />
      <path style="fill:none;stroke:#000000;stroke-width:0.85;stroke-linecap:round;stroke-linejoin:round;" d="M 3119.35,479.04 L 3119.35, 487.54 L 3099.51, 487.54 L 3099.51, 479.04 L 3119.35, 479.04" />
      <text transform="matrix(1 0 0 1 3091.4209 484.9971)" style="font-family:'Arial'; font-size:6px;">12</text>
    </g><g ewd:figtype="conn" ewd:code="A14" ewd:figID="45">
      <path style="fill:none;stroke:#000000;stroke-width:0.85;" d="M 3109.43,649.12 L 3109.43, 640.26" />
      <path style="fill:none;stroke:#000000;stroke-width:0.85;" d="M 3109.43,623.96 L 3109.43, 615.1" />
      <path style="fill:none;stroke:#000000;stroke-width:0.85;" d="M 3109.43,623.6 L 3111.89, 625.02 L 3106.98, 627.85 L 3111.89, 630.68 L 3106.98, 633.52 L 3111.89, 636.35 L 3106.98, 639.18 L 3109.43, 640.6" />
      <path style="fill:none;stroke:#000000;stroke-width:1.417;stroke-linecap:round;stroke-linejoin:round;" d="M 3117.94,649.12 L 3117.94, 615.1 L 3100.93, 615.1 L 3100.93, 649.11 L 3117.94, 649.11" />
      <text transform="matrix(1 0 0 1 3101.1348 656.4922)" style="font-family:'Arial'; font-size:6px;">1</text>
      <text transform="matrix(1 0 0 1 3101.1348 611.1377)" style="font-family:'Arial'; font-size:6px;">2</text>
      <g ewd:figtype="title">
        <text transform="matrix(0 -1 1 0 3126.0205 649.1162)" style="font-family:'Arial'; font-size:6px;">A14</text>
        <text transform="matrix(0 -1 1 0 3133.1064 649.1162)" style="font-family:'Arial'; font-size:6px;" ewd:textID="24">Ambient Temp. Sensor</text>
      </g>
    </g><g ewd:figtype="gp" ewd:code="H1" ewd:figID="107">
      <path style="fill:none;stroke:#000000;stroke-width:0.85;" d="M 3220.98,708.63 L 3220.98, 711.46" />
      <path style="fill:none;stroke:#000000;stroke-width:0.85;" d="M 3219.56,719.97 L 3222.4, 719.97" />
      <path style="fill:none;stroke:#000000;stroke-width:0.85;" d="M 3218.14,717.14 L 3223.81, 717.14" />
      <path style="fill:none;stroke:#000000;stroke-width:0.85;" d="M 3215.31,714.3 L 3226.65, 714.3" />
      <path style="fill:none;stroke:#000000;stroke-width:0.85;" d="M 3212.47,711.47 L 3229.48, 711.47" />
    </g><g ewd:figtype="annex" ewd:code="" ewd:figID="1306">
      <path style="fill:none;stroke:#000000;stroke-width:1.417;stroke-linecap:round;stroke-linejoin:round;" d="M 3226.61,167.21 L 3220.94, 178.55 L 3215.27, 167.21" />
      <text transform="matrix(0 -1 1 0 3222.9785 161.8159)" style="font-family:'Arial'; font-size:6px;" ewd:textID="46">DRL Relay</text>
    </g><text transform="matrix(0 -1 1 0 2782.3213 569.9023)" style="font-family:'Arial'; font-size:6px;">W-B</text><text transform="matrix(0 -1 1 0 2782.3057 680.4707)" style="font-family:'Arial'; font-size:6px;">W-B</text><text transform="matrix(0 -1 1 0 3217.0234 467.8457)" style="font-family:'Arial'; font-size:6px;">W-B</text><text transform="matrix(0 -1 1 0 3216.9951 200.3975)" style="font-family:'Arial'; font-size:6px;">Y</text><text transform="matrix(1 0 0 1 3246.3242 670.6504)" style="font-family:'Arial'; font-size:6px;">W-B</text><text transform="matrix(0 -1 1 0 2833.3467 506.5469)" style="font-family:'Arial'; font-size:6px;">Y</text><text transform="matrix(0 -1 1 0 2833.3467 549.0664)" style="font-family:'Arial'; font-size:6px;">Y</text><text transform="matrix(0 -1 1 0 2833.3467 625.6016)" style="font-family:'Arial'; font-size:6px;">Y</text><text transform="matrix(0 -1 1 0 2833.3467 464.0273)" style="font-family:'Arial'; font-size:6px;">Y</text><text transform="matrix(0 -1 1 0 2884.3701 507.377)" style="font-family:'Arial'; font-size:6px;">W</text><text transform="matrix(0 -1 1 0 2884.3701 549.8965)" style="font-family:'Arial'; font-size:6px;">W</text><text transform="matrix(0 -1 1 0 2884.3701 626.4316)" style="font-family:'Arial'; font-size:6px;">W</text><text transform="matrix(0 -1 1 0 2943.8975 625.6016)" style="font-family:'Arial'; font-size:6px;">Y</text><text transform="matrix(0 -1 1 0 2986.417 626.4316)" style="font-family:'Arial'; font-size:6px;">W</text><text transform="matrix(0 -1 1 0 2884.3701 464.1924)" style="font-family:'Arial'; font-size:6px;">R</text><text transform="matrix(0 -1 1 0 3054.46 549.3984)" style="font-family:'Arial'; font-size:6px;">G</text><text transform="matrix(0 -1 1 0 3105.4834 549.8965)" style="font-family:'Arial'; font-size:6px;">W</text><text transform="matrix(0 -1 1 0 3054.46 464.3594)" style="font-family:'Arial'; font-size:6px;">G</text><text transform="matrix(0 -1 1 0 3105.4834 464.8574)" style="font-family:'Arial'; font-size:6px;">W</text><text transform="matrix(0 -1 1 0 3217.0234 620.916)" style="font-family:'Arial'; font-size:6px;">W-B</text><text transform="matrix(0 -1 1 0 2955.2334 628.4492)" style="font-family:'Arial'; font-size:6px;">(*9)</text><text transform="matrix(0 -1 1 0 2997.7529 628.4492)" style="font-family:'Arial'; font-size:6px;">(*9)</text><text transform="matrix(0 -1 1 0 2844.6826 628.4492)" style="font-family:'Arial'; font-size:6px;">(*3)</text><text transform="matrix(0 -1 1 0 2895.7061 628.4492)" style="font-family:'Arial'; font-size:6px;">(*3)</text></svg>