﻿<?xml version="1.0" encoding="utf-8"?>
<!-- Generator: Adobe Illustrator 10.0, SVG Export Plug-In . SVG Version: 3.0.0 Build 77)  -->
<!DOCTYPE svg PUBLIC "-//W3C//DTD SVG 1.0//EN" "http://www.w3.org/TR/2001/REC-SVG-20010904/DTD/svg10.dtd"[
   <!ENTITY ns_flows "http://ns.adobe.com/Flows/1.0/">
   <!ENTITY ns_svg "http://www.w3.org/2000/svg">
   <!ENTITY ns_xlink "http://www.w3.org/1999/xlink">
   <!ENTITY st0 "font-size:7px;font-family:'MS-PGothic';adobe-font-script:japanese;">
   <!ENTITY st1 "font-size:6px;font-family:'ArialMT';">
   <!ENTITY st2 "fill:#FFFFFF;stroke:#000000; stroke-width:1.41;stroke-linecap:round;stroke-linejoin:round;">
   <!ENTITY st3 "fill:#FFFFCC;stroke:#FFFFCC; stroke-width:0.1;stroke-linecap:round;stroke-linejoin:round;">
   <!ENTITY st4 "fill:#CCCCCC;stroke:#CCCCCC; stroke-width:0.1;stroke-linecap:round;stroke-linejoin:round;">
   <!ENTITY st5 "fill:#CCECF4;stroke:#000000; stroke-width:1.133;stroke-linecap:round;stroke-linejoin:round;">
   <!ENTITY st6 "fill:none;stroke-linecap:butt; stroke-linejoin:round;">
   <!ENTITY st7 "fill:none;stroke:#000000;stroke-linecap:round;stroke-linejoin:round;">
   <!ENTITY st8 "enable-background:new;">
   <!ENTITY st9 "fill:#000000;stroke:#000000; stroke-linecap:round;stroke-linejoin:round;">
   <!ENTITY st10 "font-size:9px;font-family:'ArialMT';">
   <!ENTITY st11 "font-size:9px;font-family:'Svg Symbol';">
   <!ENTITY st12 "font-size:6px;font-family:'Svg Symbol';">
   <!ENTITY st13 "fill:none;stroke:#ff0000;stroke-linecap:round;stroke-linejoin:round;">
   <!ENTITY st14 "fill:#FFFF00;stroke:#FFFF00; stroke-width:0.1;stroke-linecap:round;stroke-linejoin:round;">
   <!ENTITY st15 "font-size:6px;font-family:'MS-PGothic';adobe-font-script:japanese;">
   <!ENTITY st16 "1.00 0.00 0.00 1.00">
   <!ENTITY st17 "0.00 -1.00 1.00 0.00">
   <!ENTITY st18 "font-size:6px;font-family:'Arial';">
   <!ENTITY st19 "font-size:9px;font-family:'Arial';">
   <!ENTITY st20 "font-size:6px;font-family:'MS-PGothic','MS PGothic';adobe-font-script:japanese;">
   <!ENTITY st21 "font-size:7px;font-family:'MS-PGothic','MS PGothic';adobe-font-script:japanese;">
   <!ATTLIST svg
       xmlns:ewd CDATA #FIXED "http://shcl.co.jp/ewd"
       xmlns:a CDATA #FIXED "http://ns.adobe.com/AdobeSVGViewerExtensions/3.0/"
       ewd:ver CDATA #IMPLIED >
   <!ATTLIST a
       ewd:lineID CDATA #IMPLIED
       ewd:groupID CDATA #IMPLIED
       ewd:figtype CDATA #IMPLIED
       ewd:code CDATA #IMPLIED
       ewd:figID CDATA #IMPLIED
       ewd:pinNo CDATA #IMPLIED
       ewd:comment CDATA #IMPLIED >
   <!ATTLIST g
       ewd:lineID CDATA #IMPLIED
       ewd:groupID CDATA #IMPLIED
       ewd:figtype CDATA #IMPLIED
       ewd:code CDATA #IMPLIED
       ewd:figID CDATA #IMPLIED
       ewd:pinNo CDATA #IMPLIED
       ewd:comment CDATA #IMPLIED >
   <!ATTLIST text
       ewd:textID CDATA #IMPLIED >
   <!ATTLIST title
       ewd:textID CDATA #IMPLIED >
]>
<svg xmlns="http://www.w3.org/2000/svg" xmlns:xlink="http://www.w3.org/1999/xlink" width="4220.21" height="721" viewBox="0 0 4220.21 721" xml:space="preserve" xmlns:ewd="http://shcl.co.jp/ewd" ewd:ver="2.0">
  
  <defs>
    <font horiz-adv-x="1229">
      <font-face font-family="Svg Symbol" units-per-em="2048" panose-1="5 5 1 2 1 7 6 2 5 7" ascent="2059" descent="450" alphabetic="0" />
      <missing-glyph d="M 103,0 l 0,1280 1024,0 0,-1280 -1024,0 z m 32,32 l 960,0 0,1216 -960,0 0,-1216 z" />
      <glyph d4p1:unicode="" horiz-adv-x="1573" d="M 1517,0 l -567,0 24,279 q 141,59 207.5,168 66.5,109 66.5,306 0,272 -132.5,417.5 -132.5,145.5 -333.5,145.5 -194,0 -328,-147.5 -134,-147.5 -134,-401.5 0,-200 68.5,-319 68.5,-119 206.5,-169 l 25,-279 -564,0 0,279 35,0 q 3,-61 32,-83 45,-35 137,-35 l 270,0 0,70 q -210,61 -324.5,209 -114.5,148 -114.5,349 0,252 186.5,425 186.5,173 504.5,173 195,0 358.5,-73.5 163.5,-73.5 252,-214.5 88.5,-141 88.5,-310 0,-207 -121.5,-360.5 -121.5,-153.5 -317.5,-197.5 l -8,-70 275,0 q 92,0 128,28 36,28 42,90 l 38,0 0,-279 z" xmlns:d4p1="def-glyph-attr-unicode" />
    </font>
  </defs>
  
<g ewd:figtype="jb" ewd:code="13" ewd:figID="6">
      <path style="fill:none;stroke:#000000;stroke-width:0.85;" d="M 2148.48,490.38 L 2148.48, 518.73" />
      <path d="M 2148.48,518.72 L 2151.31, 515.89 L 2151.31, 513.06 L 2148.48, 515.89 L 2145.64, 513.06 L 2145.64, 515.89 L 2148.48, 518.72" style="stroke-linecap:round;stroke-linejoin:round;" />
      <path style="fill:none;stroke:#000000;stroke-width:0.85;stroke-linecap:round;stroke-linejoin:round;" d="M 2152.73,530.06 C 2155.86 530.06 2158.4 527.52 2158.4 524.39 C 2158.4 521.26 2155.86 518.72 2152.73 518.72 L 2144.23, 518.72 C 2141.1 518.72 2138.56 521.2599 2138.56 524.39 C 2138.56 527.52 2141.1 530.06 2144.23 530.06 L 2152.73, 530.06" />
      <path d="M 2148.48,490.38 L 2151.31, 493.22 L 2151.31, 496.05 L 2148.48, 493.22 L 2145.64, 496.05 L 2145.64, 493.22 L 2148.48, 490.38" style="stroke-linecap:round;stroke-linejoin:round;" />
      <path style="fill:none;stroke:#000000;stroke-width:0.85;stroke-linecap:round;stroke-linejoin:round;" d="M 2152.73,490.38 C 2155.86 490.38 2158.4 487.84 2158.4 484.71 C 2158.4 481.58 2155.86 479.04 2152.73 479.04 L 2144.23, 479.04 C 2141.1 479.04 2138.56 481.58 2138.56 484.71 C 2138.56 487.84 2141.1 490.38 2144.23 490.38 L 2152.73, 490.38" />
      <text transform="matrix(1 0 0 1 2142.9736 526.0996)" style="font-family:'Arial'; font-size:6px;">13H</text>
      <text transform="matrix(1 0 0 1 2130.4658 526.0996)" style="font-family:'Arial'; font-size:6px;">13</text>
      <text transform="matrix(1 0 0 1 2142.9736 486.4131)" style="font-family:'Arial'; font-size:6px;">13D</text>
      <text transform="matrix(1 0 0 1 2133.8027 486.4131)" style="font-family:'Arial'; font-size:6px;">5</text>
    </g><g ewd:figtype="jb" ewd:code="6" ewd:figID="5">
      <path d="M 2243.44,504.54 C 2243.44 505.32 2242.81 505.96 2242.02 505.96 C 2241.24 505.96 2240.6 505.33 2240.6 504.54 C 2240.6 503.76 2241.23 503.12 2242.02 503.12 C 2242.8 503.13 2243.44 503.76 2243.44 504.54" style="stroke-linecap:round;stroke-linejoin:round;" />
      <path d="M 2294.46,504.54 C 2294.46 505.32 2293.83 505.96 2293.04 505.96 C 2292.26 505.96 2291.62 505.33 2291.62 504.54 C 2291.62 503.76 2292.25 503.12 2293.04 503.12 C 2293.83 503.13 2294.46 503.76 2294.46 504.54" style="stroke-linecap:round;stroke-linejoin:round;" />
      <path style="fill:none;stroke:#000000;stroke-width:0.85;" d="M 2242.02,518.72 L 2242.02, 504.54" />
      <path style="fill:none;stroke:#000000;stroke-width:0.85;" d="M 2293.04,518.72 L 2293.04, 504.54" />
      <path style="fill:none;stroke:#000000;stroke-width:0.85;" d="M 2199.5,518.72 L 2199.5, 504.55 L 2344.07, 504.55 L 2344.07, 518.72" />
      <path d="M 2293.04,518.72 L 2295.87, 515.89 L 2295.87, 513.06 L 2293.04, 515.89 L 2290.2, 513.06 L 2290.2, 515.89 L 2293.04, 518.72" style="stroke-linecap:round;stroke-linejoin:round;" />
      <path style="fill:none;stroke:#000000;stroke-width:0.85;stroke-linecap:round;stroke-linejoin:round;" d="M 2297.3,530.06 C 2300.43 530.06 2302.97 527.52 2302.97 524.39 C 2302.97 521.26 2300.43 518.72 2297.3 518.72 L 2288.8, 518.72 C 2285.67 518.72 2283.13 521.2599 2283.13 524.39 C 2283.13 527.52 2285.67 530.06 2288.8 530.06 L 2297.3, 530.06" />
      <path d="M 2242.02,518.72 L 2244.86, 515.89 L 2244.86, 513.06 L 2242.02, 515.89 L 2239.19, 513.06 L 2239.19, 515.89 L 2242.02, 518.72" style="stroke-linecap:round;stroke-linejoin:round;" />
      <path style="fill:none;stroke:#000000;stroke-width:0.85;stroke-linecap:round;stroke-linejoin:round;" d="M 2246.27,530.06 C 2249.4 530.06 2251.94 527.52 2251.94 524.39 C 2251.94 521.26 2249.4 518.72 2246.27 518.72 L 2237.77, 518.72 C 2234.64 518.72 2232.1 521.2599 2232.1 524.39 C 2232.1 527.52 2234.64 530.06 2237.77 530.06 L 2246.27, 530.06" />
      <path d="M 2344.07,518.72 L 2346.9, 515.89 L 2346.9, 513.06 L 2344.07, 515.89 L 2341.23, 513.06 L 2341.23, 515.89 L 2344.07, 518.72" style="stroke-linecap:round;stroke-linejoin:round;" />
      <path style="fill:none;stroke:#000000;stroke-width:0.85;stroke-linecap:round;stroke-linejoin:round;" d="M 2348.32,530.06 C 2351.45 530.06 2353.99 527.52 2353.99 524.39 C 2353.99 521.26 2351.45 518.72 2348.32 518.72 L 2339.82, 518.72 C 2336.69 518.72 2334.15 521.2599 2334.15 524.39 C 2334.15 527.52 2336.69 530.06 2339.82 530.06 L 2348.32, 530.06" />
      <path d="M 2199.5,518.72 L 2202.33, 515.89 L 2202.33, 513.06 L 2199.5, 515.89 L 2196.66, 513.06 L 2196.66, 515.89 L 2199.5, 518.72" style="stroke-linecap:round;stroke-linejoin:round;" />
      <path style="fill:none;stroke:#000000;stroke-width:0.85;stroke-linecap:round;stroke-linejoin:round;" d="M 2203.75,530.06 C 2206.88 530.06 2209.42 527.52 2209.42 524.39 C 2209.42 521.26 2206.88 518.72 2203.75 518.72 L 2195.25, 518.72 C 2192.12 518.72 2189.58 521.2599 2189.58 524.39 C 2189.58 527.52 2192.12 530.06 2195.25 530.06 L 2203.75, 530.06" />
      <text transform="matrix(1 0 0 1 2289.374 526.0996)" style="font-family:'Arial'; font-size:6px;">6B</text>
      <text transform="matrix(1 0 0 1 2278.3691 526.0996)" style="font-family:'Arial'; font-size:6px;">2</text>
      <text transform="matrix(1 0 0 1 2238.3486 526.0996)" style="font-family:'Arial'; font-size:6px;">6B</text>
      <text transform="matrix(1 0 0 1 2227.3438 526.0996)" style="font-family:'Arial'; font-size:6px;">4</text>
      <text transform="matrix(1 0 0 1 2340.3975 526.0996)" style="font-family:'Arial'; font-size:6px;">6B</text>
      <text transform="matrix(1 0 0 1 2329.3926 526.0996)" style="font-family:'Arial'; font-size:6px;">3</text>
      <text transform="matrix(1 0 0 1 2195.8311 526.0996)" style="font-family:'Arial'; font-size:6px;">6B</text>
      <text transform="matrix(1 0 0 1 2184.8262 526.0996)" style="font-family:'Arial'; font-size:6px;">1</text>
    </g><g ewd:figtype="w2w" ewd:code="HB1" ewd:pin_no="49" ewd:figID="100">
      <path style="fill:#FFFFFF;stroke:#FFFFFF;stroke-width:0;stroke-linecap:round;stroke-linejoin:round;" d="M 1804.06,547.95 L 1799.81, 543.7 L 1795.56, 547.95 L 1795.56, 541.4 L 1804.06, 541.4 L 1804.06, 547.95" />
      <path style="fill:#FFFFFF;stroke:#FFFFFF;stroke-width:0;stroke-linecap:round;stroke-linejoin:round;" d="M 1804.06,545.12 L 1799.81, 540.87 L 1795.56, 545.12 L 1795.56, 538.57 L 1804.06, 538.57 L 1804.06, 545.12" />
      <path style="fill:none;stroke:#000000;stroke-width:0.85;" d="M 1804.06,545.65 L 1799.81, 541.4 L 1795.56, 545.65" />
      <path style="fill:none;stroke:#000000;stroke-width:0.85;" d="M 1804.06,542.82 L 1799.81, 538.57 L 1795.56, 542.82" />
      <path style="fill:none;stroke:#000000;stroke-width:0.85;stroke-linecap:round;stroke-linejoin:round;" d="M 1809.73,530.06 L 1809.73, 538.56 L 1789.89, 538.56 L 1789.89, 530.06 L 1809.73, 530.06" />
      <text transform="matrix(1 0 0 1 1781.8008 536.0205)" style="font-family:'Arial'; font-size:6px;">49</text>
    </g><g ewd:figtype="conn" ewd:code="B3" ewd:figID="39">
      <path style="fill:none;stroke:#000000;stroke-width:0.85;" d="M 1799.81,640.61 L 1799.81, 644.86" />
      <path style="fill:none;stroke:#000000;stroke-width:0.85;" d="M 1798.39,691.63 L 1801.22, 691.63" />
      <path style="fill:none;stroke:#000000;stroke-width:0.85;" d="M 1796.98,688.8 L 1802.65, 688.8" />
      <path style="fill:none;stroke:#000000;stroke-width:0.85;" d="M 1794.14,685.96 L 1805.48, 685.96" />
      <path style="fill:none;stroke:#000000;stroke-width:0.85;" d="M 1791.31,683.13 L 1808.32, 683.13" />
      <path style="fill:none;stroke:#000000;stroke-width:1.417;" d="M 1805.49,644.9 L 1800.17, 667.58" />
      <path style="fill:none;stroke:#000000;stroke-width:0.85;stroke-linecap:round;stroke-linejoin:round;" d="M 1799.81,647.7 C 1800.59 647.7 1801.23 647.07 1801.23 646.28 C 1801.2299609375 645.49005859375 1800.6 644.86 1799.81 644.86 C 1799.03 644.86 1798.39 645.49 1798.39 646.28 C 1798.39002929687 647.07005859375 1799.03 647.7 1799.81 647.7" />
      <path style="fill:none;stroke:#000000;stroke-width:0.85;stroke-linecap:round;stroke-linejoin:round;" d="M 1799.81,670.37 C 1800.59 670.37 1801.23 669.74 1801.23 668.95 C 1801.23 668.17 1800.6 667.53 1799.81 667.53 C 1799.03 667.53 1798.39 668.16 1798.39 668.95 C 1798.39 669.74 1799.03 670.37 1799.81 670.37" />
      <path style="fill:none;stroke:#000000;stroke-width:0.85;" d="M 1799.81,683.13 L 1799.81, 670.37" />
      <path style="fill:none;stroke:#000000;stroke-width:1.417;stroke-linecap:round;stroke-linejoin:round;" d="M 1808.32,674.63 L 1808.32, 640.61 L 1791.31, 640.61 L 1791.31, 674.63 L 1808.32, 674.63" />
      <text transform="matrix(1 0 0 1 1791.5146 636.6465)" style="font-family:'Arial'; font-size:6px;">1</text>
      <g ewd:figtype="title">
        <text transform="matrix(0 -1 1 0 1816.4004 674.625)" style="font-family:'Arial'; font-size:6px;">B3</text>
        <text transform="matrix(0 -1 1 0 1823.4873 674.625)" style="font-family:'Arial'; font-size:6px;" ewd:textID="72">Parking Brake SW</text>
      </g>
    </g><g ewd:figtype="conn" ewd:code="B83" ewd:figID="40">
      <path d="M 1801.23,581.09 C 1801.23 581.8701 1800.6 582.51 1799.81 582.51 C 1799.03 582.51 1798.39 581.88 1798.39 581.09 C 1798.39 580.31 1799.02 579.67 1799.81 579.67 C 1800.6 579.67 1801.23 580.3 1801.23 581.09" style="stroke-linecap:round;stroke-linejoin:round;" />
      <path d="M 1869.26,581.09 C 1869.26 581.8701 1868.63 582.51 1867.84 582.51 C 1867.06 582.51 1866.42 581.88 1866.42 581.09 C 1866.42 580.31 1867.05 579.67 1867.84 579.67 C 1868.63 579.67 1869.26 580.3 1869.26 581.09" style="stroke-linecap:round;stroke-linejoin:round;" />
      <path style="fill:none;stroke:#000000;stroke-width:0.85;" d="M 1799.81,572.58 L 1799.81, 589.59" />
      <path style="fill:none;stroke:#000000;stroke-width:0.85;" d="M 1867.84,589.59 L 1867.84, 572.58" />
      <path style="fill:none;stroke:#000000;stroke-width:0.85;" d="M 1867.84,581.09 L 1799.81, 581.09" />
      <path style="fill:none;stroke:#000000;stroke-width:1.417;stroke-linecap:round;stroke-linejoin:round;" d="M 1876.35,589.59 L 1876.35, 572.58 L 1791.31, 572.58 L 1791.31, 589.59 L 1876.35, 589.59" />
      <text transform="matrix(1 0 0 1 1856.209 596.9619)" style="font-family:'Arial'; font-size:6px;">14</text>
      <text transform="matrix(1 0 0 1 1788.1777 596.9619)" style="font-family:'Arial'; font-size:6px;">13</text>
      <text transform="matrix(1 0 0 1 1856.209 568.6152)" style="font-family:'Arial'; font-size:6px;">15</text>
      <text transform="matrix(1 0 0 1 1788.1777 568.6152)" style="font-family:'Arial'; font-size:6px;">12</text>
      <g ewd:figtype="title">
        <text transform="matrix(0 -1 1 0 1884.4502 589.5977)" style="font-family:'Arial'; font-size:6px;">B83</text>
        <text transform="matrix(0 -1 1 0 1891.5371 589.5977)" style="font-family:'Arial'; font-size:6px;" ewd:textID="69">Junction Connector</text>
      </g>
    </g><g ewd:figtype="annex" ewd:code="" ewd:figID="1311">
      <path style="fill:none;stroke:#000000;stroke-width:1.417;stroke-linecap:round;stroke-linejoin:round;" d="M 2247.69,586.75 L 2242.02, 598.09 L 2236.35, 586.75" />
      <text transform="matrix(0 -1 1 0 2245.0928 669.0791)" style="font-family:'Arial'; font-size:6px;" ewd:textID="87">Transponder Key ECU</text>
    </g><g ewd:figtype="annex" ewd:code="" ewd:figID="1314">
      <path style="fill:none;stroke:#000000;stroke-width:1.417;stroke-linecap:round;stroke-linejoin:round;" d="M 2003.92,484.71 L 1998.25, 496.05 L 1992.58, 484.71" />
      <text transform="matrix(0 -1 1 0 1965.9429 552.7432)" style="font-family:'Arial'; font-size:6px;" ewd:textID="41">Door Courtesy SW <tspan x="0" dy="1em">(Front LH) (RHD)</tspan></text>
      <text transform="matrix(0 -1 1 0 1981.5327 552.7432)" style="font-family:'Arial'; font-size:6px;" ewd:textID="42">Door Courtesy SW <tspan x="0" dy="1em">(Front RH) (LHD)</tspan></text>
      <text transform="matrix(0 -1 1 0 1997.1226 552.7432)" style="font-family:'Arial'; font-size:6px;" ewd:textID="44">Door Courtesy SW <tspan x="0" dy="1em">(Slide Door LH)</tspan></text>
      <text transform="matrix(0 -1 1 0 2012.7124 552.7432)" style="font-family:'Arial'; font-size:6px;" ewd:textID="45">Door Courtesy SW <tspan x="0" dy="1em">(Slide Door RH)</tspan></text>
      <text transform="matrix(0 -1 1 0 2028.3022 541.4033)" style="font-family:'Arial'; font-size:6px;" ewd:textID="25">Back Door <tspan x="0" dy="1em">Courtesy SW</tspan></text>
    </g><g ewd:figtype="annex" ewd:code="" ewd:figID="1315">
      <path style="fill:none;stroke:#000000;stroke-width:1.417;stroke-linecap:round;stroke-linejoin:round;" d="M 1935.89,484.71 L 1930.22, 496.05 L 1924.55, 484.71" />
      <text transform="matrix(0 -1 1 0 1919.1738 552.7432)" style="font-family:'Arial'; font-size:6px;" ewd:textID="40">Door Courtesy SW <tspan x="0" dy="1em">(Front LH) (LHD)</tspan></text>
      <text transform="matrix(0 -1 1 0 1934.7637 552.7432)" style="font-family:'Arial'; font-size:6px;" ewd:textID="43">Door Courtesy SW <tspan x="0" dy="1em">(Front RH) (RHD)</tspan></text>
    </g><g ewd:figtype="annex" ewd:code="" ewd:figID="1318">
      <path style="fill:none;stroke:#000000;stroke-width:1.417;stroke-linecap:round;stroke-linejoin:round;" d="M 1862.17,532.9 L 1867.84, 521.56 L 1873.51, 532.9" />
      <text transform="matrix(0 -1 1 0 1874.6563 516.2988)" style="font-family:'Arial'; font-size:6px;" ewd:textID="38">Door Control Relay <tspan x="0" dy="1em">(Power Slide Door LH)</tspan></text>
      <text transform="matrix(0 -1 1 0 1857.6484 516.2988)" style="font-family:'Arial'; font-size:6px;" ewd:textID="39">Door Control Relay <tspan x="0" dy="1em">(Power Slide Door RH)</tspan></text>
    </g><g ewd:figtype="annex" ewd:code="" ewd:figID="1319">
      <path style="fill:none;stroke:#000000;stroke-width:1.417;stroke-linecap:round;stroke-linejoin:round;" d="M 1873.51,629.27 L 1867.84, 640.61 L 1862.17, 629.27" />
      <text transform="matrix(0 -1 1 0 1865.8896 694.4678)" style="font-family:'Arial'; font-size:6px;" ewd:textID="80">Skid Control ECU <tspan x="0" dy="1em">with Actuator</tspan></text>
    </g><g ewd:figtype="annex" ewd:code="" ewd:figID="1350">
      <path style="fill:none;stroke:#000000;stroke-width:1.417;stroke-linecap:round;stroke-linejoin:round;" d="M 2080.46,484.71 L 2074.79, 496.05 L 2069.12, 484.71" />
      <text transform="matrix(0 -1 1 0 2058.0679 538.5732)" style="font-family:'Arial'; font-size:6px;" ewd:textID="25">Back Door <tspan x="0" dy="1em">Courtesy SW</tspan></text>
      <text transform="matrix(0 -1 1 0 2073.6577 575.415)" style="font-family:'Arial'; font-size:6px;" ewd:textID="26">Back Door Lock Assembly <tspan x="0" dy="1em">(Door Courtesy Switch)</tspan></text>
      <text transform="matrix(0 -1 1 0 2089.2476 561.2451)" style="font-family:'Arial'; font-size:6px;" ewd:textID="36">Diode <tspan x="0" dy="1em">(Door Courtesy NO.6)</tspan></text>
    </g><text transform="matrix(0 -1 1 0 1795.8633 515.0508)" style="font-family:'Arial'; font-size:6px;">B</text><text transform="matrix(0 -1 1 0 1795.8633 557.5703)" style="font-family:'Arial'; font-size:6px;">B</text><text transform="matrix(0 -1 1 0 1863.8945 557.5703)" style="font-family:'Arial'; font-size:6px;">B</text><text transform="matrix(0 -1 1 0 1795.8633 617.0977)" style="font-family:'Arial'; font-size:6px;">B</text><text transform="matrix(0 -1 1 0 1863.8945 617.0977)" style="font-family:'Arial'; font-size:6px;">B</text><text transform="matrix(0 -1 1 0 1795.8633 464.0273)" style="font-family:'Arial'; font-size:6px;">B</text><text transform="matrix(0 -1 1 0 1926.2764 464.3477)" style="font-family:'Arial'; font-size:6px;">G</text><text transform="matrix(0 -1 1 0 1994.3076 464.3477)" style="font-family:'Arial'; font-size:6px;">G</text><text transform="matrix(0 -1 1 0 2070.8428 464.3477)" style="font-family:'Arial'; font-size:6px;">G</text><text transform="matrix(0 -1 1 0 2144.5283 574.5762)" style="font-family:'Arial'; font-size:6px;">Y</text><text transform="matrix(0 -1 1 0 2238.0693 574.5762)" style="font-family:'Arial'; font-size:6px;">Y</text><text transform="matrix(0 -1 1 0 2144.5283 464.0254)" style="font-family:'Arial'; font-size:6px;">Y</text><text transform="matrix(0 -1 1 0 2249.4092 577.4102)" style="font-family:'Arial'; font-size:6px;">(*6)</text><text transform="matrix(0 -1 1 0 2155.8682 466.8594)" style="font-family:'Arial'; font-size:6px;">(*6)</text><text transform="matrix(0 -1 1 0 2155.8682 577.4102)" style="font-family:'Arial'; font-size:6px;">(*6)</text></svg>