﻿<?xml version="1.0" encoding="utf-8"?>
<!-- Generator: Adobe Illustrator 10.0, SVG Export Plug-In . SVG Version: 3.0.0 Build 77)  -->
<!DOCTYPE svg PUBLIC "-//W3C//DTD SVG 1.0//EN" "http://www.w3.org/TR/2001/REC-SVG-20010904/DTD/svg10.dtd"[
   <!ENTITY ns_flows "http://ns.adobe.com/Flows/1.0/">
   <!ENTITY ns_svg "http://www.w3.org/2000/svg">
   <!ENTITY ns_xlink "http://www.w3.org/1999/xlink">
   <!ENTITY st0 "font-size:7px;font-family:'MS-PGothic';adobe-font-script:japanese;">
   <!ENTITY st1 "font-size:6px;font-family:'ArialMT';">
   <!ENTITY st2 "fill:#FFFFFF;stroke:#000000; stroke-width:1.41;stroke-linecap:round;stroke-linejoin:round;">
   <!ENTITY st3 "fill:#FFFFCC;stroke:#FFFFCC; stroke-width:0.1;stroke-linecap:round;stroke-linejoin:round;">
   <!ENTITY st4 "fill:#CCCCCC;stroke:#CCCCCC; stroke-width:0.1;stroke-linecap:round;stroke-linejoin:round;">
   <!ENTITY st5 "fill:#CCECF4;stroke:#000000; stroke-width:1.133;stroke-linecap:round;stroke-linejoin:round;">
   <!ENTITY st6 "fill:none;stroke-linecap:butt; stroke-linejoin:round;">
   <!ENTITY st7 "fill:none;stroke:#000000;stroke-linecap:round;stroke-linejoin:round;">
   <!ENTITY st8 "enable-background:new;">
   <!ENTITY st9 "fill:#000000;stroke:#000000; stroke-linecap:round;stroke-linejoin:round;">
   <!ENTITY st10 "font-size:9px;font-family:'ArialMT';">
   <!ENTITY st11 "font-size:9px;font-family:'Svg Symbol';">
   <!ENTITY st12 "font-size:6px;font-family:'Svg Symbol';">
   <!ENTITY st13 "fill:none;stroke:#ff0000;stroke-linecap:round;stroke-linejoin:round;">
   <!ENTITY st14 "fill:#FFFF00;stroke:#FFFF00; stroke-width:0.1;stroke-linecap:round;stroke-linejoin:round;">
   <!ENTITY st15 "font-size:6px;font-family:'MS-PGothic';adobe-font-script:japanese;">
   <!ENTITY st16 "1.00 0.00 0.00 1.00">
   <!ENTITY st17 "0.00 -1.00 1.00 0.00">
   <!ENTITY st18 "font-size:6px;font-family:'Arial';">
   <!ENTITY st19 "font-size:9px;font-family:'Arial';">
   <!ENTITY st20 "font-size:6px;font-family:'MS-PGothic','MS PGothic';adobe-font-script:japanese;">
   <!ENTITY st21 "font-size:7px;font-family:'MS-PGothic','MS PGothic';adobe-font-script:japanese;">
   <!ATTLIST svg
       xmlns:ewd CDATA #FIXED "http://shcl.co.jp/ewd"
       xmlns:a CDATA #FIXED "http://ns.adobe.com/AdobeSVGViewerExtensions/3.0/"
       ewd:ver CDATA #IMPLIED >
   <!ATTLIST a
       ewd:lineID CDATA #IMPLIED
       ewd:groupID CDATA #IMPLIED
       ewd:figtype CDATA #IMPLIED
       ewd:code CDATA #IMPLIED
       ewd:figID CDATA #IMPLIED
       ewd:pinNo CDATA #IMPLIED
       ewd:comment CDATA #IMPLIED >
   <!ATTLIST g
       ewd:lineID CDATA #IMPLIED
       ewd:groupID CDATA #IMPLIED
       ewd:figtype CDATA #IMPLIED
       ewd:code CDATA #IMPLIED
       ewd:figID CDATA #IMPLIED
       ewd:pinNo CDATA #IMPLIED
       ewd:comment CDATA #IMPLIED >
   <!ATTLIST text
       ewd:textID CDATA #IMPLIED >
   <!ATTLIST title
       ewd:textID CDATA #IMPLIED >
]>
<svg xmlns="http://www.w3.org/2000/svg" xmlns:xlink="http://www.w3.org/1999/xlink" xmlns:a="http://ns.adobe.com/AdobeSVGViewerExtensions/3.0/" width="1062.97" height="721" viewBox="0 0 1062.97 721" style="overflow:visible;enable-background:new 0 0 1062.97 721" xml:space="preserve" xmlns:ewd="http://shcl.co.jp/ewd" onload="call_execInitLoadProc_svg('system')" ewd:ver="2.0">
  <script type="text/javascript" xlink:href="../../../../../system/js/ewd/fig/svgfig.js" />
  <defs>
    <font horiz-adv-x="1229">
      <font-face font-family="Svg Symbol" units-per-em="2048" panose-1="5 5 1 2 1 7 6 2 5 7" ascent="2059" descent="450" alphabetic="0" />
      <missing-glyph d="M 103,0 l 0,1280 1024,0 0,-1280 -1024,0 z m 32,32 l 960,0 0,1216 -960,0 0,-1216 z" />
      <glyph d4p1:unicode="" horiz-adv-x="1573" d="M 1517,0 l -567,0 24,279 q 141,59 207.5,168 66.5,109 66.5,306 0,272 -132.5,417.5 -132.5,145.5 -333.5,145.5 -194,0 -328,-147.5 -134,-147.5 -134,-401.5 0,-200 68.5,-319 68.5,-119 206.5,-169 l 25,-279 -564,0 0,279 35,0 q 3,-61 32,-83 45,-35 137,-35 l 270,0 0,70 q -210,61 -324.5,209 -114.5,148 -114.5,349 0,252 186.5,425 186.5,173 504.5,173 195,0 358.5,-73.5 163.5,-73.5 252,-214.5 88.5,-141 88.5,-310 0,-207 -121.5,-360.5 -121.5,-153.5 -317.5,-197.5 l -8,-70 275,0 q 92,0 128,28 36,28 42,90 l 38,0 0,-279 z" xmlns:d4p1="def-glyph-attr-unicode" />
    </font>
  </defs>
  <g id="ewd_top">
    <a ewd:lineID="36" style="cursor:pointer;">
      <path style="fill:none;stroke:#000000;stroke-width:5;" d="M 102,632.1 L 102, 635 L 116.2, 657.6 L 144.5, 657.6 L 144.5, 691.7" />
      <path style="fill:none;stroke:#FFFFFF;stroke-width:3.8;" d="M 102,632.1 L 102, 635 L 116.2, 657.6 L 144.5, 657.6 L 144.5, 691.7" />
      <path style="fill:none;stroke:#000000;" d="M 102,632.1 L 102, 635 L 116.2, 657.6 L 144.5, 657.6 L 144.5, 691.7" />
    </a>
    <a ewd:lineID="35" style="cursor:pointer;">
      <path style="fill:none;stroke:#000000;stroke-width:5;" d="M 102,632.1 L 102, 635 L 124.7, 649.1 L 187.1, 649.1 L 187.1, 691.7" />
      <path style="fill:none;stroke:#FFFFFF;stroke-width:3.8;" d="M 102,632.1 L 102, 635 L 124.7, 649.1 L 187.1, 649.1 L 187.1, 691.7" />
      <path style="fill:none;stroke:#000000;" d="M 102,632.1 L 102, 635 L 124.7, 649.1 L 187.1, 649.1 L 187.1, 691.7" />
    </a>
    <a ewd:lineID="11" style="cursor:pointer;">
      <path style="fill:none;stroke:#008837;stroke-width:5;" d="M 578.2,436.5 L 578.2, 439.4 L 600.9, 479.1 L 680.3, 479.1 L 680.3, 518.7" />
    </a>
    <a ewd:lineID="10" style="cursor:pointer;">
      <path style="fill:none;stroke:#008837;stroke-width:5;" d="M 578.2,436.5 L 578.2, 439.4 L 600.9, 470.5 L 782.3, 470.5 L 782.3, 518.7" />
    </a>
    <a ewd:lineID="9" style="cursor:pointer;">
      <path style="fill:none;stroke:#008837;stroke-width:5;" d="M 578.2,436.5 L 578.2, 439.4 L 600.9, 462 L 884.4, 462 L 884.4, 518.7" />
    </a>
    <a ewd:lineID="8" style="cursor:pointer;">
      <path style="fill:none;stroke:#008837;stroke-width:5;" d="M 578.2,436.5 L 578.2, 439.4 L 600.9, 453.5 L 986.4, 453.5 L 986.4, 518.7" />
    </a>
    <a ewd:lineID="5" style="cursor:pointer;">
      <path style="fill:none;stroke:#000000;stroke-width:5;" d="M 629.3,394 L 629.3, 405.4 L 651.9, 445 L 731.3, 445 L 731.3, 518.7" />
    </a>
    <a ewd:lineID="4" style="cursor:pointer;">
      <path style="fill:none;stroke:#000000;stroke-width:5;" d="M 629.3,394 L 629.3, 405.4 L 651.9, 436.5 L 833.4, 436.5 L 833.4, 518.7" />
    </a>
    <a ewd:lineID="3" style="cursor:pointer;">
      <path style="fill:none;stroke:#000000;stroke-width:5;" d="M 629.3,394 L 629.3, 405.4 L 651.9, 428 L 935.4, 428 L 935.4, 518.7" />
    </a>
    <a ewd:lineID="2" style="cursor:pointer;">
      <path style="fill:none;stroke:#000000;stroke-width:5;" d="M 629.3,394 L 629.3, 405.4 L 651.9, 419.5 L 1037.5, 419.5 L 1037.5, 518.7" />
    </a>
    <a ewd:lineID="6" style="cursor:pointer;">
      <path style="fill:none;stroke:#000000;stroke-width:5;" d="M 629.3,249.4 L 629.3, 385.5" />
    </a>
    <a ewd:lineID="7" style="cursor:pointer;">
      <path style="fill:none;stroke:#000000;stroke-width:5;" d="M 629.3,394 L 629.3, 518.7" />
    </a>
    <a ewd:lineID="12" style="cursor:pointer;">
      <path style="fill:none;stroke:#008837;stroke-width:5;" d="M 476.2,436.5 L 476.2, 518.7" />
    </a>
    <a ewd:lineID="13" style="cursor:pointer;">
      <path style="fill:none;stroke:#008837;stroke-width:5;" d="M 578.2,436.5 L 578.2, 518.7" />
    </a>
    <a ewd:lineID="14" style="cursor:pointer;">
      <path style="fill:none;stroke:#000000;stroke-width:5;" d="M 433.7,436.5 L 433.7, 518.7" />
      <path style="fill:none;stroke:#FFFFFF;stroke-width:3.8;" d="M 433.7,436.5 L 433.7, 518.7" />
    </a>
    <a ewd:lineID="15" style="cursor:pointer;">
      <path style="fill:none;stroke:#000000;stroke-width:5;" d="M 314.6,479.1 L 246.6, 479.1 L 246.6, 530.1" />
      <path style="fill:none;stroke:#FFFFFF;stroke-width:3.8;" d="M 314.6,479.1 L 246.6, 479.1 L 246.6, 530.1" />
    </a>
    <a ewd:lineID="16" style="cursor:pointer;">
      <path style="fill:none;stroke:#000000;stroke-width:5;" d="M 246.6,343 L 246.6, 385.5" />
      <path style="fill:none;stroke:#FFFFFF;stroke-width:3.8;" d="M 246.6,343 L 246.6, 385.5" />
    </a>
    <a ewd:lineID="17" style="cursor:pointer;">
      <path style="fill:none;stroke:#0A50A1;stroke-width:5;" d="M 187.1,249.4 L 187.1, 309" />
    </a>
    <a ewd:lineID="18" style="cursor:pointer;">
      <path style="fill:none;stroke:#0A50A1;stroke-width:5;" d="M 187.1,317.5 L 187.1, 598.1" />
    </a>
    <a ewd:lineID="19" style="cursor:pointer;">
      <path style="fill:none;stroke:#008837;stroke-width:5;" d="M 374.2,249.4 L 374.2, 377" />
    </a>
    <a ewd:lineID="20" style="cursor:pointer;">
      <path style="fill:none;stroke:#008837;stroke-width:5;" d="M 374.2,436.5 L 374.2, 530.1" />
    </a>
    <a ewd:lineID="21" style="cursor:pointer;">
      <path style="fill:none;stroke:#008837;stroke-width:5;" d="M 374.2,538.6 L 374.2, 598.1" />
    </a>
    <a ewd:lineID="22" style="cursor:pointer;">
      <path style="fill:none;stroke:#000000;stroke-width:5;" d="M 323.1,249.4 L 323.1, 292" />
      <path style="fill:none;stroke:#FFFFFF;stroke-width:3.8;" d="M 323.1,249.4 L 323.1, 292" />
    </a>
    <a ewd:lineID="23" style="cursor:pointer;">
      <path style="fill:none;stroke:#000000;stroke-width:5;" d="M 323.1,343 L 323.1, 377" />
      <path style="fill:none;stroke:#FFFFFF;stroke-width:3.8;" d="M 323.1,343 L 323.1, 377" />
    </a>
    <a ewd:lineID="24" style="cursor:pointer;">
      <path style="fill:none;stroke:#000000;stroke-width:5;" d="M 323.1,436.5 L 323.1, 470.5" />
      <path style="fill:none;stroke:#FFFFFF;stroke-width:3.8;" d="M 323.1,436.5 L 323.1, 470.5" />
    </a>
    <a ewd:lineID="25" style="cursor:pointer;">
      <path style="fill:none;stroke:#000000;stroke-width:5;" d="M 323.1,487.6 L 323.1, 530.1" />
      <path style="fill:none;stroke:#FFFFFF;stroke-width:3.8;" d="M 323.1,487.6 L 323.1, 530.1" />
    </a>
    <a ewd:lineID="26" style="cursor:pointer;">
      <path style="fill:none;stroke:#000000;stroke-width:5;" d="M 323.1,538.6 L 323.1, 598.1" />
      <path style="fill:none;stroke:#FFFFFF;stroke-width:3.8;" d="M 323.1,538.6 L 323.1, 598.1" />
    </a>
    <a ewd:lineID="27" style="cursor:pointer;">
      <path style="fill:none;stroke:#7F0000;stroke-width:5;" d="M 102,249.4 L 102, 309" />
    </a>
    <a ewd:lineID="28" style="cursor:pointer;">
      <path style="fill:none;stroke:#7F0000;stroke-width:5;" d="M 102,317.5 L 102, 394" />
    </a>
    <a ewd:lineID="29" style="cursor:pointer;">
      <path style="fill:none;stroke:#7F0000;stroke-width:5;" d="M 102,419.5 L 102, 615.1" />
    </a>
    <a ewd:lineID="30" style="cursor:pointer;">
      <path style="fill:none;stroke:#000000;stroke-width:5;" d="M 102,632.1 L 102, 691.7" />
      <path style="fill:none;stroke:#FFFFFF;stroke-width:3.8;" d="M 102,632.1 L 102, 691.7" />
      <path style="fill:none;stroke:#000000;" d="M 102,632.1 L 102, 691.7" />
    </a>
    <a ewd:lineID="31" style="cursor:pointer;">
      <path style="fill:none;stroke:#000000;stroke-width:5;" d="M 51,249.4 L 51, 691.7" />
      <path style="fill:none;stroke:#FFFFFF;stroke-width:3.8;" d="M 51,249.4 L 51, 691.7" />
      <path style="fill:none;stroke:#000000;" d="M 51,249.4 L 51, 691.7" />
    </a>
    <a ewd:lineID="32" style="cursor:pointer;">
      <path style="fill:none;stroke:#000000;stroke-width:5;" d="M 374.2,130.4 L 374.2, 198.4" />
      <path style="fill:none;stroke:#FFFFFF;stroke-width:3.8;" d="M 374.2,130.4 L 374.2, 198.4" />
    </a>
    <a ewd:lineID="33" style="cursor:pointer;">
      <path style="fill:none;stroke:#FFF200;stroke-width:5;" d="M 323.1,130.4 L 323.1, 198.4" />
    </a>
    <a ewd:lineID="34" style="cursor:pointer;">
      <path style="fill:none;stroke:#000000;stroke-width:5;" d="M 51,113.4 L 51, 198.4" />
    </a>
    <a ewd:figtype="jb" ewd:code="13" style="cursor:pointer;" ewd:figID="3">
      <path style="fill:#CCCCCC;stroke-linecap:round;stroke-linejoin:round;" d="M 85.01,113.39 L 85.01, 45.35 L 31.16, 45.35 L 31.16, 113.38 L 85.01, 113.38" />
    </a>
    <a ewd:figtype="jb" ewd:code="6" style="cursor:pointer;" ewd:figID="2">
      <path style="fill:#CCCCCC;stroke-linecap:round;stroke-linejoin:round;" d="M 334.46,342.99 L 334.46, 291.97 L 226.75, 291.97 L 226.75, 342.99 L 334.46, 342.99" />
    </a>
    <a ewd:figtype="jb" ewd:code="13" style="cursor:pointer;" ewd:figID="1">
      <path style="fill:#CCCCCC;stroke-linecap:round;stroke-linejoin:round;" d="M 589.58,436.54 L 589.58, 377.01 L 303.28, 377.01 L 303.28, 436.54 L 589.58, 436.54" />
    </a>
    <a ewd:figtype="conn" ewd:code="B88" style="cursor:pointer;" ewd:figID="14">
      <path style="fill:#CCECF4;stroke:#000000;stroke-width:1.133;stroke-linecap:round;stroke-linejoin:round;" d="M 1045.96,564.09 L 1045.96, 530.07 L 977.9299, 530.07 L 977.9299, 564.09 L 1045.96, 564.09" />
      <title ewd:textID="4">Engine ECU</title>
    </a>
    <a ewd:figtype="conn" ewd:code="B73" style="cursor:pointer;" ewd:figID="13">
      <path style="fill:#CCECF4;stroke:#000000;stroke-width:1.133;stroke-linecap:round;stroke-linejoin:round;" d="M 943.92,564.09 L 943.92, 530.07 L 875.89, 530.07 L 875.89, 564.09 L 943.92, 564.09" />
      <title ewd:textID="4">Engine ECU</title>
    </a>
    <a ewd:figtype="conn" ewd:code="B72" style="cursor:pointer;" ewd:figID="12">
      <path style="fill:#CCECF4;stroke:#000000;stroke-width:1.133;stroke-linecap:round;stroke-linejoin:round;" d="M 841.87,564.09 L 841.87, 530.07 L 773.84, 530.07 L 773.84, 564.09 L 841.87, 564.09" />
      <title ewd:textID="4">Engine ECU</title>
    </a>
    <a ewd:figtype="conn" ewd:code="B74" style="cursor:pointer;" ewd:figID="11">
      <path style="fill:#CCECF4;stroke:#000000;stroke-width:1.133;stroke-linecap:round;stroke-linejoin:round;" d="M 739.82,564.09 L 739.82, 530.07 L 671.79, 530.07 L 671.79, 564.09 L 739.82, 564.09" />
      <title ewd:textID="4">Engine ECU</title>
    </a>
    <a ewd:figtype="conn" ewd:code="B71" style="cursor:pointer;" ewd:figID="10">
      <path style="fill:#CCECF4;stroke:#000000;stroke-width:1.133;stroke-linecap:round;stroke-linejoin:round;" d="M 637.77,564.09 L 637.77, 530.07 L 569.74, 530.07 L 569.74, 564.09 L 637.77, 564.09" />
      <title ewd:textID="4">Engine ECU</title>
    </a>
    <a ewd:figtype="conn" ewd:code="H23" style="cursor:pointer;" ewd:figID="9">
      <path style="fill:#CCECF4;stroke:#000000;stroke-width:1.133;stroke-linecap:round;stroke-linejoin:round;" d="M 646.28,249.45 L 646.28, 198.43 L 33.99, 198.43 L 33.99, 249.45 L 646.28, 249.45" />
      <title>DLC3</title>
    </a>
    <a ewd:figtype="conn" ewd:code="B4" style="cursor:pointer;" ewd:figID="8">
      <path style="fill:#CCECF4;stroke:#000000;stroke-width:1.133;stroke-linecap:round;stroke-linejoin:round;" d="M 484.7,564.09 L 484.7, 530.07 L 425.17, 530.07 L 425.17, 564.09 L 484.7, 564.09" />
      <title ewd:textID="3">Airbag Sensor Assembly Center</title>
    </a>
    <a ewd:figtype="conn" ewd:code="B19" style="cursor:pointer;" ewd:figID="7">
      <path style="fill:#CCECF4;stroke:#000000;stroke-width:1.133;stroke-linecap:round;stroke-linejoin:round;" d="M 382.66,632.13 L 382.66, 598.12 L 178.56, 598.12 L 178.56, 632.13 L 382.66, 632.13" />
      <title ewd:textID="7">Skid Control ECU with Actuator</title>
    </a>
    <a ewd:figtype="conn" ewd:code="A24" style="cursor:pointer;" ewd:figID="6">
      <path style="fill:#CCECF4;stroke:#000000;stroke-width:1.133;stroke-linecap:round;stroke-linejoin:round;" d="M 255.1,564.09 L 255.1, 530.07 L 238.09, 530.07 L 238.09, 564.09 L 255.1, 564.09" />
      <title ewd:textID="6">Short Pin (Vacuum)</title>
    </a>
    <a ewd:figtype="conn" ewd:code="H60" style="cursor:pointer;" ewd:figID="5">
      <path style="fill:#CCECF4;stroke:#000000;stroke-width:1.133;stroke-linecap:round;stroke-linejoin:round;" d="M 255.1,419.53 L 255.1, 385.51 L 238.09, 385.51 L 238.09, 419.53 L 255.1, 419.53" />
      <title ewd:textID="8">Transponder Key ECU</title>
    </a>
    <a ewd:figtype="conn" ewd:code="D103" style="cursor:pointer;" ewd:figID="4">
      <path style="fill:#CCECF4;stroke:#000000;stroke-width:1.133;stroke-linecap:round;stroke-linejoin:round;" d="M 110.53,632.13 L 110.53, 615.12 L 93.52, 615.12 L 93.52, 632.13 L 110.53, 632.13" />
      <title ewd:textID="5">Junction Connector</title>
    </a>
    <a ewd:figtype="sp" ewd:code="50098" style="cursor:pointer;" ewd:figID="15">
      <path style="fill:#FFFFFF;stroke:#000000;stroke-width:0.85;stroke-linecap:round;stroke-linejoin:round;" d="M 326.67,470.55 L 319.58, 470.55 L 314.62, 475.51 L 314.62, 482.6 L 319.58, 487.56 L 326.67, 487.56 L 331.63, 482.6 L 331.63, 475.51 L 326.67, 470.55" />
    </a>
    <a ewd:figtype="fuse" ewd:code="FUSE167" style="cursor:pointer;" ewd:figID="28">
      <path style="fill:none;stroke:#000000;stroke-width:0.5;stroke-linecap:round;stroke-linejoin:round;" d="M 63.76,87.88 L 63.76, 45.36 L 38.25, 45.36 L 38.25, 87.88 L 63.76, 87.88" />
    </a>
    <g ewd:figtype="jb" ewd:code="13" ewd:figID="3">
      <path style="fill:none;stroke:#000000;stroke-width:0.85;" d="M 51,80.79 L 51, 87.88" />
      <path style="fill:none;stroke:#000000;stroke-width:0.85;" d="M 51,87.88 L 51, 102.05" />
      <path d="M 51,102.05 L 53.83, 99.22 L 53.83, 96.39 L 51, 99.21 L 48.17, 96.38 L 48.17, 99.21 L 51, 102.05" style="stroke-linecap:round;stroke-linejoin:round;" />
      <path style="fill:none;stroke:#000000;stroke-width:0.85;stroke-linecap:round;stroke-linejoin:round;" d="M 55.25,113.39 C 58.38 113.39 60.92 110.85 60.92 107.72 C 60.92 104.59 58.38 102.05 55.25 102.05 L 46.75, 102.05 C 43.62 102.05 41.08 104.59 41.08 107.72 C 41.08 110.85 43.62 113.39 46.75 113.39 L 55.25, 113.39" />
      <path style="fill:none;stroke:#000000;stroke-width:0.85;stroke-linecap:round;stroke-linejoin:round;" d="M 51,80.79 C 51.78 80.79 52.42 80.15 52.42 79.37 C 52.42 78.59 51.78 77.95 51 77.95 C 50.22 77.9499938964844 49.58 78.59 49.58 79.37 C 49.58 80.15 50.22 80.79 51 80.79" />
      <path style="fill:none;stroke:#000000;stroke-width:0.85;stroke-linecap:round;stroke-linejoin:round;" d="M 51,55.28 C 51.78 55.28 52.42 54.65 52.42 53.86 C 52.42 53.08 51.78 52.44 51 52.44 C 50.22 52.439997253418 49.58 53.07 49.58 53.86 C 49.58 54.64 50.22 55.28 51 55.28" />
      <path style="fill:none;stroke:#000000;stroke-width:1.417;" d="M 50,54.86 C 50 54.86 43.93 59.54 51 66.61 C 58.07 73.6800012207031 52 78.36 52 78.36" />
      <path style="fill:none;stroke:#000000;stroke-width:1.417;stroke-linecap:round;stroke-linejoin:round;" d="M 63.76,87.88 L 63.76, 45.36 L 38.25, 45.36 L 38.25, 87.88 L 63.76, 87.88" />
      <text transform="matrix(1 0 0 1 45.6631 109.4233)" style="font-family:'Arial'; font-size:6px;">13S</text>
      <text transform="matrix(1 0 0 1 36.3262 109.4233)" style="font-family:'Arial'; font-size:6px;">5</text>
      <text transform="matrix(1 0 0 1 42.7036 95.251)" style="font-family:'Arial'; font-size:6px;">2</text>
      <text transform="matrix(1 0 0 1 43.1689 41.3921)" style="font-family:'Arial'; font-size:6px;">(BAT)</text>
      <text transform="matrix(1 0 0 1 66.5918 64.7783)" style="font-family:'Arial'; font-size:6px;">7.5A<tspan x="0" dy="1em">OBDII</tspan></text>
    </g>
    <g ewd:figtype="jb" ewd:code="6" ewd:figID="2">
      <path d="M 323.13,318.9 C 323.91 318.9 324.55 318.27 324.55 317.48 C 324.55 316.7 323.92 316.06 323.13 316.06 C 322.340009765625 316.059995117188 321.71 316.69 321.71 317.48 C 321.71 318.26 322.34 318.9 323.13 318.9" style="stroke-linecap:round;stroke-linejoin:round;" />
      <path style="fill:none;stroke:#000000;stroke-width:0.85;" d="M 323.13,317.48 L 246.59, 317.48 L 246.59, 331.65" />
      <path style="fill:none;stroke:#000000;stroke-width:0.85;" d="M 323.13,303.31 L 323.13, 331.66" />
      <path d="M 246.59,331.65 L 249.42, 328.82 L 249.42, 325.99 L 246.59, 328.82 L 243.76, 325.99 L 243.76, 328.82 L 246.59, 331.65" style="stroke-linecap:round;stroke-linejoin:round;" />
      <path style="fill:none;stroke:#000000;stroke-width:0.85;stroke-linecap:round;stroke-linejoin:round;" d="M 250.84,342.99 C 253.97 342.99 256.51 340.45 256.51 337.32 C 256.51 334.19 253.97 331.65 250.84 331.65 L 242.34, 331.65 C 239.21 331.65 236.67 334.19 236.67 337.32 C 236.67 340.45 239.21 342.99 242.34 342.99 L 250.84, 342.99" />
      <path d="M 323.13,331.65 L 325.96, 328.82 L 325.96, 325.99 L 323.13, 328.82 L 320.3, 325.99 L 320.3, 328.82 L 323.13, 331.65" style="stroke-linecap:round;stroke-linejoin:round;" />
      <path style="fill:none;stroke:#000000;stroke-width:0.85;stroke-linecap:round;stroke-linejoin:round;" d="M 327.38,342.99 C 330.51 342.99 333.05 340.45 333.05 337.32 C 333.05 334.19 330.51 331.65 327.38 331.65 L 318.88, 331.65 C 315.75 331.65 313.21 334.19 313.21 337.32 C 313.21 340.45 315.75 342.99 318.88 342.99 L 327.38, 342.99" />
      <path d="M 323.13,303.31 L 325.96, 306.14 L 325.96, 308.97 L 323.13, 306.14 L 320.3, 308.97 L 320.3, 306.14 L 323.13, 303.31" style="stroke-linecap:round;stroke-linejoin:round;" />
      <path style="fill:none;stroke:#000000;stroke-width:0.85;stroke-linecap:round;stroke-linejoin:round;" d="M 327.38,303.31 C 330.51 303.31 333.05 300.77 333.05 297.64 C 333.05 294.51 330.51 291.97 327.38 291.97 L 318.88, 291.97 C 315.75 291.97 313.21 294.51 313.21 297.64 C 313.21 300.77 315.75 303.31 318.88 303.31 L 327.38, 303.31" />
      <text transform="matrix(1 0 0 1 242.7568 339.0293)" style="font-family:'Arial'; font-size:6px;">6C</text>
      <text transform="matrix(1 0 0 1 228.5806 339.0293)" style="font-family:'Arial'; font-size:6px;">19</text>
      <text transform="matrix(1 0 0 1 319.2925 339.0293)" style="font-family:'Arial'; font-size:6px;">6C</text>
      <text transform="matrix(1 0 0 1 305.1157 339.0293)" style="font-family:'Arial'; font-size:6px;">18</text>
      <text transform="matrix(1 0 0 1 319.2925 299.3433)" style="font-family:'Arial'; font-size:6px;">6C</text>
      <text transform="matrix(1 0 0 1 305.1157 299.3433)" style="font-family:'Arial'; font-size:6px;">17</text>
    </g>
    <g ewd:figtype="jb" ewd:code="13" ewd:figID="1">
      <path d="M 323.13,412.44 C 323.91 412.44 324.55 411.81 324.55 411.02 C 324.55 410.24 323.92 409.6 323.13 409.6 C 322.340009765625 409.600012207031 321.71 410.23 321.71 411.02 C 321.71 411.81 322.34 412.44 323.13 412.44" style="stroke-linecap:round;stroke-linejoin:round;" />
      <path d="M 374.15,403.94 C 374.93 403.94 375.57 403.31 375.57 402.52 C 375.570014648438 401.729978027344 374.94 401.1 374.15 401.1 C 373.359987792969 401.100012207031 372.73 401.73 372.73 402.52 C 372.730021972656 403.309978027344 373.37 403.94 374.15 403.94" style="stroke-linecap:round;stroke-linejoin:round;" />
      <path d="M 476.2,403.94 C 476.98 403.94 477.62 403.31 477.62 402.52 C 477.619990234375 401.729978027344 476.99 401.1 476.2 401.1 C 475.42 401.1 474.78 401.73 474.78 402.52 C 474.779997558594 403.309978027344 475.42 403.94 476.2 403.94" style="stroke-linecap:round;stroke-linejoin:round;" />
      <path style="fill:none;stroke:#000000;stroke-width:0.85;" d="M 476.2,402.52 L 476.2, 425.2" />
      <path style="fill:none;stroke:#000000;stroke-width:0.85;" d="M 374.15,402.52 L 578.25, 402.52 L 578.25, 425.2" />
      <path style="fill:none;stroke:#000000;stroke-width:0.85;" d="M 323.13,411.02 L 433.68, 411.02 L 433.68, 425.19" />
      <path style="fill:none;stroke:#000000;stroke-width:0.85;" d="M 374.15,388.34 L 374.15, 425.19" />
      <path style="fill:none;stroke:#000000;stroke-width:0.85;" d="M 323.13,388.34 L 323.13, 425.19" />
      <path d="M 578.25,425.2 L 581.08, 422.37 L 581.08, 419.54 L 578.25, 422.37 L 575.42, 419.54 L 575.42, 422.37 L 578.25, 425.2" style="stroke-linecap:round;stroke-linejoin:round;" />
      <path style="fill:none;stroke:#000000;stroke-width:0.85;stroke-linecap:round;stroke-linejoin:round;" d="M 582.5,436.54 C 585.63 436.54 588.17 434 588.17 430.87 C 588.17 427.74 585.63 425.2 582.5 425.2 L 574, 425.2 C 570.87 425.2 568.33 427.74 568.33 430.87 C 568.33 434 570.87 436.54 574 436.54 L 582.5, 436.54" />
      <path d="M 476.2,425.2 L 479.03, 422.37 L 479.03, 419.54 L 476.2, 422.37 L 473.37, 419.54 L 473.37, 422.37 L 476.2, 425.2" style="stroke-linecap:round;stroke-linejoin:round;" />
      <path style="fill:none;stroke:#000000;stroke-width:0.85;stroke-linecap:round;stroke-linejoin:round;" d="M 480.45,436.54 C 483.58 436.54 486.12 434 486.12 430.87 C 486.12 427.74 483.58 425.2 480.45 425.2 L 471.95, 425.2 C 468.82 425.2 466.28 427.74 466.28 430.87 C 466.28 434 468.82 436.54 471.95 436.54 L 480.45, 436.54" />
      <path d="M 433.68,425.2 L 436.51, 422.37 L 436.51, 419.54 L 433.68, 422.37 L 430.85, 419.54 L 430.85, 422.37 L 433.68, 425.2" style="stroke-linecap:round;stroke-linejoin:round;" />
      <path style="fill:none;stroke:#000000;stroke-width:0.85;stroke-linecap:round;stroke-linejoin:round;" d="M 437.93,436.54 C 441.06 436.54 443.6 434 443.6 430.87 C 443.6 427.74 441.06 425.2 437.93 425.2 L 429.43, 425.2 C 426.3 425.2 423.76 427.74 423.76 430.87 C 423.76 434 426.3 436.54 429.43 436.54 L 437.93, 436.54" />
      <path d="M 374.15,425.2 L 376.98, 422.37 L 376.98, 419.54 L 374.15, 422.37 L 371.32, 419.54 L 371.32, 422.37 L 374.15, 425.2" style="stroke-linecap:round;stroke-linejoin:round;" />
      <path style="fill:none;stroke:#000000;stroke-width:0.85;stroke-linecap:round;stroke-linejoin:round;" d="M 378.4,436.54 C 381.53 436.54 384.07 434 384.07 430.87 C 384.07 427.74 381.53 425.2 378.4 425.2 L 369.9, 425.2 C 366.77 425.2 364.23 427.74 364.23 430.87 C 364.23 434 366.77 436.54 369.9 436.54 L 378.4, 436.54" />
      <path d="M 323.13,425.2 L 325.96, 422.37 L 325.96, 419.54 L 323.13, 422.37 L 320.3, 419.54 L 320.3, 422.37 L 323.13, 425.2" style="stroke-linecap:round;stroke-linejoin:round;" />
      <path style="fill:none;stroke:#000000;stroke-width:0.85;stroke-linecap:round;stroke-linejoin:round;" d="M 327.38,436.54 C 330.51 436.54 333.05 434 333.05 430.87 C 333.05 427.74 330.51 425.2 327.38 425.2 L 318.88, 425.2 C 315.75 425.2 313.21 427.74 313.21 430.87 C 313.21 434 315.75 436.54 318.88 436.54 L 327.38, 436.54" />
      <path d="M 374.15,388.35 L 376.98, 391.18 L 376.98, 394.02 L 374.15, 391.18 L 371.32, 394.02 L 371.32, 391.18 L 374.15, 388.35" style="stroke-linecap:round;stroke-linejoin:round;" />
      <path style="fill:none;stroke:#000000;stroke-width:0.85;stroke-linecap:round;stroke-linejoin:round;" d="M 378.4,388.34 C 381.53 388.34 384.07 385.8 384.07 382.67 C 384.07 379.54 381.53 377 378.4 377 L 369.9, 377 C 366.77 377 364.23 379.54 364.23 382.67 C 364.23 385.8 366.77 388.34 369.9 388.34 L 378.4, 388.34" />
      <path d="M 323.13,388.35 L 325.96, 391.18 L 325.96, 394.02 L 323.13, 391.18 L 320.3, 394.02 L 320.3, 391.18 L 323.13, 388.35" style="stroke-linecap:round;stroke-linejoin:round;" />
      <path style="fill:none;stroke:#000000;stroke-width:0.85;stroke-linecap:round;stroke-linejoin:round;" d="M 327.38,388.34 C 330.51 388.34 333.05 385.8 333.05 382.67 C 333.05 379.54 330.51 377 327.38 377 L 318.88, 377 C 315.75 377 313.21 379.54 313.21 382.67 C 313.21 385.8 315.75 388.34 318.88 388.34 L 327.38, 388.34" />
      <text transform="matrix(1 0 0 1 572.9082 432.5732)" style="font-family:'Arial'; font-size:6px;">13E</text>
      <text transform="matrix(1 0 0 1 560.2344 432.5732)" style="font-family:'Arial'; font-size:6px;">24</text>
      <text transform="matrix(1 0 0 1 470.8608 432.5732)" style="font-family:'Arial'; font-size:6px;">13E</text>
      <text transform="matrix(1 0 0 1 458.1865 432.5732)" style="font-family:'Arial'; font-size:6px;">13</text>
      <text transform="matrix(1 0 0 1 428.3408 432.5732)" style="font-family:'Arial'; font-size:6px;">13E</text>
      <text transform="matrix(1 0 0 1 415.667 432.5732)" style="font-family:'Arial'; font-size:6px;">31</text>
      <text transform="matrix(1 0 0 1 368.813 432.5732)" style="font-family:'Arial'; font-size:6px;">13B</text>
      <text transform="matrix(1 0 0 1 356.1392 432.5732)" style="font-family:'Arial'; font-size:6px;">25</text>
      <text transform="matrix(1 0 0 1 317.7896 432.5732)" style="font-family:'Arial'; font-size:6px;">13B</text>
      <text transform="matrix(1 0 0 1 305.1157 432.5732)" style="font-family:'Arial'; font-size:6px;">26</text>
      <text transform="matrix(1 0 0 1 368.6475 384.3828)" style="font-family:'Arial'; font-size:6px;">13H</text>
      <text transform="matrix(1 0 0 1 356.1392 384.3828)" style="font-family:'Arial'; font-size:6px;">14</text>
      <text transform="matrix(1 0 0 1 317.7896 384.3828)" style="font-family:'Arial'; font-size:6px;">13S</text>
      <text transform="matrix(1 0 0 1 308.4526 384.3828)" style="font-family:'Arial'; font-size:6px;">3</text>
    </g>
    <g ewd:figtype="w2w" ewd:code="DB2" ewd:pin_no="9" ewd:comment="2" ewd:figID="16">
      <path style="fill:none;stroke:#000000;stroke-width:0.85;stroke-linecap:round;stroke-linejoin:round;" d="M 111.95,411.02 L 111.95, 402.52 L 92.1, 402.52 L 92.1, 411.02 L 111.95, 411.02" />
      <text transform="matrix(1 0 0 1 114.7813 408.4785)" style="font-family:'Arial'; font-size:6px;">(*2)</text>
      <text transform="matrix(1 0 0 1 87.3501 408.4775)" style="font-family:'Arial'; font-size:6px;">9</text>
    </g>
    <g ewd:figtype="w2w" ewd:code="DB5" ewd:pin_no="2" ewd:comment="3" ewd:figID="17">
      <path style="fill:none;stroke:#000000;stroke-width:0.85;stroke-linecap:round;stroke-linejoin:round;" d="M 111.95,419.53 L 111.95, 411.03 L 92.1, 411.03 L 92.1, 419.53 L 111.95, 419.53" />
      <text transform="matrix(1 0 0 1 114.7813 416.9824)" style="font-family:'Arial'; font-size:6px;">(*3)</text>
      <text transform="matrix(1 0 0 1 87.3501 416.9814)" style="font-family:'Arial'; font-size:6px;">9</text>
    </g>
    <g ewd:figtype="w2w" ewd:code="DB1" ewd:pin_no="9" ewd:comment="1" ewd:figID="18">
      <path style="fill:#FFFFFF;stroke:#FFFFFF;stroke-width:0;stroke-linecap:round;stroke-linejoin:round;" d="M 106.28,384.63 L 102.03, 388.88 L 97.78, 384.63 L 97.78, 391.18 L 106.28, 391.18 L 106.28, 384.63" />
      <path style="fill:#FFFFFF;stroke:#FFFFFF;stroke-width:0;stroke-linecap:round;stroke-linejoin:round;" d="M 106.28,387.46 L 102.03, 391.71 L 97.78, 387.46 L 97.78, 394.01 L 106.28, 394.01 L 106.28, 387.46" />
      <path style="fill:none;stroke:#000000;stroke-width:0.85;" d="M 106.28,386.93 L 102.03, 391.18 L 97.78, 386.93" />
      <path style="fill:none;stroke:#000000;stroke-width:0.85;" d="M 106.28,389.76 L 102.03, 394.01 L 97.78, 389.76" />
      <path style="fill:none;stroke:#000000;stroke-width:0.85;stroke-linecap:round;stroke-linejoin:round;" d="M 111.95,402.52 L 111.95, 394.02 L 92.1, 394.02 L 92.1, 402.52 L 111.95, 402.52" />
      <text transform="matrix(1 0 0 1 114.7813 399.9746)" style="font-family:'Arial'; font-size:6px;">(*1)</text>
      <text transform="matrix(1 0 0 1 87.3501 399.9736)" style="font-family:'Arial'; font-size:6px;">2</text>
    </g>
    <g ewd:figtype="w2w" ewd:code="HB1" ewd:pin_no="21" ewd:figID="19">
      <path style="fill:#FFFFFF;stroke:#FFFFFF;stroke-width:0;stroke-linecap:round;stroke-linejoin:round;" d="M 106.28,326.87 L 102.03, 322.62 L 97.78, 326.87 L 97.78, 320.32 L 106.28, 320.32 L 106.28, 326.87" />
      <path style="fill:#FFFFFF;stroke:#FFFFFF;stroke-width:0;stroke-linecap:round;stroke-linejoin:round;" d="M 106.28,324.03 L 102.03, 319.78 L 97.78, 324.03 L 97.78, 317.48 L 106.28, 317.48 L 106.28, 324.03" />
      <path style="fill:none;stroke:#000000;stroke-width:0.85;" d="M 106.28,324.57 L 102.03, 320.32 L 97.78, 324.57" />
      <path style="fill:none;stroke:#000000;stroke-width:0.85;" d="M 106.28,321.73 L 102.03, 317.48 L 97.78, 321.73" />
      <path style="fill:none;stroke:#000000;stroke-width:0.85;stroke-linecap:round;stroke-linejoin:round;" d="M 111.95,308.98 L 111.95, 317.48 L 92.1, 317.48 L 92.1, 308.98 L 111.95, 308.98" />
      <text transform="matrix(1 0 0 1 84.0132 314.9351)" style="font-family:'Arial'; font-size:6px;">21</text>
    </g>
    <g ewd:figtype="w2w" ewd:code="HB1" ewd:pin_no="59" ewd:figID="20">
      <path style="fill:#FFFFFF;stroke:#FFFFFF;stroke-width:0;stroke-linecap:round;stroke-linejoin:round;" d="M 191.32,326.87 L 187.07, 322.62 L 182.82, 326.87 L 182.82, 320.32 L 191.32, 320.32 L 191.32, 326.87" />
      <path style="fill:#FFFFFF;stroke:#FFFFFF;stroke-width:0;stroke-linecap:round;stroke-linejoin:round;" d="M 191.32,324.03 L 187.07, 319.78 L 182.82, 324.03 L 182.82, 317.48 L 191.32, 317.48 L 191.32, 324.03" />
      <path style="fill:none;stroke:#000000;stroke-width:0.85;" d="M 191.32,324.57 L 187.07, 320.32 L 182.82, 324.57" />
      <path style="fill:none;stroke:#000000;stroke-width:0.85;" d="M 191.32,321.73 L 187.07, 317.48 L 182.82, 321.73" />
      <path style="fill:none;stroke:#000000;stroke-width:0.85;stroke-linecap:round;stroke-linejoin:round;" d="M 196.99,308.98 L 196.99, 317.48 L 177.15, 317.48 L 177.15, 308.98 L 196.99, 308.98" />
      <text transform="matrix(1 0 0 1 169.0527 314.9351)" style="font-family:'Arial'; font-size:6px;">59</text>
    </g>
    <g ewd:figtype="w2w" ewd:code="HB1" ewd:pin_no="37" ewd:figID="21">
      <path style="fill:#FFFFFF;stroke:#FFFFFF;stroke-width:0;stroke-linecap:round;stroke-linejoin:round;" d="M 633.52,403.4 L 629.27, 399.15 L 625.02, 403.4 L 625.02, 396.85 L 633.52, 396.85 L 633.52, 403.4" />
      <path style="fill:#FFFFFF;stroke:#FFFFFF;stroke-width:0;stroke-linecap:round;stroke-linejoin:round;" d="M 633.52,400.57 L 629.27, 396.32 L 625.02, 400.57 L 625.02, 394.02 L 633.52, 394.02 L 633.52, 400.57" />
      <path style="fill:none;stroke:#000000;stroke-width:0.85;" d="M 633.52,401.1 L 629.27, 396.85 L 625.02, 401.1" />
      <path style="fill:none;stroke:#000000;stroke-width:0.85;" d="M 633.52,398.27 L 629.27, 394.02 L 625.02, 398.27" />
      <path style="fill:none;stroke:#000000;stroke-width:0.85;stroke-linecap:round;stroke-linejoin:round;" d="M 639.19,385.51 L 639.19, 394.01 L 619.35, 394.01 L 619.35, 385.51 L 639.19, 385.51" />
      <text transform="matrix(1 0 0 1 611.2578 391.4697)" style="font-family:'Arial'; font-size:6px;">37</text>
    </g>
    <g ewd:figtype="gp" ewd:code="H1" ewd:figID="22">
      <path style="fill:none;stroke:#000000;stroke-width:0.85;" d="M 51,708.66 L 51, 711.49" />
      <path style="fill:none;stroke:#000000;stroke-width:0.85;" d="M 49.58,720 L 52.42, 720" />
      <path style="fill:none;stroke:#000000;stroke-width:0.85;" d="M 48.17,717.17 L 53.84, 717.17" />
      <path style="fill:none;stroke:#000000;stroke-width:0.85;" d="M 45.33,714.33 L 56.67, 714.33" />
      <path style="fill:none;stroke:#000000;stroke-width:0.85;" d="M 42.5,711.5 L 59.5, 711.5" />
    </g>
    <g ewd:figtype="gp" ewd:code="D1" ewd:figID="23">
      <path style="fill:none;stroke:#000000;stroke-width:0.85;" d="M 102.02,708.66 L 102.02, 711.49" />
      <path style="fill:none;stroke:#000000;stroke-width:0.85;" d="M 100.61,720 L 103.45, 720" />
      <path style="fill:none;stroke:#000000;stroke-width:0.85;" d="M 99.19,717.17 L 104.86, 717.17" />
      <path style="fill:none;stroke:#000000;stroke-width:0.85;" d="M 96.35,714.33 L 107.69, 714.33" />
      <path style="fill:none;stroke:#000000;stroke-width:0.85;" d="M 93.52,711.5 L 110.53, 711.5" />
    </g>
    <g ewd:figtype="gp" ewd:code="D3" ewd:figID="24">
      <path style="fill:none;stroke:#000000;stroke-width:0.85;" d="M 144.54,708.66 L 144.54, 711.49" />
      <path style="fill:none;stroke:#000000;stroke-width:0.85;" d="M 143.13,720 L 145.97, 720" />
      <path style="fill:none;stroke:#000000;stroke-width:0.85;" d="M 141.71,717.17 L 147.38, 717.17" />
      <path style="fill:none;stroke:#000000;stroke-width:0.85;" d="M 138.87,714.33 L 150.21, 714.33" />
      <path style="fill:none;stroke:#000000;stroke-width:0.85;" d="M 136.04,711.5 L 153.05, 711.5" />
    </g>
    <g ewd:figtype="gp" ewd:code="D4" ewd:figID="25">
      <path style="fill:none;stroke:#000000;stroke-width:0.85;" d="M 187.06,708.66 L 187.06, 711.49" />
      <path style="fill:none;stroke:#000000;stroke-width:0.85;" d="M 185.65,720 L 188.49, 720" />
      <path style="fill:none;stroke:#000000;stroke-width:0.85;" d="M 184.23,717.17 L 189.9, 717.17" />
      <path style="fill:none;stroke:#000000;stroke-width:0.85;" d="M 181.39,714.33 L 192.73, 714.33" />
      <path style="fill:none;stroke:#000000;stroke-width:0.85;" d="M 178.56,711.5 L 195.57, 711.5" />
    </g>
    <g ewd:figtype="w2w" ewd:code="AB4" ewd:pin_no="32" ewd:figID="26">
      <path style="fill:#FFFFFF;stroke:#FFFFFF;stroke-width:0;stroke-linecap:round;stroke-linejoin:round;" d="M 327.38,547.97 L 323.13, 543.72 L 318.88, 547.97 L 318.88, 541.42 L 327.38, 541.42 L 327.38, 547.97" />
      <path style="fill:#FFFFFF;stroke:#FFFFFF;stroke-width:0;stroke-linecap:round;stroke-linejoin:round;" d="M 327.38,545.13 L 323.13, 540.88 L 318.88, 545.13 L 318.88, 538.58 L 327.38, 538.58 L 327.38, 545.13" />
      <path style="fill:none;stroke:#000000;stroke-width:0.85;" d="M 327.38,545.67 L 323.13, 541.42 L 318.88, 545.67" />
      <path style="fill:none;stroke:#000000;stroke-width:0.85;" d="M 327.38,542.83 L 323.13, 538.58 L 318.88, 542.83" />
      <path style="fill:none;stroke:#000000;stroke-width:0.85;stroke-linecap:round;stroke-linejoin:round;" d="M 333.05,530.08 L 333.05, 538.58 L 313.21, 538.58 L 313.21, 530.08 L 333.05, 530.08" />
      <text transform="matrix(1 0 0 1 305.1157 536.0371)" style="font-family:'Arial'; font-size:6px;">32</text>
    </g>
    <g ewd:figtype="w2w" ewd:code="AB4" ewd:pin_no="14" ewd:figID="27">
      <path style="fill:#FFFFFF;stroke:#FFFFFF;stroke-width:0;stroke-linecap:round;stroke-linejoin:round;" d="M 378.4,547.97 L 374.15, 543.72 L 369.9, 547.97 L 369.9, 541.42 L 378.4, 541.42 L 378.4, 547.97" />
      <path style="fill:#FFFFFF;stroke:#FFFFFF;stroke-width:0;stroke-linecap:round;stroke-linejoin:round;" d="M 378.4,545.13 L 374.15, 540.88 L 369.9, 545.13 L 369.9, 538.58 L 378.4, 538.58 L 378.4, 545.13" />
      <path style="fill:none;stroke:#000000;stroke-width:0.85;" d="M 378.4,545.67 L 374.15, 541.42 L 369.9, 545.67" />
      <path style="fill:none;stroke:#000000;stroke-width:0.85;" d="M 378.4,542.83 L 374.15, 538.58 L 369.9, 542.83" />
      <path style="fill:none;stroke:#000000;stroke-width:0.85;stroke-linecap:round;stroke-linejoin:round;" d="M 384.07,530.08 L 384.07, 538.58 L 364.23, 538.58 L 364.23, 530.08 L 384.07, 530.08" />
      <text transform="matrix(1 0 0 1 356.1392 536.0371)" style="font-family:'Arial'; font-size:6px;">14</text>
    </g>
    <g ewd:figtype="conn" ewd:code="D103" ewd:figID="4">
      <path style="fill:none;stroke:#000000;stroke-width:0.85;" d="M 102.02,615.12 L 102.02, 632.13" />
      <path style="fill:none;stroke:#000000;stroke-width:1.417;stroke-linecap:round;stroke-linejoin:round;" d="M 110.53,632.13 L 110.53, 615.12 L 93.52, 615.12 L 93.52, 632.13 L 110.53, 632.13" />
      <text transform="matrix(1 0 0 1 93.7271 639.502)" style="font-family:'Arial'; font-size:6px;">1</text>
      <text transform="matrix(1 0 0 1 93.7271 611.1553)" style="font-family:'Arial'; font-size:6px;">7</text>
      <g ewd:figtype="title">
        <text transform="matrix(0 -1 1 0 118.6138 632.126)" style="font-family:'Arial'; font-size:6px;">D103</text>
        <text transform="matrix(0 -1 1 0 125.7002 632.126)" style="font-family:'Arial'; font-size:6px;" ewd:textID="5">Junction Connector</text>
      </g>
    </g>
    <g ewd:figtype="conn" ewd:code="H60" ewd:figID="5">
      <path style="fill:none;stroke:#000000;stroke-width:1.417;stroke-linecap:round;stroke-linejoin:round;" d="M 255.1,419.53 L 255.1, 385.51 L 238.09, 385.51 L 238.09, 419.53 L 255.1, 419.53" />
      <text transform="matrix(1 0 0 1 238.2949 381.5488)" style="font-family:'Arial'; font-size:6px;">9</text>
      <text transform="matrix(0 -1 1 0 248.2988 391.2617)" style="font-family:'Arial'; font-size:6px;">D</text>
      <g ewd:figtype="title">
        <text transform="matrix(0 -1 1 0 263.1807 419.5283)" style="font-family:'Arial'; font-size:6px;">H60</text>
        <text transform="matrix(0 -1 1 0 270.2676 419.5283)" style="font-family:'Arial'; font-size:6px;" ewd:textID="8">Transponder Key ECU</text>
      </g>
    </g>
    <g ewd:figtype="conn" ewd:code="A24" ewd:figID="6">
      <path style="fill:none;stroke:#000000;stroke-width:1.417;stroke-linecap:round;stroke-linejoin:round;" d="M 255.1,564.09 L 255.1, 530.07 L 238.09, 530.07 L 238.09, 564.09 L 255.1, 564.09" />
      <text transform="matrix(1 0 0 1 238.2949 526.1162)" style="font-family:'Arial'; font-size:6px;">5</text>
      <text transform="matrix(0 -1 1 0 248.2988 540.502)" style="font-family:'Arial'; font-size:6px;">SIL</text>
      <g ewd:figtype="title">
        <text transform="matrix(0 -1 1 0 263.1807 564.0947)" style="font-family:'Arial'; font-size:6px;">A24</text>
        <text transform="matrix(0 -1 1 0 270.2676 564.0947)" style="font-family:'Arial'; font-size:6px;" ewd:textID="6">Short Pin (Vacuum)</text>
      </g>
    </g>
    <g ewd:figtype="conn" ewd:code="B19" ewd:figID="7">
      <path style="fill:none;stroke:#000000;stroke-width:1.417;stroke-linecap:round;stroke-linejoin:round;" d="M 382.66,632.13 L 382.66, 598.12 L 178.56, 598.12 L 178.56, 632.13 L 382.66, 632.13" />
      <g ewd:lineID="18">
        <text transform="matrix(0 -1 1 0 188.7715 607.1943)" style="font-family:'Arial'; font-size:6px;">TS</text>
        <text transform="matrix(1 0 0 1 175.4302 594.1475)" style="font-family:'Arial'; font-size:6px;">15</text>
      </g>
      <g ewd:lineID="21">
        <text transform="matrix(0 -1 1 0 375.8584 607.5254)" style="font-family:'Arial'; font-size:6px;">TC</text>
        <text transform="matrix(1 0 0 1 362.5171 594.1475)" style="font-family:'Arial'; font-size:6px;">16</text>
      </g>
      <g ewd:lineID="26">
        <text transform="matrix(0 -1 1 0 324.8345 610.1943)" style="font-family:'Arial'; font-size:6px;">D/G</text>
        <text transform="matrix(1 0 0 1 311.4932 594.1475)" style="font-family:'Arial'; font-size:6px;">14</text>
      </g>
      <g ewd:figtype="title">
        <text transform="matrix(1 0 0 1 229.584 640.2109)" style="font-family:'Arial'; font-size:6px;">B19</text>
        <text transform="matrix(1 0 0 1 229.584 647.2969)" style="font-family:'Arial'; font-size:6px;" ewd:textID="7">Skid Control ECU with Actuator</text>
      </g>
    </g>
    <g ewd:figtype="conn" ewd:code="B4" ewd:figID="8">
      <path style="fill:#FFFFFF;stroke:#000000;stroke-width:0.85;stroke-linecap:round;stroke-linejoin:round;" d="M 433.68,530.08 C 436.81 530.08 439.35 527.54 439.35 524.41 C 439.350012207031 521.279946289063 436.81 518.74 433.68 518.74 C 430.549985351563 518.73998046875 428.01 521.28 428.01 524.41 C 428.01001953125 527.539946289063 430.55 530.08 433.68 530.08" />
      <path style="fill:#FFFFFF;stroke:#000000;stroke-width:0.85;stroke-linecap:round;stroke-linejoin:round;" d="M 476.2,530.08 C 479.33 530.08 481.87 527.54 481.87 524.41 C 481.869990234375 521.279946289063 479.33 518.74 476.2 518.74 C 473.07 518.74 470.53 521.28 470.53 524.41 C 470.529997558594 527.539946289063 473.07 530.08 476.2 530.08" />
      <path style="fill:none;stroke:#000000;stroke-width:1.417;stroke-linecap:round;stroke-linejoin:round;" d="M 484.7,564.09 L 484.7, 530.07 L 425.17, 530.07 L 425.17, 564.09 L 484.7, 564.09" />
      <text transform="matrix(1 0 0 1 462.2974 526.1172)" style="font-family:'Arial'; font-size:6px;">15</text>
      <text transform="matrix(1 0 0 1 474.1973 526.1172)" style="font-family:'Arial'; font-size:6px;">A</text>
      <text transform="matrix(1 0 0 1 419.7773 526.1172)" style="font-family:'Arial'; font-size:6px;">16</text>
      <text transform="matrix(1 0 0 1 431.6777 526.1172)" style="font-family:'Arial'; font-size:6px;">A</text>
      <text transform="matrix(0 -1 1 0 477.9053 539.4932)" style="font-family:'Arial'; font-size:6px;">TC</text>
      <text transform="matrix(0 -1 1 0 435.3857 540.501)" style="font-family:'Arial'; font-size:6px;">SIL</text>
      <g ewd:figtype="title">
        <text transform="matrix(1 0 0 1 425.1748 572.1797)" style="font-family:'Arial'; font-size:6px;">B4(A)</text>
        <text transform="matrix(1 0 0 1 425.1748 579.2656)" style="font-family:'Arial'; font-size:6px;" ewd:textID="3">Airbag Sensor Assembly Center</text>
      </g>
    </g>
    <g ewd:figtype="conn" ewd:code="H23" ewd:figID="9">
      <path style="fill:none;stroke:#000000;stroke-width:1.417;stroke-linecap:round;stroke-linejoin:round;" d="M 646.28,249.45 L 646.28, 198.43 L 33.99, 198.43 L 33.99, 249.45 L 646.28, 249.45" />
      <g ewd:lineID="17">
        <text transform="matrix(1 0 0 1 175.4297 256.8252)" style="font-family:'Arial'; font-size:6px;">12</text>
        <text transform="matrix(1 0 0 1 183.231 245.4863)" style="font-family:'Arial'; font-size:6px;">TS</text>
      </g>
      <g ewd:lineID="19">
        <text transform="matrix(1 0 0 1 362.5166 256.8252)" style="font-family:'Arial'; font-size:6px;">13</text>
        <text transform="matrix(1 0 0 1 370.1523 245.4863)" style="font-family:'Arial'; font-size:6px;">TC</text>
      </g>
      <g ewd:lineID="22">
        <text transform="matrix(1 0 0 1 314.8296 256.8252)" style="font-family:'Arial'; font-size:6px;">7</text>
        <text transform="matrix(1 0 0 1 318.6245 245.4863)" style="font-family:'Arial'; font-size:6px;">SIL</text>
      </g>
      <g ewd:lineID="27">
        <text transform="matrix(1 0 0 1 93.7271 256.8252)" style="font-family:'Arial'; font-size:6px;">5</text>
        <text transform="matrix(1 0 0 1 97.6904 245.4863)" style="font-family:'Arial'; font-size:6px;">SG</text>
      </g>
      <g ewd:lineID="31">
        <text transform="matrix(1 0 0 1 42.7036 256.8252)" style="font-family:'Arial'; font-size:6px;">4</text>
        <text transform="matrix(1 0 0 1 46.5015 245.4863)" style="font-family:'Arial'; font-size:6px;">CG</text>
      </g>
      <g ewd:lineID="32">
        <text transform="matrix(1 0 0 1 362.5166 194.4629)" style="font-family:'Arial'; font-size:6px;">14</text>
        <text transform="matrix(1 0 0 1 366.1489 205.8013)" style="font-family:'Arial'; font-size:6px;">CANL</text>
      </g>
      <g ewd:lineID="33">
        <text transform="matrix(1 0 0 1 314.8296 194.4629)" style="font-family:'Arial'; font-size:6px;">6</text>
        <text transform="matrix(1 0 0 1 314.627 205.8013)" style="font-family:'Arial'; font-size:6px;">CANH</text>
      </g>
      <g ewd:lineID="34">
        <text transform="matrix(1 0 0 1 39.3667 194.4629)" style="font-family:'Arial'; font-size:6px;">16</text>
        <text transform="matrix(1 0 0 1 45.167 205.8013)" style="font-family:'Arial'; font-size:6px;">BAT</text>
      </g>
      <g ewd:lineID="6">
        <text transform="matrix(1 0 0 1 620.9717 256.8252)" style="font-family:'Arial'; font-size:6px;">9</text>
        <text transform="matrix(1 0 0 1 623.2695 245.4863)" style="font-family:'Arial'; font-size:6px;">TAC</text>
      </g>
      <g ewd:figtype="title">
        <text transform="matrix(1 0 0 1 586.75 222.1011)" style="font-family:'Arial'; font-size:6px;">H23</text>
        <text transform="matrix(1 0 0 1 586.75 229.1875)" style="font-family:'Arial'; font-size:6px;">DLC3</text>
      </g>
      <g ewd:figtype="title">
        <text transform="matrix(1 0 0 1 272.104 222.1011)" style="font-family:'Arial'; font-size:6px;">H23</text>
        <text transform="matrix(1 0 0 1 272.104 229.1875)" style="font-family:'Arial'; font-size:6px;">DLC3</text>
      </g>
    </g>
    <g ewd:figtype="conn" ewd:code="B71" ewd:figID="10">
      <path style="fill:none;stroke:#000000;stroke-width:1.417;stroke-linecap:round;stroke-linejoin:round;" d="M 637.77,564.09 L 637.77, 530.07 L 569.74, 530.07 L 569.74, 564.09 L 637.77, 564.09" />
      <g ewd:lineID="13">
        <path style="fill:#FFFFFF;stroke:#000000;stroke-width:0.85;stroke-linecap:round;stroke-linejoin:round;" d="M 578.25,530.08 C 581.38 530.08 583.92 527.54 583.92 524.41 C 583.919965820313 521.279946289063 581.38 518.74 578.25 518.74 C 575.12 518.74 572.58 521.28 572.58 524.41 C 572.580034179687 527.539946289063 575.11 530.08 578.25 530.08" />
        <text transform="matrix(0 -1 1 0 579.9521 539.4932)" style="font-family:'Arial'; font-size:6px;">TC</text>
        <text transform="matrix(1 0 0 1 576.2441 526.1172)" style="font-family:'Arial'; font-size:6px;">A</text>
        <text transform="matrix(1 0 0 1 564.3447 526.1172)" style="font-family:'Arial'; font-size:6px;">41</text>
      </g>
      <g ewd:lineID="7">
        <path style="fill:#FFFFFF;stroke:#000000;stroke-width:0.85;stroke-linecap:round;stroke-linejoin:round;" d="M 629.27,530.08 C 632.4 530.08 634.94 527.54 634.94 524.41 C 634.940004882812 521.279946289063 632.4 518.74 629.27 518.74 C 626.14 518.74 623.6 521.28 623.6 524.41 C 623.599951171875 527.539946289063 626.14 530.08 629.27 530.08" />
        <text transform="matrix(0 -1 1 0 630.9766 547.8281)" style="font-family:'Arial'; font-size:6px;">TACH</text>
        <text transform="matrix(1 0 0 1 627.2676 526.1172)" style="font-family:'Arial'; font-size:6px;">A</text>
        <text transform="matrix(1 0 0 1 615.3672 526.1172)" style="font-family:'Arial'; font-size:6px;">15</text>
      </g>
      <g ewd:figtype="title">
        <text transform="matrix(1 0 0 1 569.7422 572.1797)" style="font-family:'Arial'; font-size:6px;">B71(A)</text>
        <text transform="matrix(1 0 0 1 569.7422 579.2666)" style="font-family:'Arial'; font-size:6px;" ewd:textID="4">Engine ECU</text>
      </g>
    </g>
    <g ewd:figtype="conn" ewd:code="B74" ewd:figID="11">
      <path style="fill:none;stroke:#000000;stroke-width:1.417;stroke-linecap:round;stroke-linejoin:round;" d="M 739.82,564.09 L 739.82, 530.07 L 671.79, 530.07 L 671.79, 564.09 L 739.82, 564.09" />
      <g ewd:lineID="11">
        <path style="fill:#FFFFFF;stroke:#000000;stroke-width:0.85;stroke-linecap:round;stroke-linejoin:round;" d="M 680.29,530.08 C 683.42 530.08 685.96 527.54 685.96 524.41 C 685.960043945312 521.279946289063 683.42 518.74 680.29 518.74 C 677.159956054688 518.73998046875 674.62 521.28 674.62 524.41 C 674.619990234375 527.539946289063 677.16 530.08 680.29 530.08" />
        <text transform="matrix(0 -1 1 0 682 539.4932)" style="font-family:'Arial'; font-size:6px;">TC</text>
        <text transform="matrix(1 0 0 1 678.292 526.1172)" style="font-family:'Arial'; font-size:6px;">A</text>
        <text transform="matrix(1 0 0 1 666.3916 526.1172)" style="font-family:'Arial'; font-size:6px;">40</text>
      </g>
      <g ewd:lineID="5">
        <path style="fill:#FFFFFF;stroke:#000000;stroke-width:0.85;stroke-linecap:round;stroke-linejoin:round;" d="M 731.32,530.08 C 734.45 530.08 736.99 527.54 736.99 524.41 C 736.98998046875 521.279946289063 734.45 518.74 731.32 518.74 C 728.190014648437 518.73998046875 725.65 521.28 725.65 524.41 C 725.650048828125 527.539946289063 728.19 530.08 731.32 530.08" />
        <text transform="matrix(0 -1 1 0 733.0234 547.8281)" style="font-family:'Arial'; font-size:6px;">TACH</text>
        <text transform="matrix(1 0 0 1 729.3145 526.1172)" style="font-family:'Arial'; font-size:6px;">A</text>
        <text transform="matrix(1 0 0 1 717.415 526.1172)" style="font-family:'Arial'; font-size:6px;">17</text>
      </g>
      <g ewd:figtype="title">
        <text transform="matrix(1 0 0 1 671.7891 572.1797)" style="font-family:'Arial'; font-size:6px;">B74(A)</text>
        <text transform="matrix(1 0 0 1 671.7891 579.2666)" style="font-family:'Arial'; font-size:6px;" ewd:textID="4">Engine ECU</text>
      </g>
    </g>
    <g ewd:figtype="conn" ewd:code="B72" ewd:figID="12">
      <path style="fill:none;stroke:#000000;stroke-width:1.417;stroke-linecap:round;stroke-linejoin:round;" d="M 841.87,564.09 L 841.87, 530.07 L 773.84, 530.07 L 773.84, 564.09 L 841.87, 564.09" />
      <g ewd:lineID="10">
        <path style="fill:#FFFFFF;stroke:#000000;stroke-width:0.85;stroke-linecap:round;stroke-linejoin:round;" d="M 782.34,530.08 C 785.47 530.08 788.01 527.54 788.01 524.41 C 788.01001953125 521.279946289063 785.47 518.74 782.34 518.74 C 779.210053710937 518.73998046875 776.67 521.28 776.67 524.41 C 776.669965820313 527.539946289063 779.21 530.08 782.34 530.08" />
        <text transform="matrix(0 -1 1 0 784.0469 539.4932)" style="font-family:'Arial'; font-size:6px;">TC</text>
        <text transform="matrix(1 0 0 1 780.3389 526.1172)" style="font-family:'Arial'; font-size:6px;">A</text>
        <text transform="matrix(1 0 0 1 768.4395 526.1172)" style="font-family:'Arial'; font-size:6px;">26</text>
      </g>
      <g ewd:lineID="4">
        <path style="fill:#FFFFFF;stroke:#000000;stroke-width:0.85;stroke-linecap:round;stroke-linejoin:round;" d="M 833.36,530.08 C 836.49 530.08 839.03 527.54 839.03 524.41 C 839.03005859375 521.279946289063 836.4901 518.74 833.36 518.74 C 830.23 518.74 827.69 521.28 827.69 524.41 C 827.690004882812 527.539946289063 830.23 530.08 833.36 530.08" />
        <text transform="matrix(0 -1 1 0 835.0703 547.8281)" style="font-family:'Arial'; font-size:6px;">TACH</text>
        <text transform="matrix(1 0 0 1 831.3633 526.1172)" style="font-family:'Arial'; font-size:6px;">A</text>
        <text transform="matrix(1 0 0 1 819.4629 526.1172)" style="font-family:'Arial'; font-size:6px;">13</text>
      </g>
      <g ewd:figtype="title">
        <text transform="matrix(1 0 0 1 773.8369 572.1797)" style="font-family:'Arial'; font-size:6px;">B72(A)</text>
        <text transform="matrix(1 0 0 1 773.8369 579.2666)" style="font-family:'Arial'; font-size:6px;" ewd:textID="4">Engine ECU</text>
      </g>
    </g>
    <g ewd:figtype="conn" ewd:code="B73" ewd:figID="13">
      <path style="fill:none;stroke:#000000;stroke-width:1.417;stroke-linecap:round;stroke-linejoin:round;" d="M 943.92,564.09 L 943.92, 530.07 L 875.89, 530.07 L 875.89, 564.09 L 943.92, 564.09" />
      <g ewd:lineID="3">
        <path style="fill:#FFFFFF;stroke:#000000;stroke-width:0.85;stroke-linecap:round;stroke-linejoin:round;" d="M 935.41,530.08 C 938.54 530.08 941.08 527.54 941.08 524.41 C 941.080034179687 521.279946289063 938.54 518.74 935.41 518.74 C 932.28 518.74 929.74 521.28 929.74 524.41 C 929.73998046875 527.539946289063 932.28 530.08 935.41 530.08" />
        <text transform="matrix(0 -1 1 0 937.1182 547.8281)" style="font-family:'Arial'; font-size:6px;">TACH</text>
        <text transform="matrix(1 0 0 1 933.4102 526.1172)" style="font-family:'Arial'; font-size:6px;">A</text>
        <text transform="matrix(1 0 0 1 921.5098 526.1172)" style="font-family:'Arial'; font-size:6px;">13</text>
      </g>
      <g ewd:lineID="9">
        <path style="fill:#FFFFFF;stroke:#000000;stroke-width:0.85;stroke-linecap:round;stroke-linejoin:round;" d="M 884.39,530.08 C 887.52 530.08 890.06 527.54 890.06 524.41 C 890.059995117188 521.279946289063 887.52 518.74 884.39 518.74 C 881.260029296875 518.73998046875 878.72 521.28 878.72 524.41 C 878.71994140625 527.539946289063 881.26 530.08 884.39 530.08" />
        <text transform="matrix(0 -1 1 0 886.0947 539.4932)" style="font-family:'Arial'; font-size:6px;">TC</text>
        <text transform="matrix(1 0 0 1 882.3867 526.1172)" style="font-family:'Arial'; font-size:6px;">A</text>
        <text transform="matrix(1 0 0 1 870.4863 526.1172)" style="font-family:'Arial'; font-size:6px;">26</text>
      </g>
      <g ewd:figtype="title">
        <text transform="matrix(1 0 0 1 875.8848 572.1797)" style="font-family:'Arial'; font-size:6px;">B73(A)</text>
        <text transform="matrix(1 0 0 1 875.8848 579.2666)" style="font-family:'Arial'; font-size:6px;" ewd:textID="4">Engine ECU</text>
      </g>
    </g>
    <g ewd:figtype="conn" ewd:code="B88" ewd:figID="14">
      <path style="fill:none;stroke:#000000;stroke-width:1.417;stroke-linecap:round;stroke-linejoin:round;" d="M 1045.96,564.09 L 1045.96, 530.07 L 977.9299, 530.07 L 977.9299, 564.09 L 1045.96, 564.09" />
      <g ewd:lineID="2">
        <path style="fill:#FFFFFF;stroke:#000000;stroke-width:0.85;stroke-linecap:round;stroke-linejoin:round;" d="M 1037.46,530.08 C 1040.59 530.08 1043.13 527.54 1043.13 524.41 C 1043.13000976562 521.279946289063 1040.59 518.74 1037.46 518.74 C 1034.329921875 518.73998046875 1031.79 521.28 1031.79 524.41 C 1031.790078125 527.539946289063 1034.33 530.08 1037.46 530.08" />
        <text transform="matrix(0 -1 1 0 1039.166 547.8281)" style="font-family:'Arial'; font-size:6px;">TACH</text>
        <text transform="matrix(1 0 0 1 1035.457 526.1172)" style="font-family:'Arial'; font-size:6px;">A</text>
        <text transform="matrix(1 0 0 1 1023.5576 526.1172)" style="font-family:'Arial'; font-size:6px;">13</text>
      </g>
      <g ewd:lineID="8">
        <path style="fill:#FFFFFF;stroke:#000000;stroke-width:0.85;stroke-linecap:round;stroke-linejoin:round;" d="M 986.44,530.08 C 989.57 530.08 992.11 527.54 992.11 524.41 C 992.109970703125 521.279946289063 989.57 518.74 986.44 518.74 C 983.310004882812 518.73998046875 980.77 521.28 980.77 524.41 C 980.7700390625 527.539946289063 983.3 530.08 986.44 530.08" />
        <text transform="matrix(0 -1 1 0 988.1416 539.4932)" style="font-family:'Arial'; font-size:6px;">TC</text>
        <text transform="matrix(1 0 0 1 984.4336 526.1172)" style="font-family:'Arial'; font-size:6px;">A</text>
        <text transform="matrix(1 0 0 1 972.5332 526.1172)" style="font-family:'Arial'; font-size:6px;">26</text>
      </g>
      <g ewd:figtype="title">
        <text transform="matrix(1 0 0 1 977.9316 572.1797)" style="font-family:'Arial'; font-size:6px;">B88(A)</text>
        <text transform="matrix(1 0 0 1 977.9316 579.2666)" style="font-family:'Arial'; font-size:6px;" ewd:textID="4">Engine ECU</text>
      </g>
    </g>
    <g ewd:figtype="annex" ewd:code="" ewd:figID="1300">
      <path style="fill:none;stroke:#000000;stroke-width:1.417;" d="M 378.4,126.14 L 374.15, 121.89 L 350.76, 121.89 L 348.63, 117.64 L 346.5, 121.89 L 323.11, 121.89 L 318.86, 126.14" />
      <path style="fill:none;stroke:#000000;stroke-width:1.417;stroke-linecap:round;stroke-linejoin:round;" d="M 368.48,136.06 L 374.15, 147.4 L 379.82, 136.06" />
      <path style="fill:none;stroke:#000000;stroke-width:1.417;stroke-linecap:round;stroke-linejoin:round;" d="M 317.46,136.06 L 323.13, 147.4 L 328.8, 136.06" />
      <text transform="matrix(1 0 0 1 322.791 112.9663)" style="font-family:'Arial'; font-size:6px;" ewd:textID="5">Junction Connector</text>
    </g>
    <g ewd:figtype="comment" ewd:code="1" ewd:figID="1007">
      <text transform="matrix(1 0 0 1 459.1904 16.5884)" style="font-family:'Arial'; font-size:6px;">*1 : 1TR-FE, 2TR-FE</text>
    </g>
    <g ewd:figtype="comment" ewd:code="2" ewd:figID="1006">
      <text transform="matrix(1 0 0 1 459.1904 25.0928)" style="font-family:'Arial'; font-size:6px;">*2 : 1KD-FTV, 2KD-FTV</text>
    </g>
    <g ewd:figtype="comment" ewd:code="3" ewd:figID="1005">
      <text transform="matrix(1 0 0 1 459.1904 33.5967)" style="font-family:'Arial'; font-size:6px;">*3 : 5L-E</text>
    </g>
    <g ewd:figtype="comment" ewd:code="1" ewd:figID="1004">
      <text transform="matrix(1 0 0 1 994.9385 16.5884)" style="font-family:'Arial'; font-size:6px;">*1 : 1TR-FE, 2TR-FE</text>
    </g>
    <g ewd:figtype="comment" ewd:code="3" ewd:figID="1003">
      <text transform="matrix(1 0 0 1 994.9385 25.0928)" style="font-family:'Arial'; font-size:6px;">*3 : 5L-E</text>
    </g>
    <g ewd:figtype="comment" ewd:code="4" ewd:figID="1002">
      <text transform="matrix(1 0 0 1 994.9385 33.5967)" style="font-family:'Arial'; font-size:6px;" ewd:textID="1">*4 : 1KD-FTV w/o DPF</text>
    </g>
    <g ewd:figtype="comment" ewd:code="5" ewd:figID="1001">
      <text transform="matrix(1 0 0 1 994.9385 42.1006)" style="font-family:'Arial'; font-size:6px;" ewd:textID="2">*5 : 1KD-FTV w/ DPF</text>
    </g>
    <g ewd:figtype="comment" ewd:code="6" ewd:figID="1000">
      <text transform="matrix(1 0 0 1 994.9385 50.6045)" style="font-family:'Arial'; font-size:6px;">*6 : 2KD-FTV</text>
    </g>
    <text transform="matrix(0 -1 1 0 98.062 680.4775)" style="font-family:'Arial'; font-size:6px;">W-B</text>
    <text transform="matrix(0 -1 1 0 47.0381 680.4775)" style="font-family:'Arial'; font-size:6px;">W-B</text>
    <text transform="matrix(0 -1 1 0 98.062 457.7109)" style="font-family:'Arial'; font-size:6px;">BR</text>
    <text transform="matrix(0 -1 1 0 98.062 364.168)" style="font-family:'Arial'; font-size:6px;">BR</text>
    <text transform="matrix(0 -1 1 0 98.062 279.1279)" style="font-family:'Arial'; font-size:6px;">BR</text>
    <text transform="matrix(0 -1 1 0 183.1011 276.6289)" style="font-family:'Arial'; font-size:6px;">L</text>
    <text transform="matrix(0 -1 1 0 183.1011 361.6689)" style="font-family:'Arial'; font-size:6px;">L</text>
    <text transform="matrix(0 -1 1 0 47.0381 174.9141)" style="font-family:'Arial'; font-size:6px;">B</text>
    <text transform="matrix(0 -1 1 0 319.1646 174.9141)" style="font-family:'Arial'; font-size:6px;">Y</text>
    <text transform="matrix(0 -1 1 0 370.188 175.7446)" style="font-family:'Arial'; font-size:6px;">W</text>
    <text transform="matrix(0 -1 1 0 140.582 680.4775)" style="font-family:'Arial'; font-size:6px;">W-B</text>
    <text transform="matrix(0 -1 1 0 183.1011 680.4775)" style="font-family:'Arial'; font-size:6px;">W-B</text>
    <text transform="matrix(0 -1 1 0 319.1646 277.792)" style="font-family:'Arial'; font-size:6px;">W</text>
    <text transform="matrix(0 -1 1 0 370.188 277.2939)" style="font-family:'Arial'; font-size:6px;">G</text>
    <text transform="matrix(0 -1 1 0 625.3066 276.9614)" style="font-family:'Arial'; font-size:6px;">B</text>
    <text transform="matrix(0 -1 1 0 319.1646 362.832)" style="font-family:'Arial'; font-size:6px;">W</text>
    <text transform="matrix(0 -1 1 0 319.1646 456.375)" style="font-family:'Arial'; font-size:6px;">W</text>
    <text transform="matrix(0 -1 1 0 370.188 455.877)" style="font-family:'Arial'; font-size:6px;">G</text>
    <text transform="matrix(0 -1 1 0 429.7158 507.3984)" style="font-family:'Arial'; font-size:6px;">W</text>
    <text transform="matrix(0 -1 1 0 472.2354 506.9004)" style="font-family:'Arial'; font-size:6px;">G</text>
    <text transform="matrix(0 -1 1 0 574.2832 506.9004)" style="font-family:'Arial'; font-size:6px;">G</text>
    <text transform="matrix(0 -1 1 0 625.3066 506.5684)" style="font-family:'Arial'; font-size:6px;">B</text>
    <text transform="matrix(0 -1 1 0 319.1646 507.3984)" style="font-family:'Arial'; font-size:6px;">W</text>
    <text transform="matrix(0 -1 1 0 319.1646 575.4297)" style="font-family:'Arial'; font-size:6px;">W</text>
    <text transform="matrix(0 -1 1 0 370.188 574.9316)" style="font-family:'Arial'; font-size:6px;">G</text>
    <text transform="matrix(0 -1 1 0 242.6294 362.832)" style="font-family:'Arial'; font-size:6px;">W</text>
    <text transform="matrix(0 -1 1 0 242.6294 507.3984)" style="font-family:'Arial'; font-size:6px;">W</text>
    <text transform="matrix(0 -1 1 0 676.3301 506.9004)" style="font-family:'Arial'; font-size:6px;">G</text>
    <text transform="matrix(0 -1 1 0 727.3535 506.5684)" style="font-family:'Arial'; font-size:6px;">B</text>
    <text transform="matrix(0 -1 1 0 778.377 506.9004)" style="font-family:'Arial'; font-size:6px;">G</text>
    <text transform="matrix(0 -1 1 0 829.4014 506.5684)" style="font-family:'Arial'; font-size:6px;">B</text>
    <text transform="matrix(0 -1 1 0 880.4248 506.9004)" style="font-family:'Arial'; font-size:6px;">G</text>
    <text transform="matrix(0 -1 1 0 931.4482 506.5684)" style="font-family:'Arial'; font-size:6px;">B</text>
    <text transform="matrix(0 -1 1 0 982.4727 506.9004)" style="font-family:'Arial'; font-size:6px;">G</text>
    <text transform="matrix(0 -1 1 0 1033.4961 506.5684)" style="font-family:'Arial'; font-size:6px;">B</text>
    <text transform="matrix(0 -1 1 0 1044.835 509.4004)" style="font-family:'Arial'; font-size:6px;">(*6)</text>
    <text transform="matrix(0 -1 1 0 942.7871 509.4004)" style="font-family:'Arial'; font-size:6px;">(*5)</text>
    <text transform="matrix(0 -1 1 0 840.7402 509.4004)" style="font-family:'Arial'; font-size:6px;">(*4)</text>
    <text transform="matrix(0 -1 1 0 738.6924 509.4004)" style="font-family:'Arial'; font-size:6px;">(*3)</text>
    <text transform="matrix(0 -1 1 0 636.6445 509.4004)" style="font-family:'Arial'; font-size:6px;">(*1)</text>
    <text transform="matrix(0 -1 1 0 993.8105 509.4004)" style="font-family:'Arial'; font-size:6px;">(*6)</text>
    <text transform="matrix(0 -1 1 0 891.7637 509.4004)" style="font-family:'Arial'; font-size:6px;">(*5)</text>
    <text transform="matrix(0 -1 1 0 789.7168 509.4004)" style="font-family:'Arial'; font-size:6px;">(*4)</text>
    <text transform="matrix(0 -1 1 0 687.6689 509.4004)" style="font-family:'Arial'; font-size:6px;">(*3)</text>
    <text transform="matrix(0 -1 1 0 585.6211 509.4004)" style="font-family:'Arial'; font-size:6px;">(*1)</text>
    <text transform="matrix(0 -1 1 0 109.4009 679.4805)" style="font-family:'Arial'; font-size:6px;">(*1)</text>
    <text transform="matrix(0 -1 1 0 194.4404 679.4805)" style="font-family:'Arial'; font-size:6px;">(*3)</text>
    <text transform="matrix(0 -1 1 0 151.9209 679.4805)" style="font-family:'Arial'; font-size:6px;">(*2)</text>
    <text transform="matrix(0 -1 1 0 183.1011 574.2666)" style="font-family:'Arial'; font-size:6px;">L</text>
    <text transform="matrix(0 -1 1 0 47.0381 280.792)" style="font-family:'Arial'; font-size:6px;">W-B</text>
    <a style="cursor:pointer;" ewd:figID="27" ewd:figtype="w2w" ewd:code="AB4" ewd:pin_no="14">
      <path style="fill:#FFFFFF;stroke:#000000;stroke-width:0.85;stroke-linecap:round;stroke-linejoin:round;" d="M 384.07,530.08 L 384.07, 538.58 L 364.23, 538.58 L 364.23, 530.08 L 384.07, 530.08" />
      <text transform="matrix(1 0 0 1 368.4805 536.3857)" style="font-family:'Arial'; font-size:6px;">AB4</text>
    </a>
    <a style="cursor:pointer;" ewd:figID="26" ewd:figtype="w2w" ewd:code="AB4" ewd:pin_no="32">
      <path style="fill:#FFFFFF;stroke:#000000;stroke-width:0.85;stroke-linecap:round;stroke-linejoin:round;" d="M 333.05,530.08 L 333.05, 538.58 L 313.21, 538.58 L 313.21, 530.08 L 333.05, 530.08" />
      <text transform="matrix(1 0 0 1 317.457 536.3857)" style="font-family:'Arial'; font-size:6px;">AB4</text>
    </a>
    <a style="cursor:pointer;" ewd:figID="25" ewd:figtype="gp" ewd:code="D4">
      <path style="fill:#FFFFFF;stroke:#000000;stroke-width:0.85;stroke-linecap:round;stroke-linejoin:round;" d="M 174.31,691.65 L 199.82, 691.65 L 187.06, 708.66 L 174.31, 691.65" />
      <text transform="matrix(1 0 0 1 183.229 698.5264)" style="font-family:'Arial'; font-size:6px;">D4</text>
    </a>
    <a style="cursor:pointer;" ewd:figID="24" ewd:figtype="gp" ewd:code="D3">
      <path style="fill:#FFFFFF;stroke:#000000;stroke-width:0.85;stroke-linecap:round;stroke-linejoin:round;" d="M 131.79,691.65 L 157.3, 691.65 L 144.55, 708.66 L 131.79, 691.65" />
      <text transform="matrix(1 0 0 1 140.71 698.5264)" style="font-family:'Arial'; font-size:6px;">D3</text>
    </a>
    <a style="cursor:pointer;" ewd:figID="23" ewd:figtype="gp" ewd:code="D1">
      <path style="fill:#FFFFFF;stroke:#000000;stroke-width:0.85;stroke-linecap:round;stroke-linejoin:round;" d="M 89.27,691.65 L 114.78, 691.65 L 102.02, 708.66 L 89.27, 691.65" />
      <text transform="matrix(1 0 0 1 98.1899 698.5264)" style="font-family:'Arial'; font-size:6px;">D1</text>
    </a>
    <a style="cursor:pointer;" ewd:figID="22" ewd:figtype="gp" ewd:code="H1">
      <path style="fill:#FFFFFF;stroke:#000000;stroke-width:0.85;stroke-linecap:round;stroke-linejoin:round;" d="M 38.24,691.65 L 63.75, 691.65 L 51, 708.66 L 38.24, 691.65" />
      <text transform="matrix(1 0 0 1 47.166 698.5264)" style="font-family:'Arial'; font-size:6px;">H1</text>
    </a>
    <a style="cursor:pointer;" ewd:figID="21" ewd:figtype="w2w" ewd:code="HB1" ewd:pin_no="37">
      <path style="fill:#FFFFFF;stroke:#000000;stroke-width:0.85;stroke-linecap:round;stroke-linejoin:round;" d="M 639.19,385.51 L 639.19, 394.01 L 619.35, 394.01 L 619.35, 385.51 L 639.19, 385.51" />
      <text transform="matrix(1 0 0 1 623.4336 391.8184)" style="font-family:'Arial'; font-size:6px;">HB1</text>
    </a>
    <a style="cursor:pointer;" ewd:figID="20" ewd:figtype="w2w" ewd:code="HB1" ewd:pin_no="59">
      <path style="fill:#FFFFFF;stroke:#000000;stroke-width:0.85;stroke-linecap:round;stroke-linejoin:round;" d="M 196.99,308.98 L 196.99, 317.48 L 177.15, 317.48 L 177.15, 308.98 L 196.99, 308.98" />
      <text transform="matrix(1 0 0 1 181.2285 315.2837)" style="font-family:'Arial'; font-size:6px;">HB1</text>
    </a>
    <a style="cursor:pointer;" ewd:figID="19" ewd:figtype="w2w" ewd:code="HB1" ewd:pin_no="21">
      <path style="fill:#FFFFFF;stroke:#000000;stroke-width:0.85;stroke-linecap:round;stroke-linejoin:round;" d="M 111.95,308.98 L 111.95, 317.48 L 92.1, 317.48 L 92.1, 308.98 L 111.95, 308.98" />
      <text transform="matrix(1 0 0 1 96.189 315.2837)" style="font-family:'Arial'; font-size:6px;">HB1</text>
    </a>
    <a style="cursor:pointer;" ewd:figID="18" ewd:figtype="w2w" ewd:code="DB1" ewd:pin_no="9">
      <path style="fill:#FFFFFF;stroke:#000000;stroke-width:0.85;stroke-linecap:round;stroke-linejoin:round;" d="M 111.95,402.52 L 111.95, 394.02 L 92.1, 394.02 L 92.1, 402.52 L 111.95, 402.52" />
      <text transform="matrix(1 0 0 1 96.189 400.3232)" style="font-family:'Arial'; font-size:6px;">DB5</text>
    </a>
    <a style="cursor:pointer;" ewd:figID="17" ewd:figtype="w2w" ewd:code="DB5" ewd:pin_no="2">
      <path style="fill:#FFFFFF;stroke:#000000;stroke-width:0.85;stroke-linecap:round;stroke-linejoin:round;" d="M 111.95,419.53 L 111.95, 411.03 L 92.1, 411.03 L 92.1, 419.53 L 111.95, 419.53" />
      <text transform="matrix(1 0 0 1 96.189 417.3311)" style="font-family:'Arial'; font-size:6px;">DB1</text>
    </a>
    <a style="cursor:pointer;" ewd:figID="16" ewd:figtype="w2w" ewd:code="DB2" ewd:pin_no="9">
      <path style="fill:#FFFFFF;stroke:#000000;stroke-width:0.85;stroke-linecap:round;stroke-linejoin:round;" d="M 111.95,411.02 L 111.95, 402.52 L 92.1, 402.52 L 92.1, 411.02 L 111.95, 411.02" />
      <text transform="matrix(1 0 0 1 96.189 408.8262)" style="font-family:'Arial'; font-size:6px;">DB2</text>
    </a>
  </g>
</svg>