﻿<?xml version="1.0" encoding="utf-8"?>
<!-- Generator: Adobe Illustrator 10.0, SVG Export Plug-In . SVG Version: 3.0.0 Build 77)  -->
<!DOCTYPE svg PUBLIC "-//W3C//DTD SVG 1.0//EN" "http://www.w3.org/TR/2001/REC-SVG-20010904/DTD/svg10.dtd"[
   <!ENTITY ns_flows "http://ns.adobe.com/Flows/1.0/">
   <!ENTITY ns_svg "http://www.w3.org/2000/svg">
   <!ENTITY ns_xlink "http://www.w3.org/1999/xlink">
   <!ENTITY st0 "font-size:7px;font-family:'MS-PGothic';adobe-font-script:japanese;">
   <!ENTITY st1 "font-size:6px;font-family:'ArialMT';">
   <!ENTITY st2 "fill:#FFFFFF;stroke:#000000; stroke-width:1.41;stroke-linecap:round;stroke-linejoin:round;">
   <!ENTITY st3 "fill:#FFFFCC;stroke:#FFFFCC; stroke-width:0.1;stroke-linecap:round;stroke-linejoin:round;">
   <!ENTITY st4 "fill:#CCCCCC;stroke:#CCCCCC; stroke-width:0.1;stroke-linecap:round;stroke-linejoin:round;">
   <!ENTITY st5 "fill:#CCECF4;stroke:#000000; stroke-width:1.133;stroke-linecap:round;stroke-linejoin:round;">
   <!ENTITY st6 "fill:none;stroke-linecap:butt; stroke-linejoin:round;">
   <!ENTITY st7 "fill:none;stroke:#000000;stroke-linecap:round;stroke-linejoin:round;">
   <!ENTITY st8 "enable-background:new;">
   <!ENTITY st9 "fill:#000000;stroke:#000000; stroke-linecap:round;stroke-linejoin:round;">
   <!ENTITY st10 "font-size:9px;font-family:'ArialMT';">
   <!ENTITY st11 "font-size:9px;font-family:'Svg Symbol';">
   <!ENTITY st12 "font-size:6px;font-family:'Svg Symbol';">
   <!ENTITY st13 "fill:none;stroke:#ff0000;stroke-linecap:round;stroke-linejoin:round;">
   <!ENTITY st14 "fill:#FFFF00;stroke:#FFFF00; stroke-width:0.1;stroke-linecap:round;stroke-linejoin:round;">
   <!ENTITY st15 "font-size:6px;font-family:'MS-PGothic';adobe-font-script:japanese;">
   <!ENTITY st16 "1.00 0.00 0.00 1.00">
   <!ENTITY st17 "0.00 -1.00 1.00 0.00">
   <!ENTITY st18 "font-size:6px;font-family:'Arial';">
   <!ENTITY st19 "font-size:9px;font-family:'Arial';">
   <!ENTITY st20 "font-size:6px;font-family:'MS-PGothic','MS PGothic';adobe-font-script:japanese;">
   <!ENTITY st21 "font-size:7px;font-family:'MS-PGothic','MS PGothic';adobe-font-script:japanese;">
   <!ATTLIST svg
       xmlns:ewd CDATA #FIXED "http://shcl.co.jp/ewd"
       xmlns:a CDATA #FIXED "http://ns.adobe.com/AdobeSVGViewerExtensions/3.0/"
       ewd:ver CDATA #IMPLIED >
   <!ATTLIST a
       ewd:lineID CDATA #IMPLIED
       ewd:groupID CDATA #IMPLIED
       ewd:figtype CDATA #IMPLIED
       ewd:code CDATA #IMPLIED
       ewd:figID CDATA #IMPLIED
       ewd:pinNo CDATA #IMPLIED
       ewd:comment CDATA #IMPLIED >
   <!ATTLIST g
       ewd:lineID CDATA #IMPLIED
       ewd:groupID CDATA #IMPLIED
       ewd:figtype CDATA #IMPLIED
       ewd:code CDATA #IMPLIED
       ewd:figID CDATA #IMPLIED
       ewd:pinNo CDATA #IMPLIED
       ewd:comment CDATA #IMPLIED >
   <!ATTLIST text
       ewd:textID CDATA #IMPLIED >
   <!ATTLIST title
       ewd:textID CDATA #IMPLIED >
]>
<svg xmlns="http://www.w3.org/2000/svg" xmlns:xlink="http://www.w3.org/1999/xlink" width="2965.42" height="720.99" viewBox="0 0 2965.42 720.99" xml:space="preserve" xmlns:ewd="http://shcl.co.jp/ewd" ewd:ver="2.0">
  
  <defs>
    <font horiz-adv-x="1229">
      <font-face font-family="Svg Symbol" units-per-em="2048" panose-1="5 5 1 2 1 7 6 2 5 7" ascent="2059" descent="450" alphabetic="0" />
      <missing-glyph d="M 103,0 l 0,1280 1024,0 0,-1280 -1024,0 z m 32,32 l 960,0 0,1216 -960,0 0,-1216 z" />
      <glyph d4p1:unicode="" horiz-adv-x="1573" d="M 1517,0 l -567,0 24,279 q 141,59 207.5,168 66.5,109 66.5,306 0,272 -132.5,417.5 -132.5,145.5 -333.5,145.5 -194,0 -328,-147.5 -134,-147.5 -134,-401.5 0,-200 68.5,-319 68.5,-119 206.5,-169 l 25,-279 -564,0 0,279 35,0 q 3,-61 32,-83 45,-35 137,-35 l 270,0 0,70 q -210,61 -324.5,209 -114.5,148 -114.5,349 0,252 186.5,425 186.5,173 504.5,173 195,0 358.5,-73.5 163.5,-73.5 252,-214.5 88.5,-141 88.5,-310 0,-207 -121.5,-360.5 -121.5,-153.5 -317.5,-197.5 l -8,-70 275,0 q 92,0 128,28 36,28 42,90 l 38,0 0,-279 z" xmlns:d4p1="def-glyph-attr-unicode" />
    </font>
  </defs>
  
<g ewd:figtype="jb" ewd:code="13" ewd:figID="8">
      <path style="fill:none;stroke:#000000;stroke-width:0.85;" d="M 866.38,87.84 L 866.38, 110.52" />
      <path d="M 866.38,110.51 L 869.21, 107.68 L 869.21, 104.85 L 866.38, 107.68 L 863.55, 104.85 L 863.55, 107.68 L 866.38, 110.51" style="stroke-linecap:round;stroke-linejoin:round;" />
      <path style="fill:none;stroke:#000000;stroke-width:0.85;stroke-linecap:round;stroke-linejoin:round;" d="M 870.63,121.85 C 873.76 121.85 876.3 119.31 876.3 116.18 C 876.3 113.05 873.76 110.51 870.63 110.51 L 862.13, 110.51 C 859 110.51 856.46 113.05 856.46 116.18 C 856.46 119.31 859 121.85 862.13 121.85 L 870.63, 121.85" />
      <text transform="matrix(1 0 0 1 854.7451 95.2129)" style="font-family:'Arial'; font-size:6px;">11</text>
      <text transform="matrix(1 0 0 1 860.8755 117.8901)" style="font-family:'Arial'; font-size:6px;">13H</text>
      <text transform="matrix(1 0 0 1 848.3672 117.8901)" style="font-family:'Arial'; font-size:6px;">13</text>
    </g><g ewd:figtype="jb" ewd:code="6" ewd:figID="7">
      <path d="M 867.8,215.4 C 867.8 216.18 867.17 216.82 866.38 216.82 C 865.6 216.82 864.96 216.19 864.96 215.4 C 864.960043945312 214.609987792969 865.59 213.98 866.38 213.98 C 867.16 213.98 867.8 214.61 867.8 215.4" style="stroke-linecap:round;stroke-linejoin:round;" />
      <path style="fill:none;stroke:#000000;stroke-width:0.85;" d="M 951.42,229.57 L 951.42, 215.4 L 866.38, 215.4" />
      <path style="fill:none;stroke:#000000;stroke-width:0.85;" d="M 866.38,201.22 L 866.38, 229.57" />
      <path d="M 951.42,229.57 L 954.25, 226.74 L 954.25, 223.91 L 951.42, 226.74 L 948.59, 223.91 L 948.59, 226.74 L 951.42, 229.57" style="stroke-linecap:round;stroke-linejoin:round;" />
      <path style="fill:none;stroke:#000000;stroke-width:0.85;stroke-linecap:round;stroke-linejoin:round;" d="M 955.67,240.91 C 958.8 240.91 961.34 238.37 961.34 235.24 C 961.34 232.11 958.8 229.57 955.67 229.57 L 947.17, 229.57 C 944.04 229.57 941.5 232.11 941.5 235.24 C 941.5 238.37 944.04 240.91 947.17 240.91 L 955.67, 240.91" />
      <path d="M 866.38,229.57 L 869.21, 226.74 L 869.21, 223.91 L 866.38, 226.74 L 863.55, 223.91 L 863.55, 226.74 L 866.38, 229.57" style="stroke-linecap:round;stroke-linejoin:round;" />
      <path style="fill:none;stroke:#000000;stroke-width:0.85;stroke-linecap:round;stroke-linejoin:round;" d="M 870.63,240.91 C 873.76 240.91 876.3 238.37 876.3 235.24 C 876.3 232.11 873.76 229.57 870.63 229.57 L 862.13, 229.57 C 859 229.57 856.46 232.11 856.46 235.24 C 856.46 238.37 859 240.91 862.13 240.91 L 870.63, 240.91" />
      <path d="M 866.38,201.22 L 869.21, 204.05 L 869.21, 206.88 L 866.38, 204.05 L 863.55, 206.88 L 863.55, 204.05 L 866.38, 201.22" style="stroke-linecap:round;stroke-linejoin:round;" />
      <path style="fill:none;stroke:#000000;stroke-width:0.85;stroke-linecap:round;stroke-linejoin:round;" d="M 870.63,201.22 C 873.76 201.22 876.3 198.68 876.3 195.55 C 876.3 192.42 873.76 189.88 870.63 189.88 L 862.13, 189.88 C 859 189.88 856.46 192.42 856.46 195.55 C 856.46 198.68 859 201.22 862.13 201.22 L 870.63, 201.22" />
      <text transform="matrix(1 0 0 1 947.7495 236.9458)" style="font-family:'Arial'; font-size:6px;">6B</text>
      <text transform="matrix(1 0 0 1 936.7441 236.9458)" style="font-family:'Arial'; font-size:6px;">2</text>
      <text transform="matrix(1 0 0 1 862.7095 236.9458)" style="font-family:'Arial'; font-size:6px;">6B</text>
      <text transform="matrix(1 0 0 1 851.7041 236.9458)" style="font-family:'Arial'; font-size:6px;">3</text>
      <text transform="matrix(1 0 0 1 862.7095 197.2593)" style="font-family:'Arial'; font-size:6px;">6B</text>
      <text transform="matrix(1 0 0 1 851.7041 197.2593)" style="font-family:'Arial'; font-size:6px;">1</text>
    </g><g ewd:figtype="jb" ewd:code="6" ewd:figID="6">
      <path style="fill:none;stroke:#000000;stroke-width:0.85;" d="M 866.38,600.9 L 866.38, 629.25" />
      <path d="M 866.38,629.25 L 869.21, 626.41 L 869.21, 623.58 L 866.38, 626.41 L 863.55, 623.58 L 863.55, 626.41 L 866.38, 629.25" style="stroke-linecap:round;stroke-linejoin:round;" />
      <path style="fill:none;stroke:#000000;stroke-width:0.85;stroke-linecap:round;stroke-linejoin:round;" d="M 870.63,640.59 C 873.76 640.59 876.3 638.05 876.3 634.92 C 876.3 631.79 873.76 629.25 870.63 629.25 L 862.13, 629.25 C 859 629.25 856.46 631.79 856.46 634.92 C 856.46 638.05 859 640.59 862.13 640.59 L 870.63, 640.59" />
      <path d="M 866.38,600.9 L 869.21, 603.7401 L 869.21, 606.5701 L 866.38, 603.7401 L 863.55, 606.5701 L 863.55, 603.7401 L 866.38, 600.9" style="stroke-linecap:round;stroke-linejoin:round;" />
      <path style="fill:none;stroke:#000000;stroke-width:0.85;stroke-linecap:round;stroke-linejoin:round;" d="M 870.63,600.9 C 873.76 600.9 876.3 598.36 876.3 595.23 C 876.3 592.1 873.76 589.56 870.63 589.56 L 862.13, 589.56 C 859 589.56 856.46 592.1 856.46 595.23 C 856.46 598.36 859 600.9 862.13 600.9 L 870.63, 600.9" />
      <text transform="matrix(1 0 0 1 862.8779 636.627)" style="font-family:'Arial'; font-size:6px;">6F</text>
      <text transform="matrix(1 0 0 1 851.7041 636.627)" style="font-family:'Arial'; font-size:6px;">1</text>
      <text transform="matrix(1 0 0 1 862.8779 596.9414)" style="font-family:'Arial'; font-size:6px;">6F</text>
      <text transform="matrix(1 0 0 1 851.7041 596.9414)" style="font-family:'Arial'; font-size:6px;">9</text>
    </g><g ewd:figtype="jb" ewd:code="6" ewd:figID="9">
      <path d="M 867.8,470.51 C 867.8 471.29 867.17 471.93 866.38 471.93 C 865.6 471.93 864.96 471.3 864.96 470.51 C 864.960043945312 469.72001953125 865.59 469.09 866.38 469.09 C 867.16 469.09 867.8 469.72 867.8 470.51" style="stroke-linecap:round;stroke-linejoin:round;" />
      <path d="M 952.84,470.51 C 952.84 471.29 952.21 471.93 951.42 471.93 C 950.64 471.93 950 471.3 950 470.51 C 950 469.72001953125 950.63 469.09 951.42 469.09 C 952.2 469.09 952.84 469.72 952.84 470.51" style="stroke-linecap:round;stroke-linejoin:round;" />
      <path style="fill:none;stroke:#000000;stroke-width:0.85;" d="M 951.42,484.68 L 951.42, 456.33" />
      <path style="fill:none;stroke:#000000;stroke-width:0.85;" d="M 866.38,470.51 L 951.42, 470.51" />
      <path style="fill:none;stroke:#000000;stroke-width:0.85;" d="M 866.38,456.33 L 866.38, 484.68" />
      <path d="M 866.38,484.68 L 869.21, 481.84 L 869.21, 479.01 L 866.38, 481.84 L 863.55, 479.01 L 863.55, 481.84 L 866.38, 484.68" style="stroke-linecap:round;stroke-linejoin:round;" />
      <path style="fill:none;stroke:#000000;stroke-width:0.85;stroke-linecap:round;stroke-linejoin:round;" d="M 870.63,496.02 C 873.76 496.02 876.3 493.48 876.3 490.35 C 876.3 487.22 873.76 484.68 870.63 484.68 L 862.13, 484.68 C 859 484.68 856.46 487.22 856.46 490.35 C 856.46 493.48 859 496.02 862.13 496.02 L 870.63, 496.02" />
      <path d="M 866.38,456.33 L 869.21, 459.17 L 869.21, 462 L 866.38, 459.17 L 863.55, 462 L 863.55, 459.17 L 866.38, 456.33" style="stroke-linecap:round;stroke-linejoin:round;" />
      <path style="fill:none;stroke:#000000;stroke-width:0.85;stroke-linecap:round;stroke-linejoin:round;" d="M 870.63,456.33 C 873.76 456.33 876.3 453.79 876.3 450.66 C 876.3 447.53 873.76 444.99 870.63 444.99 L 862.13, 444.99 C 859 444.99 856.46 447.53 856.46 450.66 C 856.46 453.79 859 456.33 862.13 456.33 L 870.63, 456.33" />
      <path d="M 951.42,484.68 L 954.25, 481.84 L 954.25, 479.01 L 951.42, 481.84 L 948.59, 479.01 L 948.59, 481.84 L 951.42, 484.68" style="stroke-linecap:round;stroke-linejoin:round;" />
      <path style="fill:none;stroke:#000000;stroke-width:0.85;stroke-linecap:round;stroke-linejoin:round;" d="M 955.67,496.02 C 958.8 496.02 961.34 493.48 961.34 490.35 C 961.34 487.22 958.8 484.68 955.67 484.68 L 947.17, 484.68 C 944.04 484.68 941.5 487.22 941.5 490.35 C 941.5 493.48 944.04 496.02 947.17 496.02 L 955.67, 496.02" />
      <path d="M 951.42,456.33 L 954.25, 459.17 L 954.25, 462 L 951.42, 459.17 L 948.59, 462 L 948.59, 459.17 L 951.42, 456.33" style="stroke-linecap:round;stroke-linejoin:round;" />
      <path style="fill:none;stroke:#000000;stroke-width:0.85;stroke-linecap:round;stroke-linejoin:round;" d="M 955.67,456.33 C 958.8 456.33 961.34 453.79 961.34 450.66 C 961.34 447.53 958.8 444.99 955.67 444.99 L 947.17, 444.99 C 944.04 444.99 941.5 447.53 941.5 450.66 C 941.5 453.79 944.04 456.33 947.17 456.33 L 955.67, 456.33" />
      <text transform="matrix(1 0 0 1 862.8779 492.0547)" style="font-family:'Arial'; font-size:6px;">6F</text>
      <text transform="matrix(1 0 0 1 848.3672 492.0547)" style="font-family:'Arial'; font-size:6px;">10</text>
      <text transform="matrix(1 0 0 1 862.8779 452.3691)" style="font-family:'Arial'; font-size:6px;">6F</text>
      <text transform="matrix(1 0 0 1 848.3672 452.3691)" style="font-family:'Arial'; font-size:6px;">17</text>
      <text transform="matrix(1 0 0 1 947.917 492.0547)" style="font-family:'Arial'; font-size:6px;">6F</text>
      <text transform="matrix(1 0 0 1 933.4063 492.0547)" style="font-family:'Arial'; font-size:6px;">19</text>
      <text transform="matrix(1 0 0 1 947.917 452.3691)" style="font-family:'Arial'; font-size:6px;">6F</text>
      <text transform="matrix(1 0 0 1 933.4063 452.3691)" style="font-family:'Arial'; font-size:6px;">16</text>
    </g><g ewd:figtype="jb" ewd:code="13" ewd:figID="1">
      <path d="M 1171.98,130.34 C 1171.98 131.12 1171.35 131.76 1170.56 131.76 C 1169.78 131.76 1169.14 131.13 1169.14 130.34 C 1169.14002929687 129.549992675781 1169.77 128.92 1170.56 128.92 C 1171.35 128.92 1171.98 129.56 1171.98 130.34" style="stroke-linecap:round;stroke-linejoin:round;" />
      <path d="M 1223.01,121.84 C 1223.01 122.62 1222.38 123.26 1221.59 123.26 C 1220.81 123.26 1220.17 122.63 1220.17 121.84 C 1220.17008789062 121.049992675781 1220.8 120.42 1221.59 120.42 C 1222.37 120.42 1223.01 121.05 1223.01 121.84" style="stroke-linecap:round;stroke-linejoin:round;" />
      <path d="M 1265.53,113.33 C 1265.53 114.11 1264.9 114.75 1264.11 114.75 C 1263.33 114.75 1262.69 114.12 1262.69 113.33 C 1262.6898828125 112.540003662109 1263.32 111.91 1264.11 111.91 C 1264.89 111.92 1265.53 112.55 1265.53 113.33" style="stroke-linecap:round;stroke-linejoin:round;" />
      <path d="M 1316.55,104.83 C 1316.55 105.61 1315.92 106.25 1315.13 106.25 C 1314.35 106.25 1313.71 105.62 1313.71 104.83 C 1313.709921875 104.040003662109 1314.34 103.41 1315.13 103.41 C 1315.92 103.41 1316.55 104.05 1316.55 104.83" style="stroke-linecap:round;stroke-linejoin:round;" />
      <path d="M 1801.25,113.35 C 1801.25 114.13 1800.62 114.77 1799.83 114.77 C 1799.05 114.77 1798.41 114.14 1798.41 113.35 C 1798.41006835937 112.559996948242 1799.04 111.93 1799.83 111.93 C 1800.62 111.93 1801.25 112.57 1801.25 113.35" style="stroke-linecap:round;stroke-linejoin:round;" />
      <path d="M 1852.27,104.84 C 1852.27 105.62 1851.64 106.26 1850.85 106.26 C 1850.07 106.26 1849.43 105.63 1849.43 104.84 C 1849.43010742187 104.049992675781 1850.06 103.42 1850.85 103.42 C 1851.64 103.43 1852.27 104.06 1852.27 104.84" style="stroke-linecap:round;stroke-linejoin:round;" />
      <path style="fill:none;stroke:#000000;stroke-width:0.85;" d="M 2404.63,144.54 L 2404.63, 104.84 L 1315.13, 104.84" />
      <path style="fill:none;stroke:#000000;stroke-width:0.85;" d="M 2353.59,144.54 L 2353.59, 113.34 L 1264.11, 113.34" />
      <path style="fill:none;stroke:#000000;stroke-width:0.85;" d="M 1799.83,113.35 L 1799.83, 144.53" />
      <path style="fill:none;stroke:#000000;stroke-width:0.85;" d="M 1850.87,144.53 L 1850.87, 104.84" />
      <path style="fill:none;stroke:#000000;stroke-width:0.85;" d="M 1221.59,121.84 L 1434.19, 121.84 L 1434.19, 144.52" />
      <path style="fill:none;stroke:#000000;stroke-width:0.85;" d="M 1170.57,130.34 L 1383.17, 130.34 L 1383.17, 144.51" />
      <path style="fill:none;stroke:#000000;stroke-width:0.85;" d="M 1315.13,87.84 L 1315.13, 144.52" />
      <path style="fill:none;stroke:#000000;stroke-width:0.85;" d="M 1264.11,144.51 L 1264.11, 87.84" />
      <path style="fill:none;stroke:#000000;stroke-width:0.85;" d="M 1221.59,87.84 L 1221.59, 144.52" />
      <path style="fill:none;stroke:#000000;stroke-width:0.85;" d="M 1170.57,87.84 L 1170.57, 144.52" />
      <path d="M 2404.63,144.54 L 2407.47, 141.71 L 2407.47, 138.88 L 2404.63, 141.71 L 2401.8, 138.88 L 2401.8, 141.71 L 2404.63, 144.54" style="stroke-linecap:round;stroke-linejoin:round;" />
      <path style="fill:none;stroke:#000000;stroke-width:0.85;stroke-linecap:round;stroke-linejoin:round;" d="M 2408.88,155.88 C 2412.01 155.88 2414.55 153.34 2414.55 150.21 C 2414.55 147.08 2412.01 144.54 2408.88 144.54 L 2400.38, 144.54 C 2397.25 144.54 2394.71 147.08 2394.71 150.21 C 2394.71 153.34 2397.25 155.88 2400.38 155.88 L 2408.88, 155.88" />
      <path d="M 2353.61,144.54 L 2356.45, 141.71 L 2356.45, 138.88 L 2353.61, 141.71 L 2350.78, 138.88 L 2350.78, 141.71 L 2353.61, 144.54" style="stroke-linecap:round;stroke-linejoin:round;" />
      <path style="fill:none;stroke:#000000;stroke-width:0.85;stroke-linecap:round;stroke-linejoin:round;" d="M 2357.86,155.88 C 2360.99 155.88 2363.53 153.34 2363.53 150.21 C 2363.53 147.08 2360.99 144.54 2357.86 144.54 L 2349.36, 144.54 C 2346.23 144.54 2343.69 147.08 2343.69 150.21 C 2343.69 153.34 2346.23 155.88 2349.36 155.88 L 2357.86, 155.88" />
      <path d="M 1850.82,144.53 L 1853.65, 141.7 L 1853.65, 138.87 L 1850.82, 141.7 L 1847.99, 138.87 L 1847.99, 141.7 L 1850.82, 144.53" style="stroke-linecap:round;stroke-linejoin:round;" />
      <path style="fill:none;stroke:#000000;stroke-width:0.85;stroke-linecap:round;stroke-linejoin:round;" d="M 1855.07,155.87 C 1858.2 155.87 1860.74 153.33 1860.74 150.2 C 1860.74 147.07 1858.2 144.53 1855.07 144.53 L 1846.57, 144.53 C 1843.44 144.53 1840.9 147.07 1840.9 150.2 C 1840.9 153.33 1843.44 155.87 1846.57 155.87 L 1855.07, 155.87" />
      <path d="M 1799.8,144.53 L 1802.63, 141.7 L 1802.63, 138.87 L 1799.8, 141.7 L 1796.97, 138.87 L 1796.97, 141.7 L 1799.8, 144.53" style="stroke-linecap:round;stroke-linejoin:round;" />
      <path style="fill:none;stroke:#000000;stroke-width:0.85;stroke-linecap:round;stroke-linejoin:round;" d="M 1804.05,155.87 C 1807.18 155.87 1809.72 153.33 1809.72 150.2 C 1809.72 147.07 1807.18 144.53 1804.05 144.53 L 1795.55, 144.53 C 1792.42 144.53 1789.88 147.07 1789.88 150.2 C 1789.88 153.33 1792.42 155.87 1795.55 155.87 L 1804.05, 155.87" />
      <path d="M 1434.19,144.51 L 1437.02, 141.68 L 1437.02, 138.85 L 1434.19, 141.68 L 1431.36, 138.85 L 1431.36, 141.68 L 1434.19, 144.51" style="stroke-linecap:round;stroke-linejoin:round;" />
      <path style="fill:none;stroke:#000000;stroke-width:0.85;stroke-linecap:round;stroke-linejoin:round;" d="M 1438.44,155.85 C 1441.57 155.85 1444.11 153.31 1444.11 150.18 C 1444.11 147.05 1441.57 144.51 1438.44 144.51 L 1429.94, 144.51 C 1426.81 144.51 1424.27 147.05 1424.27 150.18 C 1424.27 153.31 1426.81 155.85 1429.94 155.85 L 1438.44, 155.85" />
      <path d="M 1383.16,144.51 L 1385.99, 141.68 L 1385.99, 138.85 L 1383.16, 141.68 L 1380.33, 138.85 L 1380.33, 141.68 L 1383.16, 144.51" style="stroke-linecap:round;stroke-linejoin:round;" />
      <path style="fill:none;stroke:#000000;stroke-width:0.85;stroke-linecap:round;stroke-linejoin:round;" d="M 1387.42,155.85 C 1390.55 155.85 1393.09 153.31 1393.09 150.18 C 1393.09 147.05 1390.55 144.51 1387.42 144.51 L 1378.92, 144.51 C 1375.79 144.51 1373.25 147.05 1373.25 150.18 C 1373.25 153.31 1375.79 155.85 1378.92 155.85 L 1387.42, 155.85" />
      <path d="M 1315.13,144.51 L 1317.96, 141.68 L 1317.96, 138.85 L 1315.13, 141.68 L 1312.3, 138.85 L 1312.3, 141.68 L 1315.13, 144.51" style="stroke-linecap:round;stroke-linejoin:round;" />
      <path style="fill:none;stroke:#000000;stroke-width:0.85;stroke-linecap:round;stroke-linejoin:round;" d="M 1319.39,155.85 C 1322.52 155.85 1325.06 153.31 1325.06 150.18 C 1325.06 147.05 1322.52 144.51 1319.39 144.51 L 1310.89, 144.51 C 1307.76 144.51 1305.22 147.05 1305.22 150.18 C 1305.22 153.31 1307.76 155.85 1310.89 155.85 L 1319.39, 155.85" />
      <path d="M 1264.11,144.51 L 1266.94, 141.68 L 1266.94, 138.85 L 1264.11, 141.68 L 1261.28, 138.85 L 1261.28, 141.68 L 1264.11, 144.51" style="stroke-linecap:round;stroke-linejoin:round;" />
      <path style="fill:none;stroke:#000000;stroke-width:0.85;stroke-linecap:round;stroke-linejoin:round;" d="M 1268.36,155.85 C 1271.49 155.85 1274.03 153.31 1274.03 150.18 C 1274.03 147.05 1271.49 144.51 1268.36 144.51 L 1259.86, 144.51 C 1256.73 144.51 1254.19 147.05 1254.19 150.18 C 1254.19 153.31 1256.73 155.85 1259.86 155.85 L 1268.36, 155.85" />
      <path d="M 1221.59,144.51 L 1224.42, 141.68 L 1224.42, 138.85 L 1221.59, 141.68 L 1218.76, 138.85 L 1218.76, 141.68 L 1221.59, 144.51" style="stroke-linecap:round;stroke-linejoin:round;" />
      <path style="fill:none;stroke:#000000;stroke-width:0.85;stroke-linecap:round;stroke-linejoin:round;" d="M 1225.84,155.85 C 1228.97 155.85 1231.51 153.31 1231.51 150.18 C 1231.51 147.05 1228.97 144.51 1225.84 144.51 L 1217.34, 144.51 C 1214.21 144.51 1211.67 147.05 1211.67 150.18 C 1211.67 153.31 1214.21 155.85 1217.34 155.85 L 1225.84, 155.85" />
      <path d="M 1170.57,144.51 L 1173.4, 141.68 L 1173.4, 138.85 L 1170.57, 141.68 L 1167.74, 138.85 L 1167.74, 141.68 L 1170.57, 144.51" style="stroke-linecap:round;stroke-linejoin:round;" />
      <path style="fill:none;stroke:#000000;stroke-width:0.85;stroke-linecap:round;stroke-linejoin:round;" d="M 1174.82,155.85 C 1177.95 155.85 1180.49 153.31 1180.49 150.18 C 1180.49 147.05 1177.95 144.51 1174.82 144.51 L 1166.32, 144.51 C 1163.19 144.51 1160.65 147.05 1160.65 150.18 C 1160.65 153.31 1163.19 155.85 1166.32 155.85 L 1174.82, 155.85" />
      <text transform="matrix(1 0 0 1 1158.9331 95.1973)" style="font-family:'Arial'; font-size:6px;">14</text>
      <text transform="matrix(1 0 0 1 1209.9565 95.1973)" style="font-family:'Arial'; font-size:6px;">16</text>
      <text transform="matrix(1 0 0 1 1255.813 95.1973)" style="font-family:'Arial'; font-size:6px;">2</text>
      <text transform="matrix(1 0 0 1 1306.8364 95.1973)" style="font-family:'Arial'; font-size:6px;">3</text>
      <text transform="matrix(1 0 0 1 2399.2925 151.9185)" style="font-family:'Arial'; font-size:6px;">13A</text>
      <text transform="matrix(1 0 0 1 2386.6187 151.9185)" style="font-family:'Arial'; font-size:6px;">29</text>
      <text transform="matrix(1 0 0 1 2348.269 151.9185)" style="font-family:'Arial'; font-size:6px;">13A</text>
      <text transform="matrix(1 0 0 1 2335.5952 151.9185)" style="font-family:'Arial'; font-size:6px;">10</text>
      <text transform="matrix(1 0 0 1 1845.4839 151.9043)" style="font-family:'Arial'; font-size:6px;">13E</text>
      <text transform="matrix(1 0 0 1 1832.8101 151.9043)" style="font-family:'Arial'; font-size:6px;">27</text>
      <text transform="matrix(1 0 0 1 1794.4604 151.9043)" style="font-family:'Arial'; font-size:6px;">13E</text>
      <text transform="matrix(1 0 0 1 1781.7866 151.9043)" style="font-family:'Arial'; font-size:6px;">26</text>
      <text transform="matrix(1 0 0 1 1428.8511 151.8901)" style="font-family:'Arial'; font-size:6px;">13B</text>
      <text transform="matrix(1 0 0 1 1416.1772 151.8901)" style="font-family:'Arial'; font-size:6px;">22</text>
      <text transform="matrix(1 0 0 1 1377.8267 151.8901)" style="font-family:'Arial'; font-size:6px;">13B</text>
      <text transform="matrix(1 0 0 1 1365.1528 151.8901)" style="font-family:'Arial'; font-size:6px;">21</text>
      <text transform="matrix(1 0 0 1 1309.7964 151.8901)" style="font-family:'Arial'; font-size:6px;">13B</text>
      <text transform="matrix(1 0 0 1 1297.1226 151.8901)" style="font-family:'Arial'; font-size:6px;">35</text>
      <text transform="matrix(1 0 0 1 1258.7729 151.8901)" style="font-family:'Arial'; font-size:6px;">13B</text>
      <text transform="matrix(1 0 0 1 1246.0991 151.8901)" style="font-family:'Arial'; font-size:6px;">17</text>
      <text transform="matrix(1 0 0 1 1216.2534 151.8901)" style="font-family:'Arial'; font-size:6px;">13B</text>
      <text transform="matrix(1 0 0 1 1206.9165 151.8901)" style="font-family:'Arial'; font-size:6px;">4</text>
      <text transform="matrix(1 0 0 1 1165.23 151.8901)" style="font-family:'Arial'; font-size:6px;">13B</text>
      <text transform="matrix(1 0 0 1 1155.8931 151.8901)" style="font-family:'Arial'; font-size:6px;">3</text>
    </g><g ewd:figtype="gp" ewd:code="H1" ewd:figID="76">
      <path style="fill:none;stroke:#000000;stroke-width:0.85;" d="M 866.38,708.62 L 866.38, 711.45" />
      <path style="fill:none;stroke:#000000;stroke-width:0.85;" d="M 864.96,719.96 L 867.8, 719.96" />
      <path style="fill:none;stroke:#000000;stroke-width:0.85;" d="M 863.55,717.13 L 869.22, 717.13" />
      <path style="fill:none;stroke:#000000;stroke-width:0.85;" d="M 860.71,714.29 L 872.05, 714.29" />
      <path style="fill:none;stroke:#000000;stroke-width:0.85;" d="M 857.88,711.46 L 874.89, 711.46" />
    </g><g ewd:figtype="w2w" ewd:code="HA1" ewd:pin_no="9" ewd:figID="77">
      <path style="fill:#FFFFFF;stroke:#FFFFFF;stroke-width:0;stroke-linecap:round;stroke-linejoin:round;" d="M 955.67,556.43 L 951.42, 552.18 L 947.17, 556.43 L 947.17, 549.88 L 955.67, 549.88 L 955.67, 556.43" />
      <path style="fill:#FFFFFF;stroke:#FFFFFF;stroke-width:0;stroke-linecap:round;stroke-linejoin:round;" d="M 955.67,553.6 L 951.42, 549.35 L 947.17, 553.6 L 947.17, 547.05 L 955.67, 547.05 L 955.67, 553.6" />
      <path style="fill:none;stroke:#000000;stroke-width:0.85;" d="M 955.67,554.13 L 951.42, 549.88 L 947.17, 554.13" />
      <path style="fill:none;stroke:#000000;stroke-width:0.85;" d="M 955.67,551.3 L 951.42, 547.05 L 947.17, 551.3" />
      <path style="fill:none;stroke:#000000;stroke-width:0.85;stroke-linecap:round;stroke-linejoin:round;" d="M 961.34,538.54 L 961.34, 547.04 L 941.5, 547.04 L 941.5, 538.54 L 961.34, 538.54" />
      <text transform="matrix(1 0 0 1 936.7432 544.502)" style="font-family:'Arial'; font-size:6px;">9</text>
    </g><g ewd:figtype="conn" ewd:code="H26" ewd:figID="27">
      <path style="fill:none;stroke:#000000;stroke-width:0.85;" d="M 951.42,351.46 L 951.42, 347.21" />
      <path style="fill:none;stroke:#000000;stroke-width:0.85;" d="M 951.42,321.69 L 951.42, 317.44" />
      <path style="fill:none;stroke:#000000;stroke-width:1.417;" d="M 957.1,321.74 L 951.78, 344.42" />
      <path style="fill:none;stroke:#000000;stroke-width:0.85;stroke-linecap:round;stroke-linejoin:round;" d="M 951.42,324.53 C 952.2 324.53 952.84 323.9 952.84 323.11 C 952.840053710937 322.319970703125 952.21 321.69 951.42 321.69 C 950.629965820312 321.690004882813 950 322.32 950 323.11 C 950 323.899970703125 950.64 324.53 951.42 324.53" />
      <path style="fill:none;stroke:#000000;stroke-width:0.85;stroke-linecap:round;stroke-linejoin:round;" d="M 951.42,347.21 C 952.2 347.21 952.84 346.58 952.84 345.79 C 952.84 345.01 952.21 344.37 951.42 344.37 C 950.629965820312 344.369990234375 950 345 950 345.79 C 950 346.57 950.64 347.21 951.42 347.21" />
      <path style="fill:none;stroke:#000000;stroke-width:1.417;stroke-linecap:round;stroke-linejoin:round;" d="M 959.92,351.46 L 959.92, 317.44 L 942.91, 317.44 L 942.91, 351.46 L 959.92, 351.46" />
      <text transform="matrix(1 0 0 1 943.123 313.4795)" style="font-family:'Arial'; font-size:6px;">2</text>
      <text transform="matrix(1 0 0 1 943.123 358.8335)" style="font-family:'Arial'; font-size:6px;">1</text>
      <g ewd:figtype="title">
        <text transform="matrix(0 -1 1 0 968.0093 351.4575)" style="font-family:'Arial'; font-size:6px;">H26</text>
        <text transform="matrix(0 -1 1 0 975.0962 351.4575)" style="font-family:'Arial'; font-size:6px;" ewd:textID="47">Unlock Warning SW</text>
      </g>
    </g><g ewd:figtype="conn" ewd:code="H27" ewd:figID="28">
      <path style="fill:none;stroke:#000000;stroke-width:0.85;" d="M 866.38,317.44 L 866.38, 321.69" />
      <path style="fill:none;stroke:#000000;stroke-width:0.85;" d="M 866.38,347.21 L 866.38, 351.46" />
      <path style="fill:none;stroke:#000000;stroke-width:1.417;" d="M 872.06,321.74 L 866.74, 344.42" />
      <path style="fill:none;stroke:#000000;stroke-width:0.85;stroke-linecap:round;stroke-linejoin:round;" d="M 866.38,324.53 C 867.16 324.53 867.8 323.9 867.8 323.11 C 867.799975585938 322.319970703125 867.17 321.69 866.38 321.69 C 865.590009765625 321.690004882813 864.96 322.32 864.96 323.11 C 864.960043945312 323.899970703125 865.6 324.53 866.38 324.53" />
      <path style="fill:none;stroke:#000000;stroke-width:0.85;stroke-linecap:round;stroke-linejoin:round;" d="M 866.38,347.21 C 867.16 347.21 867.8 346.58 867.8 345.79 C 867.8 345.01 867.17 344.37 866.38 344.37 C 865.590009765625 344.369990234375 864.96 345 864.96 345.79 C 864.96 346.57 865.6 347.21 866.38 347.21" />
      <path style="fill:none;stroke:#000000;stroke-width:1.417;stroke-linecap:round;stroke-linejoin:round;" d="M 874.88,351.46 L 874.88, 317.44 L 857.87, 317.44 L 857.87, 351.46 L 874.88, 351.46" />
      <text transform="matrix(1 0 0 1 858.084 313.4795)" style="font-family:'Arial'; font-size:6px;">2</text>
      <text transform="matrix(1 0 0 1 858.084 358.8335)" style="font-family:'Arial'; font-size:6px;">1</text>
      <g ewd:figtype="title">
        <text transform="matrix(0 -1 1 0 882.9688 351.4575)" style="font-family:'Arial'; font-size:6px;">H27</text>
        <text transform="matrix(0 -1 1 0 890.0557 351.4575)" style="font-family:'Arial'; font-size:6px;" ewd:textID="47">Unlock Warning SW</text>
      </g>
    </g><g ewd:figtype="w2w" ewd:code="KA4" ewd:pin_no="8" ewd:figID="56">
      <path style="fill:#FFFFFF;stroke:#FFFFFF;stroke-width:0;stroke-linecap:round;stroke-linejoin:round;" d="M 1132.27,319.39 L 1128.02, 323.64 L 1123.77, 319.39 L 1123.77, 325.94 L 1132.27, 325.94 L 1132.27, 319.39" />
      <path style="fill:#FFFFFF;stroke:#FFFFFF;stroke-width:0;stroke-linecap:round;stroke-linejoin:round;" d="M 1132.28,316.55 L 1128.03, 320.8 L 1123.78, 316.55 L 1123.78, 323.1 L 1132.28, 323.1 L 1132.28, 316.55" />
      <path style="fill:none;stroke:#000000;stroke-width:0.85;" d="M 1132.28,318.85 L 1128.03, 323.1 L 1123.78, 318.85" />
      <path style="fill:none;stroke:#000000;stroke-width:0.85;" d="M 1132.27,321.69 L 1128.02, 325.94 L 1123.77, 321.69" />
      <path style="fill:none;stroke:#000000;stroke-width:0.85;stroke-linecap:round;stroke-linejoin:round;" d="M 1137.95,334.44 L 1137.95, 325.94 L 1118.1, 325.94 L 1118.1, 334.44 L 1137.95, 334.44" />
      <text transform="matrix(1 0 0 1 1113.3481 331.8965)" style="font-family:'Arial'; font-size:6px;">8</text>
    </g><g ewd:figtype="w2w" ewd:code="KA4" ewd:pin_no="2" ewd:figID="57">
      <path style="fill:#FFFFFF;stroke:#FFFFFF;stroke-width:0;stroke-linecap:round;stroke-linejoin:round;" d="M 1174.8,316.55 L 1170.55, 320.8 L 1166.3, 316.55 L 1166.3, 323.1 L 1174.8, 323.1 L 1174.8, 316.55" />
      <path style="fill:#FFFFFF;stroke:#FFFFFF;stroke-width:0;stroke-linecap:round;stroke-linejoin:round;" d="M 1174.8,319.39 L 1170.55, 323.64 L 1166.3, 319.39 L 1166.3, 325.94 L 1174.8, 325.94 L 1174.8, 319.39" />
      <path style="fill:none;stroke:#000000;stroke-width:0.85;" d="M 1174.8,318.85 L 1170.55, 323.1 L 1166.3, 318.85" />
      <path style="fill:none;stroke:#000000;stroke-width:0.85;" d="M 1174.8,321.69 L 1170.55, 325.94 L 1166.3, 321.69" />
      <path style="fill:none;stroke:#000000;stroke-width:0.85;stroke-linecap:round;stroke-linejoin:round;" d="M 1180.47,334.44 L 1180.47, 325.94 L 1160.63, 325.94 L 1160.63, 334.44 L 1180.47, 334.44" />
      <text transform="matrix(1 0 0 1 1155.8716 331.8965)" style="font-family:'Arial'; font-size:6px;">2</text>
    </g><g ewd:figtype="w2w" ewd:code="KA4" ewd:pin_no="7" ewd:figID="58">
      <path style="fill:#FFFFFF;stroke:#FFFFFF;stroke-width:0;stroke-linecap:round;stroke-linejoin:round;" d="M 1225.82,316.55 L 1221.57, 320.8 L 1217.32, 316.55 L 1217.32, 323.1 L 1225.82, 323.1 L 1225.82, 316.55" />
      <path style="fill:#FFFFFF;stroke:#FFFFFF;stroke-width:0;stroke-linecap:round;stroke-linejoin:round;" d="M 1225.82,319.39 L 1221.57, 323.64 L 1217.32, 319.39 L 1217.32, 325.94 L 1225.82, 325.94 L 1225.82, 319.39" />
      <path style="fill:none;stroke:#000000;stroke-width:0.85;" d="M 1225.82,318.85 L 1221.57, 323.1 L 1217.32, 318.85" />
      <path style="fill:none;stroke:#000000;stroke-width:0.85;" d="M 1225.82,321.69 L 1221.57, 325.94 L 1217.32, 321.69" />
      <path style="fill:none;stroke:#000000;stroke-width:0.85;stroke-linecap:round;stroke-linejoin:round;" d="M 1231.49,334.44 L 1231.49, 325.94 L 1211.65, 325.94 L 1211.65, 334.44 L 1231.49, 334.44" />
      <text transform="matrix(1 0 0 1 1206.895 331.8965)" style="font-family:'Arial'; font-size:6px;">7</text>
    </g><g ewd:figtype="w2w" ewd:code="KA3" ewd:pin_no="2" ewd:figID="59">
      <path style="fill:#FFFFFF;stroke:#FFFFFF;stroke-width:0;stroke-linecap:round;stroke-linejoin:round;" d="M 1268.34,316.55 L 1264.09, 320.8 L 1259.84, 316.55 L 1259.84, 323.1 L 1268.34, 323.1 L 1268.34, 316.55" />
      <path style="fill:#FFFFFF;stroke:#FFFFFF;stroke-width:0;stroke-linecap:round;stroke-linejoin:round;" d="M 1268.34,319.39 L 1264.09, 323.64 L 1259.84, 319.39 L 1259.84, 325.94 L 1268.34, 325.94 L 1268.34, 319.39" />
      <path style="fill:none;stroke:#000000;stroke-width:0.85;" d="M 1268.34,318.85 L 1264.09, 323.1 L 1259.84, 318.85" />
      <path style="fill:none;stroke:#000000;stroke-width:0.85;" d="M 1268.34,321.69 L 1264.09, 325.94 L 1259.84, 321.69" />
      <path style="fill:none;stroke:#000000;stroke-width:0.85;stroke-linecap:round;stroke-linejoin:round;" d="M 1274.01,334.44 L 1274.01, 325.94 L 1254.17, 325.94 L 1254.17, 334.44 L 1274.01, 334.44" />
      <text transform="matrix(1 0 0 1 1249.4146 331.8965)" style="font-family:'Arial'; font-size:6px;">2</text>
    </g><g ewd:figtype="w2w" ewd:code="KA2" ewd:pin_no="5" ewd:figID="78">
      <path style="fill:#FFFFFF;stroke:#FFFFFF;stroke-width:0;stroke-linecap:round;stroke-linejoin:round;" d="M 1132.3,522.41 L 1128.05, 518.16 L 1123.8, 522.41 L 1123.8, 515.86 L 1132.3, 515.86 L 1132.3, 522.41" />
      <path style="fill:#FFFFFF;stroke:#FFFFFF;stroke-width:0;stroke-linecap:round;stroke-linejoin:round;" d="M 1132.3,519.58 L 1128.05, 515.33 L 1123.8, 519.58 L 1123.8, 513.03 L 1132.3, 513.03 L 1132.3, 519.58" />
      <path style="fill:none;stroke:#000000;stroke-width:0.85;" d="M 1132.3,520.11 L 1128.05, 515.86 L 1123.8, 520.11" />
      <path style="fill:none;stroke:#000000;stroke-width:0.85;" d="M 1132.3,517.28 L 1128.05, 513.03 L 1123.8, 517.28" />
      <path style="fill:none;stroke:#000000;stroke-width:0.85;stroke-linecap:round;stroke-linejoin:round;" d="M 1137.97,504.52 L 1137.97, 513.02 L 1118.12, 513.02 L 1118.12, 504.52 L 1137.97, 504.52" />
      <text transform="matrix(1 0 0 1 1113.3696 510.4775)" style="font-family:'Arial'; font-size:6px;">5</text>
    </g><g ewd:figtype="conn" ewd:code="K1" ewd:figID="16">
      <path style="fill:none;stroke:#000000;stroke-width:0.85;" d="M 1128.04,453.5 L 1128.04, 432.24" />
      <path style="fill:none;stroke:#000000;stroke-width:0.85;" d="M 1128.04,406.73 L 1128.04, 393.97" />
      <path style="fill:none;stroke:#000000;stroke-width:0.85;" d="M 1196.08,423.73 L 1196.08, 436.49 L 1128.04, 436.49" />
      <path style="fill:none;stroke:#000000;stroke-width:0.85;" d="M 1315.13,393.97 L 1315.13, 419.48 L 1302.37, 419.48" />
      <path style="fill:none;stroke:#000000;stroke-width:0.85;" d="M 1276.87,419.48 L 1264.11, 419.48 L 1264.11, 393.97" />
      <path style="fill:none;stroke:#000000;stroke-width:0.85;" d="M 1221.59,393.97 L 1221.59, 408.14 L 1206, 408.14" />
      <path style="fill:none;stroke:#000000;stroke-width:0.85;" d="M 1170.57,393.97 L 1170.57, 408.14 L 1186.16, 408.14" />
      <path style="fill:none;stroke:#000000;stroke-width:1.417;stroke-linecap:round;stroke-linejoin:round;" d="M 1276.87,423.73 L 1276.87, 415.23 L 1282.25, 415.23 C 1283.72 412.7 1286.48 410.98 1289.62 410.98 C 1292.76 410.98 1295.52 412.7 1296.99 415.23 L 1302.38, 415.23 L 1302.38, 423.73 L 1296.99, 423.73 C 1295.52 426.26 1292.76 427.98 1289.62 427.98 C 1286.48 427.98 1283.72 426.26 1282.25 423.73 L 1276.87, 423.73" />
      <path style="fill:none;stroke:#000000;stroke-width:1.417;" d="M 1296.99,415.23 C 1297.73 416.49 1298.12 417.92 1298.12 419.48 C 1298.12 421.04 1297.72 422.48 1296.99 423.73" />
      <path style="fill:none;stroke:#000000;stroke-width:1.417;" d="M 1282.25,415.23 C 1281.51 416.49 1281.12 417.92 1281.12 419.48 C 1281.12 421.04 1281.52 422.48 1282.25 423.73" />
      <path style="fill:none;stroke:#000000;stroke-width:1.417;" d="M 1201.74,406.77 L 1196.42, 420.95" />
      <path style="fill:none;stroke:#000000;stroke-width:0.85;stroke-linecap:round;stroke-linejoin:round;" d="M 1187.56,409.56 C 1188.34 409.56 1188.98 408.93 1188.98 408.14 C 1188.9799609375 407.350029296875 1188.35 406.72 1187.56 406.72 C 1186.7701171875 406.720002441406 1186.14 407.35 1186.14 408.14 C 1186.14002929687 408.930029296875 1186.77 409.56 1187.56 409.56" />
      <path style="fill:none;stroke:#000000;stroke-width:0.85;stroke-linecap:round;stroke-linejoin:round;" d="M 1204.56,409.56 C 1205.34 409.56 1205.98 408.93 1205.98 408.14 C 1205.9799609375 407.350029296875 1205.35 406.72 1204.56 406.72 C 1203.7701171875 406.720002441406 1203.14 407.35 1203.14 408.14 C 1203.14002929687 408.930029296875 1203.78 409.56 1204.56 409.56" />
      <path style="fill:none;stroke:#000000;stroke-width:0.85;stroke-linecap:round;stroke-linejoin:round;" d="M 1196.06,423.73 C 1196.84 423.73 1197.48 423.1 1197.48 422.31 C 1197.48 421.53 1196.85 420.89 1196.06 420.89 C 1195.2701171875 420.890029296875 1194.64 421.52 1194.64 422.31 C 1194.64 423.1 1195.28 423.73 1196.06 423.73" />
      <path style="fill:none;stroke:#000000;stroke-width:1.417;" d="M 1133.71,406.77 L 1128.39, 429.45" />
      <path style="fill:none;stroke:#000000;stroke-width:0.85;stroke-linecap:round;stroke-linejoin:round;" d="M 1128.02,409.56 C 1128.8 409.56 1129.44 408.93 1129.44 408.14 C 1129.4398828125 407.350029296875 1128.81 406.72 1128.02 406.72 C 1127.2300390625 406.720002441406 1126.6 407.35 1126.6 408.14 C 1126.59995117188 408.930029296875 1127.24 409.56 1128.02 409.56" />
      <path style="fill:none;stroke:#000000;stroke-width:0.85;stroke-linecap:round;stroke-linejoin:round;" d="M 1128.02,432.24 C 1128.8 432.24 1129.44 431.61 1129.44 430.82 C 1129.44 430.04 1128.81 429.4 1128.02 429.4 C 1127.2300390625 429.399987792969 1126.6 430.03 1126.6 430.82 C 1126.61 431.6 1127.24 432.24 1128.02 432.24" />
      <path d="M 1129.46,436.48 C 1129.46 437.26 1128.83 437.9 1128.04 437.9 C 1127.26 437.9 1126.62 437.27 1126.62 436.48 C 1126.62 435.7 1127.25 435.06 1128.04 435.06 C 1128.83 435.06 1129.46 435.7 1129.46 436.48" style="stroke-linecap:round;stroke-linejoin:round;" />
      <path style="fill:none;stroke:#000000;stroke-width:1.417;stroke-linecap:round;stroke-linejoin:round;" d="M 1332.12,453.5 L 1332.12, 393.97 L 1119.52, 393.97 L 1119.52, 453.5 L 1332.12, 453.5" />
      <text transform="matrix(1 0 0 1 1171.9448 401.373)" style="font-family:'Arial'; font-size:6px;">L</text>
      <text transform="matrix(1 0 0 1 1222.9683 401.373)" style="font-family:'Arial'; font-size:6px;">UL</text>
      <text transform="matrix(1 0 0 1 1265.4878 401.373)" style="font-family:'Arial'; font-size:6px;">L</text>
      <text transform="matrix(1 0 0 1 1316.5112 401.373)" style="font-family:'Arial'; font-size:6px;">UL</text>
      <text transform="matrix(1 0 0 1 1306.8169 390.0059)" style="font-family:'Arial'; font-size:6px;">1</text>
      <text transform="matrix(1 0 0 1 1255.7935 390.0059)" style="font-family:'Arial'; font-size:6px;">4</text>
      <text transform="matrix(1 0 0 1 1213.2739 390.0059)" style="font-family:'Arial'; font-size:6px;">5</text>
      <text transform="matrix(0 -1 1 0 1228.9673 429.1426)" style="font-family:'Arial'; font-size:6px;">UNLOCK</text>
      <text transform="matrix(1 0 0 1 1162.2505 390.0059)" style="font-family:'Arial'; font-size:6px;">6</text>
      <text transform="matrix(0 -1 1 0 1166.605 424.8086)" style="font-family:'Arial'; font-size:6px;">LOCK</text>
      <text transform="matrix(1 0 0 1 1119.7271 390.0059)" style="font-family:'Arial'; font-size:6px;">7</text>
      <text transform="matrix(1 0 0 1 1129.4624 401.3447)" style="font-family:'Arial'; font-size:6px;">LSSR</text>
      <text transform="matrix(1 0 0 1 1129.4624 449.5342)" style="font-family:'Arial'; font-size:6px;">E</text>
      <text transform="matrix(1 0 0 1 1119.7271 460.8721)" style="font-family:'Arial'; font-size:6px;">8</text>
      <text transform="matrix(1 0 0 1 1287.1235 421.1865)" style="font-family:'Arial'; font-size:6px;">M</text>
      <g ewd:figtype="title">
        <text transform="matrix(1 0 0 1 1238.5991 461.5811)" style="font-family:'Arial'; font-size:6px;">K1</text>
        <text transform="matrix(1 0 0 1 1238.5991 468.668)" style="font-family:'Arial'; font-size:6px;" ewd:textID="31">Door Lock Assembly (Front RH)</text>
      </g>
    </g><g ewd:figtype="w2w" ewd:code="HA1" ewd:pin_no="18" ewd:figID="102">
      <path style="fill:#FFFFFF;stroke:#FFFFFF;stroke-width:0;stroke-linecap:round;stroke-linejoin:round;" d="M 1132.27,165.25 L 1128.02, 161 L 1123.77, 165.25 L 1123.77, 158.7 L 1132.27, 158.7 L 1132.27, 165.25" />
      <path style="fill:#FFFFFF;stroke:#FFFFFF;stroke-width:0;stroke-linecap:round;stroke-linejoin:round;" d="M 1132.27,162.41 L 1128.02, 158.16 L 1123.77, 162.41 L 1123.77, 155.86 L 1132.27, 155.86 L 1132.27, 162.41" />
      <path style="fill:none;stroke:#000000;stroke-width:0.85;" d="M 1132.27,162.95 L 1128.02, 158.7 L 1123.77, 162.95" />
      <path style="fill:none;stroke:#000000;stroke-width:0.85;" d="M 1132.27,160.11 L 1128.02, 155.86 L 1123.77, 160.11" />
      <path style="fill:none;stroke:#000000;stroke-width:0.85;stroke-linecap:round;stroke-linejoin:round;" d="M 1137.95,147.36 L 1137.95, 155.86 L 1118.1, 155.86 L 1118.1, 147.36 L 1137.95, 147.36" />
      <text transform="matrix(1 0 0 1 1110.0112 153.3135)" style="font-family:'Arial'; font-size:6px;">18</text>
    </g><g ewd:figtype="comment" ewd:code="17" ewd:figID="1020">
      <text transform="matrix(1 0 0 1 1108.1616 654.3779)" style="font-family:'Arial'; font-size:6px;" ewd:textID="7">*17 : Thailand Long Wheelbase Complete Build-Up Type</text>
    </g><g ewd:figtype="comment" ewd:code="18" ewd:figID="1019">
      <text transform="matrix(1 0 0 1 1108.1616 662.8838)" style="font-family:'Arial'; font-size:6px;" ewd:textID="8">*18 : Except Thailand Long Wheelbase Complete Build-Up Type</text>
    </g><g ewd:figtype="comment" ewd:code="11" ewd:figID="1008">
      <text transform="matrix(1 0 0 1 914.5752 679.8945)" style="font-family:'Arial'; font-size:6px;">*11 : M/T</text>
    </g><g ewd:figtype="comment" ewd:code="12" ewd:figID="1007">
      <text transform="matrix(1 0 0 1 914.5752 688.3994)" style="font-family:'Arial'; font-size:6px;">*12 : A/T</text>
    </g><text transform="matrix(0 -1 1 0 947.4561 527.3672)" style="font-family:'Arial'; font-size:6px;">W-B</text><text transform="matrix(0 -1 1 0 862.417 527.3672)" style="font-family:'Arial'; font-size:6px;">W-B</text><text transform="matrix(0 -1 1 0 862.417 671.9336)" style="font-family:'Arial'; font-size:6px;">W-B</text><text transform="matrix(0 -1 1 0 862.416 157.8696)" style="font-family:'Arial'; font-size:6px;">Y</text><text transform="matrix(0 -1 1 0 862.4297 276.918)" style="font-family:'Arial'; font-size:6px;">Y</text><text transform="matrix(0 -1 1 0 947.4697 276.918)" style="font-family:'Arial'; font-size:6px;">Y</text><text transform="matrix(0 -1 1 0 862.4297 408.3066)" style="font-family:'Arial'; font-size:6px;">W-B</text><text transform="matrix(0 -1 1 0 947.4697 408.3066)" style="font-family:'Arial'; font-size:6px;">W-B</text><text transform="matrix(1 0 0 1 1031.1191 628.1572)" style="font-family:'Arial'; font-size:6px;">W-B</text><text transform="matrix(0 -1 1 0 1124.0601 362.7852)" style="font-family:'Arial'; font-size:6px;">W</text><text transform="matrix(0 -1 1 0 1166.5825 362.7852)" style="font-family:'Arial'; font-size:6px;">W</text><text transform="matrix(0 -1 1 0 1217.606 361.9546)" style="font-family:'Arial'; font-size:6px;">Y</text><text transform="matrix(0 -1 1 0 1124.0601 493.3438)" style="font-family:'Arial'; font-size:6px;">W-B</text><text transform="matrix(0 -1 1 0 1124.0601 544.3672)" style="font-family:'Arial'; font-size:6px;">W-B</text><text transform="matrix(0 -1 1 0 1124.0601 124.6753)" style="font-family:'Arial'; font-size:6px;">W</text><text transform="matrix(0 -1 1 0 1124.0601 192.707)" style="font-family:'Arial'; font-size:6px;">W</text><text transform="matrix(0 -1 1 0 1166.5835 192.707)" style="font-family:'Arial'; font-size:6px;">W</text><text transform="matrix(0 -1 1 0 1217.6069 191.8765)" style="font-family:'Arial'; font-size:6px;">Y</text><text transform="matrix(0 -1 1 0 760.3633 200.3862)" style="font-family:'Arial'; font-size:6px;">Y</text><text transform="matrix(0 -1 1 0 794.3789 174.8745)" style="font-family:'Arial'; font-size:6px;">Y</text><text transform="matrix(0 -1 1 0 794.3789 225.8979)" style="font-family:'Arial'; font-size:6px;">Y</text><text transform="matrix(0 -1 1 0 760.3633 319.4414)" style="font-family:'Arial'; font-size:6px;">Y</text><text transform="matrix(0 -1 1 0 873.7695 281.4194)" style="font-family:'Arial'; font-size:6px;">(*11)</text><text transform="matrix(0 -1 1 0 873.7695 408.9785)" style="font-family:'Arial'; font-size:6px;">(*11)</text><text transform="matrix(0 -1 1 0 805.7432 177.7148)" style="font-family:'Arial'; font-size:6px;">(*8)</text><text transform="matrix(0 -1 1 0 805.7432 228.7383)" style="font-family:'Arial'; font-size:6px;">(*8)</text><text transform="matrix(0 -1 1 0 771.7305 323.9521)" style="font-family:'Arial'; font-size:6px;">(*10)</text><text transform="matrix(0 -1 1 0 771.7305 203.2285)" style="font-family:'Arial'; font-size:6px;">(*9)</text><text transform="matrix(0 -1 1 0 958.8096 408.9785)" style="font-family:'Arial'; font-size:6px;">(*12)</text><text transform="matrix(0 -1 1 0 958.8096 281.4194)" style="font-family:'Arial'; font-size:6px;">(*12)</text><text transform="matrix(0 -1 1 0 947.4561 578.3906)" style="font-family:'Arial'; font-size:6px;">W-B</text><text transform="matrix(1 0 0 1 1079.6504 628.1016)" style="font-family:'Arial'; font-size:6px;">W-B</text><text transform="matrix(1 0 0 1 1164.6899 628.1016)" style="font-family:'Arial'; font-size:6px;">W-B</text></svg>