﻿<?xml version="1.0" encoding="utf-8"?>
<!-- Generator: Adobe Illustrator 10.0, SVG Export Plug-In . SVG Version: 3.0.0 Build 77)  -->
<!DOCTYPE svg PUBLIC "-//W3C//DTD SVG 1.0//EN" "http://www.w3.org/TR/2001/REC-SVG-20010904/DTD/svg10.dtd"[
   <!ENTITY ns_flows "http://ns.adobe.com/Flows/1.0/">
   <!ENTITY ns_svg "http://www.w3.org/2000/svg">
   <!ENTITY ns_xlink "http://www.w3.org/1999/xlink">
   <!ENTITY st0 "font-size:7px;font-family:'MS-PGothic';adobe-font-script:japanese;">
   <!ENTITY st1 "font-size:6px;font-family:'ArialMT';">
   <!ENTITY st2 "fill:#FFFFFF;stroke:#000000; stroke-width:1.41;stroke-linecap:round;stroke-linejoin:round;">
   <!ENTITY st3 "fill:#FFFFCC;stroke:#FFFFCC; stroke-width:0.1;stroke-linecap:round;stroke-linejoin:round;">
   <!ENTITY st4 "fill:#CCCCCC;stroke:#CCCCCC; stroke-width:0.1;stroke-linecap:round;stroke-linejoin:round;">
   <!ENTITY st5 "fill:#CCECF4;stroke:#000000; stroke-width:1.133;stroke-linecap:round;stroke-linejoin:round;">
   <!ENTITY st6 "fill:none;stroke-linecap:butt; stroke-linejoin:round;">
   <!ENTITY st7 "fill:none;stroke:#000000;stroke-linecap:round;stroke-linejoin:round;">
   <!ENTITY st8 "enable-background:new;">
   <!ENTITY st9 "fill:#000000;stroke:#000000; stroke-linecap:round;stroke-linejoin:round;">
   <!ENTITY st10 "font-size:9px;font-family:'ArialMT';">
   <!ENTITY st11 "font-size:9px;font-family:'Svg Symbol';">
   <!ENTITY st12 "font-size:6px;font-family:'Svg Symbol';">
   <!ENTITY st13 "fill:none;stroke:#ff0000;stroke-linecap:round;stroke-linejoin:round;">
   <!ENTITY st14 "fill:#FFFF00;stroke:#FFFF00; stroke-width:0.1;stroke-linecap:round;stroke-linejoin:round;">
   <!ENTITY st15 "font-size:6px;font-family:'MS-PGothic';adobe-font-script:japanese;">
   <!ENTITY st16 "1.00 0.00 0.00 1.00">
   <!ENTITY st17 "0.00 -1.00 1.00 0.00">
   <!ENTITY st18 "font-size:6px;font-family:'Arial';">
   <!ENTITY st19 "font-size:9px;font-family:'Arial';">
   <!ENTITY st20 "font-size:6px;font-family:'MS-PGothic','MS PGothic';adobe-font-script:japanese;">
   <!ENTITY st21 "font-size:7px;font-family:'MS-PGothic','MS PGothic';adobe-font-script:japanese;">
   <!ATTLIST svg
       xmlns:ewd CDATA #FIXED "http://shcl.co.jp/ewd"
       xmlns:a CDATA #FIXED "http://ns.adobe.com/AdobeSVGViewerExtensions/3.0/"
       ewd:ver CDATA #IMPLIED >
   <!ATTLIST a
       ewd:lineID CDATA #IMPLIED
       ewd:groupID CDATA #IMPLIED
       ewd:figtype CDATA #IMPLIED
       ewd:code CDATA #IMPLIED
       ewd:figID CDATA #IMPLIED
       ewd:pinNo CDATA #IMPLIED
       ewd:comment CDATA #IMPLIED >
   <!ATTLIST g
       ewd:lineID CDATA #IMPLIED
       ewd:groupID CDATA #IMPLIED
       ewd:figtype CDATA #IMPLIED
       ewd:code CDATA #IMPLIED
       ewd:figID CDATA #IMPLIED
       ewd:pinNo CDATA #IMPLIED
       ewd:comment CDATA #IMPLIED >
   <!ATTLIST text
       ewd:textID CDATA #IMPLIED >
   <!ATTLIST title
       ewd:textID CDATA #IMPLIED >
]>
<svg xmlns="http://www.w3.org/2000/svg" xmlns:xlink="http://www.w3.org/1999/xlink" width="2965.42" height="720.99" viewBox="0 0 2965.42 720.99" xml:space="preserve" xmlns:ewd="http://shcl.co.jp/ewd" ewd:ver="2.0">
  
  <defs>
    <font horiz-adv-x="1229">
      <font-face font-family="Svg Symbol" units-per-em="2048" panose-1="5 5 1 2 1 7 6 2 5 7" ascent="2059" descent="450" alphabetic="0" />
      <missing-glyph d="M 103,0 l 0,1280 1024,0 0,-1280 -1024,0 z m 32,32 l 960,0 0,1216 -960,0 0,-1216 z" />
      <glyph d4p1:unicode="" horiz-adv-x="1573" d="M 1517,0 l -567,0 24,279 q 141,59 207.5,168 66.5,109 66.5,306 0,272 -132.5,417.5 -132.5,145.5 -333.5,145.5 -194,0 -328,-147.5 -134,-147.5 -134,-401.5 0,-200 68.5,-319 68.5,-119 206.5,-169 l 25,-279 -564,0 0,279 35,0 q 3,-61 32,-83 45,-35 137,-35 l 270,0 0,70 q -210,61 -324.5,209 -114.5,148 -114.5,349 0,252 186.5,425 186.5,173 504.5,173 195,0 358.5,-73.5 163.5,-73.5 252,-214.5 88.5,-141 88.5,-310 0,-207 -121.5,-360.5 -121.5,-153.5 -317.5,-197.5 l -8,-70 275,0 q 92,0 128,28 36,28 42,90 l 38,0 0,-279 z" xmlns:d4p1="def-glyph-attr-unicode" />
    </font>
  </defs>
  
<g ewd:figtype="jb" ewd:code="13" ewd:figID="11">
      <path d="M 187.47,104.84 C 187.47 105.62 186.84 106.26 186.05 106.26 C 185.27 106.26 184.63 105.63 184.63 104.84 C 184.630009765625 104.049992675781 185.26 103.42 186.05 103.42 C 186.83 103.42 187.47 104.06 187.47 104.84" style="stroke-linecap:round;stroke-linejoin:round;" />
      <path d="M 264,104.84 C 264 105.62 263.37 106.26 262.58 106.26 C 261.8 106.26 261.16 105.63 261.16 104.84 C 261.160007324219 104.049992675781 261.79 103.42 262.58 103.42 C 263.37 103.42 264 104.06 264 104.84" style="stroke-linecap:round;stroke-linejoin:round;" />
      <path style="fill:none;stroke:#000000;stroke-width:0.85;" d="M 67.01,119.02 L 67.01, 87.84" />
      <path style="fill:none;stroke:#000000;stroke-width:0.85;" d="M 126.54,87.84 L 126.54, 119.02" />
      <path style="fill:none;stroke:#000000;stroke-width:0.85;" d="M 262.6,104.84 L 262.6, 119.01" />
      <path style="fill:none;stroke:#000000;stroke-width:0.85;" d="M 186.07,87.84 L 186.07, 119.02" />
      <path style="fill:none;stroke:#000000;stroke-width:0.85;" d="M 186.05,104.85 L 415.68, 104.85 L 415.68, 119.02" />
      <path d="M 126.54,119.02 L 129.37, 116.19 L 129.37, 113.36 L 126.54, 116.19 L 123.71, 113.36 L 123.71, 116.19 L 126.54, 119.02" style="stroke-linecap:round;stroke-linejoin:round;" />
      <path style="fill:none;stroke:#000000;stroke-width:0.85;stroke-linecap:round;stroke-linejoin:round;" d="M 130.79,130.36 C 133.92 130.36 136.46 127.82 136.46 124.69 C 136.46 121.56 133.92 119.02 130.79 119.02 L 122.29, 119.02 C 119.16 119.02 116.62 121.56 116.62 124.69 C 116.62 127.82 119.16 130.36 122.29 130.36 L 130.79, 130.36" />
      <path d="M 67.01,119.02 L 69.84, 116.19 L 69.84, 113.36 L 67.00999, 116.19 L 64.17999, 113.36 L 64.17999, 116.19 L 67.01, 119.02" style="stroke-linecap:round;stroke-linejoin:round;" />
      <path style="fill:none;stroke:#000000;stroke-width:0.85;stroke-linecap:round;stroke-linejoin:round;" d="M 71.26,130.36 C 74.39 130.36 76.93 127.82 76.93 124.69 C 76.93 121.56 74.39 119.02 71.26 119.02 L 62.76, 119.02 C 59.63 119.02 57.09 121.56 57.09 124.69 C 57.09 127.82 59.63 130.36 62.76 130.36 L 71.26, 130.36" />
      <path d="M 262.6,119.02 L 265.44, 116.19 L 265.44, 113.36 L 262.6, 116.19 L 259.77, 113.36 L 259.77, 116.19 L 262.6, 119.02" style="stroke-linecap:round;stroke-linejoin:round;" />
      <path style="fill:none;stroke:#000000;stroke-width:0.85;stroke-linecap:round;stroke-linejoin:round;" d="M 266.85,130.36 C 269.98 130.36 272.52 127.82 272.52 124.69 C 272.52 121.56 269.98 119.02 266.85 119.02 L 258.35, 119.02 C 255.22 119.02 252.68 121.56 252.68 124.69 C 252.68 127.82 255.22 130.36 258.35 130.36 L 266.85, 130.36" />
      <path d="M 186.06,119.02 L 188.89, 116.19 L 188.89, 113.36 L 186.06, 116.19 L 183.23, 113.36 L 183.23, 116.19 L 186.06, 119.02" style="stroke-linecap:round;stroke-linejoin:round;" />
      <path style="fill:none;stroke:#000000;stroke-width:0.85;stroke-linecap:round;stroke-linejoin:round;" d="M 190.32,130.36 C 193.45 130.36 195.99 127.82 195.99 124.69 C 195.99 121.56 193.45 119.02 190.32 119.02 L 181.82, 119.02 C 178.69 119.02 176.15 121.56 176.15 124.69 C 176.15 127.82 178.69 130.36 181.82 130.36 L 190.32, 130.36" />
      <path d="M 415.66,119.03 L 418.49, 116.2 L 418.49, 113.37 L 415.66, 116.2 L 412.83, 113.37 L 412.83, 116.2 L 415.66, 119.03" style="stroke-linecap:round;stroke-linejoin:round;" />
      <path style="fill:none;stroke:#000000;stroke-width:0.85;stroke-linecap:round;stroke-linejoin:round;" d="M 419.92,130.37 C 423.05 130.37 425.59 127.83 425.59 124.7 C 425.59 121.57 423.05 119.03 419.92 119.03 L 411.42, 119.03 C 408.29 119.03 405.75 121.57 405.75 124.7 C 405.75 127.83 408.29 130.37 411.42 130.37 L 419.92, 130.37" />
      <text transform="matrix(1 0 0 1 177.7544 95.21)" style="font-family:'Arial'; font-size:6px;">9</text>
      <text transform="matrix(1 0 0 1 55.3765 95.2119)" style="font-family:'Arial'; font-size:6px;">18</text>
      <text transform="matrix(1 0 0 1 114.9277 95.2119)" style="font-family:'Arial'; font-size:6px;">17</text>
      <text transform="matrix(1 0 0 1 121.1992 126.3926)" style="font-family:'Arial'; font-size:6px;">13E</text>
      <text transform="matrix(1 0 0 1 108.5254 126.3926)" style="font-family:'Arial'; font-size:6px;">10</text>
      <text transform="matrix(1 0 0 1 61.6719 126.3926)" style="font-family:'Arial'; font-size:6px;">13E</text>
      <text transform="matrix(1 0 0 1 48.998 126.3926)" style="font-family:'Arial'; font-size:6px;">11</text>
      <text transform="matrix(1 0 0 1 257.2627 126.3945)" style="font-family:'Arial'; font-size:6px;">13A</text>
      <text transform="matrix(1 0 0 1 244.5884 126.3945)" style="font-family:'Arial'; font-size:6px;">18</text>
      <text transform="matrix(1 0 0 1 180.7275 126.3945)" style="font-family:'Arial'; font-size:6px;">13A</text>
      <text transform="matrix(1 0 0 1 168.0532 126.3945)" style="font-family:'Arial'; font-size:6px;">30</text>
      <text transform="matrix(1 0 0 1 410.3267 126.4038)" style="font-family:'Arial'; font-size:6px;">13A</text>
      <text transform="matrix(1 0 0 1 397.6528 126.4038)" style="font-family:'Arial'; font-size:6px;">24</text>
    </g><g ewd:figtype="w2w" ewd:code="TX1" ewd:pin_no="3" ewd:figID="70">
      <path style="fill:#FFFFFF;stroke:#FFFFFF;stroke-width:0;stroke-linecap:round;stroke-linejoin:round;" d="M 266.85,326.83 L 262.6, 322.58 L 258.35, 326.83 L 258.35, 320.28 L 266.85, 320.28 L 266.85, 326.83" />
      <path style="fill:#FFFFFF;stroke:#FFFFFF;stroke-width:0;stroke-linecap:round;stroke-linejoin:round;" d="M 266.85,323.99 L 262.6, 319.74 L 258.35, 323.99 L 258.35, 317.44 L 266.85, 317.44 L 266.85, 323.99" />
      <path style="fill:none;stroke:#000000;stroke-width:0.85;" d="M 266.85,324.53 L 262.6, 320.28 L 258.35, 324.53" />
      <path style="fill:none;stroke:#000000;stroke-width:0.85;" d="M 266.85,321.69 L 262.6, 317.44 L 258.35, 321.69" />
      <path style="fill:none;stroke:#000000;stroke-width:0.85;stroke-linecap:round;stroke-linejoin:round;" d="M 272.52,308.94 L 272.52, 317.44 L 252.68, 317.44 L 252.68, 308.94 L 272.52, 308.94" />
      <text transform="matrix(1 0 0 1 247.9263 314.8965)" style="font-family:'Arial'; font-size:6px;">3</text>
    </g><g ewd:figtype="w2w" ewd:code="TY5" ewd:pin_no="2" ewd:figID="71">
      <path style="fill:#FFFFFF;stroke:#FFFFFF;stroke-width:0;stroke-linecap:round;stroke-linejoin:round;" d="M 190.32,326.83 L 186.07, 322.58 L 181.82, 326.83 L 181.82, 320.28 L 190.32, 320.28 L 190.32, 326.83" />
      <path style="fill:#FFFFFF;stroke:#FFFFFF;stroke-width:0;stroke-linecap:round;stroke-linejoin:round;" d="M 190.32,323.99 L 186.07, 319.74 L 181.82, 323.99 L 181.82, 317.44 L 190.32, 317.44 L 190.32, 323.99" />
      <path style="fill:none;stroke:#000000;stroke-width:0.85;" d="M 190.32,324.53 L 186.07, 320.28 L 181.82, 324.53" />
      <path style="fill:none;stroke:#000000;stroke-width:0.85;" d="M 190.32,321.69 L 186.07, 317.44 L 181.82, 321.69" />
      <path style="fill:none;stroke:#000000;stroke-width:0.85;stroke-linecap:round;stroke-linejoin:round;" d="M 195.99,308.94 L 195.99, 317.44 L 176.15, 317.44 L 176.15, 308.94 L 195.99, 308.94" />
      <text transform="matrix(1 0 0 1 171.3901 314.8965)" style="font-family:'Arial'; font-size:6px;">2</text>
    </g><g ewd:figtype="conn" ewd:code="T6" ewd:figID="18">
      <path style="fill:none;stroke:#000000;stroke-width:1.417;stroke-linecap:round;stroke-linejoin:round;" d="M 211.58,215.41 L 211.58, 181.39 L 177.56, 181.39 L 177.56, 215.41 L 211.58, 215.41" />
      <path d="M 186.07,208.32 C 186.85 208.32 187.49 207.69 187.49 206.9 C 187.49 206.12 186.86 205.48 186.07 205.48 C 185.280014648437 205.479991455078 184.65 206.11 184.65 206.9 C 184.65 207.69 185.28 208.32 186.07 208.32" style="stroke-linecap:round;stroke-linejoin:round;" />
      <path style="fill:none;stroke:#000000;stroke-width:0.85;" d="M 186.07,206.9 L 211.58, 206.9" />
      <path style="fill:none;stroke:#000000;stroke-width:0.85;" d="M 186.07,181.39 L 186.07, 215.41" />
      <path d="M 203.07,212.57 L 203.07, 201.23 L 194.57, 206.9 L 203.07, 212.57" style="stroke-linecap:round;stroke-linejoin:round;" />
      <path style="fill:none;stroke:#000000;stroke-width:0.85;" d="M 194.57,212.57 L 194.57, 201.23" />
      <path d="M 180.4,189.9 L 191.74, 189.9 L 186.07, 198.4 L 180.4, 189.9" style="stroke-linecap:round;stroke-linejoin:round;" />
      <path style="fill:none;stroke:#000000;stroke-width:0.85;" d="M 180.4,198.4 L 191.74, 198.4" />
      <text transform="matrix(1 0 0 1 177.7681 177.4297)" style="font-family:'Arial'; font-size:6px;">1</text>
      <text transform="matrix(1 0 0 1 177.7681 222.7842)" style="font-family:'Arial'; font-size:6px;">2</text>
      <g ewd:figtype="title">
        <text transform="matrix(0 -1 1 0 219.6626 215.4077)" style="font-family:'Arial'; font-size:6px;">T6</text>
        <text transform="matrix(0 -1 1 0 226.7495 215.4077)" style="font-family:'Arial'; font-size:6px;" ewd:textID="23">Diode (Door Courtesy No.4)</text>
      </g>
    </g><g ewd:figtype="conn" ewd:code="Y3" ewd:figID="19">
      <path style="fill:none;stroke:#000000;stroke-width:0.85;" d="M 186.07,368.47 L 186.07, 372.72" />
      <path style="fill:none;stroke:#000000;stroke-width:0.85;" d="M 184.65,419.49 L 187.49, 419.49" />
      <path style="fill:none;stroke:#000000;stroke-width:0.85;" d="M 183.23,416.66 L 188.9, 416.66" />
      <path style="fill:none;stroke:#000000;stroke-width:0.85;" d="M 180.4,413.82 L 191.74, 413.82" />
      <path style="fill:none;stroke:#000000;stroke-width:0.85;" d="M 177.56,410.99 L 194.57, 410.99" />
      <path style="fill:none;stroke:#000000;stroke-width:1.417;" d="M 191.75,372.76 L 186.43, 395.44" />
      <path style="fill:none;stroke:#000000;stroke-width:0.85;stroke-linecap:round;stroke-linejoin:round;" d="M 186.07,375.55 C 186.85 375.55 187.49 374.92 187.49 374.13 C 187.49 373.35 186.86 372.71 186.07 372.71 C 185.29 372.71 184.65 373.34 184.65 374.13 C 184.65 374.92 185.28 375.55 186.07 375.55" />
      <path style="fill:none;stroke:#000000;stroke-width:0.85;stroke-linecap:round;stroke-linejoin:round;" d="M 186.07,398.23 C 186.85 398.23 187.49 397.6 187.49 396.81 C 187.490010986328 396.019995117187 186.86 395.39 186.07 395.39 C 185.29 395.39 184.65 396.02 184.65 396.81 C 184.649987792969 397.599995117188 185.28 398.23 186.07 398.23" />
      <path style="fill:none;stroke:#000000;stroke-width:0.85;" d="M 186.07,410.99 L 186.07, 398.23" />
      <path style="fill:none;stroke:#000000;stroke-width:1.417;stroke-linecap:round;stroke-linejoin:round;" d="M 194.57,402.48 L 194.57, 368.46 L 177.56, 368.46 L 177.56, 402.48 L 194.57, 402.48" />
      <text transform="matrix(1 0 0 1 177.7681 364.5049)" style="font-family:'Arial'; font-size:6px;">1</text>
      <g ewd:figtype="title">
        <text transform="matrix(0 -1 1 0 158.7173 419.4912)" style="font-family:'Arial'; font-size:6px;">Y3</text>
        <text transform="matrix(0 -1 1 0 165.8042 419.4912)" style="font-family:'Arial'; font-size:6px;" ewd:textID="28">Door Courtesy SW <tspan x="0" dy="1em">(Slide Door LH)</tspan></text>
      </g>
    </g><g ewd:figtype="conn" ewd:code="X2" ewd:figID="21">
      <path style="fill:none;stroke:#000000;stroke-width:0.85;" d="M 262.6,368.47 L 262.6, 372.72" />
      <path style="fill:none;stroke:#000000;stroke-width:0.85;" d="M 261.18,419.49 L 264.01, 419.49" />
      <path style="fill:none;stroke:#000000;stroke-width:0.85;" d="M 259.77,416.66 L 265.44, 416.66" />
      <path style="fill:none;stroke:#000000;stroke-width:0.85;" d="M 256.93,413.82 L 268.27, 413.82" />
      <path style="fill:none;stroke:#000000;stroke-width:0.85;" d="M 254.1,410.99 L 271.11, 410.99" />
      <path style="fill:none;stroke:#000000;stroke-width:1.417;" d="M 268.28,372.76 L 262.96, 395.44" />
      <path style="fill:none;stroke:#000000;stroke-width:0.85;stroke-linecap:round;stroke-linejoin:round;" d="M 262.6,375.55 C 263.38 375.55 264.02 374.92 264.02 374.13 C 264.02 373.35 263.39 372.71 262.6 372.71 C 261.82 372.71 261.18 373.34 261.18 374.13 C 261.18 374.92 261.82 375.55 262.6 375.55" />
      <path style="fill:none;stroke:#000000;stroke-width:0.85;stroke-linecap:round;stroke-linejoin:round;" d="M 262.6,398.23 C 263.38 398.23 264.02 397.6 264.02 396.81 C 264.019978027344 396.019995117187 263.39 395.39 262.6 395.39 C 261.82 395.39 261.18 396.02 261.18 396.81 C 261.179985351562 397.599995117188 261.82 398.23 262.6 398.23" />
      <path style="fill:none;stroke:#000000;stroke-width:0.85;" d="M 262.6,410.99 L 262.6, 398.23" />
      <path style="fill:none;stroke:#000000;stroke-width:1.417;stroke-linecap:round;stroke-linejoin:round;" d="M 271.1,402.48 L 271.1, 368.46 L 254.1, 368.46 L 254.1, 402.48 L 271.1, 402.48" />
      <text transform="matrix(1 0 0 1 254.3042 364.5049)" style="font-family:'Arial'; font-size:6px;">1</text>
      <g ewd:figtype="title">
        <text transform="matrix(0 -1 1 0 235.2515 419.4912)" style="font-family:'Arial'; font-size:6px;">X2</text>
        <text transform="matrix(0 -1 1 0 242.3384 419.4912)" style="font-family:'Arial'; font-size:6px;" ewd:textID="29">Door Courtesy SW <tspan x="0" dy="1em">(Slide Door RH)</tspan></text>
      </g>
    </g><g ewd:figtype="conn" ewd:code="B56" ewd:figID="24">
      <path style="fill:none;stroke:#000000;stroke-width:0.85;" d="M 126.54,232.4 L 126.54, 236.65" />
      <path style="fill:none;stroke:#000000;stroke-width:0.85;" d="M 126.54,262.17 L 126.54, 266.42" />
      <path style="fill:none;stroke:#000000;stroke-width:0.85;" d="M 125.12,283.43 L 127.96, 283.43" />
      <path style="fill:none;stroke:#000000;stroke-width:0.85;" d="M 123.7,280.59 L 129.37, 280.59" />
      <path style="fill:none;stroke:#000000;stroke-width:0.85;" d="M 120.87,277.76 L 132.21, 277.76" />
      <path style="fill:none;stroke:#000000;stroke-width:0.85;" d="M 118.03,274.92 L 135.04, 274.92" />
      <path style="fill:none;stroke:#000000;stroke-width:1.417;" d="M 132.22,236.7 L 126.9, 259.38" />
      <path style="fill:none;stroke:#000000;stroke-width:0.85;stroke-linecap:round;stroke-linejoin:round;" d="M 126.54,239.49 C 127.32 239.49 127.96 238.86 127.96 238.07 C 127.959998168945 237.280014648437 127.33 236.65 126.54 236.65 C 125.750001831055 236.649987792969 125.12 237.28 125.12 238.07 C 125.120005493164 238.860014648437 125.75 239.49 126.54 239.49" />
      <path style="fill:none;stroke:#000000;stroke-width:0.85;stroke-linecap:round;stroke-linejoin:round;" d="M 126.54,262.17 C 127.32 262.17 127.96 261.54 127.96 260.75 C 127.96 259.97 127.33 259.33 126.54 259.33 C 125.750001831055 259.329973144531 125.12 259.96 125.12 260.75 C 125.12 261.53 125.75 262.17 126.54 262.17" />
      <path style="fill:none;stroke:#000000;stroke-width:0.85;" d="M 126.54,274.92 L 126.54, 262.16" />
      <path style="fill:none;stroke:#000000;stroke-width:1.417;stroke-linecap:round;stroke-linejoin:round;" d="M 135.04,266.42 L 135.04, 232.4 L 118.03, 232.4 L 118.03, 266.42 L 135.04, 266.42" />
      <text transform="matrix(1 0 0 1 118.2393 228.4404)" style="font-family:'Arial'; font-size:6px;">1</text>
      <g ewd:figtype="title">
        <text transform="matrix(0 -1 1 0 99.187 283.4268)" style="font-family:'Arial'; font-size:6px;">B56</text>
        <text transform="matrix(0 -1 1 0 106.2739 283.4268)" style="font-family:'Arial'; font-size:6px;" ewd:textID="26">Door Courtesy SW <tspan x="0" dy="1em">(Front LH)</tspan></text>
      </g>
    </g><g ewd:figtype="conn" ewd:code="B57" ewd:figID="25">
      <path style="fill:none;stroke:#000000;stroke-width:0.85;" d="M 67.01,266.42 L 67.01, 262.17" />
      <path style="fill:none;stroke:#000000;stroke-width:0.85;" d="M 67.01,236.66 L 67.01, 232.41" />
      <path style="fill:none;stroke:#000000;stroke-width:0.85;" d="M 65.59,283.43 L 68.42999, 283.43" />
      <path style="fill:none;stroke:#000000;stroke-width:0.85;" d="M 64.17,280.59 L 69.84, 280.59" />
      <path style="fill:none;stroke:#000000;stroke-width:0.85;" d="M 61.34,277.76 L 72.68, 277.76" />
      <path style="fill:none;stroke:#000000;stroke-width:0.85;" d="M 58.5,274.92 L 75.51, 274.92" />
      <path style="fill:none;stroke:#000000;stroke-width:1.417;" d="M 72.69,236.7 L 67.37, 259.38" />
      <path style="fill:none;stroke:#000000;stroke-width:0.85;stroke-linecap:round;stroke-linejoin:round;" d="M 67.01,239.49 C 67.79 239.49 68.43 238.86 68.43 238.07 C 68.4300006103516 237.280014648437 67.8 236.65 67.01 236.65 C 66.23 236.65 65.59 237.28 65.59 238.07 C 65.5899926757812 238.860014648437 66.23 239.49 67.01 239.49" />
      <path style="fill:none;stroke:#000000;stroke-width:0.85;stroke-linecap:round;stroke-linejoin:round;" d="M 67.01,262.17 C 67.79 262.17 68.43 261.54 68.43 260.75 C 68.43 259.97 67.8 259.33 67.01 259.33 C 66.23 259.33 65.59 259.96 65.59 260.75 C 65.59 261.53 66.23 262.17 67.01 262.17" />
      <path style="fill:none;stroke:#000000;stroke-width:0.85;" d="M 67.01,274.92 L 67.01, 262.16" />
      <path style="fill:none;stroke:#000000;stroke-width:1.417;stroke-linecap:round;stroke-linejoin:round;" d="M 75.51,266.42 L 75.51, 232.4 L 58.51, 232.4 L 58.51, 266.42 L 75.51, 266.42" />
      <text transform="matrix(1 0 0 1 58.7124 228.4404)" style="font-family:'Arial'; font-size:6px;">1</text>
      <g ewd:figtype="title">
        <text transform="matrix(0 -1 1 0 39.6606 283.4268)" style="font-family:'Arial'; font-size:6px;">B57</text>
        <text transform="matrix(0 -1 1 0 46.7476 283.4268)" style="font-family:'Arial'; font-size:6px;" ewd:textID="27">Door Courtesy SW <tspan x="0" dy="1em">(Front RH)</tspan></text>
      </g>
    </g><g ewd:figtype="conn" ewd:code="H7" ewd:figID="34">
      <path style="fill:none;stroke:#000000;stroke-width:1.417;stroke-linecap:round;stroke-linejoin:round;" d="M 41.49,36.81 L 2778.77, 36.81 L 2778.77, 87.84 L 41.49, 87.84 L 41.49, 36.81" />
      <g ewd:lineID="39">
        <path style="fill:#FFFFFF;stroke:#000000;stroke-width:0.85;stroke-linecap:round;stroke-linejoin:round;" d="M 2506.65,99.18 C 2509.78 99.18 2512.32 96.64 2512.32 93.51 C 2512.32013671875 90.3800042724609 2509.78 87.84 2506.65 87.84 C 2503.5198046875 87.8399926757812 2500.98 90.38 2500.98 93.50999 C 2500.9799609375 96.6399737548828 2503.52 99.18 2506.65 99.18" />
        <text transform="matrix(1 0 0 1 2498.812 83.8784)" style="font-family:'Arial'; font-size:6px;">DBKL</text>
        <text transform="matrix(1 0 0 1 2504.647 95.2168)" style="font-family:'Arial'; font-size:6px;">A</text>
        <text transform="matrix(1 0 0 1 2496.0835 95.2168)" style="font-family:'Arial'; font-size:6px;">1</text>
      </g>
      <g ewd:lineID="58">
        <path style="fill:#FFFFFF;stroke:#000000;stroke-width:0.85;stroke-linecap:round;stroke-linejoin:round;" d="M 1128.02,99.17 C 1131.15 99.17 1133.69 96.63 1133.69 93.5 C 1133.6898828125 90.37 1131.15 87.83 1128.02 87.83 C 1124.8900390625 87.8300036621094 1122.35 90.37 1122.35 93.5 C 1122.34995117188 96.63 1124.89 99.17 1128.02 99.17" />
        <text transform="matrix(1 0 0 1 1119.3574 83.8643)" style="font-family:'Arial'; font-size:6px;">LSWD</text>
        <text transform="matrix(1 0 0 1 1126.021 95.2026)" style="font-family:'Arial'; font-size:6px;">A</text>
        <text transform="matrix(1 0 0 1 1117.4575 95.2026)" style="font-family:'Arial'; font-size:6px;">4</text>
      </g>
      <g ewd:lineID="99999">
        <text transform="matrix(1 0 0 1 582.4082 83.8716)" style="font-family:'Arial'; font-size:6px;">L1</text>
        <text transform="matrix(1 0 0 1 631.2656 83.8716)" style="font-family:'Arial'; font-size:6px;">UL1</text>
        <text transform="matrix(1 0 0 1 177.5518 83.8716)" style="font-family:'Arial'; font-size:6px;">RRCY</text>
        <text transform="matrix(1 0 0 1 58.8447 83.8735)" style="font-family:'Arial'; font-size:6px;">DCTY</text>
        <text transform="matrix(1 0 0 1 118.5615 83.8735)" style="font-family:'Arial'; font-size:6px;">PCTY</text>
        <text transform="matrix(1 0 0 1 859.5464 83.8721)" style="font-family:'Arial'; font-size:6px;">KSW</text>
        <text transform="matrix(1 0 0 1 1167.2095 83.8643)" style="font-family:'Arial'; font-size:6px;">L2</text>
        <text transform="matrix(1 0 0 1 1216.0664 83.8643)" style="font-family:'Arial'; font-size:6px;">UL2</text>
        <text transform="matrix(1 0 0 1 1256.3374 83.8643)" style="font-family:'Arial'; font-size:6px;">ACT+</text>
        <text transform="matrix(1 0 0 1 1308.1138 83.8643)" style="font-family:'Arial'; font-size:6px;">ACT-</text>
        <text transform="matrix(1 0 0 1 2550.978 83.8735)" style="font-family:'Arial'; font-size:6px;">GND</text>
        <text transform="matrix(1 0 0 1 2716.0542 83.8735)" style="font-family:'Arial'; font-size:6px;">IG</text>
        <text transform="matrix(1 0 0 1 2753.4058 83.8735)" style="font-family:'Arial'; font-size:6px;">BECU</text>
      </g>
      <g ewd:figtype="title">
        <text transform="matrix(1 0 0 1 778.4277 50.5645)" style="font-family:'Arial'; font-size:6px;">H7(A)</text>
        <text transform="matrix(1 0 0 1 778.4277 57.6528)" style="font-family:'Arial'; font-size:6px;" ewd:textID="36">Integration Relay</text>
      </g>
      <g ewd:figtype="title">
        <text transform="matrix(1 0 0 1 55.5933 50.5645)" style="font-family:'Arial'; font-size:6px;">H7(A)</text>
        <text transform="matrix(1 0 0 1 55.5933 57.6528)" style="font-family:'Arial'; font-size:6px;" ewd:textID="36">Integration Relay</text>
      </g>
      <g ewd:figtype="title">
        <text transform="matrix(1 0 0 1 1830.9165 50.5645)" style="font-family:'Arial'; font-size:6px;">H7(A)</text>
        <text transform="matrix(1 0 0 1 1830.9165 57.6528)" style="font-family:'Arial'; font-size:6px;" ewd:textID="36">Integration Relay</text>
      </g>
      <g ewd:figtype="title">
        <text transform="matrix(1 0 0 1 1303.6724 50.5645)" style="font-family:'Arial'; font-size:6px;">H7(A)</text>
        <text transform="matrix(1 0 0 1 1303.6724 57.6528)" style="font-family:'Arial'; font-size:6px;" ewd:textID="36">Integration Relay</text>
      </g>
      <g ewd:figtype="title">
        <text transform="matrix(1 0 0 1 2350.6577 50.5645)" style="font-family:'Arial'; font-size:6px;">H7(A)</text>
        <text transform="matrix(1 0 0 1 2350.6577 57.6528)" style="font-family:'Arial'; font-size:6px;" ewd:textID="36">Integration Relay</text>
      </g>
      <g ewd:figtype="title">
        <text transform="matrix(1 0 0 1 2668.1938 50.5645)" style="font-family:'Arial'; font-size:6px;">H7(A)</text>
        <text transform="matrix(1 0 0 1 2668.1938 57.6528)" style="font-family:'Arial'; font-size:6px;" ewd:textID="36">Integration Relay</text>
      </g>
    </g><g ewd:figtype="comment" ewd:code="1" ewd:figID="1018">
      <text transform="matrix(1 0 0 1 15.9868 611.8584)" style="font-family:'Arial'; font-size:6px;" ewd:textID="1">*1 : Short Wheelbase Type</text>
    </g><g ewd:figtype="comment" ewd:code="2" ewd:figID="1017">
      <text transform="matrix(1 0 0 1 15.9868 620.3623)" style="font-family:'Arial'; font-size:6px;" ewd:textID="9">*2 : Long Wheelbase Type</text>
    </g><g ewd:figtype="comment" ewd:code="4" ewd:figID="1016">
      <text transform="matrix(1 0 0 1 15.9868 637.3721)" style="font-family:'Arial'; font-size:6px;" ewd:textID="11">*4 : Long Wheelbase Type w/ Map Lamp w/ Illumination Entry</text>
    </g><g ewd:figtype="comment" ewd:code="5" ewd:figID="1015">
      <text transform="matrix(1 0 0 1 15.9868 645.876)" style="font-family:'Arial'; font-size:6px;" ewd:textID="12">*5 : w/o Back Door Closer</text>
    </g><g ewd:figtype="comment" ewd:code="6" ewd:figID="1014">
      <text transform="matrix(1 0 0 1 15.9868 654.3799)" style="font-family:'Arial'; font-size:6px;" ewd:textID="13">*6 : w/ Back Door Closer</text>
    </g><g ewd:figtype="comment" ewd:code="8" ewd:figID="1013">
      <text transform="matrix(1 0 0 1 15.9868 671.3877)" style="font-family:'Arial'; font-size:6px;" ewd:textID="15">*8 : Malaysia w/o Power Window </text>
    </g><g ewd:figtype="comment" ewd:code="7" ewd:figID="1012">
      <text transform="matrix(1 0 0 1 15.9868 662.8838)" style="font-family:'Arial'; font-size:6px;" ewd:textID="14">*7 : w/ Power Window</text>
    </g><g ewd:figtype="comment" ewd:code="9" ewd:figID="1011">
      <text transform="matrix(1 0 0 1 15.9868 679.8916)" style="font-family:'Arial'; font-size:6px;" ewd:textID="16">*9 : Except Malaysia w/o Power Window </text>
    </g><g ewd:figtype="comment" ewd:code="10" ewd:figID="1010">
      <text transform="matrix(1 0 0 1 15.9868 688.3955)" style="font-family:'Arial'; font-size:6px;" ewd:textID="2">*10 : w/o Power Window </text>
    </g><g ewd:figtype="comment" ewd:code="3" ewd:figID="1009">
      <text transform="matrix(1 0 0 1 15.9868 628.8672)" style="font-family:'Arial'; font-size:6px;" ewd:textID="10">*3 : Long Wheelbase Type w/o Map Lamp, Long Wheelbase Type w/ Map Lamp w/o Illumination Entry</text>
    </g><text transform="matrix(0 -1 1 0 122.5752 158.0332)" style="font-family:'Arial'; font-size:6px;">R</text><text transform="matrix(0 -1 1 0 63.0474 158.2002)" style="font-family:'Arial'; font-size:6px;">G</text><text transform="matrix(0 -1 1 0 182.104 158.6992)" style="font-family:'Arial'; font-size:6px;">W</text><text transform="matrix(0 -1 1 0 182.104 243.0737)" style="font-family:'Arial'; font-size:6px;">R</text><text transform="matrix(0 -1 1 0 182.104 345.1211)" style="font-family:'Arial'; font-size:6px;">R</text></svg>