﻿<?xml version="1.0" encoding="utf-8"?>
<!-- Generator: Adobe Illustrator 10.0, SVG Export Plug-In . SVG Version: 3.0.0 Build 77)  -->
<!DOCTYPE svg PUBLIC "-//W3C//DTD SVG 1.0//EN" "http://www.w3.org/TR/2001/REC-SVG-20010904/DTD/svg10.dtd"[
   <!ENTITY ns_flows "http://ns.adobe.com/Flows/1.0/">
   <!ENTITY ns_svg "http://www.w3.org/2000/svg">
   <!ENTITY ns_xlink "http://www.w3.org/1999/xlink">
   <!ENTITY st0 "font-size:7px;font-family:'MS-PGothic';adobe-font-script:japanese;">
   <!ENTITY st1 "font-size:6px;font-family:'ArialMT';">
   <!ENTITY st2 "fill:#FFFFFF;stroke:#000000; stroke-width:1.41;stroke-linecap:round;stroke-linejoin:round;">
   <!ENTITY st3 "fill:#FFFFCC;stroke:#FFFFCC; stroke-width:0.1;stroke-linecap:round;stroke-linejoin:round;">
   <!ENTITY st4 "fill:#CCCCCC;stroke:#CCCCCC; stroke-width:0.1;stroke-linecap:round;stroke-linejoin:round;">
   <!ENTITY st5 "fill:#CCECF4;stroke:#000000; stroke-width:1.133;stroke-linecap:round;stroke-linejoin:round;">
   <!ENTITY st6 "fill:none;stroke-linecap:butt; stroke-linejoin:round;">
   <!ENTITY st7 "fill:none;stroke:#000000;stroke-linecap:round;stroke-linejoin:round;">
   <!ENTITY st8 "enable-background:new;">
   <!ENTITY st9 "fill:#000000;stroke:#000000; stroke-linecap:round;stroke-linejoin:round;">
   <!ENTITY st10 "font-size:9px;font-family:'ArialMT';">
   <!ENTITY st11 "font-size:9px;font-family:'Svg Symbol';">
   <!ENTITY st12 "font-size:6px;font-family:'Svg Symbol';">
   <!ENTITY st13 "fill:none;stroke:#ff0000;stroke-linecap:round;stroke-linejoin:round;">
   <!ENTITY st14 "fill:#FFFF00;stroke:#FFFF00; stroke-width:0.1;stroke-linecap:round;stroke-linejoin:round;">
   <!ENTITY st15 "font-size:6px;font-family:'MS-PGothic';adobe-font-script:japanese;">
   <!ENTITY st16 "1.00 0.00 0.00 1.00">
   <!ENTITY st17 "0.00 -1.00 1.00 0.00">
   <!ENTITY st18 "font-size:6px;font-family:'Arial';">
   <!ENTITY st19 "font-size:9px;font-family:'Arial';">
   <!ENTITY st20 "font-size:6px;font-family:'MS-PGothic','MS PGothic';adobe-font-script:japanese;">
   <!ENTITY st21 "font-size:7px;font-family:'MS-PGothic','MS PGothic';adobe-font-script:japanese;">
   <!ATTLIST svg
       xmlns:ewd CDATA #FIXED "http://shcl.co.jp/ewd"
       xmlns:a CDATA #FIXED "http://ns.adobe.com/AdobeSVGViewerExtensions/3.0/"
       ewd:ver CDATA #IMPLIED >
   <!ATTLIST a
       ewd:lineID CDATA #IMPLIED
       ewd:groupID CDATA #IMPLIED
       ewd:figtype CDATA #IMPLIED
       ewd:code CDATA #IMPLIED
       ewd:figID CDATA #IMPLIED
       ewd:pinNo CDATA #IMPLIED
       ewd:comment CDATA #IMPLIED >
   <!ATTLIST g
       ewd:lineID CDATA #IMPLIED
       ewd:groupID CDATA #IMPLIED
       ewd:figtype CDATA #IMPLIED
       ewd:code CDATA #IMPLIED
       ewd:figID CDATA #IMPLIED
       ewd:pinNo CDATA #IMPLIED
       ewd:comment CDATA #IMPLIED >
   <!ATTLIST text
       ewd:textID CDATA #IMPLIED >
   <!ATTLIST title
       ewd:textID CDATA #IMPLIED >
]>
<svg xmlns="http://www.w3.org/2000/svg" xmlns:xlink="http://www.w3.org/1999/xlink" width="3675.34" height="721" viewBox="0 0 3675.34 721" xml:space="preserve" xmlns:ewd="http://shcl.co.jp/ewd" ewd:ver="2.0">
  
  <defs>
    <font horiz-adv-x="1229">
      <font-face font-family="Svg Symbol" units-per-em="2048" panose-1="5 5 1 2 1 7 6 2 5 7" ascent="2059" descent="450" alphabetic="0" />
      <missing-glyph d="M 103,0 l 0,1280 1024,0 0,-1280 -1024,0 z m 32,32 l 960,0 0,1216 -960,0 0,-1216 z" />
      <glyph d4p1:unicode="" horiz-adv-x="1573" d="M 1517,0 l -567,0 24,279 q 141,59 207.5,168 66.5,109 66.5,306 0,272 -132.5,417.5 -132.5,145.5 -333.5,145.5 -194,0 -328,-147.5 -134,-147.5 -134,-401.5 0,-200 68.5,-319 68.5,-119 206.5,-169 l 25,-279 -564,0 0,279 35,0 q 3,-61 32,-83 45,-35 137,-35 l 270,0 0,70 q -210,61 -324.5,209 -114.5,148 -114.5,349 0,252 186.5,425 186.5,173 504.5,173 195,0 358.5,-73.5 163.5,-73.5 252,-214.5 88.5,-141 88.5,-310 0,-207 -121.5,-360.5 -121.5,-153.5 -317.5,-197.5 l -8,-70 275,0 q 92,0 128,28 36,28 42,90 l 38,0 0,-279 z" xmlns:d4p1="def-glyph-attr-unicode" />
    </font>
  </defs>
  
<g ewd:figtype="jb" ewd:code="12" ewd:figID="12">
      <path style="fill:none;stroke:#000000;stroke-width:0.85;" d="M 1416.13,102 L 1416.13, 87.84" />
      <path style="fill:none;stroke:#000000;stroke-width:0.85;" d="M 1416.13,87.84 L 1416.13, 80.75" />
      <path d="M 1416.13,102 L 1418.96, 99.17 L 1418.96, 96.34 L 1416.13, 99.17 L 1413.3, 96.34 L 1413.3, 99.17 L 1416.13, 102" style="stroke-linecap:round;stroke-linejoin:round;" />
      <path style="fill:none;stroke:#000000;stroke-width:0.85;stroke-linecap:round;stroke-linejoin:round;" d="M 1420.38,113.34 C 1423.51 113.34 1426.05 110.8 1426.05 107.67 C 1426.05 104.54 1423.51 102 1420.38 102 L 1411.88, 102 C 1408.75 102 1406.21 104.54 1406.21 107.67 C 1406.21 110.8 1408.75 113.34 1411.88 113.34 L 1420.38, 113.34" />
      <path style="fill:none;stroke:#000000;stroke-width:0.85;stroke-linecap:round;stroke-linejoin:round;" d="M 1416.13,80.75 C 1416.91 80.75 1417.55 80.12 1417.55 79.33 C 1417.55009765625 78.5400036621094 1416.92 77.91 1416.13 77.91 C 1415.35 77.91 1414.71 78.54 1414.71 79.33 C 1414.709921875 80.1200036621094 1415.34 80.75 1416.13 80.75" />
      <path style="fill:none;stroke:#000000;stroke-width:0.85;stroke-linecap:round;stroke-linejoin:round;" d="M 1416.13,55.24 C 1416.91 55.24 1417.55 54.61 1417.55 53.82 C 1417.55009765625 53.0299993896484 1416.92 52.4 1416.13 52.4 C 1415.35 52.4 1414.71 53.03 1414.71 53.82 C 1414.709921875 54.6099993896484 1415.34 55.24 1416.13 55.24" />
      <path style="fill:none;stroke:#000000;stroke-width:1.417;" d="M 1415.12,54.82 C 1415.12 54.82 1409.05 59.5 1416.12 66.57 C 1423.18999023438 73.6399993896484 1417.12 78.32 1417.12 78.32" />
      <path style="fill:none;stroke:#000000;stroke-width:1.417;stroke-linecap:round;stroke-linejoin:round;" d="M 1428.88,87.84 L 1428.88, 45.32 L 1403.37, 45.32 L 1403.37, 87.84 L 1428.88, 87.84" />
      <text transform="matrix(1 0 0 1 1410.7896 109.3735)" style="font-family:'Arial'; font-size:6px;">12B</text>
      <text transform="matrix(1 0 0 1 1401.4531 109.3735)" style="font-family:'Arial'; font-size:6px;">7</text>
      <text transform="matrix(1 0 0 1 1407.8271 95.2129)" style="font-family:'Arial'; font-size:6px;">2</text>
      <text transform="matrix(1 0 0 1 1410.959 41.3535)" style="font-family:'Arial'; font-size:6px;">(IG)</text>
      <text transform="matrix(1 0 0 1 1431.7148 64.7402)" style="font-family:'Arial'; font-size:6px;">15A<tspan x="0" dy="1em">IGN NO.1</tspan></text>
    </g><g ewd:figtype="rb" ewd:code="FUSE101" ewd:figID="13">
      <path style="fill:none;stroke:#000000;stroke-width:0.85;" d="M 1331.08,102 L 1331.08, 87.84" />
      <path style="fill:none;stroke:#000000;stroke-width:0.85;" d="M 1331.08,87.84 L 1331.08, 80.75" />
      <path style="fill:none;stroke:#000000;stroke-width:0.85;stroke-linecap:round;stroke-linejoin:round;" d="M 1331.09,80.75 C 1331.87 80.75 1332.51 80.12 1332.51 79.33 C 1332.51001953125 78.5400036621094 1331.88 77.91 1331.09 77.91 C 1330.31 77.91 1329.67 78.54 1329.67 79.33 C 1329.67008789062 80.1200036621094 1330.3 80.75 1331.09 80.75" />
      <path style="fill:none;stroke:#000000;stroke-width:0.85;stroke-linecap:round;stroke-linejoin:round;" d="M 1331.09,55.24 C 1331.87 55.24 1332.51 54.61 1332.51 53.82 C 1332.51001953125 53.0299993896484 1331.88 52.4 1331.09 52.4 C 1330.31 52.4 1329.67 53.03 1329.67 53.82 C 1329.67008789062 54.6099993896484 1330.3 55.24 1331.09 55.24" />
      <path style="fill:none;stroke:#000000;stroke-width:1.417;" d="M 1330.08,54.82 C 1330.08 54.82 1324.01 59.5 1331.08 66.57 C 1338.14991210938 73.6399993896484 1332.08 78.32 1332.08 78.32" />
      <path style="fill:none;stroke:#000000;stroke-width:1.417;stroke-linecap:round;stroke-linejoin:round;" d="M 1343.84,87.84 L 1343.84, 45.32 L 1318.33, 45.32 L 1318.33, 87.84 L 1343.84, 87.84" />
      <path d="M 1331.09,102 L 1333.92, 99.17 L 1333.92, 96.34 L 1331.09, 99.17 L 1328.26, 96.34 L 1328.26, 99.17 L 1331.09, 102" style="stroke-linecap:round;stroke-linejoin:round;" />
      <path style="fill:none;stroke:#000000;stroke-width:0.85;stroke-linecap:round;stroke-linejoin:round;" d="M 1335.34,113.34 C 1338.47 113.34 1341.01 110.8 1341.01 107.67 C 1341.01 104.54 1338.47 102 1335.34 102 L 1326.84, 102 C 1323.71 102 1321.17 104.54 1321.17 107.67 C 1321.17 110.8 1323.71 113.34 1326.84 113.34 L 1335.34, 113.34" />
      <text transform="matrix(1 0 0 1 1322.7881 95.2129)" style="font-family:'Arial'; font-size:6px;">2</text>
      <text transform="matrix(1 0 0 1 1323.2524 41.3535)" style="font-family:'Arial'; font-size:6px;">(BAT)</text>
      <text transform="matrix(1 0 0 1 1346.6758 64.7402)" style="font-family:'Arial'; font-size:6px;">10A<tspan x="0" dy="1em">EFI NO.2</tspan></text>
      <text transform="matrix(1 0 0 1 1327.751 109.3735)" style="font-family:'Arial'; font-size:6px;">10</text>
    </g><g ewd:figtype="jb" ewd:code="10" ewd:figID="8">
      <path style="fill:none;stroke:#000000;stroke-width:0.85;" d="M 1654.26,161.55 L 1654.26, 96.34 L 1696.78, 96.34 L 1696.78, 104.84" />
      <path style="fill:none;stroke:#000000;stroke-width:0.85;" d="M 1696.78,104.85 L 1696.78, 112.36" />
      <path style="fill:none;stroke:#000000;stroke-width:0.85;" d="M 1696.78,131.35 L 1696.78, 138.86" />
      <path style="fill:none;stroke:#000000;stroke-width:0.85;" d="M 1696.78,138.86 L 1696.78, 161.55" />
      <path style="fill:none;stroke:#000000;stroke-width:0.85;" d="M 1739.3,161.55 L 1739.3, 147.37 L 1722.29, 147.37 L 1722.29, 138.86" />
      <path style="fill:none;stroke:#000000;stroke-width:0.85;" d="M 1722.29,138.86 L 1722.29, 134.61" />
      <path style="fill:none;stroke:#000000;stroke-width:0.85;" d="M 1722.29,109.1 L 1722.29, 104.85" />
      <path style="fill:none;stroke:#000000;stroke-width:0.85;" d="M 1722.29,104.85 L 1722.29, 87.84" />
      <path style="fill:none;stroke:#000000;stroke-width:0.85;" d="M 1722.29,87.84 L 1722.29, 80.75" />
      <path d="M 1739.29,161.55 L 1742.12, 158.72 L 1742.12, 155.89 L 1739.29, 158.72 L 1736.46, 155.89 L 1736.46, 158.72 L 1739.29, 161.55" style="stroke-linecap:round;stroke-linejoin:round;" />
      <path style="fill:none;stroke:#000000;stroke-width:0.85;stroke-linecap:round;stroke-linejoin:round;" d="M 1743.55,172.89 C 1746.68 172.89 1749.22 170.35 1749.22 167.22 C 1749.22 164.09 1746.68 161.55 1743.55 161.55 L 1735.05, 161.55 C 1731.92 161.55 1729.38 164.09 1729.38 167.22 C 1729.38 170.35 1731.92 172.89 1735.05 172.89 L 1743.55, 172.89" />
      <path d="M 1696.78,161.55 L 1699.61, 158.72 L 1699.61, 155.89 L 1696.78, 158.72 L 1693.95, 155.89 L 1693.95, 158.72 L 1696.78, 161.55" style="stroke-linecap:round;stroke-linejoin:round;" />
      <path style="fill:none;stroke:#000000;stroke-width:0.85;stroke-linecap:round;stroke-linejoin:round;" d="M 1701.03,172.89 C 1704.16 172.89 1706.7 170.35 1706.7 167.22 C 1706.7 164.09 1704.16 161.55 1701.03 161.55 L 1692.53, 161.55 C 1689.4 161.55 1686.86 164.09 1686.86 167.22 C 1686.86 170.35 1689.4 172.89 1692.53 172.89 L 1701.03, 172.89" />
      <path d="M 1654.26,161.55 L 1657.09, 158.72 L 1657.09, 155.89 L 1654.26, 158.72 L 1651.43, 155.89 L 1651.43, 158.72 L 1654.26, 161.55" style="stroke-linecap:round;stroke-linejoin:round;" />
      <path style="fill:none;stroke:#000000;stroke-width:0.85;stroke-linecap:round;stroke-linejoin:round;" d="M 1658.51,172.89 C 1661.64 172.89 1664.18 170.35 1664.18 167.22 C 1664.18 164.09 1661.64 161.55 1658.51 161.55 L 1650.01, 161.55 C 1646.88 161.55 1644.34 164.09 1644.34 167.22 C 1644.34 170.35 1646.88 172.89 1650.01 172.89 L 1658.51, 172.89" />
      <path style="fill:none;stroke:#000000;stroke-width:0.85;stroke-linecap:round;stroke-linejoin:round;" d="M 1722.29,109.1 C 1723.07 109.1 1723.71 109.73 1723.71 110.52 C 1723.709921875 111.309993286133 1723.08 111.94 1722.29 111.94 C 1721.51 111.94 1720.87 111.31 1720.87 110.52 C 1720.86999023438 109.729993286133 1721.51 109.1 1722.29 109.1" />
      <path style="fill:none;stroke:#000000;stroke-width:1.417;" d="M 1722.66,111.89 L 1727.96, 134.62" />
      <path style="fill:none;stroke:#000000;stroke-width:0.85;stroke-linecap:round;stroke-linejoin:round;" d="M 1722.29,131.78 C 1723.07 131.78 1723.71 132.41 1723.71 133.2 C 1723.709921875 133.989993896484 1723.08 134.62 1722.29 134.62 C 1721.51 134.62 1720.87 133.99 1720.87 133.2 C 1720.86999023438 132.409993896484 1721.51 131.78 1722.29 131.78" />
      <path style="fill:none;stroke:#000000;stroke-width:0.85;stroke-linecap:round;" d="M 1693.63,124.67 C 1694.41 123.81 1695.53 123.27 1696.78 123.27 C 1699.13 123.27 1701.03 125.17 1701.03 127.52 C 1701.03 129.87 1699.13 131.77 1696.78 131.77" />
      <path style="fill:none;stroke:#000000;stroke-width:0.85;stroke-linecap:round;" d="M 1693.57,124.65 C 1694.35 125.54 1695.5 126.11 1696.77 126.11 C 1699.12 126.11 1701.02 124.21 1701.02 121.86 C 1701.02 119.51 1699.12 117.61 1696.77 117.61 C 1695.49 117.61 1694.35 118.17 1693.57 119.06" />
      <path style="fill:none;stroke:#000000;stroke-width:0.85;stroke-linecap:round;" d="M 1693.59,119.01 C 1694.37 119.89 1695.51 120.44 1696.77 120.44 C 1699.12 120.44 1701.02 118.54 1701.02 116.19 C 1701.0200390625 113.840004882812 1699.12 111.94 1696.77 111.94" />
      <path style="fill:none;stroke:#000000;stroke-width:1.417;stroke-linecap:round;stroke-linejoin:round;" d="M 1730.79,138.86 L 1730.79, 104.84 L 1688.27, 104.84 L 1688.27, 138.86 L 1730.79, 138.86" />
      <path style="fill:none;stroke:#000000;stroke-width:0.85;stroke-linecap:round;stroke-linejoin:round;" d="M 1722.29,80.75 C 1723.07 80.75 1723.71 80.12 1723.71 79.33 C 1723.709921875 78.5400036621094 1723.08 77.91 1722.29 77.91 C 1721.51 77.91 1720.87 78.54 1720.87 79.33 C 1720.86999023438 80.1200036621094 1721.51 80.75 1722.29 80.75" />
      <path style="fill:none;stroke:#000000;stroke-width:0.85;stroke-linecap:round;stroke-linejoin:round;" d="M 1722.29,55.24 C 1723.07 55.24 1723.71 54.61 1723.71 53.82 C 1723.709921875 53.0299993896484 1723.08 52.4 1722.29 52.4 C 1721.51 52.4 1720.87 53.03 1720.87 53.82 C 1720.86999023438 54.6099993896484 1721.51 55.24 1722.29 55.24" />
      <path style="fill:none;stroke:#000000;stroke-width:1.417;" d="M 1721.29,54.82 C 1721.29 54.82 1715.22 59.5 1722.29 66.57 C 1729.360078125 73.6399993896484 1723.29 78.32 1723.29 78.32" />
      <path style="fill:none;stroke:#000000;stroke-width:1.417;stroke-linecap:round;stroke-linejoin:round;" d="M 1735.04,87.84 L 1735.04, 45.32 L 1709.53, 45.32 L 1709.53, 87.84 L 1735.04, 87.84" />
      <text transform="matrix(1 0 0 1 1733.9565 168.9224)" style="font-family:'Arial'; font-size:6px;">10B</text>
      <text transform="matrix(1 0 0 1 1724.6201 168.9224)" style="font-family:'Arial'; font-size:6px;">4</text>
      <text transform="matrix(1 0 0 1 1691.437 168.9224)" style="font-family:'Arial'; font-size:6px;">10B</text>
      <text transform="matrix(1 0 0 1 1682.1006 168.9224)" style="font-family:'Arial'; font-size:6px;">2</text>
      <text transform="matrix(1 0 0 1 1648.9185 168.9224)" style="font-family:'Arial'; font-size:6px;">10B</text>
      <text transform="matrix(1 0 0 1 1639.582 168.9224)" style="font-family:'Arial'; font-size:6px;">3</text>
      <text transform="matrix(1 0 0 1 1733.6143 120.019)" style="font-family:'Arial'; font-size:6px;" ewd:textID="8">EFI MAIN<tspan x="0" dy="1em">Relay</tspan></text>
      <text transform="matrix(1 0 0 1 1713.9912 95.2129)" style="font-family:'Arial'; font-size:6px;">2</text>
      <text transform="matrix(1 0 0 1 1714.4561 41.3535)" style="font-family:'Arial'; font-size:6px;">(BAT)</text>
      <text transform="matrix(1 0 0 1 1737.8789 64.7402)" style="font-family:'Arial'; font-size:6px;">25A<tspan x="0" dy="1em">EFI NO.1</tspan></text>
    </g><g ewd:figtype="w2w" ewd:code="OB4" ewd:pin_no="7" ewd:comment="2" ewd:figID="79">
      <path style="fill:none;stroke:#000000;stroke-width:0.85;stroke-linecap:round;stroke-linejoin:round;" d="M 1341,325.94 L 1341, 317.44 L 1321.16, 317.44 L 1321.16, 325.94 L 1341, 325.94" />
      <text transform="matrix(1 0 0 1 1343.8398 323.3975)" style="font-family:'Arial'; font-size:6px;">(*2)</text>
      <text transform="matrix(1 0 0 1 1316.4072 323.3965)" style="font-family:'Arial'; font-size:6px;">7</text>
    </g><g ewd:figtype="w2w" ewd:code="OB3" ewd:pin_no="9" ewd:comment="1" ewd:figID="80">
      <path style="fill:#FFFFFF;stroke:#FFFFFF;stroke-width:0;stroke-linecap:round;stroke-linejoin:round;" d="M 1335.34,299.55 L 1331.09, 303.8 L 1326.84, 299.55 L 1326.84, 306.1 L 1335.34, 306.1 L 1335.34, 299.55" />
      <path style="fill:#FFFFFF;stroke:#FFFFFF;stroke-width:0;stroke-linecap:round;stroke-linejoin:round;" d="M 1335.33,302.38 L 1331.08, 306.63 L 1326.83, 302.38 L 1326.83, 308.93 L 1335.33, 308.93 L 1335.33, 302.38" />
      <path style="fill:none;stroke:#000000;stroke-width:0.85;" d="M 1335.34,301.85 L 1331.09, 306.1 L 1326.84, 301.85" />
      <path style="fill:none;stroke:#000000;stroke-width:0.85;" d="M 1335.33,304.68 L 1331.08, 308.93 L 1326.83, 304.68" />
      <path style="fill:none;stroke:#000000;stroke-width:0.85;stroke-linecap:round;stroke-linejoin:round;" d="M 1341,317.44 L 1341, 308.94 L 1321.16, 308.94 L 1321.16, 317.44 L 1341, 317.44" />
      <text transform="matrix(1 0 0 1 1343.8398 314.8945)" style="font-family:'Arial'; font-size:6px;">(*1)</text>
      <text transform="matrix(1 0 0 1 1316.4072 314.8926)" style="font-family:'Arial'; font-size:6px;">9</text>
    </g><g ewd:figtype="w2w" ewd:code="OB4" ewd:pin_no="10" ewd:comment="2" ewd:figID="103">
      <path style="fill:none;stroke:#000000;stroke-width:0.85;stroke-linecap:round;stroke-linejoin:round;" d="M 1426.04,325.94 L 1426.04, 317.44 L 1406.2, 317.44 L 1406.2, 325.94 L 1426.04, 325.94" />
      <text transform="matrix(1 0 0 1 1428.8789 323.3975)" style="font-family:'Arial'; font-size:6px;">(*2)</text>
      <text transform="matrix(1 0 0 1 1398.1104 323.3965)" style="font-family:'Arial'; font-size:6px;">10</text>
    </g><g ewd:figtype="w2w" ewd:code="OB3" ewd:pin_no="12" ewd:comment="1" ewd:figID="104">
      <path style="fill:#FFFFFF;stroke:#FFFFFF;stroke-width:0;stroke-linecap:round;stroke-linejoin:round;" d="M 1420.38,299.55 L 1416.13, 303.8 L 1411.88, 299.55 L 1411.88, 306.1 L 1420.38, 306.1 L 1420.38, 299.55" />
      <path style="fill:#FFFFFF;stroke:#FFFFFF;stroke-width:0;stroke-linecap:round;stroke-linejoin:round;" d="M 1420.38,302.38 L 1416.13, 306.63 L 1411.88, 302.38 L 1411.88, 308.93 L 1420.38, 308.93 L 1420.38, 302.38" />
      <path style="fill:none;stroke:#000000;stroke-width:0.85;" d="M 1420.38,301.85 L 1416.13, 306.1 L 1411.88, 301.85" />
      <path style="fill:none;stroke:#000000;stroke-width:0.85;" d="M 1420.38,304.68 L 1416.13, 308.93 L 1411.88, 304.68" />
      <path style="fill:none;stroke:#000000;stroke-width:0.85;stroke-linecap:round;stroke-linejoin:round;" d="M 1426.04,317.44 L 1426.04, 308.94 L 1406.2, 308.94 L 1406.2, 317.44 L 1426.04, 317.44" />
      <text transform="matrix(1 0 0 1 1428.8789 314.8945)" style="font-family:'Arial'; font-size:6px;">(*1)</text>
      <text transform="matrix(1 0 0 1 1398.1104 314.8926)" style="font-family:'Arial'; font-size:6px;">12</text>
    </g><g ewd:figtype="w2w" ewd:code="OB4" ewd:pin_no="9" ewd:comment="2" ewd:figID="105">
      <path style="fill:none;stroke:#000000;stroke-width:0.85;stroke-linecap:round;stroke-linejoin:round;" d="M 1494.11,325.94 L 1494.11, 317.44 L 1474.27, 317.44 L 1474.27, 325.94 L 1494.11, 325.94" />
      <text transform="matrix(1 0 0 1 1496.9473 323.3975)" style="font-family:'Arial'; font-size:6px;">(*2)</text>
      <text transform="matrix(1 0 0 1 1469.5146 323.3965)" style="font-family:'Arial'; font-size:6px;">9</text>
    </g><g ewd:figtype="w2w" ewd:code="OB3" ewd:pin_no="11" ewd:comment="1" ewd:figID="106">
      <path style="fill:#FFFFFF;stroke:#FFFFFF;stroke-width:0;stroke-linecap:round;stroke-linejoin:round;" d="M 1488.44,299.55 L 1484.19, 303.8 L 1479.94, 299.55 L 1479.94, 306.1 L 1488.44, 306.1 L 1488.44, 299.55" />
      <path style="fill:#FFFFFF;stroke:#FFFFFF;stroke-width:0;stroke-linecap:round;stroke-linejoin:round;" d="M 1488.44,302.38 L 1484.19, 306.63 L 1479.94, 302.38 L 1479.94, 308.93 L 1488.44, 308.93 L 1488.44, 302.38" />
      <path style="fill:none;stroke:#000000;stroke-width:0.85;" d="M 1488.44,301.85 L 1484.19, 306.1 L 1479.94, 301.85" />
      <path style="fill:none;stroke:#000000;stroke-width:0.85;" d="M 1488.44,304.68 L 1484.19, 308.93 L 1479.94, 304.68" />
      <path style="fill:none;stroke:#000000;stroke-width:0.85;stroke-linecap:round;stroke-linejoin:round;" d="M 1494.11,317.44 L 1494.11, 308.94 L 1474.27, 308.94 L 1474.27, 317.44 L 1494.11, 317.44" />
      <text transform="matrix(1 0 0 1 1496.9473 314.8945)" style="font-family:'Arial'; font-size:6px;">(*1)</text>
      <text transform="matrix(1 0 0 1 1466.1777 314.8926)" style="font-family:'Arial'; font-size:6px;">11</text>
    </g><g ewd:figtype="w2w" ewd:code="OB4" ewd:pin_no="4" ewd:comment="2" ewd:figID="107">
      <path style="fill:none;stroke:#000000;stroke-width:0.85;stroke-linecap:round;stroke-linejoin:round;" d="M 1545.13,325.94 L 1545.13, 317.44 L 1525.29, 317.44 L 1525.29, 325.94 L 1545.13, 325.94" />
      <text transform="matrix(1 0 0 1 1547.9707 323.3975)" style="font-family:'Arial'; font-size:6px;">(*2)</text>
      <text transform="matrix(1 0 0 1 1520.5381 323.3965)" style="font-family:'Arial'; font-size:6px;">4</text>
    </g><g ewd:figtype="w2w" ewd:code="OB3" ewd:pin_no="6" ewd:comment="1" ewd:figID="108">
      <path style="fill:#FFFFFF;stroke:#FFFFFF;stroke-width:0;stroke-linecap:round;stroke-linejoin:round;" d="M 1539.47,299.55 L 1535.22, 303.8 L 1530.97, 299.55 L 1530.97, 306.1 L 1539.47, 306.1 L 1539.47, 299.55" />
      <path style="fill:#FFFFFF;stroke:#FFFFFF;stroke-width:0;stroke-linecap:round;stroke-linejoin:round;" d="M 1539.47,302.38 L 1535.22, 306.63 L 1530.97, 302.38 L 1530.97, 308.93 L 1539.47, 308.93 L 1539.47, 302.38" />
      <path style="fill:none;stroke:#000000;stroke-width:0.85;" d="M 1539.47,301.85 L 1535.22, 306.1 L 1530.97, 301.85" />
      <path style="fill:none;stroke:#000000;stroke-width:0.85;" d="M 1539.47,304.68 L 1535.22, 308.93 L 1530.97, 304.68" />
      <path style="fill:none;stroke:#000000;stroke-width:0.85;stroke-linecap:round;stroke-linejoin:round;" d="M 1545.13,317.44 L 1545.13, 308.94 L 1525.29, 308.94 L 1525.29, 317.44 L 1545.13, 317.44" />
      <text transform="matrix(1 0 0 1 1547.9707 314.8945)" style="font-family:'Arial'; font-size:6px;">(*1)</text>
      <text transform="matrix(1 0 0 1 1520.5381 314.8926)" style="font-family:'Arial'; font-size:6px;">6</text>
    </g><g ewd:figtype="conn" ewd:code="B79" ewd:figID="38">
      <path d="M 1332.52,172.88 C 1332.52 173.66 1331.89 174.3 1331.1 174.3 C 1330.32 174.3 1329.68 173.67 1329.68 172.88 C 1329.68010742187 172.090009765625 1330.31 171.46 1331.1 171.46 C 1331.88 171.46 1332.52 172.09 1332.52 172.88" style="stroke-linecap:round;stroke-linejoin:round;" />
      <path d="M 1417.56,172.88 C 1417.56 173.66 1416.93 174.3 1416.14 174.3 C 1415.36 174.3 1414.72 173.67 1414.72 172.88 C 1414.71994140625 172.090009765625 1415.35 171.46 1416.14 171.46 C 1416.92 171.46 1417.56 172.09 1417.56 172.88" style="stroke-linecap:round;stroke-linejoin:round;" />
      <path style="fill:none;stroke:#000000;stroke-width:0.85;" d="M 1458.68,181.37 L 1458.68, 172.88 L 1416.14, 172.88" />
      <path style="fill:none;stroke:#000000;stroke-width:0.85;" d="M 1373.64,181.37 L 1373.64, 172.88 L 1331.1, 172.88" />
      <path style="fill:none;stroke:#000000;stroke-width:0.85;" d="M 1416.13,181.37 L 1416.13, 164.36" />
      <path style="fill:none;stroke:#000000;stroke-width:0.85;" d="M 1331.08,181.37 L 1331.08, 164.36" />
      <path style="fill:none;stroke:#000000;stroke-width:1.417;stroke-linecap:round;stroke-linejoin:round;" d="M 1467.16,181.37 L 1467.16, 164.36 L 1322.59, 164.36 L 1322.59, 181.37 L 1467.16, 181.37" />
      <text transform="matrix(1 0 0 1 1447.0195 188.7451)" style="font-family:'Arial'; font-size:6px;">17</text>
      <text transform="matrix(1 0 0 1 1404.5 188.7451)" style="font-family:'Arial'; font-size:6px;">16</text>
      <text transform="matrix(1 0 0 1 1365.3174 188.7451)" style="font-family:'Arial'; font-size:6px;">2</text>
      <text transform="matrix(1 0 0 1 1322.7979 188.7451)" style="font-family:'Arial'; font-size:6px;">3</text>
      <text transform="matrix(1 0 0 1 1404.5 160.3984)" style="font-family:'Arial'; font-size:6px;">15</text>
      <text transform="matrix(1 0 0 1 1322.7979 160.3984)" style="font-family:'Arial'; font-size:6px;">1</text>
      <g ewd:figtype="title">
        <text transform="matrix(0 -1 1 0 1475.1445 181.3867)" style="font-family:'Arial'; font-size:6px;">B79</text>
        <text transform="matrix(0 -1 1 0 1482.2324 181.3867)" style="font-family:'Arial'; font-size:6px;" ewd:textID="14">Junction Connector</text>
      </g>
    </g><g ewd:figtype="gp" ewd:code="B2" ewd:figID="113">
      <path style="fill:none;stroke:#000000;stroke-width:0.85;" d="M 1654.25,708.66 L 1654.25, 711.49" />
      <path style="fill:none;stroke:#000000;stroke-width:0.85;" d="M 1652.83,720 L 1655.67, 720" />
      <path style="fill:none;stroke:#000000;stroke-width:0.85;" d="M 1651.42,717.17 L 1657.09, 717.17" />
      <path style="fill:none;stroke:#000000;stroke-width:0.85;" d="M 1648.58,714.33 L 1659.92, 714.33" />
      <path style="fill:none;stroke:#000000;stroke-width:0.85;" d="M 1645.75,711.5 L 1662.76, 711.5" />
    </g><g ewd:figtype="gp" ewd:code="D5" ewd:figID="114">
      <path style="fill:none;stroke:#000000;stroke-width:0.85;" d="M 1739.29,708.66 L 1739.29, 711.49" />
      <path style="fill:none;stroke:#000000;stroke-width:0.85;" d="M 1737.87,720 L 1740.71, 720" />
      <path style="fill:none;stroke:#000000;stroke-width:0.85;" d="M 1736.46,717.17 L 1742.13, 717.17" />
      <path style="fill:none;stroke:#000000;stroke-width:0.85;" d="M 1733.62,714.33 L 1744.96, 714.33" />
      <path style="fill:none;stroke:#000000;stroke-width:0.85;" d="M 1730.79,711.5 L 1747.8, 711.5" />
    </g><g ewd:figtype="w2w" ewd:code="DB1" ewd:pin_no="10" ewd:figID="82">
      <path style="fill:#FFFFFF;stroke:#FFFFFF;stroke-width:0;stroke-linecap:round;stroke-linejoin:round;" d="M 1743.54,393.1 L 1739.29, 397.35 L 1735.04, 393.1 L 1735.04, 399.65 L 1743.54, 399.65 L 1743.54, 393.1" />
      <path style="fill:#FFFFFF;stroke:#FFFFFF;stroke-width:0;stroke-linecap:round;stroke-linejoin:round;" d="M 1743.54,395.93 L 1739.29, 400.18 L 1735.04, 395.93 L 1735.04, 402.48 L 1743.54, 402.48 L 1743.54, 395.93" />
      <path style="fill:none;stroke:#000000;stroke-width:0.85;" d="M 1743.54,395.4 L 1739.29, 399.65 L 1735.04, 395.4" />
      <path style="fill:none;stroke:#000000;stroke-width:0.85;" d="M 1743.54,398.23 L 1739.29, 402.48 L 1735.04, 398.23" />
      <path style="fill:none;stroke:#000000;stroke-width:0.85;stroke-linecap:round;stroke-linejoin:round;" d="M 1749.21,410.99 L 1749.21, 402.49 L 1729.37, 402.49 L 1729.37, 410.99 L 1749.21, 410.99" />
      <text transform="matrix(1 0 0 1 1721.2783 408.4434)" style="font-family:'Arial'; font-size:6px;">10</text>
    </g><g ewd:figtype="conn" ewd:code="D48,D50" ewd:figID="25">
      <path style="fill:none;stroke:#000000;stroke-width:1.417;stroke-linecap:round;stroke-linejoin:round;" d="M 1934.9,504.54 L 1934.9, 462.02 L 1713.78, 462.02 L 1713.78, 504.54 L 1934.9, 504.54" />
      <g ewd:lineID="86">
        <path style="fill:#FFFFFF;stroke:#000000;stroke-width:0.85;stroke-linecap:round;stroke-linejoin:round;" d="M 1739.29,515.88 C 1742.42 515.88 1744.96 513.34 1744.96 510.21 C 1744.96 507.08 1742.42 504.54 1739.29 504.54 C 1736.160078125 504.540017089844 1733.62 507.08 1733.62 510.21 C 1733.62 513.34 1736.16 515.88 1739.29 515.88" />
        <text transform="matrix(1 0 0 1 1737.2866 511.9141)" style="font-family:'Arial'; font-size:6px;">A</text>
        <text transform="matrix(1 0 0 1 1728.7236 511.9141)" style="font-family:'Arial'; font-size:6px;">3</text>
        <text transform="matrix(1 0 0 1 1732.9551 500.582)" style="font-family:'Arial'; font-size:6px;">RSC</text>
      </g>
      <g ewd:lineID="87">
        <path style="fill:#FFFFFF;stroke:#000000;stroke-width:0.85;stroke-linecap:round;stroke-linejoin:round;" d="M 1832.83,462.02 C 1835.96 462.02 1838.5 459.48 1838.5 456.35 C 1838.5 453.220012207031 1835.96 450.68 1832.83 450.68 C 1829.69991210937 450.679985351562 1827.16 453.22 1827.16 456.35 C 1827.16006835937 459.480012207031 1829.7 462.02 1832.83 462.02" />
        <text transform="matrix(1 0 0 1 1830.8296 458.0596)" style="font-family:'Arial'; font-size:6px;">B</text>
        <text transform="matrix(1 0 0 1 1822.2666 458.0596)" style="font-family:'Arial'; font-size:6px;">3</text>
        <text transform="matrix(1 0 0 1 1826.9976 469.4014)" style="font-family:'Arial'; font-size:6px;">VTA</text>
      </g>
      <g ewd:lineID="88">
        <path style="fill:#FFFFFF;stroke:#000000;stroke-width:0.85;stroke-linecap:round;stroke-linejoin:round;" d="M 1790.31,462.02 C 1793.44 462.02 1795.98 459.48 1795.98 456.35 C 1795.9799609375 453.220012207031 1793.44 450.68 1790.31 450.68 C 1787.1801171875 450.679985351562 1784.64 453.22 1784.64 456.35 C 1784.64002929687 459.480012207031 1787.18 462.02 1790.31 462.02" />
        <text transform="matrix(1 0 0 1 1788.311 458.0596)" style="font-family:'Arial'; font-size:6px;">A</text>
        <text transform="matrix(1 0 0 1 1779.748 458.0596)" style="font-family:'Arial'; font-size:6px;">1</text>
        <text transform="matrix(1 0 0 1 1783.8115 469.4014)" style="font-family:'Arial'; font-size:6px;">RSO</text>
      </g>
      <g ewd:lineID="89">
        <path style="fill:#FFFFFF;stroke:#000000;stroke-width:0.85;stroke-linecap:round;stroke-linejoin:round;" d="M 1875.35,462.02 C 1878.48 462.02 1881.02 459.48 1881.02 456.35 C 1881.02 453.22 1878.48 450.68 1875.35 450.68 C 1872.21995117187 450.679985351562 1869.68 453.22 1869.68 456.35 C 1869.68 459.48 1872.22 462.02 1875.35 462.02" />
        <text transform="matrix(1 0 0 1 1873.3491 458.0557)" style="font-family:'Arial'; font-size:6px;">B</text>
        <text transform="matrix(1 0 0 1 1864.7861 458.0557)" style="font-family:'Arial'; font-size:6px;">1</text>
        <text transform="matrix(1 0 0 1 1871.1841 469.4014)" style="font-family:'Arial'; font-size:6px;">VC</text>
      </g>
      <g ewd:lineID="90">
        <path style="fill:#FFFFFF;stroke:#000000;stroke-width:0.85;stroke-linecap:round;stroke-linejoin:round;" d="M 1917.87,462.02 C 1921 462.02 1923.54 459.48 1923.54 456.35 C 1923.54 453.22 1921 450.68 1917.87 450.68 C 1914.73999023438 450.679985351562 1912.2 453.22 1912.2 456.35 C 1912.2 459.48 1914.74 462.02 1917.87 462.02" />
        <text transform="matrix(1 0 0 1 1915.8696 458.0557)" style="font-family:'Arial'; font-size:6px;">B</text>
        <text transform="matrix(1 0 0 1 1907.3066 458.0557)" style="font-family:'Arial'; font-size:6px;">2</text>
        <text transform="matrix(1 0 0 1 1915.8711 469.4014)" style="font-family:'Arial'; font-size:6px;">E</text>
      </g>
      <g ewd:lineID="97">
        <path style="fill:#FFFFFF;stroke:#000000;stroke-width:0.85;stroke-linecap:round;stroke-linejoin:round;" d="M 1739.29,462.02 C 1742.42 462.02 1744.96 459.48 1744.96 456.35 C 1744.96 453.22 1742.42 450.68 1739.29 450.68 C 1736.160078125 450.679985351562 1733.62 453.22 1733.62 456.35 C 1733.62 459.48 1736.16 462.02 1739.29 462.02" />
        <text transform="matrix(1 0 0 1 1737.2876 458.0557)" style="font-family:'Arial'; font-size:6px;">A</text>
        <text transform="matrix(1 0 0 1 1728.7246 458.0557)" style="font-family:'Arial'; font-size:6px;">2</text>
        <text transform="matrix(1 0 0 1 1737.2881 469.4014)" style="font-family:'Arial'; font-size:6px;">B</text>
      </g>
      <g ewd:figtype="title">
        <text transform="matrix(1 0 0 1 1875.9629 512.7783)" style="font-family:'Arial'; font-size:6px;">D48(A), D50(B)</text>
        <text transform="matrix(1 0 0 1 1875.9629 519.8652)" style="font-family:'Arial'; font-size:6px;" ewd:textID="21">Throttle Body  <tspan x="0" dy="1em">Assembly</tspan></text>
      </g>
    </g><g ewd:figtype="w2w" ewd:code="DO3" ewd:pin_no="12" ewd:figID="116">
      <path style="fill:#FFFFFF;stroke:#FFFFFF;stroke-width:0;stroke-linecap:round;stroke-linejoin:round;" d="M 1471.4,469.64 L 1467.15, 473.89 L 1462.9, 469.64 L 1462.9, 476.19 L 1471.4, 476.19 L 1471.4, 469.64" />
      <path style="fill:#FFFFFF;stroke:#FFFFFF;stroke-width:0;stroke-linecap:round;stroke-linejoin:round;" d="M 1471.4,472.48 L 1467.15, 476.73 L 1462.9, 472.48 L 1462.9, 479.03 L 1471.4, 479.03 L 1471.4, 472.48" />
      <path style="fill:none;stroke:#000000;stroke-width:0.85;" d="M 1471.4,471.94 L 1467.15, 476.19 L 1462.9, 471.94" />
      <path style="fill:none;stroke:#000000;stroke-width:0.85;" d="M 1471.4,474.78 L 1467.15, 479.03 L 1462.9, 474.78" />
      <path style="fill:none;stroke:#000000;stroke-width:0.85;stroke-linecap:round;stroke-linejoin:round;" d="M 1477.07,487.53 L 1477.07, 479.03 L 1457.23, 479.03 L 1457.23, 487.53 L 1477.07, 487.53" />
      <text transform="matrix(1 0 0 1 1449.1377 484.9873)" style="font-family:'Arial'; font-size:6px;">12</text>
    </g><g ewd:figtype="w2w" ewd:code="DO3" ewd:pin_no="20" ewd:figID="117">
      <path style="fill:#FFFFFF;stroke:#FFFFFF;stroke-width:0;stroke-linecap:round;stroke-linejoin:round;" d="M 1522.47,469.64 L 1518.22, 473.89 L 1513.97, 469.64 L 1513.97, 476.19 L 1522.47, 476.19 L 1522.47, 469.64" />
      <path style="fill:#FFFFFF;stroke:#FFFFFF;stroke-width:0;stroke-linecap:round;stroke-linejoin:round;" d="M 1522.47,472.48 L 1518.22, 476.73 L 1513.97, 472.48 L 1513.97, 479.03 L 1522.47, 479.03 L 1522.47, 472.48" />
      <path style="fill:none;stroke:#000000;stroke-width:0.85;" d="M 1522.47,471.94 L 1518.22, 476.19 L 1513.97, 471.94" />
      <path style="fill:none;stroke:#000000;stroke-width:0.85;" d="M 1522.47,474.78 L 1518.22, 479.03 L 1513.97, 474.78" />
      <path style="fill:none;stroke:#000000;stroke-width:0.85;stroke-linecap:round;stroke-linejoin:round;" d="M 1528.14,487.53 L 1528.14, 479.03 L 1508.3, 479.03 L 1508.3, 487.53 L 1528.14, 487.53" />
      <text transform="matrix(1 0 0 1 1500.2031 484.9873)" style="font-family:'Arial'; font-size:6px;">20</text>
    </g><g ewd:figtype="w2w" ewd:code="OB4" ewd:pin_no="8" ewd:comment="2" ewd:figID="118">
      <path style="fill:#FFFFFF;stroke:#FFFFFF;stroke-width:0;stroke-linecap:round;stroke-linejoin:round;" d="M 1420.38,496.92 L 1416.13, 492.67 L 1411.88, 496.92 L 1411.88, 490.37 L 1420.38, 490.37 L 1420.38, 496.92" />
      <path style="fill:#FFFFFF;stroke:#FFFFFF;stroke-width:0;stroke-linecap:round;stroke-linejoin:round;" d="M 1420.38,494.09 L 1416.13, 489.84 L 1411.88, 494.09 L 1411.88, 487.54 L 1420.38, 487.54 L 1420.38, 494.09" />
      <path style="fill:none;stroke:#000000;stroke-width:0.85;" d="M 1420.38,494.62 L 1416.13, 490.37 L 1411.88, 494.62" />
      <path style="fill:none;stroke:#000000;stroke-width:0.85;" d="M 1420.38,491.79 L 1416.13, 487.54 L 1411.88, 491.79" />
      <path style="fill:none;stroke:#000000;stroke-width:0.85;stroke-linecap:round;stroke-linejoin:round;" d="M 1426.05,479.03 L 1426.05, 487.53 L 1406.21, 487.53 L 1406.21, 479.03 L 1426.05, 479.03" />
      <text transform="matrix(1 0 0 1 1428.8857 484.9941)" style="font-family:'Arial'; font-size:6px;">(*2)</text>
      <text transform="matrix(1 0 0 1 1401.4512 484.9873)" style="font-family:'Arial'; font-size:6px;">8</text>
    </g><g ewd:figtype="w2w" ewd:code="OB3" ewd:pin_no="10" ewd:comment="1" ewd:figID="119">
      <path style="fill:none;stroke:#000000;stroke-width:0.85;stroke-linecap:round;stroke-linejoin:round;" d="M 1426.05,470.53 L 1426.05, 479.03 L 1406.21, 479.03 L 1406.21, 470.53 L 1426.05, 470.53" />
      <text transform="matrix(1 0 0 1 1428.8857 476.4902)" style="font-family:'Arial'; font-size:6px;">(*1)</text>
      <text transform="matrix(1 0 0 1 1398.1143 476.4834)" style="font-family:'Arial'; font-size:6px;">10</text>
    </g><text transform="matrix(0 -1 1 0 1327.123 141.7051)" style="font-family:'Arial'; font-size:6px;">W</text><text transform="matrix(0 -1 1 0 1412.1621 140.8745)" style="font-family:'Arial'; font-size:6px;">B</text><text transform="matrix(0 -1 1 0 1327.123 209.7368)" style="font-family:'Arial'; font-size:6px;">W</text><text transform="matrix(0 -1 1 0 1412.1621 208.9063)" style="font-family:'Arial'; font-size:6px;">B</text><text transform="matrix(0 -1 1 0 1327.123 353.4727)" style="font-family:'Arial'; font-size:6px;">B</text><text transform="matrix(0 -1 1 0 1412.1621 353.4727)" style="font-family:'Arial'; font-size:6px;">B</text><text transform="matrix(0 -1 1 0 1412.1621 447.0156)" style="font-family:'Arial'; font-size:6px;">P</text><text transform="matrix(0 -1 1 0 1463.1855 446.6836)" style="font-family:'Arial'; font-size:6px;">L</text><text transform="matrix(0 -1 1 0 1480.2305 353.4727)" style="font-family:'Arial'; font-size:6px;">B</text><text transform="matrix(0 -1 1 0 1267.5947 208.9063)" style="font-family:'Arial'; font-size:6px;">Y</text><text transform="matrix(0 -1 1 0 1531.2539 353.6382)" style="font-family:'Arial'; font-size:6px;">R</text><text transform="matrix(0 -1 1 0 1650.2852 484.8721)" style="font-family:'Arial'; font-size:6px;">W-B</text><text transform="matrix(0 -1 1 0 1650.2881 663.4746)" style="font-family:'Arial'; font-size:6px;">W-B</text><text transform="matrix(0 -1 1 0 1692.8115 192.2285)" style="font-family:'Arial'; font-size:6px;">G</text><text transform="matrix(0 -1 1 0 1735.3311 191.5635)" style="font-family:'Arial'; font-size:6px;">L</text><text transform="matrix(0 -1 1 0 1735.3271 378.6396)" style="font-family:'Arial'; font-size:6px;">L</text><text transform="matrix(0 -1 1 0 1735.3271 429.6631)" style="font-family:'Arial'; font-size:6px;">L</text><text transform="matrix(0 -1 1 0 1735.3271 542.7129)" style="font-family:'Arial'; font-size:6px;">BR</text><text transform="matrix(0 -1 1 0 1735.3086 661.8027)" style="font-family:'Arial'; font-size:6px;">BR</text><text transform="matrix(0 -1 1 0 1463.1855 514.7148)" style="font-family:'Arial'; font-size:6px;">L</text><text transform="matrix(0 -1 1 0 1514.251 515.0479)" style="font-family:'Arial'; font-size:6px;">Y</text><text transform="matrix(0 -1 1 0 1514.251 447.0166)" style="font-family:'Arial'; font-size:6px;">Y</text><text transform="matrix(1 0 0 1 1558.731 202.9355)" style="font-family:'Arial'; font-size:6px;">B</text><text transform="matrix(0 -1 1 0 1412.1621 515.0469)" style="font-family:'Arial'; font-size:6px;">P</text><text transform="matrix(0 -1 1 0 1369.6426 209.7368)" style="font-family:'Arial'; font-size:6px;">W</text><text transform="matrix(0 -1 1 0 1454.6816 208.9063)" style="font-family:'Arial'; font-size:6px;">B</text><text transform="matrix(0 -1 1 0 1675.7998 663.4746)" style="font-family:'Arial'; font-size:6px;">W-B</text><text transform="matrix(0 -1 1 0 1650.293 195.7266)" style="font-family:'Arial'; font-size:6px;">W-B</text><text transform="matrix(1 0 0 1 1558.5654 219.9434)" style="font-family:'Arial'; font-size:6px;">R</text><text transform="matrix(1 0 0 1 1558.731 236.9512)" style="font-family:'Arial'; font-size:6px;">B</text><text transform="matrix(1 0 0 1 1557.9004 253.959)" style="font-family:'Arial'; font-size:6px;">W</text><text transform="matrix(1 0 0 1 1558.731 270.9668)" style="font-family:'Arial'; font-size:6px;">Y</text><text transform="matrix(1 0 0 1 1609.7554 202.9355)" style="font-family:'Arial'; font-size:6px;">B</text><text transform="matrix(1 0 0 1 1609.5898 219.9434)" style="font-family:'Arial'; font-size:6px;">R</text><text transform="matrix(1 0 0 1 1609.7554 236.9512)" style="font-family:'Arial'; font-size:6px;">B</text><text transform="matrix(1 0 0 1 1608.9248 253.959)" style="font-family:'Arial'; font-size:6px;">W</text><text transform="matrix(1 0 0 1 1609.7554 270.9668)" style="font-family:'Arial'; font-size:6px;">Y</text><text transform="matrix(1 0 0 1 1558.7319 568.626)" style="font-family:'Arial'; font-size:6px;">Y</text><text transform="matrix(1 0 0 1 1559.0645 585.6338)" style="font-family:'Arial'; font-size:6px;">L</text><text transform="matrix(1 0 0 1 1558.7319 602.6416)" style="font-family:'Arial'; font-size:6px;">P</text><text transform="matrix(1 0 0 1 1609.7563 568.626)" style="font-family:'Arial'; font-size:6px;">Y</text><text transform="matrix(1 0 0 1 1610.0889 585.6338)" style="font-family:'Arial'; font-size:6px;">L</text><text transform="matrix(1 0 0 1 1609.7563 602.6416)" style="font-family:'Arial'; font-size:6px;">P</text></svg>