﻿<?xml version="1.0" encoding="utf-8"?>
<!-- Generator: Adobe Illustrator 10.0, SVG Export Plug-In . SVG Version: 3.0.0 Build 77)  -->
<!DOCTYPE svg PUBLIC "-//W3C//DTD SVG 1.0//EN" "http://www.w3.org/TR/2001/REC-SVG-20010904/DTD/svg10.dtd"[
   <!ENTITY ns_flows "http://ns.adobe.com/Flows/1.0/">
   <!ENTITY ns_svg "http://www.w3.org/2000/svg">
   <!ENTITY ns_xlink "http://www.w3.org/1999/xlink">
   <!ENTITY st0 "font-size:7px;font-family:'MS-PGothic';adobe-font-script:japanese;">
   <!ENTITY st1 "font-size:6px;font-family:'ArialMT';">
   <!ENTITY st2 "fill:#FFFFFF;stroke:#000000; stroke-width:1.41;stroke-linecap:round;stroke-linejoin:round;">
   <!ENTITY st3 "fill:#FFFFCC;stroke:#FFFFCC; stroke-width:0.1;stroke-linecap:round;stroke-linejoin:round;">
   <!ENTITY st4 "fill:#CCCCCC;stroke:#CCCCCC; stroke-width:0.1;stroke-linecap:round;stroke-linejoin:round;">
   <!ENTITY st5 "fill:#CCECF4;stroke:#000000; stroke-width:1.133;stroke-linecap:round;stroke-linejoin:round;">
   <!ENTITY st6 "fill:none;stroke-linecap:butt; stroke-linejoin:round;">
   <!ENTITY st7 "fill:none;stroke:#000000;stroke-linecap:round;stroke-linejoin:round;">
   <!ENTITY st8 "enable-background:new;">
   <!ENTITY st9 "fill:#000000;stroke:#000000; stroke-linecap:round;stroke-linejoin:round;">
   <!ENTITY st10 "font-size:9px;font-family:'ArialMT';">
   <!ENTITY st11 "font-size:9px;font-family:'Svg Symbol';">
   <!ENTITY st12 "font-size:6px;font-family:'Svg Symbol';">
   <!ENTITY st13 "fill:none;stroke:#ff0000;stroke-linecap:round;stroke-linejoin:round;">
   <!ENTITY st14 "fill:#FFFF00;stroke:#FFFF00; stroke-width:0.1;stroke-linecap:round;stroke-linejoin:round;">
   <!ENTITY st15 "font-size:6px;font-family:'MS-PGothic';adobe-font-script:japanese;">
   <!ENTITY st16 "1.00 0.00 0.00 1.00">
   <!ENTITY st17 "0.00 -1.00 1.00 0.00">
   <!ENTITY st18 "font-size:6px;font-family:'Arial';">
   <!ENTITY st19 "font-size:9px;font-family:'Arial';">
   <!ENTITY st20 "font-size:6px;font-family:'MS-PGothic','MS PGothic';adobe-font-script:japanese;">
   <!ENTITY st21 "font-size:7px;font-family:'MS-PGothic','MS PGothic';adobe-font-script:japanese;">
   <!ATTLIST svg
       xmlns:ewd CDATA #FIXED "http://shcl.co.jp/ewd"
       xmlns:a CDATA #FIXED "http://ns.adobe.com/AdobeSVGViewerExtensions/3.0/"
       ewd:ver CDATA #IMPLIED >
   <!ATTLIST a
       ewd:lineID CDATA #IMPLIED
       ewd:groupID CDATA #IMPLIED
       ewd:figtype CDATA #IMPLIED
       ewd:code CDATA #IMPLIED
       ewd:figID CDATA #IMPLIED
       ewd:pinNo CDATA #IMPLIED
       ewd:comment CDATA #IMPLIED >
   <!ATTLIST g
       ewd:lineID CDATA #IMPLIED
       ewd:groupID CDATA #IMPLIED
       ewd:figtype CDATA #IMPLIED
       ewd:code CDATA #IMPLIED
       ewd:figID CDATA #IMPLIED
       ewd:pinNo CDATA #IMPLIED
       ewd:comment CDATA #IMPLIED >
   <!ATTLIST text
       ewd:textID CDATA #IMPLIED >
   <!ATTLIST title
       ewd:textID CDATA #IMPLIED >
]>
<svg xmlns="http://www.w3.org/2000/svg" xmlns:xlink="http://www.w3.org/1999/xlink" width="3675.34" height="721" viewBox="0 0 3675.34 721" xml:space="preserve" xmlns:ewd="http://shcl.co.jp/ewd" ewd:ver="2.0">
  
  <defs>
    <font horiz-adv-x="1229">
      <font-face font-family="Svg Symbol" units-per-em="2048" panose-1="5 5 1 2 1 7 6 2 5 7" ascent="2059" descent="450" alphabetic="0" />
      <missing-glyph d="M 103,0 l 0,1280 1024,0 0,-1280 -1024,0 z m 32,32 l 960,0 0,1216 -960,0 0,-1216 z" />
      <glyph d4p1:unicode="" horiz-adv-x="1573" d="M 1517,0 l -567,0 24,279 q 141,59 207.5,168 66.5,109 66.5,306 0,272 -132.5,417.5 -132.5,145.5 -333.5,145.5 -194,0 -328,-147.5 -134,-147.5 -134,-401.5 0,-200 68.5,-319 68.5,-119 206.5,-169 l 25,-279 -564,0 0,279 35,0 q 3,-61 32,-83 45,-35 137,-35 l 270,0 0,70 q -210,61 -324.5,209 -114.5,148 -114.5,349 0,252 186.5,425 186.5,173 504.5,173 195,0 358.5,-73.5 163.5,-73.5 252,-214.5 88.5,-141 88.5,-310 0,-207 -121.5,-360.5 -121.5,-153.5 -317.5,-197.5 l -8,-70 275,0 q 92,0 128,28 36,28 42,90 l 38,0 0,-279 z" xmlns:d4p1="def-glyph-attr-unicode" />
    </font>
  </defs>
  
<g ewd:figtype="rb" ewd:code="FUSE150" ewd:figID="11">
      <path style="fill:none;stroke:#000000;stroke-width:0.85;" d="M 67.03,80.75 L 67.03, 87.84" />
      <path style="fill:none;stroke:#000000;stroke-width:0.85;" d="M 67.03,87.84 L 67.03, 102" />
      <path d="M 67.02,102 L 69.85, 99.17 L 69.85, 96.34 L 67.02, 99.17 L 64.18999, 96.34 L 64.18999, 99.17 L 67.02, 102" style="stroke-linecap:round;stroke-linejoin:round;" />
      <path style="fill:none;stroke:#000000;stroke-width:0.85;stroke-linecap:round;stroke-linejoin:round;" d="M 71.28,113.34 C 74.41 113.34 76.95 110.8 76.95 107.67 C 76.95 104.54 74.41 102 71.28 102 L 62.78, 102 C 59.65 102 57.11 104.54 57.11 107.67 C 57.11 110.8 59.65 113.34 62.78 113.34 L 71.28, 113.34" />
      <path style="fill:none;stroke:#000000;stroke-width:0.85;stroke-linecap:round;stroke-linejoin:round;" d="M 67.02,80.75 C 67.8 80.75 68.43999 80.12 68.43999 79.33 C 68.4399843652344 78.5400036621094 67.80999 77.91 67.01999 77.91 C 66.23999 77.91 65.59999 78.54 65.59999 79.33 C 65.5999916894531 80.1200036621094 66.24 80.75 67.02 80.75" />
      <path style="fill:none;stroke:#000000;stroke-width:0.85;stroke-linecap:round;stroke-linejoin:round;" d="M 67.02,55.24 C 67.8 55.24 68.43999 54.61 68.43999 53.82 C 68.4399843652344 53.0299993896484 67.80999 52.4 67.01999 52.4 C 66.23999 52.4 65.59999 53.03 65.59999 53.82 C 65.5999916894531 54.6099993896484 66.24 55.24 67.02 55.24" />
      <path style="fill:none;stroke:#000000;stroke-width:1.417;" d="M 66.02,54.82 C 66.02 54.82 59.95 59.5 67.02 66.57 C 74.0899932861328 73.6399993896484 68.02 78.32 68.02 78.32" />
      <path style="fill:none;stroke:#000000;stroke-width:1.417;stroke-linecap:round;stroke-linejoin:round;" d="M 79.78,87.84 L 79.78, 45.32 L 54.26, 45.32 L 54.26, 87.84 L 79.78, 87.84" />
      <text transform="matrix(1 0 0 1 63.686 109.3735)" style="font-family:'Arial'; font-size:6px;">12</text>
      <text transform="matrix(1 0 0 1 58.7227 95.2129)" style="font-family:'Arial'; font-size:6px;">2</text>
      <text transform="matrix(1 0 0 1 61.855 41.3535)" style="font-family:'Arial'; font-size:6px;">(IG)</text>
      <text transform="matrix(1 0 0 1 82.6104 61.1968)" style="font-family:'Arial'; font-size:6px;">10A<tspan x="0" dy="1em">GAUGE </tspan><tspan x="0" dy="1em">NO.2</tspan></text>
    </g><g ewd:figtype="conn" ewd:code="D56" ewd:figID="35">
      <path style="fill:none;stroke:#000000;stroke-width:0.85;" d="M 115.21,595.26 L 115.21, 583.57" />
      <path style="fill:none;stroke:#000000;stroke-width:0.85;" d="M 115.21,567.27 L 115.21, 555.58" />
      <path style="fill:none;stroke:#000000;stroke-width:1.417;stroke-linecap:round;stroke-linejoin:round;" d="M 126.55,595.26 L 126.55, 555.58 L 103.87, 555.58 L 103.87, 595.26 L 126.55, 595.26" />
      <path style="fill:none;stroke:#000000;stroke-width:0.85;" d="M 115.22,566.92 L 117.68, 568.34 L 112.77, 571.17 L 117.68, 574 L 112.77, 576.84 L 117.68, 579.67 L 112.77, 582.5 L 115.23, 583.92" />
      <path style="fill:none;stroke:#000000;stroke-width:0.85;stroke-linecap:round;stroke-linejoin:round;" d="M 123.72,566.92 C 123.72 562.22 119.91 558.42 115.22 558.42 C 110.52 558.42 106.72 562.23 106.72 566.92 L 106.72, 583.93 C 106.72 588.63 110.53 592.43 115.22 592.43 C 119.92 592.43 123.72 588.62 123.72 583.93 L 123.72, 566.92" />
      <text transform="matrix(1 0 0 1 106.918 602.6406)" style="font-family:'Arial'; font-size:6px;">1</text>
      <text transform="matrix(1 0 0 1 106.918 551.6162)" style="font-family:'Arial'; font-size:6px;">2</text>
      <g ewd:figtype="title">
        <text transform="matrix(0 -1 1 0 134.6396 598.1016)" style="font-family:'Arial'; font-size:6px;">D56</text>
        <text transform="matrix(0 -1 1 0 141.7266 598.1016)" style="font-family:'Arial'; font-size:6px;" ewd:textID="4">A/T Fluid Temp. Sensor</text>
      </g>
    </g><g ewd:figtype="w2w" ewd:code="DO3" ewd:pin_no="21" ewd:figID="97">
      <path style="fill:#FFFFFF;stroke:#FFFFFF;stroke-width:0;stroke-linecap:round;stroke-linejoin:round;" d="M 76.94,469.65 L 72.69, 473.9 L 68.44, 469.65 L 68.44, 476.2 L 76.94, 476.2 L 76.94, 469.65" />
      <path style="fill:#FFFFFF;stroke:#FFFFFF;stroke-width:0;stroke-linecap:round;stroke-linejoin:round;" d="M 76.94,472.49 L 72.69, 476.74 L 68.44, 472.49 L 68.44, 479.04 L 76.94, 479.04 L 76.94, 472.49" />
      <path style="fill:none;stroke:#000000;stroke-width:0.85;" d="M 76.94,471.95 L 72.69, 476.2 L 68.44, 471.95" />
      <path style="fill:none;stroke:#000000;stroke-width:0.85;" d="M 76.94,474.79 L 72.69, 479.04 L 68.44, 474.79" />
      <path style="fill:none;stroke:#000000;stroke-width:0.85;stroke-linecap:round;stroke-linejoin:round;" d="M 82.61,487.54 L 82.61, 479.04 L 62.77, 479.04 L 62.77, 487.54 L 82.61, 487.54" />
      <text transform="matrix(1 0 0 1 54.6758 484.9951)" style="font-family:'Arial'; font-size:6px;">21</text>
    </g><g ewd:figtype="w2w" ewd:code="DO3" ewd:pin_no="18" ewd:figID="98">
      <path style="fill:#FFFFFF;stroke:#FFFFFF;stroke-width:0;stroke-linecap:round;stroke-linejoin:round;" d="M 119.46,469.65 L 115.21, 473.9 L 110.96, 469.65 L 110.96, 476.2 L 119.46, 476.2 L 119.46, 469.65" />
      <path style="fill:#FFFFFF;stroke:#FFFFFF;stroke-width:0;stroke-linecap:round;stroke-linejoin:round;" d="M 119.46,472.49 L 115.21, 476.74 L 110.96, 472.49 L 110.96, 479.04 L 119.46, 479.04 L 119.46, 472.49" />
      <path style="fill:none;stroke:#000000;stroke-width:0.85;" d="M 119.46,471.95 L 115.21, 476.2 L 110.96, 471.95" />
      <path style="fill:none;stroke:#000000;stroke-width:0.85;" d="M 119.46,474.79 L 115.21, 479.04 L 110.96, 474.79" />
      <path style="fill:none;stroke:#000000;stroke-width:0.85;stroke-linecap:round;stroke-linejoin:round;" d="M 125.13,487.54 L 125.13, 479.04 L 105.29, 479.04 L 105.29, 487.54 L 125.13, 487.54" />
      <text transform="matrix(1 0 0 1 97.1953 484.9951)" style="font-family:'Arial'; font-size:6px;">18</text>
    </g><g ewd:figtype="w2w" ewd:code="DO3" ewd:pin_no="7" ewd:figID="99">
      <path style="fill:#FFFFFF;stroke:#FFFFFF;stroke-width:0;stroke-linecap:round;stroke-linejoin:round;" d="M 187.49,469.65 L 183.24, 473.9 L 178.99, 469.65 L 178.99, 476.2 L 187.49, 476.2 L 187.49, 469.65" />
      <path style="fill:#FFFFFF;stroke:#FFFFFF;stroke-width:0;stroke-linecap:round;stroke-linejoin:round;" d="M 187.49,472.49 L 183.24, 476.74 L 178.99, 472.49 L 178.99, 479.04 L 187.49, 479.04 L 187.49, 472.49" />
      <path style="fill:none;stroke:#000000;stroke-width:0.85;" d="M 187.49,471.95 L 183.24, 476.2 L 178.99, 471.95" />
      <path style="fill:none;stroke:#000000;stroke-width:0.85;" d="M 187.49,474.79 L 183.24, 479.04 L 178.99, 474.79" />
      <path style="fill:none;stroke:#000000;stroke-width:0.85;stroke-linecap:round;stroke-linejoin:round;" d="M 193.16,487.54 L 193.16, 479.04 L 173.32, 479.04 L 173.32, 487.54 L 193.16, 487.54" />
      <text transform="matrix(1 0 0 1 168.5635 484.9951)" style="font-family:'Arial'; font-size:6px;">7</text>
    </g><g ewd:figtype="w2w" ewd:code="DO3" ewd:pin_no="14" ewd:figID="100">
      <path style="fill:#FFFFFF;stroke:#FFFFFF;stroke-width:0;stroke-linecap:round;stroke-linejoin:round;" d="M 238.51,469.65 L 234.26, 473.9 L 230.01, 469.65 L 230.01, 476.2 L 238.51, 476.2 L 238.51, 469.65" />
      <path style="fill:#FFFFFF;stroke:#FFFFFF;stroke-width:0;stroke-linecap:round;stroke-linejoin:round;" d="M 238.51,472.49 L 234.26, 476.74 L 230.01, 472.49 L 230.01, 479.04 L 238.51, 479.04 L 238.51, 472.49" />
      <path style="fill:none;stroke:#000000;stroke-width:0.85;" d="M 238.51,471.95 L 234.26, 476.2 L 230.01, 471.95" />
      <path style="fill:none;stroke:#000000;stroke-width:0.85;" d="M 238.51,474.79 L 234.26, 479.04 L 230.01, 474.79" />
      <path style="fill:none;stroke:#000000;stroke-width:0.85;stroke-linecap:round;stroke-linejoin:round;" d="M 244.18,487.54 L 244.18, 479.04 L 224.34, 479.04 L 224.34, 487.54 L 244.18, 487.54" />
      <text transform="matrix(1 0 0 1 216.25 484.9951)" style="font-family:'Arial'; font-size:6px;">14</text>
    </g><g ewd:figtype="conn" ewd:code="D40" ewd:figID="18">
      <path style="fill:none;stroke:#000000;stroke-width:0.85;" d="M 234.27,589.49 L 234.27, 582.08" />
      <path style="fill:none;stroke:#000000;stroke-width:0.85;" d="M 234.27,563.09 L 234.27, 555.6801" />
      <path style="fill:none;stroke:#000000;stroke-width:0.85;" d="M 234.26,562.66 C 236.61 562.66 238.51 564.56 238.51 566.91 C 238.51 569.2599 236.61 571.16 234.26 571.16 C 233 571.16 231.87 570.61 231.09 569.75 L 231.09, 569.74 C 231.87 568.87 233 568.33 234.26 568.33 C 236.61 568.33 238.51 570.23 238.51 572.58 C 238.51 574.93 236.61 576.83 234.26 576.83 C 233 576.83 231.87 576.28 231.09 575.41 L 231.09, 575.41 C 231.87 574.54 233 574 234.26 574 C 236.61 574 238.51 575.9 238.51 578.25 C 238.509989013672 580.6 236.61 582.5 234.26 582.5" />
      <path style="fill:none;stroke:#000000;stroke-width:1.417;stroke-linecap:round;stroke-linejoin:round;" d="M 242.77,564.08 C 242.77 559.38 238.96 555.58 234.27 555.58 C 229.57 555.58 225.77 559.39 225.77 564.08 L 225.77, 581.09 C 225.77 585.79 229.58 589.59 234.27 589.59 C 238.97 589.59 242.77 585.78 242.77 581.09 L 242.77, 564.08" />
      <text transform="matrix(1 0 0 1 225.9658 551.6143)" style="font-family:'Arial'; font-size:6px;">2</text>
      <text transform="matrix(1 0 0 1 225.9658 596.9688)" style="font-family:'Arial'; font-size:6px;">1</text>
      <g ewd:figtype="title">
        <text transform="matrix(0 -1 1 0 249.4346 592.4307)" style="font-family:'Arial'; font-size:6px;">D40</text>
        <text transform="matrix(0 -1 1 0 256.5215 592.4307)" style="font-family:'Arial'; font-size:6px;" ewd:textID="26">Transmission Revolution Sensor <tspan x="0" dy="1em">(Input)</tspan></text>
      </g>
    </g><g ewd:figtype="conn" ewd:code="D37" ewd:figID="20">
      <path style="fill:none;stroke:#000000;stroke-width:1.417;stroke-linecap:round;stroke-linejoin:round;" d="M 245.61,215.39 L 160.57, 215.39 L 160.57, 104.84 L 245.61, 104.84 L 245.61, 215.39" />
      <path style="fill:none;stroke:#000000;stroke-width:1.417;" d="M 196.13,146.28 L 186.77, 163.12" />
      <path d="M 200.26,138.85 L 197.62, 147.11 L 194.65, 145.46 L 200.26, 138.85" style="stroke-linecap:round;stroke-linejoin:round;" />
      <path style="fill:none;stroke:#000000;stroke-width:0.85;stroke-linecap:round;stroke-linejoin:round;" d="M 198.85,138.85 C 198.85 138.07 199.48 137.43 200.27 137.43 C 201.060008544922 137.429985351562 201.69 138.06 201.69 138.85 C 201.690004882813 139.640012207031 201.06 140.27 200.27 140.27 C 199.480008544922 140.270008544922 198.85 139.63 198.85 138.85" />
      <path style="fill:none;stroke:#000000;stroke-width:0.85;" d="M 245.62,121.84 L 200.27, 121.84 L 200.27, 137.43" />
      <path style="fill:none;stroke:#000000;stroke-width:0.85;stroke-linecap:round;stroke-linejoin:round;" d="M 207.35,147.35 C 207.35 146.57 207.98 145.93 208.77 145.93 C 209.560008544922 145.929985351562 210.19 146.56 210.19 147.35 C 210.190004882813 148.140012207031 209.56 148.77 208.77 148.77 C 207.980008544922 148.770008544922 207.35 148.14 207.35 147.35" />
      <path style="fill:none;stroke:#000000;stroke-width:0.85;" d="M 245.62,138.85 L 208.77, 138.85 L 208.77, 145.94" />
      <path style="fill:none;stroke:#000000;stroke-width:0.85;stroke-linecap:round;stroke-linejoin:round;" d="M 215.85,155.86 C 215.85 155.08 216.48 154.44 217.27 154.44 C 218.060008544922 154.440004882813 218.69 155.07 218.69 155.86 C 218.690004882813 156.650001220703 218.06 157.28 217.27 157.28 C 216.480008544922 157.279997558594 215.85 156.64 215.85 155.86" />
      <path style="fill:none;stroke:#000000;stroke-width:0.85;" d="M 218.69,155.86 L 245.62, 155.86" />
      <path style="fill:none;stroke:#000000;stroke-width:0.85;stroke-linecap:round;stroke-linejoin:round;" d="M 198.85,189.87 C 198.85 189.09 199.48 188.45 200.27 188.45 C 201.060008544922 188.449993896484 201.69 189.08 201.69 189.87 C 201.690004882813 190.659990234375 201.06 191.29 200.27 191.29 C 199.480008544922 191.289986572266 198.85 190.66 198.85 189.87" />
      <path style="fill:none;stroke:#000000;stroke-width:0.85;" d="M 245.62,206.88 L 200.27, 206.88 L 200.27, 191.29" />
      <path style="fill:none;stroke:#000000;stroke-width:0.85;stroke-linecap:round;stroke-linejoin:round;" d="M 207.35,181.37 C 207.35 180.59 207.98 179.95 208.77 179.95 C 209.560008544922 179.949993896484 210.19 180.58 210.19 181.37 C 210.190004882813 182.159990234375 209.56 182.79 208.77 182.79 C 207.980008544922 182.789986572266 207.35 182.15 207.35 181.37" />
      <path style="fill:none;stroke:#000000;stroke-width:0.85;" d="M 245.62,189.87 L 208.77, 189.87 L 208.77, 182.78" />
      <path style="fill:none;stroke:#000000;stroke-width:0.85;stroke-linecap:round;stroke-linejoin:round;" d="M 215.85,172.87 C 215.85 172.09 216.48 171.45 217.27 171.45 C 218.060008544922 171.449993896484 218.69 172.08 218.69 172.87 C 218.690004882813 173.659990234375 218.06 174.29 217.27 174.29 C 216.480008544922 174.289986572266 215.85 173.65 215.85 172.87" />
      <path style="fill:none;stroke:#000000;stroke-width:0.85;" d="M 218.69,172.87 L 245.62, 172.87" />
      <path style="fill:none;stroke:#000000;stroke-width:0.85;stroke-linecap:round;stroke-linejoin:round;" d="M 184.67,164.36 C 184.67 163.58 185.3 162.94 186.09 162.94 C 186.87 162.94 187.51 163.57 187.51 164.36 C 187.509989013672 165.150001220703 186.88 165.78 186.09 165.78 C 185.31 165.78 184.67 165.15 184.67 164.36" />
      <path style="fill:none;stroke:#000000;stroke-width:0.85;" d="M 160.58,164.36 L 184.68, 164.36" />
      <text transform="matrix(1 0 0 1 234.2871 118.5889)" style="font-family:'Arial'; font-size:6px;">PL</text>
      <text transform="matrix(1 0 0 1 247.7402 116.4639)" style="font-family:'Arial'; font-size:6px;">6</text>
      <text transform="matrix(1 0 0 1 234.2871 135.5967)" style="font-family:'Arial'; font-size:6px;">RL</text>
      <text transform="matrix(1 0 0 1 247.7402 133.4717)" style="font-family:'Arial'; font-size:6px;">1</text>
      <text transform="matrix(1 0 0 1 234.2871 152.6045)" style="font-family:'Arial'; font-size:6px;">NL</text>
      <text transform="matrix(1 0 0 1 247.7402 150.4795)" style="font-family:'Arial'; font-size:6px;">9</text>
      <text transform="matrix(1 0 0 1 234.2871 169.6123)" style="font-family:'Arial'; font-size:6px;">DL</text>
      <text transform="matrix(1 0 0 1 247.7402 167.4873)" style="font-family:'Arial'; font-size:6px;">7</text>
      <text transform="matrix(1 0 0 1 234.2871 186.6201)" style="font-family:'Arial'; font-size:6px;">2L</text>
      <text transform="matrix(1 0 0 1 247.7402 184.4951)" style="font-family:'Arial'; font-size:6px;">3</text>
      <text transform="matrix(1 0 0 1 234.2871 203.6284)" style="font-family:'Arial'; font-size:6px;">LL</text>
      <text transform="matrix(1 0 0 1 247.7402 201.5034)" style="font-family:'Arial'; font-size:6px;">8</text>
      <text transform="matrix(1 0 0 1 163.4131 161.1094)" style="font-family:'Arial'; font-size:6px;">RB</text>
      <text transform="matrix(1 0 0 1 155.1152 158.9834)" style="font-family:'Arial'; font-size:6px;">2</text>
      <g ewd:figtype="title">
        <text transform="matrix(1 0 0 1 160.5488 223.4878)" style="font-family:'Arial'; font-size:6px;">D37</text>
        <text transform="matrix(1 0 0 1 160.5488 230.5747)" style="font-family:'Arial'; font-size:6px;" ewd:textID="15">Park/Neutral Position SW</text>
      </g>
    </g><g ewd:figtype="w2w" ewd:code="DB3" ewd:pin_no="8" ewd:figID="76">
      <path style="fill:#FFFFFF;stroke:#FFFFFF;stroke-width:0;stroke-linecap:round;stroke-linejoin:round;" d="M 80.31,160.12 L 84.56, 164.37 L 80.31, 168.62 L 86.86, 168.62 L 86.86, 160.12 L 80.31, 160.12" />
      <path style="fill:#FFFFFF;stroke:#FFFFFF;stroke-width:0;stroke-linecap:round;stroke-linejoin:round;" d="M 83.14,160.12 L 87.39, 164.37 L 83.14, 168.62 L 89.69, 168.62 L 89.69, 160.12 L 83.14, 160.12" />
      <path style="fill:none;stroke:#000000;stroke-width:0.85;" d="M 82.61,160.12 L 86.86, 164.37 L 82.61, 168.62" />
      <path style="fill:none;stroke:#000000;stroke-width:0.85;" d="M 85.44,160.12 L 89.69, 164.37 L 85.44, 168.62" />
      <path style="fill:none;stroke:#000000;stroke-width:0.85;stroke-linecap:round;stroke-linejoin:round;" d="M 89.7,168.63 L 89.7, 160.13 L 109.54, 160.13 L 109.54, 168.63 L 89.7, 168.63" />
      <text transform="matrix(1 0 0 1 97.9487 157.9321)" style="font-family:'Arial'; font-size:6px;">8</text>
    </g><g ewd:figtype="conn" ewd:code="O1,O2,O3" ewd:figID="46">
      <path style="fill:none;stroke:#000000;stroke-width:1.417;stroke-linecap:round;stroke-linejoin:round;" d="M 33,419.51 L 33, 376.99 L 1552.2, 376.99 L 1552.2, 419.51 L 33, 419.51" />
      <g ewd:lineID="101">
        <path style="fill:#FFFFFF;stroke:#000000;stroke-width:0.85;stroke-linecap:round;stroke-linejoin:round;" d="M 1518.18,430.85 C 1521.31 430.85 1523.85 428.31 1523.85 425.18 C 1523.85 422.05 1521.31 419.51 1518.18 419.51 C 1515.05010742188 419.51001953125 1512.51 422.05 1512.51 425.18 C 1512.52 428.31 1515.05 430.85 1518.18 430.85" />
        <text transform="matrix(1 0 0 1 1510.8511 415.5508)" style="font-family:'Arial'; font-size:6px;">CAN-</text>
        <text transform="matrix(1 0 0 1 1516.1826 426.8848)" style="font-family:'Arial'; font-size:6px;">A</text>
        <text transform="matrix(1 0 0 1 1504.2832 426.8848)" style="font-family:'Arial'; font-size:6px;">20</text>
      </g>
      <g ewd:lineID="104">
        <path style="fill:#FFFFFF;stroke:#000000;stroke-width:0.85;stroke-linecap:round;stroke-linejoin:round;" d="M 1467.16,430.85 C 1470.29 430.85 1472.83 428.31 1472.83 425.18 C 1472.83 422.05 1470.29 419.51 1467.16 419.51 C 1464.03006835938 419.51001953125 1461.49 422.05 1461.49 425.18 C 1461.49 428.31 1464.03 430.85 1467.16 430.85" />
        <text transform="matrix(1 0 0 1 1459.0747 415.5508)" style="font-family:'Arial'; font-size:6px;">CAN+</text>
        <text transform="matrix(1 0 0 1 1465.1592 426.8848)" style="font-family:'Arial'; font-size:6px;">A</text>
        <text transform="matrix(1 0 0 1 1453.2598 426.8848)" style="font-family:'Arial'; font-size:6px;">21</text>
      </g>
      <g ewd:lineID="107">
        <path style="fill:#FFFFFF;stroke:#000000;stroke-width:0.85;stroke-linecap:round;stroke-linejoin:round;" d="M 1416.14,376.99 C 1419.27 376.99 1421.81 374.45 1421.81 371.32 C 1421.81 368.19 1419.27 365.65 1416.14 365.65 C 1413.01002929688 365.649987792969 1410.47 368.19 1410.47 371.32 C 1410.47 374.45 1413.01 376.99 1416.14 376.99" />
        <text transform="matrix(1 0 0 1 1411.3018 384.3701)" style="font-family:'Arial'; font-size:6px;">IG2</text>
        <text transform="matrix(1 0 0 1 1414.1357 373.0264)" style="font-family:'Arial'; font-size:6px;">A</text>
        <text transform="matrix(1 0 0 1 1405.5732 373.0264)" style="font-family:'Arial'; font-size:6px;">6</text>
      </g>
      <g ewd:lineID="117">
        <path style="fill:#FFFFFF;stroke:#000000;stroke-width:0.85;stroke-linecap:round;stroke-linejoin:round;" d="M 1229.05,376.99 C 1232.18 376.99 1234.72 374.45 1234.72 371.32 C 1234.72 368.19 1232.18 365.65 1229.05 365.65 C 1225.92009765625 365.649987792969 1223.38 368.19 1223.38 371.32 C 1223.38 374.45 1225.92 376.99 1229.05 376.99" />
        <text transform="matrix(1 0 0 1 1223.2153 384.3701)" style="font-family:'Arial'; font-size:6px;">STP</text>
        <text transform="matrix(1 0 0 1 1227.0488 373.0264)" style="font-family:'Arial'; font-size:6px;">A</text>
        <text transform="matrix(1 0 0 1 1215.1494 373.0264)" style="font-family:'Arial'; font-size:6px;">14</text>
      </g>
      <g ewd:lineID="118">
        <path style="fill:#FFFFFF;stroke:#000000;stroke-width:0.85;stroke-linecap:round;stroke-linejoin:round;" d="M 1331.1,376.99 C 1334.23 376.99 1336.77 374.45 1336.77 371.32 C 1336.77 368.19 1334.23 365.65 1331.1 365.65 C 1327.96995117187 365.649987792969 1325.43 368.19 1325.43 371.32 C 1325.43 374.45 1327.97 376.99 1331.1 376.99" />
        <text transform="matrix(1 0 0 1 1323.4307 384.3701)" style="font-family:'Arial'; font-size:6px;">BATT</text>
        <text transform="matrix(1 0 0 1 1329.0967 373.0264)" style="font-family:'Arial'; font-size:6px;">A</text>
        <text transform="matrix(1 0 0 1 1320.5342 373.0264)" style="font-family:'Arial'; font-size:6px;">5</text>
      </g>
      <g ewd:lineID="121">
        <path style="fill:#FFFFFF;stroke:#000000;stroke-width:0.85;stroke-linecap:round;stroke-linejoin:round;" d="M 302.29,430.85 C 305.42 430.85 307.96 428.31 307.96 425.18 C 307.96 422.05 305.42 419.51 302.29 419.51 C 299.160017089844 419.51001953125 296.62 422.05 296.62 425.18 C 296.63 428.31 299.16 430.85 302.29 430.85" />
        <text transform="matrix(1 0 0 1 294.8726 415.5508)" style="font-family:'Arial'; font-size:6px;">SP2+</text>
        <text transform="matrix(1 0 0 1 300.1284 426.8848)" style="font-family:'Arial'; font-size:6px;">C</text>
        <text transform="matrix(1 0 0 1 288.3945 426.8848)" style="font-family:'Arial'; font-size:6px;">30</text>
      </g>
      <g ewd:lineID="124">
        <path style="fill:#FFFFFF;stroke:#000000;stroke-width:0.85;stroke-linecap:round;stroke-linejoin:round;" d="M 353.32,430.85 C 356.45 430.85 358.99 428.31 358.99 425.18 C 358.99 422.05 356.45 419.51 353.32 419.51 C 350.190014648438 419.51001953125 347.65 422.05 347.65 425.18 C 347.65 428.31 350.19 430.85 353.32 430.85" />
        <text transform="matrix(1 0 0 1 346.6499 415.5508)" style="font-family:'Arial'; font-size:6px;">SP2-</text>
        <text transform="matrix(1 0 0 1 351.1528 426.8848)" style="font-family:'Arial'; font-size:6px;">C</text>
        <text transform="matrix(1 0 0 1 339.4189 426.8848)" style="font-family:'Arial'; font-size:6px;">29</text>
      </g>
      <g ewd:lineID="125">
        <path style="fill:#FFFFFF;stroke:#000000;stroke-width:0.85;stroke-linecap:round;stroke-linejoin:round;" d="M 183.24,430.85 C 186.37 430.85 188.91 428.31 188.91 425.18 C 188.91 422.05 186.37 419.51 183.24 419.51 C 180.110010986328 419.51001953125 177.57 422.05 177.57 425.18 C 177.57 428.31 180.11 430.85 183.24 430.85" />
        <text transform="matrix(1 0 0 1 174.8208 415.5508)" style="font-family:'Arial'; font-size:6px;">NCO+</text>
        <text transform="matrix(1 0 0 1 181.0728 426.8848)" style="font-family:'Arial'; font-size:6px;">C</text>
        <text transform="matrix(1 0 0 1 172.6758 426.8848)" style="font-family:'Arial'; font-size:6px;">3</text>
      </g>
      <g ewd:lineID="128">
        <path style="fill:#FFFFFF;stroke:#000000;stroke-width:0.85;stroke-linecap:round;stroke-linejoin:round;" d="M 234.26,430.85 C 237.39 430.85 239.93 428.31 239.93 425.18 C 239.93 422.05 237.39 419.51 234.26 419.51 C 231.129989013672 419.51001953125 228.59 422.05 228.59 425.18 C 228.6 428.31 231.13 430.85 234.26 430.85" />
        <text transform="matrix(1 0 0 1 226.5981 415.5508)" style="font-family:'Arial'; font-size:6px;">NCO-</text>
        <text transform="matrix(1 0 0 1 232.0972 426.8848)" style="font-family:'Arial'; font-size:6px;">C</text>
        <text transform="matrix(1 0 0 1 223.7002 426.8848)" style="font-family:'Arial'; font-size:6px;">2</text>
      </g>
      <g ewd:lineID="129">
        <path style="fill:#FFFFFF;stroke:#000000;stroke-width:0.85;stroke-linecap:round;stroke-linejoin:round;" d="M 72.69,430.84 C 75.82 430.84 78.36 428.3 78.36 425.17 C 78.36 422.04 75.82 419.5 72.69 419.5 C 69.5600048828125 419.5 67.02 422.04 67.02 425.17 C 67.02 428.31 69.56 430.84 72.69 430.84" />
        <text transform="matrix(1 0 0 1 69.019 415.5508)" style="font-family:'Arial'; font-size:6px;">E2</text>
        <text transform="matrix(1 0 0 1 70.522 426.8838)" style="font-family:'Arial'; font-size:6px;">C</text>
        <text transform="matrix(1 0 0 1 58.7881 426.8838)" style="font-family:'Arial'; font-size:6px;">23</text>
      </g>
      <g ewd:lineID="132">
        <path style="fill:#FFFFFF;stroke:#000000;stroke-width:0.85;stroke-linecap:round;stroke-linejoin:round;" d="M 115.21,430.84 C 118.34 430.84 120.88 428.3 120.88 425.17 C 120.88 422.04 118.34 419.5 115.21 419.5 C 112.079998168945 419.5 109.54 422.04 109.54 425.17 C 109.54 428.31 112.08 430.84 115.21 430.84" />
        <text transform="matrix(1 0 0 1 106.709 415.5508)" style="font-family:'Arial'; font-size:6px;">THOC</text>
        <text transform="matrix(1 0 0 1 113.0415 426.8838)" style="font-family:'Arial'; font-size:6px;">C</text>
        <text transform="matrix(1 0 0 1 101.3076 426.8838)" style="font-family:'Arial'; font-size:6px;">24</text>
      </g>
      <g ewd:lineID="133">
        <path style="fill:#FFFFFF;stroke:#000000;stroke-width:0.85;stroke-linecap:round;stroke-linejoin:round;" d="M 806.85,430.85 C 809.98 430.85 812.52 428.31 812.52 425.18 C 812.5200390625 422.049985351563 809.98 419.51 806.85 419.51 C 803.719951171875 419.51001953125 801.18 422.05 801.18 425.18 C 801.179985351563 428.309985351562 803.72 430.85 806.85 430.85" />
        <text transform="matrix(1 0 0 1 803.1821 415.5459)" style="font-family:'Arial'; font-size:6px;">S2</text>
        <text transform="matrix(1 0 0 1 804.6851 426.8848)" style="font-family:'Arial'; font-size:6px;">C</text>
        <text transform="matrix(1 0 0 1 792.9502 426.8848)" style="font-family:'Arial'; font-size:6px;">17</text>
      </g>
      <g ewd:lineID="135">
        <path style="fill:#FFFFFF;stroke:#000000;stroke-width:0.85;stroke-linecap:round;stroke-linejoin:round;" d="M 721.81,430.85 C 724.94 430.85 727.48 428.31 727.48 425.18 C 727.4799609375 422.049985351563 724.94 419.51 721.81 419.51 C 718.679995117187 419.51001953125 716.14 422.05 716.14 425.18 C 716.140029296875 428.309985351562 718.68 430.85 721.81 430.85" />
        <text transform="matrix(1 0 0 1 718.1431 415.5459)" style="font-family:'Arial'; font-size:6px;">SL</text>
        <text transform="matrix(1 0 0 1 719.646 426.8848)" style="font-family:'Arial'; font-size:6px;">C</text>
        <text transform="matrix(1 0 0 1 707.9111 426.8848)" style="font-family:'Arial'; font-size:6px;">16</text>
      </g>
      <g ewd:lineID="137">
        <path style="fill:#FFFFFF;stroke:#000000;stroke-width:0.85;stroke-linecap:round;stroke-linejoin:round;" d="M 764.33,430.85 C 767.46 430.85 770 428.31 770 425.18 C 770 422.049985351563 767.46 419.51 764.33 419.51 C 761.200034179687 419.51001953125 758.66 422.05 758.66 425.18 C 758.659946289063 428.309985351562 761.2 430.85 764.33 430.85" />
        <text transform="matrix(1 0 0 1 760.6626 415.5459)" style="font-family:'Arial'; font-size:6px;">S1</text>
        <text transform="matrix(1 0 0 1 762.1655 426.8848)" style="font-family:'Arial'; font-size:6px;">C</text>
        <text transform="matrix(1 0 0 1 750.4307 426.8848)" style="font-family:'Arial'; font-size:6px;">18</text>
      </g>
      <g ewd:lineID="139">
        <path style="fill:#FFFFFF;stroke:#000000;stroke-width:0.85;stroke-linecap:round;stroke-linejoin:round;" d="M 679.29,430.85 C 682.42 430.85 684.96 428.31 684.96 425.18 C 684.960043945312 422.049985351563 682.42 419.51 679.29 419.51 C 676.159956054688 419.51001953125 673.62 422.05 673.62 425.18 C 673.619990234375 428.309985351562 676.16 430.85 679.29 430.85" />
        <text transform="matrix(1 0 0 1 672.792 415.5459)" style="font-family:'Arial'; font-size:6px;">SLT-</text>
        <text transform="matrix(1 0 0 1 677.1265 426.8848)" style="font-family:'Arial'; font-size:6px;">C</text>
        <text transform="matrix(1 0 0 1 665.3916 426.8848)" style="font-family:'Arial'; font-size:6px;">19</text>
      </g>
      <g ewd:lineID="14">
        <path style="fill:#FFFFFF;stroke:#000000;stroke-width:0.85;stroke-linecap:round;stroke-linejoin:round;" d="M 1416.14,430.85 C 1419.27 430.85 1421.81 428.31 1421.81 425.18 C 1421.81 422.05 1419.27 419.51 1416.14 419.51 C 1413.01002929688 419.51001953125 1410.47 422.05 1410.47 425.18 C 1410.47 428.31 1413.01 430.85 1416.14 430.85" />
        <text transform="matrix(1 0 0 1 1408.3003 415.5508)" style="font-family:'Arial'; font-size:6px;">SPD1</text>
        <text transform="matrix(1 0 0 1 1414.1357 426.8848)" style="font-family:'Arial'; font-size:6px;">A</text>
        <text transform="matrix(1 0 0 1 1402.2363 426.8848)" style="font-family:'Arial'; font-size:6px;">25</text>
      </g>
      <g ewd:lineID="142">
        <path style="fill:#FFFFFF;stroke:#000000;stroke-width:0.85;stroke-linecap:round;stroke-linejoin:round;" d="M 636.77,430.85 C 639.9 430.85 642.44 428.31 642.44 425.18 C 642.440004882812 422.049985351563 639.9 419.51 636.77 419.51 C 633.6400390625 419.51001953125 631.1 422.05 631.1 425.18 C 631.099951171875 428.309985351562 633.64 430.85 636.77 430.85" />
        <text transform="matrix(1 0 0 1 629.5195 415.5459)" style="font-family:'Arial'; font-size:6px;">SLT+</text>
        <text transform="matrix(1 0 0 1 634.6069 426.8848)" style="font-family:'Arial'; font-size:6px;">C</text>
        <text transform="matrix(1 0 0 1 622.8721 426.8848)" style="font-family:'Arial'; font-size:6px;">20</text>
      </g>
      <g ewd:lineID="145">
        <path style="fill:#FFFFFF;stroke:#000000;stroke-width:0.85;stroke-linecap:round;stroke-linejoin:round;" d="M 815.38,376.99 C 818.51 376.99 821.05 374.45 821.05 371.32 C 821.05 368.19 818.51 365.65 815.38 365.65 C 812.250009765625 365.649987792969 809.71 368.19 809.71 371.32 C 809.71 374.45 812.25 376.99 815.38 376.99" />
        <text transform="matrix(1 0 0 1 813.2129 384.3701)" style="font-family:'Arial'; font-size:6px;">D</text>
        <text transform="matrix(1 0 0 1 813.3779 373.0264)" style="font-family:'Arial'; font-size:6px;">B</text>
        <text transform="matrix(1 0 0 1 804.8154 373.0264)" style="font-family:'Arial'; font-size:6px;">8</text>
      </g>
      <g ewd:lineID="147">
        <path style="fill:#FFFFFF;stroke:#000000;stroke-width:0.85;stroke-linecap:round;stroke-linejoin:round;" d="M 764.36,376.99 C 767.49 376.99 770.03 374.45 770.03 371.32 C 770.03 368.19 767.4901 365.65 764.36 365.65 C 761.229870703125 365.649987792969 758.69 368.19 758.69 371.32 C 758.69 374.45 761.22 376.99 764.36 376.99" />
        <text transform="matrix(1 0 0 1 762.355 384.3701)" style="font-family:'Arial'; font-size:6px;">P</text>
        <text transform="matrix(1 0 0 1 762.189 373.0264)" style="font-family:'Arial'; font-size:6px;">C</text>
        <text transform="matrix(1 0 0 1 750.4551 373.0264)" style="font-family:'Arial'; font-size:6px;">13</text>
      </g>
      <g ewd:lineID="152">
        <path style="fill:#FFFFFF;stroke:#000000;stroke-width:0.85;stroke-linecap:round;stroke-linejoin:round;" d="M 721.84,376.99 C 724.97 376.99 727.51 374.45 727.51 371.32 C 727.51 368.19 724.97 365.65 721.84 365.65 C 718.710053710937 365.649987792969 716.17 368.19 716.17 371.32 C 716.17 374.45 718.71 376.99 721.84 376.99" />
        <text transform="matrix(1 0 0 1 719.6699 384.3701)" style="font-family:'Arial'; font-size:6px;">R</text>
        <text transform="matrix(1 0 0 1 719.835 373.0264)" style="font-family:'Arial'; font-size:6px;">B</text>
        <text transform="matrix(1 0 0 1 711.2725 373.0264)" style="font-family:'Arial'; font-size:6px;">9</text>
      </g>
      <g ewd:lineID="157">
        <path style="fill:#FFFFFF;stroke:#000000;stroke-width:0.85;stroke-linecap:round;stroke-linejoin:round;" d="M 679.32,376.99 C 682.45 376.99 684.99 374.45 684.99 371.32 C 684.99 368.19 682.45 365.65 679.32 365.65 C 676.190014648437 365.649987792969 673.65 368.19 673.65 371.32 C 673.65 374.45 676.19 376.99 679.32 376.99" />
        <text transform="matrix(1 0 0 1 677.1504 384.3701)" style="font-family:'Arial'; font-size:6px;">N</text>
        <text transform="matrix(1 0 0 1 677.1499 373.0264)" style="font-family:'Arial'; font-size:6px;">C</text>
        <text transform="matrix(1 0 0 1 665.416 373.0264)" style="font-family:'Arial'; font-size:6px;">14</text>
      </g>
      <g ewd:lineID="164">
        <path style="fill:#FFFFFF;stroke:#000000;stroke-width:0.85;stroke-linecap:round;stroke-linejoin:round;" d="M 874.91,376.99 C 878.04 376.99 880.58 374.45 880.58 371.32 C 880.58 368.19 878.04 365.65 874.91 365.65 C 871.779946289063 365.649987792969 869.24 368.19 869.24 371.32 C 869.24 374.45 871.78 376.99 874.91 376.99" />
        <text transform="matrix(1 0 0 1 873.2383 384.3701)" style="font-family:'Arial'; font-size:6px;">3</text>
        <text transform="matrix(1 0 0 1 872.9053 373.0264)" style="font-family:'Arial'; font-size:6px;">B</text>
        <text transform="matrix(1 0 0 1 861.0059 373.0264)" style="font-family:'Arial'; font-size:6px;">12</text>
      </g>
      <g ewd:lineID="169">
        <path style="fill:#FFFFFF;stroke:#000000;stroke-width:0.85;stroke-linecap:round;stroke-linejoin:round;" d="M 636.8,376.99 C 639.93 376.99 642.47 374.45 642.47 371.32 C 642.47 368.19 639.93 365.65 636.8 365.65 C 633.669975585938 365.649987792969 631.13 368.19 631.13 371.32 C 631.13 374.45 633.67 376.99 636.8 376.99" />
        <text transform="matrix(1 0 0 1 635.1289 384.3701)" style="font-family:'Arial'; font-size:6px;">2</text>
        <text transform="matrix(1 0 0 1 634.7959 373.0264)" style="font-family:'Arial'; font-size:6px;">B</text>
        <text transform="matrix(1 0 0 1 622.8965 373.0264)" style="font-family:'Arial'; font-size:6px;">11</text>
      </g>
      <g ewd:lineID="171">
        <path style="fill:#FFFFFF;stroke:#000000;stroke-width:0.85;stroke-linecap:round;stroke-linejoin:round;" d="M 594.28,376.99 C 597.41 376.99 599.95 374.45 599.95 371.32 C 599.95 368.19 597.41 365.65 594.28 365.65 C 591.15005859375 365.649987792969 588.61 368.19 588.61 371.32 C 588.61 374.45 591.15 376.99 594.28 376.99" />
        <text transform="matrix(1 0 0 1 592.6094 384.3701)" style="font-family:'Arial'; font-size:6px;">L</text>
        <text transform="matrix(1 0 0 1 592.2764 373.0264)" style="font-family:'Arial'; font-size:6px;">B</text>
        <text transform="matrix(1 0 0 1 580.377 373.0264)" style="font-family:'Arial'; font-size:6px;">10</text>
      </g>
      <g ewd:lineID="173">
        <path style="fill:#FFFFFF;stroke:#000000;stroke-width:0.85;stroke-linecap:round;stroke-linejoin:round;" d="M 968.45,430.84 C 971.58 430.84 974.12 428.3 974.12 425.17 C 974.12 422.04 971.58 419.5 968.45 419.5 C 965.320024414062 419.5 962.78 422.04 962.78 425.17 C 962.79 428.31 965.32 430.84 968.45 430.84" />
        <text transform="matrix(1 0 0 1 964.7847 415.5498)" style="font-family:'Arial'; font-size:6px;">E1</text>
        <text transform="matrix(1 0 0 1 966.2876 426.8838)" style="font-family:'Arial'; font-size:6px;">C</text>
        <text transform="matrix(1 0 0 1 957.8906 426.8838)" style="font-family:'Arial'; font-size:6px;">1</text>
      </g>
      <g ewd:lineID="176">
        <path style="fill:#FFFFFF;stroke:#000000;stroke-width:0.85;stroke-linecap:round;stroke-linejoin:round;" d="M 925.93,430.84 C 929.06 430.84 931.6 428.3 931.6 425.17 C 931.6 422.04 929.06 419.5 925.93 419.5 C 922.799985351563 419.5 920.26 422.04 920.26 425.17 C 920.27 428.31 922.8 430.84 925.93 430.84" />
        <text transform="matrix(1 0 0 1 920.5967 415.5498)" style="font-family:'Arial'; font-size:6px;">E01</text>
        <text transform="matrix(1 0 0 1 923.7681 426.8838)" style="font-family:'Arial'; font-size:6px;">C</text>
        <text transform="matrix(1 0 0 1 912.0342 426.8838)" style="font-family:'Arial'; font-size:6px;">10</text>
      </g>
      <g ewd:lineID="82">
        <path style="fill:#FFFFFF;stroke:#000000;stroke-width:0.85;stroke-linecap:round;stroke-linejoin:round;" d="M 1484.21,376.99 C 1487.34 376.99 1489.88 374.45 1489.88 371.32 C 1489.88 368.19 1487.34 365.65 1484.21 365.65 C 1481.079921875 365.649987792969 1478.54 368.19 1478.54 371.32 C 1478.54 374.45 1481.07 376.99 1484.21 376.99" />
        <text transform="matrix(1 0 0 1 1477.2061 384.3701)" style="font-family:'Arial'; font-size:6px;">NSW</text>
        <text transform="matrix(1 0 0 1 1482.0386 373.0264)" style="font-family:'Arial'; font-size:6px;">C</text>
        <text transform="matrix(1 0 0 1 1470.3047 373.0264)" style="font-family:'Arial'; font-size:6px;">12</text>
      </g>
      <g ewd:lineID="9">
        <path style="fill:#FFFFFF;stroke:#000000;stroke-width:0.85;stroke-linecap:round;stroke-linejoin:round;" d="M 1535.23,376.99 C 1538.36 376.99 1540.9 374.45 1540.9 371.32 C 1540.9 368.19 1538.36 365.65 1535.23 365.65 C 1532.0999609375 365.649987792969 1529.56 368.19 1529.56 371.32 C 1529.56 374.45 1532.1 376.99 1535.23 376.99" />
        <text transform="matrix(1 0 0 1 1529.394 384.3701)" style="font-family:'Arial'; font-size:6px;">STA</text>
        <text transform="matrix(1 0 0 1 1533.062 373.0264)" style="font-family:'Arial'; font-size:6px;">C</text>
        <text transform="matrix(1 0 0 1 1521.3281 373.0264)" style="font-family:'Arial'; font-size:6px;">11</text>
      </g>
      <g ewd:figtype="title">
        <text transform="matrix(1 0 0 1 784.1748 396.4102)" style="font-family:'Arial'; font-size:6px;">O1(C), O2(B), O3(A)</text>
        <text transform="matrix(1 0 0 1 784.1748 403.4971)" style="font-family:'Arial'; font-size:6px;" ewd:textID="24">Transmission Control ECU</text>
      </g>
      <g ewd:figtype="title">
        <text transform="matrix(1 0 0 1 248.1953 396.4102)" style="font-family:'Arial'; font-size:6px;">O1(C), O2(B), O3(A)</text>
        <text transform="matrix(1 0 0 1 248.1953 403.4971)" style="font-family:'Arial'; font-size:6px;" ewd:textID="24">Transmission Control ECU</text>
      </g>
      <g ewd:figtype="title">
        <text transform="matrix(1 0 0 1 1299.6846 396.4102)" style="font-family:'Arial'; font-size:6px;">O1(C), O2(B), O3(A)</text>
        <text transform="matrix(1 0 0 1 1299.6846 403.4971)" style="font-family:'Arial'; font-size:6px;" ewd:textID="24">Transmission Control ECU</text>
      </g>
    </g><g ewd:figtype="comment" ewd:code="2" ewd:figID="1005">
      <text transform="matrix(1 0 0 1 15.9355 22.2158)" style="font-family:'Arial'; font-size:6px;">*2 : RHD</text>
    </g><g ewd:figtype="comment" ewd:code="1" ewd:figID="1004">
      <text transform="matrix(1 0 0 1 15.9355 13.7119)" style="font-family:'Arial'; font-size:6px;">*1 : LHD</text>
    </g><text transform="matrix(1 0 0 1 132.8989 160.3999)" style="font-family:'Arial'; font-size:6px;">R</text><text transform="matrix(0 -1 1 0 68.7236 447.0234)" style="font-family:'Arial'; font-size:6px;">Y</text><text transform="matrix(0 -1 1 0 111.2432 446.6914)" style="font-family:'Arial'; font-size:6px;">L</text><text transform="matrix(0 -1 1 0 68.7236 515.0547)" style="font-family:'Arial'; font-size:6px;">Y</text><text transform="matrix(0 -1 1 0 111.2432 514.7227)" style="font-family:'Arial'; font-size:6px;">L</text><text transform="matrix(0 -1 1 0 179.2754 446.6895)" style="font-family:'Arial'; font-size:6px;">L</text><text transform="matrix(0 -1 1 0 179.2754 506.2227)" style="font-family:'Arial'; font-size:6px;">L</text><text transform="matrix(0 -1 1 0 230.3047 447.0215)" style="font-family:'Arial'; font-size:6px;">Y</text><text transform="matrix(0 -1 1 0 230.3047 506.5547)" style="font-family:'Arial'; font-size:6px;">Y</text><text transform="matrix(0 -1 1 0 63.0684 140.5303)" style="font-family:'Arial'; font-size:6px;">L</text></svg>