﻿<?xml version="1.0" encoding="utf-8"?>
<!-- Generator: Adobe Illustrator 10.0, SVG Export Plug-In . SVG Version: 3.0.0 Build 77)  -->
<!DOCTYPE svg PUBLIC "-//W3C//DTD SVG 1.0//EN" "http://www.w3.org/TR/2001/REC-SVG-20010904/DTD/svg10.dtd"[
   <!ENTITY ns_flows "http://ns.adobe.com/Flows/1.0/">
   <!ENTITY ns_svg "http://www.w3.org/2000/svg">
   <!ENTITY ns_xlink "http://www.w3.org/1999/xlink">
   <!ENTITY st0 "font-size:7px;font-family:'MS-PGothic';adobe-font-script:japanese;">
   <!ENTITY st1 "font-size:6px;font-family:'ArialMT';">
   <!ENTITY st2 "fill:#FFFFFF;stroke:#000000; stroke-width:1.41;stroke-linecap:round;stroke-linejoin:round;">
   <!ENTITY st3 "fill:#FFFFCC;stroke:#FFFFCC; stroke-width:0.1;stroke-linecap:round;stroke-linejoin:round;">
   <!ENTITY st4 "fill:#CCCCCC;stroke:#CCCCCC; stroke-width:0.1;stroke-linecap:round;stroke-linejoin:round;">
   <!ENTITY st5 "fill:#CCECF4;stroke:#000000; stroke-width:1.133;stroke-linecap:round;stroke-linejoin:round;">
   <!ENTITY st6 "fill:none;stroke-linecap:butt; stroke-linejoin:round;">
   <!ENTITY st7 "fill:none;stroke:#000000;stroke-linecap:round;stroke-linejoin:round;">
   <!ENTITY st8 "enable-background:new;">
   <!ENTITY st9 "fill:#000000;stroke:#000000; stroke-linecap:round;stroke-linejoin:round;">
   <!ENTITY st10 "font-size:9px;font-family:'ArialMT';">
   <!ENTITY st11 "font-size:9px;font-family:'Svg Symbol';">
   <!ENTITY st12 "font-size:6px;font-family:'Svg Symbol';">
   <!ENTITY st13 "fill:none;stroke:#ff0000;stroke-linecap:round;stroke-linejoin:round;">
   <!ENTITY st14 "fill:#FFFF00;stroke:#FFFF00; stroke-width:0.1;stroke-linecap:round;stroke-linejoin:round;">
   <!ENTITY st15 "font-size:6px;font-family:'MS-PGothic';adobe-font-script:japanese;">
   <!ENTITY st16 "1.00 0.00 0.00 1.00">
   <!ENTITY st17 "0.00 -1.00 1.00 0.00">
   <!ENTITY st18 "font-size:6px;font-family:'Arial';">
   <!ENTITY st19 "font-size:9px;font-family:'Arial';">
   <!ENTITY st20 "font-size:6px;font-family:'MS-PGothic','MS PGothic';adobe-font-script:japanese;">
   <!ENTITY st21 "font-size:7px;font-family:'MS-PGothic','MS PGothic';adobe-font-script:japanese;">
   <!ATTLIST svg
       xmlns:ewd CDATA #FIXED "http://shcl.co.jp/ewd"
       xmlns:a CDATA #FIXED "http://ns.adobe.com/AdobeSVGViewerExtensions/3.0/"
       ewd:ver CDATA #IMPLIED >
   <!ATTLIST a
       ewd:lineID CDATA #IMPLIED
       ewd:groupID CDATA #IMPLIED
       ewd:figtype CDATA #IMPLIED
       ewd:code CDATA #IMPLIED
       ewd:figID CDATA #IMPLIED
       ewd:pinNo CDATA #IMPLIED
       ewd:comment CDATA #IMPLIED >
   <!ATTLIST g
       ewd:lineID CDATA #IMPLIED
       ewd:groupID CDATA #IMPLIED
       ewd:figtype CDATA #IMPLIED
       ewd:code CDATA #IMPLIED
       ewd:figID CDATA #IMPLIED
       ewd:pinNo CDATA #IMPLIED
       ewd:comment CDATA #IMPLIED >
   <!ATTLIST text
       ewd:textID CDATA #IMPLIED >
   <!ATTLIST title
       ewd:textID CDATA #IMPLIED >
]>
<svg xmlns="http://www.w3.org/2000/svg" xmlns:xlink="http://www.w3.org/1999/xlink" width="6274.04" height="721.1" viewBox="0 0 6274.04 721.1" xml:space="preserve" xmlns:ewd="http://shcl.co.jp/ewd" ewd:ver="2.0">
  
  <defs>
    <font horiz-adv-x="1229">
      <font-face font-family="Svg Symbol" units-per-em="2048" panose-1="5 5 1 2 1 7 6 2 5 7" ascent="2059" descent="450" alphabetic="0" />
      <missing-glyph d="M 103,0 l 0,1280 1024,0 0,-1280 -1024,0 z m 32,32 l 960,0 0,1216 -960,0 0,-1216 z" />
      <glyph d4p1:unicode="" horiz-adv-x="1573" d="M 1517,0 l -567,0 24,279 q 141,59 207.5,168 66.5,109 66.5,306 0,272 -132.5,417.5 -132.5,145.5 -333.5,145.5 -194,0 -328,-147.5 -134,-147.5 -134,-401.5 0,-200 68.5,-319 68.5,-119 206.5,-169 l 25,-279 -564,0 0,279 35,0 q 3,-61 32,-83 45,-35 137,-35 l 270,0 0,70 q -210,61 -324.5,209 -114.5,148 -114.5,349 0,252 186.5,425 186.5,173 504.5,173 195,0 358.5,-73.5 163.5,-73.5 252,-214.5 88.5,-141 88.5,-310 0,-207 -121.5,-360.5 -121.5,-153.5 -317.5,-197.5 l -8,-70 275,0 q 92,0 128,28 36,28 42,90 l 38,0 0,-279 z" xmlns:d4p1="def-glyph-attr-unicode" />
    </font>
  </defs>
  
<g ewd:figtype="rb" ewd:code="FUSE103" ewd:figID="25">
      <path style="fill:none;stroke:#000000;stroke-width:0.85;" d="M 2528.86,80.75 L 2528.86, 87.84" />
      <path style="fill:none;stroke:#000000;stroke-width:0.85;" d="M 2528.86,87.84 L 2528.86, 102.02" />
      <path d="M 2528.86,102.01 L 2531.69, 99.18 L 2531.69, 96.35 L 2528.86, 99.18 L 2526.03, 96.35 L 2526.03, 99.18 L 2528.86, 102.01" style="stroke-linecap:round;stroke-linejoin:round;" />
      <path style="fill:none;stroke:#000000;stroke-width:0.85;stroke-linecap:round;stroke-linejoin:round;" d="M 2533.11,113.35 C 2536.24 113.35 2538.78 110.81 2538.78 107.68 C 2538.78 104.55 2536.24 102.01 2533.11 102.01 L 2524.61, 102.01 C 2521.48 102.01 2518.94 104.55 2518.94 107.68 C 2518.94 110.81 2521.48 113.35 2524.61 113.35 L 2533.11, 113.35" />
      <path style="fill:none;stroke:#000000;stroke-width:0.85;stroke-linecap:round;stroke-linejoin:round;" d="M 2528.86,80.75 C 2529.64 80.75 2530.28 80.12 2530.28 79.33 C 2530.28 78.55 2529.65 77.91 2528.86 77.91 C 2528.07021484375 77.9100073242188 2527.44 78.54 2527.44 79.33 C 2527.44 80.12 2528.08 80.75 2528.86 80.75" />
      <path style="fill:none;stroke:#000000;stroke-width:0.85;stroke-linecap:round;stroke-linejoin:round;" d="M 2528.86,55.24 C 2529.64 55.24 2530.28 54.61 2530.28 53.82 C 2530.28005859375 53.0299993896484 2529.65 52.4 2528.86 52.4 C 2528.07021484375 52.4000030517578 2527.44 53.03 2527.44 53.82 C 2527.4398828125 54.6099993896484 2528.08 55.24 2528.86 55.24" />
      <path style="fill:none;stroke:#000000;stroke-width:1.417;" d="M 2527.86,54.82 C 2527.86 54.82 2521.79 59.5 2528.86 66.57 C 2535.93021484375 73.6399993896484 2529.86 78.32 2529.86 78.32" />
      <path style="fill:none;stroke:#000000;stroke-width:1.417;stroke-linecap:round;stroke-linejoin:round;" d="M 2541.62,87.84 L 2541.62, 45.32 L 2516.11, 45.32 L 2516.11, 87.84 L 2541.62, 87.84" />
      <text transform="matrix(1 0 0 1 2525.5239 109.3877)" style="font-family:'Arial'; font-size:6px;">10</text>
      <text transform="matrix(1 0 0 1 2520.5625 95.2139)" style="font-family:'Arial'; font-size:6px;">2</text>
      <text transform="matrix(1 0 0 1 2521.0278 41.354)" style="font-family:'Arial'; font-size:6px;">(BAT)</text>
      <text transform="matrix(1 0 0 1 2544.4512 64.7407)" style="font-family:'Arial'; font-size:6px;">10A<tspan x="0" dy="1em">ETCS</tspan></text>
    </g><g ewd:figtype="rb" ewd:code="FUSE160" ewd:figID="17">
      <path style="fill:none;stroke:#000000;stroke-width:0.85;" d="M 2409.88,102.02 L 2409.88, 19.81 L 2452.34, 19.81 L 2452.34, 45.32" />
      <path style="fill:none;stroke:#000000;stroke-width:0.85;" d="M 2452.34,45.32 L 2452.34, 52.41" />
      <path style="fill:none;stroke:#000000;stroke-width:0.85;" d="M 2452.34,80.75 L 2452.34, 87.84" />
      <path style="fill:none;stroke:#000000;stroke-width:0.85;" d="M 2452.34,87.84 L 2452.34, 102.02" />
      <path d="M 2409.82,102.02 L 2412.65, 99.18999 L 2412.65, 96.35999 L 2409.82, 99.18999 L 2406.99, 96.35999 L 2406.99, 99.18999 L 2409.82, 102.02" style="stroke-linecap:round;stroke-linejoin:round;" />
      <path style="fill:none;stroke:#000000;stroke-width:0.85;stroke-linecap:round;stroke-linejoin:round;" d="M 2414.07,113.35 C 2417.2 113.35 2419.74 110.81 2419.74 107.68 C 2419.74 104.55 2417.2 102.01 2414.07 102.01 L 2405.57, 102.01 C 2402.44 102.01 2399.9 104.55 2399.9 107.68 C 2399.9 110.81 2402.44 113.35 2405.57 113.35 L 2414.07, 113.35" />
      <path d="M 2452.34,102.02 L 2455.17, 99.18999 L 2455.17, 96.35999 L 2452.34, 99.18999 L 2449.51, 96.35999 L 2449.51, 99.18999 L 2452.34, 102.02" style="stroke-linecap:round;stroke-linejoin:round;" />
      <path style="fill:none;stroke:#000000;stroke-width:0.85;stroke-linecap:round;stroke-linejoin:round;" d="M 2456.59,113.35 C 2459.72 113.35 2462.26 110.81 2462.26 107.68 C 2462.26 104.55 2459.72 102.01 2456.59 102.01 L 2448.09, 102.01 C 2444.96 102.01 2442.42 104.55 2442.42 107.68 C 2442.42 110.81 2444.96 113.35 2448.09 113.35 L 2456.59, 113.35" />
      <path style="fill:none;stroke:#000000;stroke-width:0.85;stroke-linecap:round;stroke-linejoin:round;" d="M 2452.33,80.75 C 2453.11 80.75 2453.75 80.12 2453.75 79.33 C 2453.75 78.5400036621094 2453.12 77.91 2452.33 77.91 C 2451.55 77.91 2450.91 78.54 2450.91 79.33 C 2450.90982421875 80.1200036621094 2451.55 80.75 2452.33 80.75" />
      <path style="fill:none;stroke:#000000;stroke-width:0.85;stroke-linecap:round;stroke-linejoin:round;" d="M 2452.33,55.24 C 2453.11 55.24 2453.75 54.61 2453.75 53.82 C 2453.75 53.0299993896484 2453.12 52.4 2452.33 52.4 C 2451.55 52.4 2450.91 53.03 2450.91 53.82 C 2450.90982421875 54.6099993896484 2451.55 55.24 2452.33 55.24" />
      <path style="fill:none;stroke:#000000;stroke-width:1.417;" d="M 2451.33,54.82 C 2451.33 54.82 2445.26 59.5 2452.33 66.57 C 2459.4 73.64 2453.33 78.32 2453.33 78.32" />
      <path style="fill:none;stroke:#000000;stroke-width:1.417;stroke-linecap:round;stroke-linejoin:round;" d="M 2465.09,87.84 L 2465.09, 45.32 L 2439.58, 45.32 L 2439.58, 87.84 L 2465.09, 87.84" />
      <text transform="matrix(1 0 0 1 2406.4829 109.3921)" style="font-family:'Arial'; font-size:6px;">12</text>
      <text transform="matrix(1 0 0 1 2449.0024 109.3921)" style="font-family:'Arial'; font-size:6px;">12</text>
      <text transform="matrix(1 0 0 1 2444.0342 41.3564)" style="font-family:'Arial'; font-size:6px;">1</text>
      <text transform="matrix(1 0 0 1 2444.0342 95.2139)" style="font-family:'Arial'; font-size:6px;">2</text>
      <text transform="matrix(1 0 0 1 2467.9224 61.1978)" style="font-family:'Arial'; font-size:6px;">7.5A<tspan x="0" dy="1em">STOP</tspan><tspan x="0" dy="1em">NO.2</tspan></text>
    </g><g ewd:figtype="conn" ewd:code="B85" ewd:figID="43">
      <path style="fill:none;stroke:#000000;stroke-width:0.85;" d="M 2452.34,240.92 L 2452.34, 257.93" />
      <path style="fill:none;stroke:#000000;stroke-width:1.417;stroke-linecap:round;stroke-linejoin:round;" d="M 2460.85,257.92 L 2460.85, 240.91 L 2443.84, 240.91 L 2443.84, 257.92 L 2460.85, 257.92" />
      <text transform="matrix(1 0 0 1 2444.0459 265.3003)" style="font-family:'Arial'; font-size:6px;">8</text>
      <text transform="matrix(1 0 0 1 2444.0459 236.9536)" style="font-family:'Arial'; font-size:6px;">7</text>
      <g ewd:figtype="title">
        <text transform="matrix(0 -1 1 0 2468.9326 257.9253)" style="font-family:'Arial'; font-size:6px;">B85</text>
        <text transform="matrix(0 -1 1 0 2476.0195 257.9253)" style="font-family:'Arial'; font-size:6px;" ewd:textID="69">Junction  <tspan x="0" dy="1em">Connector</tspan></text>
      </g>
    </g><g ewd:figtype="w2w" ewd:code="DB1" ewd:pin_no="1" ewd:figID="141">
      <path style="fill:#FFFFFF;stroke:#FFFFFF;stroke-width:0;stroke-linecap:round;stroke-linejoin:round;" d="M 2303.52,471.42 L 2299.27, 467.17 L 2295.02, 471.42 L 2295.02, 464.87 L 2303.52, 464.87 L 2303.52, 471.42" />
      <path style="fill:#FFFFFF;stroke:#FFFFFF;stroke-width:0;stroke-linecap:round;stroke-linejoin:round;" d="M 2303.52,468.58 L 2299.27, 464.33 L 2295.02, 468.58 L 2295.02, 462.03 L 2303.52, 462.03 L 2303.52, 468.58" />
      <path style="fill:none;stroke:#000000;stroke-width:0.85;" d="M 2303.52,469.12 L 2299.27, 464.87 L 2295.02, 469.12" />
      <path style="fill:none;stroke:#000000;stroke-width:0.85;" d="M 2303.52,466.28 L 2299.27, 462.03 L 2295.02, 466.28" />
      <path style="fill:none;stroke:#000000;stroke-width:0.85;stroke-linecap:round;stroke-linejoin:round;" d="M 2309.19,453.53 L 2309.19, 462.03 L 2289.35, 462.03 L 2289.35, 453.53 L 2309.19, 453.53" />
      <text transform="matrix(1 0 0 1 2284.5913 459.4844)" style="font-family:'Arial'; font-size:6px;">1</text>
    </g><g ewd:figtype="w2w" ewd:code="AB4" ewd:pin_no="34" ewd:figID="142">
      <path style="fill:#FFFFFF;stroke:#FFFFFF;stroke-width:0;stroke-linecap:round;stroke-linejoin:round;" d="M 2303.52,512.17 L 2299.27, 516.42 L 2295.02, 512.17 L 2295.02, 518.72 L 2303.52, 518.72 L 2303.52, 512.17" />
      <path style="fill:#FFFFFF;stroke:#FFFFFF;stroke-width:0;stroke-linecap:round;stroke-linejoin:round;" d="M 2303.52,515.01 L 2299.27, 519.26 L 2295.02, 515.01 L 2295.02, 521.56 L 2303.52, 521.56 L 2303.52, 515.01" />
      <path style="fill:none;stroke:#000000;stroke-width:0.85;" d="M 2303.52,514.47 L 2299.27, 518.72 L 2295.02, 514.47" />
      <path style="fill:none;stroke:#000000;stroke-width:0.85;" d="M 2303.52,517.31 L 2299.27, 521.56 L 2295.02, 517.31" />
      <path style="fill:none;stroke:#000000;stroke-width:0.85;stroke-linecap:round;stroke-linejoin:round;" d="M 2309.19,530.07 L 2309.19, 521.57 L 2289.35, 521.57 L 2289.35, 530.07 L 2309.19, 530.07" />
      <text transform="matrix(1 0 0 1 2281.2544 527.5186)" style="font-family:'Arial'; font-size:6px;">34</text>
    </g><g ewd:figtype="w2w" ewd:code="DB1" ewd:pin_no="2" ewd:figID="143">
      <path style="fill:#FFFFFF;stroke:#FFFFFF;stroke-width:0;stroke-linecap:round;stroke-linejoin:round;" d="M 2346.04,471.42 L 2341.79, 467.17 L 2337.54, 471.42 L 2337.54, 464.87 L 2346.04, 464.87 L 2346.04, 471.42" />
      <path style="fill:#FFFFFF;stroke:#FFFFFF;stroke-width:0;stroke-linecap:round;stroke-linejoin:round;" d="M 2346.04,468.58 L 2341.79, 464.33 L 2337.54, 468.58 L 2337.54, 462.03 L 2346.04, 462.03 L 2346.04, 468.58" />
      <path style="fill:none;stroke:#000000;stroke-width:0.85;" d="M 2346.04,469.12 L 2341.79, 464.87 L 2337.54, 469.12" />
      <path style="fill:none;stroke:#000000;stroke-width:0.85;" d="M 2346.04,466.28 L 2341.79, 462.03 L 2337.54, 466.28" />
      <path style="fill:none;stroke:#000000;stroke-width:0.85;stroke-linecap:round;stroke-linejoin:round;" d="M 2351.71,453.53 L 2351.71, 462.03 L 2331.87, 462.03 L 2331.87, 453.53 L 2351.71, 453.53" />
      <text transform="matrix(1 0 0 1 2327.1108 459.4844)" style="font-family:'Arial'; font-size:6px;">2</text>
    </g><g ewd:figtype="w2w" ewd:code="AB4" ewd:pin_no="40" ewd:figID="144">
      <path style="fill:#FFFFFF;stroke:#FFFFFF;stroke-width:0;stroke-linecap:round;stroke-linejoin:round;" d="M 2346.04,512.17 L 2341.79, 516.42 L 2337.54, 512.17 L 2337.54, 518.72 L 2346.04, 518.72 L 2346.04, 512.17" />
      <path style="fill:#FFFFFF;stroke:#FFFFFF;stroke-width:0;stroke-linecap:round;stroke-linejoin:round;" d="M 2346.04,515.01 L 2341.79, 519.26 L 2337.54, 515.01 L 2337.54, 521.56 L 2346.04, 521.56 L 2346.04, 515.01" />
      <path style="fill:none;stroke:#000000;stroke-width:0.85;" d="M 2346.04,514.47 L 2341.79, 518.72 L 2337.54, 514.47" />
      <path style="fill:none;stroke:#000000;stroke-width:0.85;" d="M 2346.04,517.31 L 2341.79, 521.56 L 2337.54, 517.31" />
      <path style="fill:none;stroke:#000000;stroke-width:0.85;stroke-linecap:round;stroke-linejoin:round;" d="M 2351.71,530.07 L 2351.71, 521.57 L 2331.87, 521.57 L 2331.87, 530.07 L 2351.71, 530.07" />
      <text transform="matrix(1 0 0 1 2323.7739 527.5186)" style="font-family:'Arial'; font-size:6px;">40</text>
    </g><g ewd:figtype="w2w" ewd:code="DB1" ewd:pin_no="8" ewd:figID="145">
      <path style="fill:#FFFFFF;stroke:#FFFFFF;stroke-width:0;stroke-linecap:round;stroke-linejoin:round;" d="M 2388.56,471.42 L 2384.31, 467.17 L 2380.06, 471.42 L 2380.06, 464.87 L 2388.56, 464.87 L 2388.56, 471.42" />
      <path style="fill:#FFFFFF;stroke:#FFFFFF;stroke-width:0;stroke-linecap:round;stroke-linejoin:round;" d="M 2388.56,468.58 L 2384.31, 464.33 L 2380.06, 468.58 L 2380.06, 462.03 L 2388.56, 462.03 L 2388.56, 468.58" />
      <path style="fill:none;stroke:#000000;stroke-width:0.85;" d="M 2388.56,469.12 L 2384.31, 464.87 L 2380.06, 469.12" />
      <path style="fill:none;stroke:#000000;stroke-width:0.85;" d="M 2388.56,466.28 L 2384.31, 462.03 L 2380.06, 466.28" />
      <path style="fill:none;stroke:#000000;stroke-width:0.85;stroke-linecap:round;stroke-linejoin:round;" d="M 2394.23,453.53 L 2394.23, 462.03 L 2374.39, 462.03 L 2374.39, 453.53 L 2394.23, 453.53" />
      <text transform="matrix(1 0 0 1 2369.6304 459.4844)" style="font-family:'Arial'; font-size:6px;">8</text>
    </g><g ewd:figtype="w2w" ewd:code="AB4" ewd:pin_no="15" ewd:figID="146">
      <path style="fill:#FFFFFF;stroke:#FFFFFF;stroke-width:0;stroke-linecap:round;stroke-linejoin:round;" d="M 2388.56,512.17 L 2384.31, 516.42 L 2380.06, 512.17 L 2380.06, 518.72 L 2388.56, 518.72 L 2388.56, 512.17" />
      <path style="fill:#FFFFFF;stroke:#FFFFFF;stroke-width:0;stroke-linecap:round;stroke-linejoin:round;" d="M 2388.56,515.01 L 2384.31, 519.26 L 2380.06, 515.01 L 2380.06, 521.56 L 2388.56, 521.56 L 2388.56, 515.01" />
      <path style="fill:none;stroke:#000000;stroke-width:0.85;" d="M 2388.56,514.47 L 2384.31, 518.72 L 2380.06, 514.47" />
      <path style="fill:none;stroke:#000000;stroke-width:0.85;" d="M 2388.56,517.31 L 2384.31, 521.56 L 2380.06, 517.31" />
      <path style="fill:none;stroke:#000000;stroke-width:0.85;stroke-linecap:round;stroke-linejoin:round;" d="M 2394.23,530.07 L 2394.23, 521.57 L 2374.39, 521.57 L 2374.39, 530.07 L 2394.23, 530.07" />
      <text transform="matrix(1 0 0 1 2366.2935 527.5186)" style="font-family:'Arial'; font-size:6px;">15</text>
    </g><g ewd:figtype="w2w" ewd:code="DB1" ewd:pin_no="9" ewd:figID="147">
      <path style="fill:#FFFFFF;stroke:#FFFFFF;stroke-width:0;stroke-linecap:round;stroke-linejoin:round;" d="M 2431.08,471.42 L 2426.83, 467.17 L 2422.58, 471.42 L 2422.58, 464.87 L 2431.08, 464.87 L 2431.08, 471.42" />
      <path style="fill:#FFFFFF;stroke:#FFFFFF;stroke-width:0;stroke-linecap:round;stroke-linejoin:round;" d="M 2431.08,468.58 L 2426.83, 464.33 L 2422.58, 468.58 L 2422.58, 462.03 L 2431.08, 462.03 L 2431.08, 468.58" />
      <path style="fill:none;stroke:#000000;stroke-width:0.85;" d="M 2431.08,469.12 L 2426.83, 464.87 L 2422.58, 469.12" />
      <path style="fill:none;stroke:#000000;stroke-width:0.85;" d="M 2431.08,466.28 L 2426.83, 462.03 L 2422.58, 466.28" />
      <path style="fill:none;stroke:#000000;stroke-width:0.85;stroke-linecap:round;stroke-linejoin:round;" d="M 2436.75,453.53 L 2436.75, 462.03 L 2416.91, 462.03 L 2416.91, 453.53 L 2436.75, 453.53" />
      <text transform="matrix(1 0 0 1 2412.1499 459.4844)" style="font-family:'Arial'; font-size:6px;">9</text>
    </g><g ewd:figtype="w2w" ewd:code="DB1" ewd:pin_no="6" ewd:figID="148">
      <path style="fill:#FFFFFF;stroke:#FFFFFF;stroke-width:0;stroke-linecap:round;stroke-linejoin:round;" d="M 2533.13,462.91 L 2528.88, 458.66 L 2524.63, 462.91 L 2524.63, 456.36 L 2533.13, 456.36 L 2533.13, 462.91" />
      <path style="fill:#FFFFFF;stroke:#FFFFFF;stroke-width:0;stroke-linecap:round;stroke-linejoin:round;" d="M 2533.13,460.08 L 2528.88, 455.83 L 2524.63, 460.08 L 2524.63, 453.53 L 2533.13, 453.53 L 2533.13, 460.08" />
      <path style="fill:none;stroke:#000000;stroke-width:0.85;" d="M 2533.13,460.61 L 2528.88, 456.36 L 2524.63, 460.61" />
      <path style="fill:none;stroke:#000000;stroke-width:0.85;" d="M 2533.13,457.78 L 2528.88, 453.53 L 2524.63, 457.78" />
      <path style="fill:none;stroke:#000000;stroke-width:0.85;stroke-linecap:round;stroke-linejoin:round;" d="M 2538.79,445.02 L 2538.79, 453.52 L 2518.95, 453.52 L 2518.95, 445.02 L 2538.79, 445.02" />
      <text transform="matrix(1 0 0 1 2514.1973 450.9805)" style="font-family:'Arial'; font-size:6px;">6</text>
    </g><g ewd:figtype="w2w" ewd:code="AB4" ewd:pin_no="33" ewd:figID="149">
      <path style="fill:#FFFFFF;stroke:#FFFFFF;stroke-width:0;stroke-linecap:round;stroke-linejoin:round;" d="M 2431.08,512.17 L 2426.83, 516.42 L 2422.58, 512.17 L 2422.58, 518.72 L 2431.08, 518.72 L 2431.08, 512.17" />
      <path style="fill:#FFFFFF;stroke:#FFFFFF;stroke-width:0;stroke-linecap:round;stroke-linejoin:round;" d="M 2431.08,515.01 L 2426.83, 519.26 L 2422.58, 515.01 L 2422.58, 521.56 L 2431.08, 521.56 L 2431.08, 515.01" />
      <path style="fill:none;stroke:#000000;stroke-width:0.85;" d="M 2431.08,514.47 L 2426.83, 518.72 L 2422.58, 514.47" />
      <path style="fill:none;stroke:#000000;stroke-width:0.85;" d="M 2431.08,517.31 L 2426.83, 521.56 L 2422.58, 517.31" />
      <path style="fill:none;stroke:#000000;stroke-width:0.85;stroke-linecap:round;stroke-linejoin:round;" d="M 2436.75,530.07 L 2436.75, 521.57 L 2416.91, 521.57 L 2416.91, 530.07 L 2436.75, 530.07" />
      <text transform="matrix(1 0 0 1 2408.813 527.5186)" style="font-family:'Arial'; font-size:6px;">33</text>
    </g><g ewd:figtype="conn" ewd:code="B69" ewd:figID="45">
      <path style="fill:none;stroke:#000000;stroke-width:0.85;" d="M 2528.88,544.24 L 2528.88, 532.55" />
      <path style="fill:none;stroke:#000000;stroke-width:0.85;" d="M 2528.88,516.24 L 2528.88, 504.55" />
      <path style="fill:none;stroke:#000000;stroke-width:1.417;stroke-linecap:round;stroke-linejoin:round;" d="M 2540.22,544.24 L 2540.22, 504.56 L 2517.54, 504.56 L 2517.54, 544.24 L 2540.22, 544.24" />
      <path style="fill:none;stroke:#000000;stroke-width:0.85;" d="M 2528.88,515.89 L 2531.33, 517.31 L 2526.42, 520.14 L 2531.33, 522.97 L 2526.42, 525.81 L 2531.33, 528.64 L 2526.42, 531.47 L 2528.88, 532.89" />
      <path style="fill:none;stroke:#000000;stroke-width:0.85;stroke-linecap:round;stroke-linejoin:round;" d="M 2537.39,515.89 C 2537.39 511.19 2533.58 507.39 2528.89 507.39 C 2524.19978515625 507.390029296875 2520.39 511.2 2520.39 515.89 L 2520.39, 532.9 C 2520.39 537.6 2524.2 541.4 2528.89 541.4 C 2533.57978515625 541.400048828125 2537.39 537.59 2537.39 532.9 L 2537.39, 515.89" />
      <text transform="matrix(1 0 0 1 2520.5864 551.6123)" style="font-family:'Arial'; font-size:6px;">2</text>
      <text transform="matrix(1 0 0 1 2520.5864 500.5879)" style="font-family:'Arial'; font-size:6px;">1</text>
      <g ewd:figtype="title">
        <text transform="matrix(0 -1 1 0 2548.3081 547.0723)" style="font-family:'Arial'; font-size:6px;">B69</text>
        <text transform="matrix(0 -1 1 0 2555.395 547.0723)" style="font-family:'Arial'; font-size:6px;" ewd:textID="28">Battery Thermometer Sensor</text>
      </g>
    </g><g ewd:figtype="w2w" ewd:code="DB1" ewd:pin_no="7" ewd:figID="151">
      <path style="fill:#FFFFFF;stroke:#FFFFFF;stroke-width:0;stroke-linecap:round;stroke-linejoin:round;" d="M 2533.14,580.21 L 2528.89, 584.46 L 2524.64, 580.21 L 2524.64, 586.76 L 2533.14, 586.76 L 2533.14, 580.21" />
      <path style="fill:#FFFFFF;stroke:#FFFFFF;stroke-width:0;stroke-linecap:round;stroke-linejoin:round;" d="M 2533.14,583.04 L 2528.89, 587.29 L 2524.64, 583.04 L 2524.64, 589.59 L 2533.14, 589.59 L 2533.14, 583.04" />
      <path style="fill:none;stroke:#000000;stroke-width:0.85;" d="M 2533.14,582.51 L 2528.89, 586.76 L 2524.64, 582.51" />
      <path style="fill:none;stroke:#000000;stroke-width:0.85;" d="M 2533.14,585.34 L 2528.89, 589.59 L 2524.64, 585.34" />
      <path style="fill:none;stroke:#000000;stroke-width:0.85;stroke-linecap:round;stroke-linejoin:round;" d="M 2538.81,598.1 L 2538.81, 589.6 L 2518.97, 589.6 L 2518.97, 598.1 L 2538.81, 598.1" />
      <text transform="matrix(1 0 0 1 2514.2085 595.5518)" style="font-family:'Arial'; font-size:6px;">7</text>
    </g><g ewd:figtype="w2w" ewd:code="DB1" ewd:pin_no="12" ewd:figID="152">
      <path style="fill:#FFFFFF;stroke:#FFFFFF;stroke-width:0;stroke-linecap:round;stroke-linejoin:round;" d="M 2686.18,585.88 L 2681.93, 590.13 L 2677.68, 585.88 L 2677.68, 592.43 L 2686.18, 592.43 L 2686.18, 585.88" />
      <path style="fill:#FFFFFF;stroke:#FFFFFF;stroke-width:0;stroke-linecap:round;stroke-linejoin:round;" d="M 2686.18,588.71 L 2681.93, 592.96 L 2677.68, 588.71 L 2677.68, 595.26 L 2686.18, 595.26 L 2686.18, 588.71" />
      <path style="fill:none;stroke:#000000;stroke-width:0.85;" d="M 2686.18,588.18 L 2681.93, 592.43 L 2677.68, 588.18" />
      <path style="fill:none;stroke:#000000;stroke-width:0.85;" d="M 2686.18,591.01 L 2681.93, 595.26 L 2677.68, 591.01" />
      <path style="fill:none;stroke:#000000;stroke-width:0.85;stroke-linecap:round;stroke-linejoin:round;" d="M 2691.85,603.77 L 2691.85, 595.27 L 2672.01, 595.27 L 2672.01, 603.77 L 2691.85, 603.77" />
      <text transform="matrix(1 0 0 1 2663.9194 601.2217)" style="font-family:'Arial'; font-size:6px;">12</text>
    </g><g ewd:figtype="conn" ewd:code="B29" ewd:figID="46">
      <path style="fill:none;stroke:#000000;stroke-width:0.85;" d="M 2681.93,504.55 L 2681.93, 516.24" />
      <path style="fill:none;stroke:#000000;stroke-width:0.85;" d="M 2681.93,532.54 L 2681.93, 544.23" />
      <path style="fill:none;stroke:#000000;stroke-width:1.417;stroke-linecap:round;stroke-linejoin:round;" d="M 2693.27,544.24 L 2693.27, 504.56 L 2670.59, 504.56 L 2670.59, 544.24 L 2693.27, 544.24" />
      <path style="fill:none;stroke:#000000;stroke-width:0.85;" d="M 2681.93,515.89 L 2684.38, 517.31 L 2679.47, 520.14 L 2684.38, 522.97 L 2679.47, 525.81 L 2684.38, 528.64 L 2679.47, 531.47 L 2681.93, 532.89" />
      <path style="fill:none;stroke:#000000;stroke-width:0.85;stroke-linecap:round;stroke-linejoin:round;" d="M 2690.44,515.89 C 2690.44 511.19 2686.63 507.39 2681.94 507.39 C 2677.2498828125 507.390029296875 2673.44 511.2 2673.44 515.89 L 2673.44, 532.9 C 2673.44 537.6 2677.25 541.4 2681.94 541.4 C 2686.6298828125 541.400048828125 2690.44 537.59 2690.44 532.9 L 2690.44, 515.89" />
      <text transform="matrix(1 0 0 1 2673.6333 551.6152)" style="font-family:'Arial'; font-size:6px;">1</text>
      <text transform="matrix(1 0 0 1 2673.6333 500.5908)" style="font-family:'Arial'; font-size:6px;">2</text>
      <g ewd:figtype="title">
        <text transform="matrix(0 -1 1 0 2701.355 547.0752)" style="font-family:'Arial'; font-size:6px;">B29</text>
        <text transform="matrix(0 -1 1 0 2708.4419 547.0752)" style="font-family:'Arial'; font-size:6px;" ewd:textID="93">Water Temp. Sensor  <tspan x="0" dy="1em">(Radiator)</tspan></text>
      </g>
    </g><g ewd:figtype="conn" ewd:code="B1" ewd:figID="69">
      <path style="fill:none;stroke:#000000;stroke-width:1.417;stroke-linecap:round;stroke-linejoin:round;" d="M 2911.55,257.93 L 2911.55, 181.39 L 2664.92, 181.39 L 2664.92, 257.93 L 2911.55, 257.93" />
      <text transform="matrix(1 0 0 1 2674.1001 253.9634)" style="font-family:'Arial'; font-size:6px;">VCP2</text>
      <text transform="matrix(1 0 0 1 2716.7842 253.9634)" style="font-family:'Arial'; font-size:6px;">EPA2</text>
      <text transform="matrix(1 0 0 1 2758.6772 265.3013)" style="font-family:'Arial'; font-size:6px;">3</text>
      <text transform="matrix(1 0 0 1 2759.3037 253.9634)" style="font-family:'Arial'; font-size:6px;">VPA2</text>
      <text transform="matrix(1 0 0 1 2801.1968 265.3013)" style="font-family:'Arial'; font-size:6px;">4</text>
      <text transform="matrix(1 0 0 1 2801.3252 253.9634)" style="font-family:'Arial'; font-size:6px;">VCPA</text>
      <text transform="matrix(1 0 0 1 2843.7163 265.3013)" style="font-family:'Arial'; font-size:6px;">5</text>
      <text transform="matrix(1 0 0 1 2846.0112 253.9634)" style="font-family:'Arial'; font-size:6px;">EPA</text>
      <text transform="matrix(1 0 0 1 2886.2358 265.3013)" style="font-family:'Arial'; font-size:6px;">6</text>
      <text transform="matrix(1 0 0 1 2888.5308 253.9634)" style="font-family:'Arial'; font-size:6px;">VPA</text>
      <text transform="matrix(1 0 0 1 2716.1577 265.3013)" style="font-family:'Arial'; font-size:6px;">2</text>
      <text transform="matrix(1 0 0 1 2673.6392 265.3013)" style="font-family:'Arial'; font-size:6px;">1</text>
      <g ewd:figtype="title">
        <text transform="matrix(1 0 0 1 2747.1343 169.627)" style="font-family:'Arial'; font-size:6px;">B1</text>
        <text transform="matrix(1 0 0 1 2747.1343 176.7139)" style="font-family:'Arial'; font-size:6px;" ewd:textID="15">Accelerator Position Sensor</text>
      </g>
    </g><g ewd:figtype="w2w" ewd:code="BD3" ewd:pin_no="1" ewd:figID="165">
      <path style="fill:#FFFFFF;stroke:#FFFFFF;stroke-width:0;stroke-linecap:round;stroke-linejoin:round;" d="M 2686.16,444.14 L 2681.91, 448.39 L 2677.66, 444.14 L 2677.66, 450.69 L 2686.16, 450.69 L 2686.16, 444.14" />
      <path style="fill:#FFFFFF;stroke:#FFFFFF;stroke-width:0;stroke-linecap:round;stroke-linejoin:round;" d="M 2686.16,446.98 L 2681.91, 451.23 L 2677.66, 446.98 L 2677.66, 453.53 L 2686.16, 453.53 L 2686.16, 446.98" />
      <path style="fill:none;stroke:#000000;stroke-width:0.85;" d="M 2686.16,446.44 L 2681.91, 450.69 L 2677.66, 446.44" />
      <path style="fill:none;stroke:#000000;stroke-width:0.85;" d="M 2686.16,449.28 L 2681.91, 453.53 L 2677.66, 449.28" />
      <path style="fill:none;stroke:#000000;stroke-width:0.85;stroke-linecap:round;stroke-linejoin:round;" d="M 2691.83,462.03 L 2691.83, 453.53 L 2671.99, 453.53 L 2671.99, 462.03 L 2691.83, 462.03" />
      <text transform="matrix(1 0 0 1 2667.2329 459.4854)" style="font-family:'Arial'; font-size:6px;">1</text>
    </g><g ewd:figtype="w2w" ewd:code="HB1" ewd:pin_no="36" ewd:comment="9" ewd:figID="168">
      <path style="fill:#FFFFFF;stroke:#FFFFFF;stroke-width:0;stroke-linecap:round;stroke-linejoin:round;" d="M 2320.53,216.29 L 2316.28, 212.04 L 2312.03, 216.29 L 2312.03, 209.74 L 2320.53, 209.74 L 2320.53, 216.29" />
      <path style="fill:#FFFFFF;stroke:#FFFFFF;stroke-width:0;stroke-linecap:round;stroke-linejoin:round;" d="M 2320.53,213.45 L 2316.28, 209.2 L 2312.03, 213.45 L 2312.03, 206.9 L 2320.53, 206.9 L 2320.53, 213.45" />
      <path style="fill:none;stroke:#000000;stroke-width:0.85;" d="M 2320.53,213.99 L 2316.28, 209.74 L 2312.03, 213.99" />
      <path style="fill:none;stroke:#000000;stroke-width:0.85;" d="M 2320.53,211.15 L 2316.28, 206.9 L 2312.03, 211.15" />
      <path style="fill:none;stroke:#000000;stroke-width:0.85;stroke-linecap:round;stroke-linejoin:round;" d="M 2326.19,198.39 L 2326.19, 206.89 L 2306.35, 206.89 L 2306.35, 198.39 L 2326.19, 198.39" />
      <text transform="matrix(1 0 0 1 2298.2617 204.3525)" style="font-family:'Arial'; font-size:6px;">36</text>
      <text transform="matrix(1 0 0 1 2329.0332 204.3594)" style="font-family:'Arial'; font-size:6px;">(*9)</text>
    </g><g ewd:figtype="w2w" ewd:code="HB6" ewd:pin_no="19" ewd:comment="8" ewd:figID="170">
      <path style="fill:none;stroke:#000000;stroke-width:0.85;stroke-linecap:round;stroke-linejoin:round;" d="M 2326.19,189.89 L 2326.19, 198.39 L 2306.35, 198.39 L 2306.35, 189.89 L 2326.19, 189.89" />
      <text transform="matrix(1 0 0 1 2298.2612 195.8486)" style="font-family:'Arial'; font-size:6px;">19</text>
      <text transform="matrix(1 0 0 1 2329.0332 195.8555)" style="font-family:'Arial'; font-size:6px;">(*8)</text>
    </g><text transform="matrix(0 -1 1 0 2312.2959 158.0371)" style="font-family:'Arial'; font-size:6px;">R</text><text transform="matrix(0 -1 1 0 2354.8154 158.0371)" style="font-family:'Arial'; font-size:6px;">R</text><text transform="matrix(0 -1 1 0 2448.3584 157.8716)" style="font-family:'Arial'; font-size:6px;">Y</text><text transform="matrix(0 -1 1 0 2448.3584 327.9561)" style="font-family:'Arial'; font-size:6px;">Y</text><text transform="matrix(0 -1 1 0 2295.2876 439.0156)" style="font-family:'Arial'; font-size:6px;">Y-G</text><text transform="matrix(0 -1 1 0 2295.2876 495.7129)" style="font-family:'Arial'; font-size:6px;">Y-G</text><text transform="matrix(0 -1 1 0 2252.7681 492.3809)" style="font-family:'Arial'; font-size:6px;">B</text><text transform="matrix(1 0 0 1 2560.9004 679.1816)" style="font-family:'Arial'; font-size:6px;">Y</text><text transform="matrix(1 0 0 1 2722.4746 679.1816)" style="font-family:'Arial'; font-size:6px;">Y</text><text transform="matrix(1 0 0 1 2611.9229 636.6621)" style="font-family:'Arial'; font-size:6px;">B</text><text transform="matrix(0 -1 1 0 2677.9673 619.9453)" style="font-family:'Arial'; font-size:6px;">Y</text><text transform="matrix(0 -1 1 0 2677.9673 571.7539)" style="font-family:'Arial'; font-size:6px;">Y</text><text transform="matrix(0 -1 1 0 2524.8965 327.9639)" style="font-family:'Arial'; font-size:6px;">Y</text><text transform="matrix(0 -1 1 0 2677.9673 311.1182)" style="font-family:'Arial'; font-size:6px;">R</text><text transform="matrix(0 -1 1 0 2295.2876 555.2402)" style="font-family:'Arial'; font-size:6px;">Y-G</text><text transform="matrix(0 -1 1 0 2337.8071 435.3506)" style="font-family:'Arial'; font-size:6px;">L</text><text transform="matrix(0 -1 1 0 2337.8071 492.0479)" style="font-family:'Arial'; font-size:6px;">L</text><text transform="matrix(0 -1 1 0 2337.8071 551.5752)" style="font-family:'Arial'; font-size:6px;">L</text><text transform="matrix(0 -1 1 0 2380.3267 435.8486)" style="font-family:'Arial'; font-size:6px;">R</text><text transform="matrix(0 -1 1 0 2380.3267 492.5459)" style="font-family:'Arial'; font-size:6px;">R</text><text transform="matrix(0 -1 1 0 2380.3267 552.0732)" style="font-family:'Arial'; font-size:6px;">R</text><text transform="matrix(0 -1 1 0 2422.8462 492.3809)" style="font-family:'Arial'; font-size:6px;">Y</text><text transform="matrix(0 -1 1 0 2422.8462 551.9082)" style="font-family:'Arial'; font-size:6px;">Y</text><text transform="matrix(0 -1 1 0 2252.7676 551.9082)" style="font-family:'Arial'; font-size:6px;">B</text><text transform="matrix(1 0 0 1 2441.8389 432.5547)" style="font-family:'Arial'; font-size:6px;">Y</text><text transform="matrix(0 -1 1 0 2524.9224 430.1836)" style="font-family:'Arial'; font-size:6px;">R</text><text transform="matrix(0 -1 1 0 2677.9683 429.6855)" style="font-family:'Arial'; font-size:6px;">L</text><text transform="matrix(0 -1 1 0 2677.9683 480.709)" style="font-family:'Arial'; font-size:6px;">L</text><text transform="matrix(0 -1 1 0 2524.9224 481.207)" style="font-family:'Arial'; font-size:6px;">R</text><text transform="matrix(0 -1 1 0 2524.9224 568.9141)" style="font-family:'Arial'; font-size:6px;">Y</text><text transform="matrix(0 -1 1 0 2524.9224 619.9375)" style="font-family:'Arial'; font-size:6px;">Y</text><text transform="matrix(0 -1 1 0 2720.4868 313.4517)" style="font-family:'Arial'; font-size:6px;">GR</text><text transform="matrix(1 0 0 1 2558.0684 665.0088)" style="font-family:'Arial'; font-size:6px;">(*3)</text><text transform="matrix(1 0 0 1 2609.0903 665.0088)" style="font-family:'Arial'; font-size:6px;">(*3)</text><text transform="matrix(0 -1 1 0 2536.2622 622.7695)" style="font-family:'Arial'; font-size:6px;">(*5)</text><text transform="matrix(0 -1 1 0 2536.2622 571.7461)" style="font-family:'Arial'; font-size:6px;">(*5)</text><text transform="matrix(0 -1 1 0 2536.2622 483.875)" style="font-family:'Arial'; font-size:6px;">(*5)</text><text transform="matrix(0 -1 1 0 2536.2622 432.8516)" style="font-family:'Arial'; font-size:6px;">(*5)</text><text transform="matrix(0 -1 1 0 2405.8389 158.0371)" style="font-family:'Arial'; font-size:6px;">R</text><text transform="matrix(0 -1 1 0 2312.2959 234.5767)" style="font-family:'Arial'; font-size:6px;">R</text><text transform="matrix(1 0 0 1 2561.2334 653.6699)" style="font-family:'Arial'; font-size:6px;">L</text><text transform="matrix(1 0 0 1 2560.9004 636.6621)" style="font-family:'Arial'; font-size:6px;">B</text><text transform="matrix(1 0 0 1 2611.9238 679.1816)" style="font-family:'Arial'; font-size:6px;">Y</text><text transform="matrix(1 0 0 1 2560.9004 679.1855)" style="font-family:'Arial'; font-size:6px;">Y</text><text transform="matrix(1 0 0 1 2612.2554 653.6699)" style="font-family:'Arial'; font-size:6px;">L</text><text transform="matrix(1 0 0 1 2611.9229 679.1855)" style="font-family:'Arial'; font-size:6px;">Y</text><text transform="matrix(0 -1 1 0 2524.8965 157.8818)" style="font-family:'Arial'; font-size:6px;">Y</text></svg>