﻿<?xml version="1.0" encoding="utf-8"?>
<!-- Generator: Adobe Illustrator 10.0, SVG Export Plug-In . SVG Version: 3.0.0 Build 77)  -->
<!DOCTYPE svg PUBLIC "-//W3C//DTD SVG 1.0//EN" "http://www.w3.org/TR/2001/REC-SVG-20010904/DTD/svg10.dtd"[
   <!ENTITY ns_flows "http://ns.adobe.com/Flows/1.0/">
   <!ENTITY ns_svg "http://www.w3.org/2000/svg">
   <!ENTITY ns_xlink "http://www.w3.org/1999/xlink">
   <!ENTITY st0 "font-size:7px;font-family:'MS-PGothic';adobe-font-script:japanese;">
   <!ENTITY st1 "font-size:6px;font-family:'ArialMT';">
   <!ENTITY st2 "fill:#FFFFFF;stroke:#000000; stroke-width:1.41;stroke-linecap:round;stroke-linejoin:round;">
   <!ENTITY st3 "fill:#FFFFCC;stroke:#FFFFCC; stroke-width:0.1;stroke-linecap:round;stroke-linejoin:round;">
   <!ENTITY st4 "fill:#CCCCCC;stroke:#CCCCCC; stroke-width:0.1;stroke-linecap:round;stroke-linejoin:round;">
   <!ENTITY st5 "fill:#CCECF4;stroke:#000000; stroke-width:1.133;stroke-linecap:round;stroke-linejoin:round;">
   <!ENTITY st6 "fill:none;stroke-linecap:butt; stroke-linejoin:round;">
   <!ENTITY st7 "fill:none;stroke:#000000;stroke-linecap:round;stroke-linejoin:round;">
   <!ENTITY st8 "enable-background:new;">
   <!ENTITY st9 "fill:#000000;stroke:#000000; stroke-linecap:round;stroke-linejoin:round;">
   <!ENTITY st10 "font-size:9px;font-family:'ArialMT';">
   <!ENTITY st11 "font-size:9px;font-family:'Svg Symbol';">
   <!ENTITY st12 "font-size:6px;font-family:'Svg Symbol';">
   <!ENTITY st13 "fill:none;stroke:#ff0000;stroke-linecap:round;stroke-linejoin:round;">
   <!ENTITY st14 "fill:#FFFF00;stroke:#FFFF00; stroke-width:0.1;stroke-linecap:round;stroke-linejoin:round;">
   <!ENTITY st15 "font-size:6px;font-family:'MS-PGothic';adobe-font-script:japanese;">
   <!ENTITY st16 "1.00 0.00 0.00 1.00">
   <!ENTITY st17 "0.00 -1.00 1.00 0.00">
   <!ENTITY st18 "font-size:6px;font-family:'Arial';">
   <!ENTITY st19 "font-size:9px;font-family:'Arial';">
   <!ENTITY st20 "font-size:6px;font-family:'MS-PGothic','MS PGothic';adobe-font-script:japanese;">
   <!ENTITY st21 "font-size:7px;font-family:'MS-PGothic','MS PGothic';adobe-font-script:japanese;">
   <!ATTLIST svg
       xmlns:ewd CDATA #FIXED "http://shcl.co.jp/ewd"
       xmlns:a CDATA #FIXED "http://ns.adobe.com/AdobeSVGViewerExtensions/3.0/"
       ewd:ver CDATA #IMPLIED >
   <!ATTLIST a
       ewd:lineID CDATA #IMPLIED
       ewd:groupID CDATA #IMPLIED
       ewd:figtype CDATA #IMPLIED
       ewd:code CDATA #IMPLIED
       ewd:figID CDATA #IMPLIED
       ewd:pinNo CDATA #IMPLIED
       ewd:comment CDATA #IMPLIED >
   <!ATTLIST g
       ewd:lineID CDATA #IMPLIED
       ewd:groupID CDATA #IMPLIED
       ewd:figtype CDATA #IMPLIED
       ewd:code CDATA #IMPLIED
       ewd:figID CDATA #IMPLIED
       ewd:pinNo CDATA #IMPLIED
       ewd:comment CDATA #IMPLIED >
   <!ATTLIST text
       ewd:textID CDATA #IMPLIED >
   <!ATTLIST title
       ewd:textID CDATA #IMPLIED >
]>
<svg xmlns="http://www.w3.org/2000/svg" xmlns:xlink="http://www.w3.org/1999/xlink" width="4210.08" height="721" viewBox="0 0 4210.08 721" xml:space="preserve" xmlns:ewd="http://shcl.co.jp/ewd" ewd:ver="2.0">
  
  <defs>
    <font horiz-adv-x="1229">
      <font-face font-family="Svg Symbol" units-per-em="2048" panose-1="5 5 1 2 1 7 6 2 5 7" ascent="2059" descent="450" alphabetic="0" />
      <missing-glyph d="M 103,0 l 0,1280 1024,0 0,-1280 -1024,0 z m 32,32 l 960,0 0,1216 -960,0 0,-1216 z" />
      <glyph d4p1:unicode="" horiz-adv-x="1573" d="M 1517,0 l -567,0 24,279 q 141,59 207.5,168 66.5,109 66.5,306 0,272 -132.5,417.5 -132.5,145.5 -333.5,145.5 -194,0 -328,-147.5 -134,-147.5 -134,-401.5 0,-200 68.5,-319 68.5,-119 206.5,-169 l 25,-279 -564,0 0,279 35,0 q 3,-61 32,-83 45,-35 137,-35 l 270,0 0,70 q -210,61 -324.5,209 -114.5,148 -114.5,349 0,252 186.5,425 186.5,173 504.5,173 195,0 358.5,-73.5 163.5,-73.5 252,-214.5 88.5,-141 88.5,-310 0,-207 -121.5,-360.5 -121.5,-153.5 -317.5,-197.5 l -8,-70 275,0 q 92,0 128,28 36,28 42,90 l 38,0 0,-279 z" xmlns:d4p1="def-glyph-attr-unicode" />
    </font>
  </defs>
  
<g ewd:figtype="conn" ewd:code="D52" ewd:figID="38">
      <path d="M 1996.78,246.59 L 1993.95, 246.59 L 1995.37, 243.75 L 1996.78, 246.59" style="stroke-linecap:round;stroke-linejoin:round;" />
      <path style="fill:none;stroke:#000000;stroke-width:0.85;" d="M 2037.93,257.93 L 2037.93, 240.92 L 2003.51, 240.92" />
      <path style="fill:none;stroke:#000000;stroke-width:0.85;" d="M 1987.22,240.91 L 1952.89, 240.91 L 1952.89, 257.92" />
      <path style="fill:none;stroke:#000000;stroke-width:0.85;" d="M 1995.37,246.58 L 1995.37, 257.92" />
      <path style="fill:none;stroke:#000000;stroke-width:1.417;stroke-linecap:round;stroke-linejoin:round;" d="M 2054.9,257.93 L 2054.9, 223.91 L 1944.35, 223.91 L 1944.35, 257.93 L 2054.9, 257.93" />
      <path style="fill:none;stroke:#000000;stroke-width:0.85;" d="M 1986.86,240.91 L 1988.28, 238.45 L 1991.11, 243.36 L 1993.95, 238.45 L 1996.78, 243.36 L 1999.61, 238.45 L 2002.44, 243.36 L 2003.86, 240.9" />
      <text transform="matrix(1 0 0 1 1947.2188 265.3018)" style="font-family:'Arial'; font-size:6px;">2</text>
      <text transform="matrix(1 0 0 1 1954.2617 253.96)" style="font-family:'Arial'; font-size:6px;">E2</text>
      <text transform="matrix(1 0 0 1 2039.3057 253.9624)" style="font-family:'Arial'; font-size:6px;">VC</text>
      <text transform="matrix(1 0 0 1 1987.0674 265.3008)" style="font-family:'Arial'; font-size:6px;">3</text>
      <text transform="matrix(1 0 0 1 2029.5869 265.3008)" style="font-family:'Arial'; font-size:6px;">1</text>
      <text transform="matrix(1 0 0 1 1996.7852 253.9629)" style="font-family:'Arial'; font-size:6px;">EGLS</text>
      <g ewd:figtype="title">
        <text transform="matrix(1 0 0 1 1944.333 205.0493)" style="font-family:'Arial'; font-size:6px;">D52</text>
        <text transform="matrix(1 0 0 1 1944.333 212.1362)" style="font-family:'Arial'; font-size:6px;" ewd:textID="19">EGR Valve  <tspan x="0" dy="1em">Position Sensor</tspan></text>
      </g>
    </g><g ewd:figtype="conn" ewd:code="D51" ewd:figID="39">
      <path style="fill:none;stroke:#000000;stroke-width:1.417;stroke-linecap:round;stroke-linejoin:round;" d="M 1901.87,257.93 L 1901.87, 223.91 L 1782.8, 223.91 L 1782.8, 257.93 L 1901.87, 257.93" />
      <text transform="matrix(1 0 0 1 1880.6851 253.9639)" style="font-family:'Arial'; font-size:6px;">VC</text>
      <text transform="matrix(1 0 0 1 1876.5537 265.3018)" style="font-family:'Arial'; font-size:6px;">3</text>
      <text transform="matrix(1 0 0 1 1840.332 253.9639)" style="font-family:'Arial'; font-size:6px;">E</text>
      <text transform="matrix(1 0 0 1 1834.0342 265.3018)" style="font-family:'Arial'; font-size:6px;">1</text>
      <text transform="matrix(1 0 0 1 1794.48 253.9639)" style="font-family:'Arial'; font-size:6px;">PIM</text>
      <text transform="matrix(1 0 0 1 1791.5146 265.3018)" style="font-family:'Arial'; font-size:6px;">2</text>
      <g ewd:figtype="title">
        <text transform="matrix(1 0 0 1 1782.8145 205.062)" style="font-family:'Arial'; font-size:6px;">D51</text>
        <text transform="matrix(1 0 0 1 1782.8145 212.1489)" style="font-family:'Arial'; font-size:6px;" ewd:textID="51">Turbo Pressure  <tspan x="0" dy="1em">Sensor</tspan></text>
      </g>
    </g><g ewd:figtype="gp" ewd:code="D3" ewd:figID="113">
      <path style="fill:none;stroke:#000000;stroke-width:0.85;" d="M 2029.45,708.66 L 2029.45, 711.49" />
      <path style="fill:none;stroke:#000000;stroke-width:0.85;" d="M 2028.03,720 L 2030.87, 720" />
      <path style="fill:none;stroke:#000000;stroke-width:0.85;" d="M 2026.61,717.17 L 2032.28, 717.17" />
      <path style="fill:none;stroke:#000000;stroke-width:0.85;" d="M 2023.77,714.33 L 2035.11, 714.33" />
      <path style="fill:none;stroke:#000000;stroke-width:0.85;" d="M 2020.94,711.5 L 2037.95, 711.5" />
    </g><g ewd:figtype="conn" ewd:code="D103" ewd:figID="40">
      <path d="M 1859.34,622.2 C 1860.12 622.2 1860.76 622.83 1860.76 623.62 C 1860.76001953125 624.409990234375 1860.13 625.04 1859.34 625.04 C 1858.54993164062 625.039956054688 1857.92 624.41 1857.92 623.62 C 1857.92008789062 622.829990234375 1858.56 622.2 1859.34 622.2" style="stroke-linecap:round;stroke-linejoin:round;" />
      <path d="M 1969.89,622.2 C 1970.67 622.2 1971.31 622.83 1971.31 623.62 C 1971.3101171875 624.409990234375 1970.68 625.04 1969.89 625.04 C 1969.10002929687 625.039956054688 1968.47 624.41 1968.47 623.62 C 1968.46994140625 622.829990234375 1969.11 622.2 1969.89 622.2" style="stroke-linecap:round;stroke-linejoin:round;" />
      <path style="fill:none;stroke:#000000;stroke-width:0.85;" d="M 1969.9,615.11 L 1969.9, 632.12" />
      <path style="fill:none;stroke:#000000;stroke-width:0.85;" d="M 1969.89,623.64 L 1825.33, 623.64 L 1825.33, 615.11" />
      <path style="fill:none;stroke:#000000;stroke-width:0.85;" d="M 1859.34,615.11 L 1859.34, 625.03" />
      <path style="fill:none;stroke:#000000;stroke-width:1.417;stroke-linecap:round;stroke-linejoin:round;" d="M 1978.4,632.12 L 1978.4, 615.11 L 1816.82, 615.11 L 1816.82, 632.12 L 1978.4, 632.12" />
      <text transform="matrix(1 0 0 1 1961.5967 639.4951)" style="font-family:'Arial'; font-size:6px;">1</text>
      <text transform="matrix(1 0 0 1 1961.5977 611.1484)" style="font-family:'Arial'; font-size:6px;">4</text>
      <text transform="matrix(1 0 0 1 1851.0459 611.1484)" style="font-family:'Arial'; font-size:6px;">3</text>
      <text transform="matrix(1 0 0 1 1817.0303 611.1484)" style="font-family:'Arial'; font-size:6px;">5</text>
      <g ewd:figtype="title">
        <text transform="matrix(1 0 0 1 1816.8311 640.2051)" style="font-family:'Arial'; font-size:6px;">D103</text>
        <text transform="matrix(1 0 0 1 1816.8311 647.292)" style="font-family:'Arial'; font-size:6px;" ewd:textID="37">Junction Connector</text>
      </g>
    </g><g ewd:figtype="conn" ewd:code="D10" ewd:figID="41">
      <path style="fill:none;stroke:#000000;stroke-width:0.85;" d="M 1910.37,479.14 L 1910.37, 486.55" />
      <path style="fill:none;stroke:#000000;stroke-width:0.85;" d="M 1910.37,505.54 L 1910.37, 512.95" />
      <path style="fill:none;stroke:#000000;stroke-width:0.85;" d="M 1910.37,486.13 C 1912.72 486.13 1914.62 488.03 1914.62 490.38 C 1914.62 492.73 1912.72 494.63 1910.37 494.63 C 1909.11 494.63 1907.98 494.08 1907.2 493.22 L 1907.2, 493.21 C 1907.98 492.34 1909.11 491.8 1910.37 491.8 C 1912.72 491.8 1914.62 493.7 1914.62 496.05 C 1914.62 498.4 1912.72 500.3 1910.37 500.3 C 1909.11 500.3 1907.98 499.75 1907.2 498.88 L 1907.2, 498.88 C 1907.98 498.01 1909.11 497.47 1910.37 497.47 C 1912.72 497.47 1914.62 499.37 1914.62 501.72 C 1914.61999023438 504.070002441406 1912.72 505.97 1910.37 505.97" />
      <path style="fill:none;stroke:#000000;stroke-width:1.417;stroke-linecap:round;stroke-linejoin:round;" d="M 1918.87,487.54 C 1918.87 482.84 1915.06 479.04 1910.37 479.04 C 1905.67 479.04 1901.87 482.85 1901.87 487.54 L 1901.87, 504.55 C 1901.87 509.25 1905.68 513.05 1910.37 513.05 C 1915.07 513.05 1918.87 509.24 1918.87 504.55 L 1918.87, 487.54" />
      <text transform="matrix(1 0 0 1 1902.0732 475.0762)" style="font-family:'Arial'; font-size:6px;">1</text>
      <text transform="matrix(1 0 0 1 1902.0732 520.4307)" style="font-family:'Arial'; font-size:6px;">2</text>
      <g ewd:figtype="title">
        <text transform="matrix(0 -1 1 0 1926.959 515.8926)" style="font-family:'Arial'; font-size:6px;">D10</text>
        <text transform="matrix(0 -1 1 0 1934.0459 515.8926)" style="font-family:'Arial'; font-size:6px;" ewd:textID="10">Camshaft  <tspan x="0" dy="1em">Position Sensor</tspan></text>
      </g>
    </g><g ewd:figtype="conn" ewd:code="D47" ewd:figID="28">
      <path style="fill:none;stroke:#000000;stroke-width:0.85;" d="M 2221.95,479.04 L 2221.95, 486.55" />
      <path style="fill:none;stroke:#000000;stroke-width:0.85;" d="M 2221.95,505.54 L 2221.95, 513.05" />
      <path style="fill:none;stroke:#000000;stroke-width:0.85;" d="M 2221.95,486.13 C 2224.3 486.13 2226.2 488.03 2226.2 490.38 C 2226.2 492.73 2224.3 494.63 2221.95 494.63 C 2220.69 494.63 2219.56 494.08 2218.78 493.22 L 2218.78, 493.21 C 2219.56 492.34 2220.69 491.8 2221.95 491.8 C 2224.3 491.8 2226.2 493.7 2226.2 496.05 C 2226.2 498.4 2224.3 500.3 2221.95 500.3 C 2220.69 500.3 2219.56 499.75 2218.78 498.88 L 2218.78, 498.88 C 2219.56 498.01 2220.69 497.47 2221.95 497.47 C 2224.3 497.47 2226.2 499.37 2226.2 501.72 C 2226.19990234375 504.070002441406 2224.3 505.97 2221.95 505.97" />
      <path style="fill:none;stroke:#000000;stroke-width:1.417;stroke-linecap:round;stroke-linejoin:round;" d="M 2230.46,513.05 L 2230.46, 479.04 L 2213.45, 479.04 L 2213.45, 513.05 L 2230.46, 513.05" />
      <text transform="matrix(1 0 0 1 2213.6533 475.0762)" style="font-family:'Arial'; font-size:6px;">1</text>
      <text transform="matrix(1 0 0 1 2213.6533 520.4307)" style="font-family:'Arial'; font-size:6px;">2</text>
      <g ewd:figtype="title">
        <text transform="matrix(0 -1 1 0 2238.541 515.8926)" style="font-family:'Arial'; font-size:6px;">D47</text>
        <text transform="matrix(0 -1 1 0 2245.627 515.8926)" style="font-family:'Arial'; font-size:6px;" ewd:textID="45">Suction  <tspan x="0" dy="1em">Control Valve</tspan></text>
      </g>
    </g><g ewd:figtype="gp" ewd:code="B2" ewd:figID="95">
      <path style="fill:none;stroke:#000000;stroke-width:0.85;" d="M 2153.93,708.66 L 2153.93, 711.49" />
      <path style="fill:none;stroke:#000000;stroke-width:0.85;" d="M 2152.51,720 L 2155.35, 720" />
      <path style="fill:none;stroke:#000000;stroke-width:0.85;" d="M 2151.09,717.17 L 2156.76, 717.17" />
      <path style="fill:none;stroke:#000000;stroke-width:0.85;" d="M 2148.26,714.33 L 2159.6, 714.33" />
      <path style="fill:none;stroke:#000000;stroke-width:0.85;" d="M 2145.42,711.5 L 2162.43, 711.5" />
    </g><g ewd:figtype="conn" ewd:code="D45" ewd:figID="55">
      <path style="fill:none;stroke:#000000;stroke-width:1.417;stroke-linecap:round;stroke-linejoin:round;" d="M 2259.14,257.92 L 2259.14, 223.91 L 2140.08, 223.91 L 2140.08, 257.92 L 2259.14, 257.92" />
      <text transform="matrix(1 0 0 1 2148.6846 265.3018)" style="font-family:'Arial'; font-size:6px;">2</text>
      <text transform="matrix(1 0 0 1 2191.2041 265.3018)" style="font-family:'Arial'; font-size:6px;">1</text>
      <text transform="matrix(1 0 0 1 2233.7236 265.3018)" style="font-family:'Arial'; font-size:6px;">3</text>
      <text transform="matrix(1 0 0 1 2237.9531 253.9619)" style="font-family:'Arial'; font-size:6px;">VC</text>
      <text transform="matrix(1 0 0 1 2195.9316 253.9619)" style="font-family:'Arial'; font-size:6px;">E2</text>
      <text transform="matrix(1 0 0 1 2152.916 253.9619)" style="font-family:'Arial'; font-size:6px;">PR</text>
      <g ewd:figtype="title">
        <text transform="matrix(1 0 0 1 2140.1621 212.1484)" style="font-family:'Arial'; font-size:6px;">D45</text>
        <text transform="matrix(1 0 0 1 2140.1621 219.2354)" style="font-family:'Arial'; font-size:6px;" ewd:textID="27">Fuel Pressure Sensor</text>
      </g>
    </g><g ewd:figtype="comment" ewd:code="3" ewd:figID="1005">
      <text transform="matrix(1 0 0 1 2208.084 10.8784)" style="font-family:'Arial'; font-size:6px;">*3 : LHD</text>
    </g><g ewd:figtype="comment" ewd:code="4" ewd:figID="1004">
      <text transform="matrix(1 0 0 1 2208.084 19.3818)" style="font-family:'Arial'; font-size:6px;">*4 : RHD</text>
    </g><text transform="matrix(0 -1 1 0 1795.8457 302.4482)" style="font-family:'Arial'; font-size:6px;">P</text><text transform="matrix(0 -1 1 0 1838.3652 302.4482)" style="font-family:'Arial'; font-size:6px;">Y</text><text transform="matrix(0 -1 1 0 1880.8848 302.1157)" style="font-family:'Arial'; font-size:6px;">L</text><text transform="matrix(0 -1 1 0 1991.4199 302.4482)" style="font-family:'Arial'; font-size:6px;">P</text><text transform="matrix(0 -1 1 0 2033.9395 302.1157)" style="font-family:'Arial'; font-size:6px;">L</text><text transform="matrix(0 -1 1 0 1948.9004 302.4482)" style="font-family:'Arial'; font-size:6px;">Y</text><text transform="matrix(0 -1 1 0 2068.0039 432.1816)" style="font-family:'Arial'; font-size:6px;">BR</text><text transform="matrix(0 -1 1 0 2025.4844 432.1816)" style="font-family:'Arial'; font-size:6px;">BR</text><text transform="matrix(1 0 0 1 1989.5928 662.1748)" style="font-family:'Arial'; font-size:6px;">W-B</text><text transform="matrix(1 0 0 1 1930.0518 662.1748)" style="font-family:'Arial'; font-size:6px;">W-B</text><text transform="matrix(0 -1 1 0 1855.3789 585.2617)" style="font-family:'Arial'; font-size:6px;">BR</text><text transform="matrix(0 -1 1 0 1965.9297 585.2617)" style="font-family:'Arial'; font-size:6px;">BR</text><text transform="matrix(0 -1 1 0 1821.3633 585.2617)" style="font-family:'Arial'; font-size:6px;">BR</text><text transform="matrix(0 -1 1 0 1906.4023 430.1885)" style="font-family:'Arial'; font-size:6px;">R</text><text transform="matrix(0 -1 1 0 1948.9268 430.3555)" style="font-family:'Arial'; font-size:6px;">G</text><text transform="matrix(0 -1 1 0 1770.6816 576.752)" style="font-family:'Arial'; font-size:6px;">BR</text><text transform="matrix(0 -1 1 0 2153.1328 302.4482)" style="font-family:'Arial'; font-size:6px;">P</text><text transform="matrix(0 -1 1 0 2195.6523 302.4482)" style="font-family:'Arial'; font-size:6px;">Y</text><text transform="matrix(0 -1 1 0 2238.1719 302.1157)" style="font-family:'Arial'; font-size:6px;">L</text><text transform="matrix(0 -1 1 0 2149.9648 433.8457)" style="font-family:'Arial'; font-size:6px;">W-B</text><text transform="matrix(0 -1 1 0 2217.9961 430.0156)" style="font-family:'Arial'; font-size:6px;">P</text><text transform="matrix(0 -1 1 0 2068 653.2881)" style="font-family:'Arial'; font-size:6px;">BR</text><text transform="matrix(0 -1 1 0 2025.4766 653.2881)" style="font-family:'Arial'; font-size:6px;">BR</text><text transform="matrix(0 -1 1 0 1855.3789 432.1895)" style="font-family:'Arial'; font-size:6px;">BR</text><text transform="matrix(0 -1 1 0 2149.9648 654.9521)" style="font-family:'Arial'; font-size:6px;">W-B</text><g ewd:figID="1101">
      <path style="fill:none;stroke:#000000;stroke-width:0.85;stroke-dasharray:6 3;" d="M 1969.9,436.52 L 1969.9, 411.01 L 1893.36, 411.01 L 1893.36, 445.03 L 1961.4, 445.03" />
      <g ewd:figtype="comment">
        <text transform="matrix(0 -1 1 0 1889.3984 441.6895)" style="font-family:'Arial'; font-size:6px;" ewd:textID="1">(Shielded)</text>
      </g>
    </g></svg>