﻿<?xml version="1.0" encoding="utf-8"?>
<!-- Generator: Adobe Illustrator 10.0, SVG Export Plug-In . SVG Version: 3.0.0 Build 77)  -->
<!DOCTYPE svg PUBLIC "-//W3C//DTD SVG 1.0//EN" "http://www.w3.org/TR/2001/REC-SVG-20010904/DTD/svg10.dtd"[
   <!ENTITY ns_flows "http://ns.adobe.com/Flows/1.0/">
   <!ENTITY ns_svg "http://www.w3.org/2000/svg">
   <!ENTITY ns_xlink "http://www.w3.org/1999/xlink">
   <!ENTITY st0 "font-size:7px;font-family:'MS-PGothic';adobe-font-script:japanese;">
   <!ENTITY st1 "font-size:6px;font-family:'ArialMT';">
   <!ENTITY st2 "fill:#FFFFFF;stroke:#000000; stroke-width:1.41;stroke-linecap:round;stroke-linejoin:round;">
   <!ENTITY st3 "fill:#FFFFCC;stroke:#FFFFCC; stroke-width:0.1;stroke-linecap:round;stroke-linejoin:round;">
   <!ENTITY st4 "fill:#CCCCCC;stroke:#CCCCCC; stroke-width:0.1;stroke-linecap:round;stroke-linejoin:round;">
   <!ENTITY st5 "fill:#CCECF4;stroke:#000000; stroke-width:1.133;stroke-linecap:round;stroke-linejoin:round;">
   <!ENTITY st6 "fill:none;stroke-linecap:butt; stroke-linejoin:round;">
   <!ENTITY st7 "fill:none;stroke:#000000;stroke-linecap:round;stroke-linejoin:round;">
   <!ENTITY st8 "enable-background:new;">
   <!ENTITY st9 "fill:#000000;stroke:#000000; stroke-linecap:round;stroke-linejoin:round;">
   <!ENTITY st10 "font-size:9px;font-family:'ArialMT';">
   <!ENTITY st11 "font-size:9px;font-family:'Svg Symbol';">
   <!ENTITY st12 "font-size:6px;font-family:'Svg Symbol';">
   <!ENTITY st13 "fill:none;stroke:#ff0000;stroke-linecap:round;stroke-linejoin:round;">
   <!ENTITY st14 "fill:#FFFF00;stroke:#FFFF00; stroke-width:0.1;stroke-linecap:round;stroke-linejoin:round;">
   <!ENTITY st15 "font-size:6px;font-family:'MS-PGothic';adobe-font-script:japanese;">
   <!ENTITY st16 "1.00 0.00 0.00 1.00">
   <!ENTITY st17 "0.00 -1.00 1.00 0.00">
   <!ENTITY st18 "font-size:6px;font-family:'Arial';">
   <!ENTITY st19 "font-size:9px;font-family:'Arial';">
   <!ENTITY st20 "font-size:6px;font-family:'MS-PGothic','MS PGothic';adobe-font-script:japanese;">
   <!ENTITY st21 "font-size:7px;font-family:'MS-PGothic','MS PGothic';adobe-font-script:japanese;">
   <!ATTLIST svg
       xmlns:ewd CDATA #FIXED "http://shcl.co.jp/ewd"
       xmlns:a CDATA #FIXED "http://ns.adobe.com/AdobeSVGViewerExtensions/3.0/"
       ewd:ver CDATA #IMPLIED >
   <!ATTLIST a
       ewd:lineID CDATA #IMPLIED
       ewd:groupID CDATA #IMPLIED
       ewd:figtype CDATA #IMPLIED
       ewd:code CDATA #IMPLIED
       ewd:figID CDATA #IMPLIED
       ewd:pinNo CDATA #IMPLIED
       ewd:comment CDATA #IMPLIED >
   <!ATTLIST g
       ewd:lineID CDATA #IMPLIED
       ewd:groupID CDATA #IMPLIED
       ewd:figtype CDATA #IMPLIED
       ewd:code CDATA #IMPLIED
       ewd:figID CDATA #IMPLIED
       ewd:pinNo CDATA #IMPLIED
       ewd:comment CDATA #IMPLIED >
   <!ATTLIST text
       ewd:textID CDATA #IMPLIED >
   <!ATTLIST title
       ewd:textID CDATA #IMPLIED >
]>
<svg xmlns="http://www.w3.org/2000/svg" xmlns:xlink="http://www.w3.org/1999/xlink" width="5790.82" height="721" viewBox="0 0 5790.82 721" xml:space="preserve" xmlns:ewd="http://shcl.co.jp/ewd" ewd:ver="2.0">
  
  <defs>
    <font horiz-adv-x="1229">
      <font-face font-family="Svg Symbol" units-per-em="2048" panose-1="5 5 1 2 1 7 6 2 5 7" ascent="2059" descent="450" alphabetic="0" />
      <missing-glyph d="M 103,0 l 0,1280 1024,0 0,-1280 -1024,0 z m 32,32 l 960,0 0,1216 -960,0 0,-1216 z" />
      <glyph d4p1:unicode="" horiz-adv-x="1573" d="M 1517,0 l -567,0 24,279 q 141,59 207.5,168 66.5,109 66.5,306 0,272 -132.5,417.5 -132.5,145.5 -333.5,145.5 -194,0 -328,-147.5 -134,-147.5 -134,-401.5 0,-200 68.5,-319 68.5,-119 206.5,-169 l 25,-279 -564,0 0,279 35,0 q 3,-61 32,-83 45,-35 137,-35 l 270,0 0,70 q -210,61 -324.5,209 -114.5,148 -114.5,349 0,252 186.5,425 186.5,173 504.5,173 195,0 358.5,-73.5 163.5,-73.5 252,-214.5 88.5,-141 88.5,-310 0,-207 -121.5,-360.5 -121.5,-153.5 -317.5,-197.5 l -8,-70 275,0 q 92,0 128,28 36,28 42,90 l 38,0 0,-279 z" xmlns:d4p1="def-glyph-attr-unicode" />
    </font>
  </defs>
  
<g ewd:figtype="jb" ewd:code="6" ewd:figID="5">
      <path style="fill:none;stroke:#000000;stroke-width:0.85;" d="M 5344.95,473.37 L 5344.95, 501.72" />
      <path d="M 5344.95,501.72 L 5347.78, 498.89 L 5347.78, 496.06 L 5344.95, 498.89 L 5342.12, 496.06 L 5342.12, 498.89 L 5344.95, 501.72" style="stroke-linecap:round;stroke-linejoin:round;" />
      <path style="fill:none;stroke:#000000;stroke-width:0.85;stroke-linecap:round;stroke-linejoin:round;" d="M 5349.21,513.06 C 5352.34 513.06 5354.88 510.52 5354.88 507.39 C 5354.88 504.26 5352.34 501.72 5349.21 501.72 L 5340.71, 501.72 C 5337.58 501.72 5335.04 504.26 5335.04 507.39 C 5335.04 510.52 5337.58 513.06 5340.71 513.06 L 5349.21, 513.06" />
      <path d="M 5344.95,473.37 L 5347.78, 476.2 L 5347.78, 479.04 L 5344.95, 476.2 L 5342.12, 479.04 L 5342.12, 476.2 L 5344.95, 473.37" style="stroke-linecap:round;stroke-linejoin:round;" />
      <path style="fill:none;stroke:#000000;stroke-width:0.85;stroke-linecap:round;stroke-linejoin:round;" d="M 5349.21,473.37 C 5352.34 473.37 5354.88 470.83 5354.88 467.7 C 5354.88 464.57 5352.34 462.03 5349.21 462.03 L 5340.71, 462.03 C 5337.58 462.03 5335.04 464.57 5335.04 467.7 C 5335.04 470.83 5337.58 473.37 5340.71 473.37 L 5349.21, 473.37" />
      <text transform="matrix(1 0 0 1 5341.1191 509.0928)" style="font-family:'Arial'; font-size:6px;">6D</text>
      <text transform="matrix(1 0 0 1 5330.2793 509.0928)" style="font-family:'Arial'; font-size:6px;">1</text>
      <text transform="matrix(1 0 0 1 5341.1182 469.2295)" style="font-family:'Arial'; font-size:6px;">6D</text>
      <text transform="matrix(1 0 0 1 5330.2793 469.4072)" style="font-family:'Arial'; font-size:6px;">2</text>
    </g><g ewd:figtype="jb" ewd:code="6" ewd:figID="4">
      <path style="fill:none;stroke:#000000;stroke-width:0.85;" d="M 5413,473.37 L 5413, 501.72" />
      <path d="M 5412.99,501.72 L 5415.82, 498.89 L 5415.82, 496.06 L 5412.99, 498.89 L 5410.16, 496.06 L 5410.16, 498.89 L 5412.99, 501.72" style="stroke-linecap:round;stroke-linejoin:round;" />
      <path style="fill:none;stroke:#000000;stroke-width:0.85;stroke-linecap:round;stroke-linejoin:round;" d="M 5417.24,513.06 C 5420.37 513.06 5422.91 510.52 5422.91 507.39 C 5422.91 504.26 5420.37 501.72 5417.24 501.72 L 5408.74, 501.72 C 5405.61 501.72 5403.07 504.26 5403.07 507.39 C 5403.07 510.52 5405.61 513.06 5408.74 513.06 L 5417.24, 513.06" />
      <path d="M 5412.99,473.37 L 5415.82, 476.2 L 5415.82, 479.04 L 5412.99, 476.2 L 5410.16, 479.04 L 5410.16, 476.2 L 5412.99, 473.37" style="stroke-linecap:round;stroke-linejoin:round;" />
      <path style="fill:none;stroke:#000000;stroke-width:0.85;stroke-linecap:round;stroke-linejoin:round;" d="M 5417.24,473.37 C 5420.37 473.37 5422.91 470.83 5422.91 467.7 C 5422.91 464.57 5420.37 462.03 5417.24 462.03 L 5408.74, 462.03 C 5405.61 462.03 5403.07 464.57 5403.07 467.7 C 5403.07 470.83 5405.61 473.37 5408.74 473.37 L 5417.24, 473.37" />
      <text transform="matrix(1 0 0 1 5409.4844 509.0928)" style="font-family:'Arial'; font-size:6px;">6F</text>
      <text transform="matrix(1 0 0 1 5398.3105 509.0928)" style="font-family:'Arial'; font-size:6px;">1</text>
      <text transform="matrix(1 0 0 1 5409.4834 469.2295)" style="font-family:'Arial'; font-size:6px;">6F</text>
      <text transform="matrix(1 0 0 1 5398.3105 469.4072)" style="font-family:'Arial'; font-size:6px;">2</text>
    </g><g ewd:figtype="jb" ewd:code="13" ewd:figID="3">
      <path style="fill:none;stroke:#000000;stroke-width:0.85;" d="M 5344.95,566.92 L 5344.95, 595.27" />
      <path d="M 5344.95,595.26 L 5347.78, 592.43 L 5347.78, 589.6 L 5344.95, 592.43 L 5342.12, 589.6 L 5342.12, 592.43 L 5344.95, 595.26" style="stroke-linecap:round;stroke-linejoin:round;" />
      <path style="fill:none;stroke:#000000;stroke-width:0.85;stroke-linecap:round;stroke-linejoin:round;" d="M 5349.21,606.6 C 5352.34 606.6 5354.88 604.06 5354.88 600.93 C 5354.88 597.8 5352.34 595.26 5349.21 595.26 L 5340.71, 595.26 C 5337.58 595.26 5335.04 597.8 5335.04 600.93 C 5335.04 604.06 5337.58 606.6 5340.71 606.6 L 5349.21, 606.6" />
      <path d="M 5344.95,566.92 L 5347.78, 569.75 L 5347.78, 572.59 L 5344.95, 569.75 L 5342.12, 572.59 L 5342.12, 569.75 L 5344.95, 566.92" style="stroke-linecap:round;stroke-linejoin:round;" />
      <path style="fill:none;stroke:#000000;stroke-width:0.85;stroke-linecap:round;stroke-linejoin:round;" d="M 5349.21,566.92 C 5352.34 566.92 5354.88 564.38 5354.88 561.25 C 5354.88 558.12 5352.34 555.58 5349.21 555.58 L 5340.71, 555.58 C 5337.58 555.58 5335.04 558.12 5335.04 561.25 C 5335.04 564.38 5337.58 566.92 5340.71 566.92 L 5349.21, 566.92" />
      <text transform="matrix(1 0 0 1 5339.6162 602.6377)" style="font-family:'Arial'; font-size:6px;">13E</text>
      <text transform="matrix(1 0 0 1 5330.2793 602.6377)" style="font-family:'Arial'; font-size:6px;">7</text>
      <text transform="matrix(1 0 0 1 5339.4502 562.7744)" style="font-family:'Arial'; font-size:6px;">13H</text>
      <text transform="matrix(1 0 0 1 5330.2793 562.9521)" style="font-family:'Arial'; font-size:6px;">4</text>
    </g><g ewd:figtype="jb" ewd:code="13" ewd:figID="2">
      <path style="fill:none;stroke:#000000;stroke-width:0.85;" d="M 5566.07,110.52 L 5566.07, 96.34 L 5608.59, 96.34 L 5608.59, 110.52" />
      <path d="M 5566.07,110.52 L 5568.9, 107.69 L 5568.9, 104.86 L 5566.07, 107.69 L 5563.24, 104.86 L 5563.24, 107.69 L 5566.07, 110.52" style="stroke-linecap:round;stroke-linejoin:round;" />
      <path style="fill:none;stroke:#000000;stroke-width:0.85;stroke-linecap:round;stroke-linejoin:round;" d="M 5570.32,121.86 C 5573.45 121.86 5575.99 119.32 5575.99 116.19 C 5575.99 113.06 5573.45 110.52 5570.32 110.52 L 5561.82, 110.52 C 5558.69 110.52 5556.15 113.06 5556.15 116.19 C 5556.15 119.32 5558.69 121.86 5561.82 121.86 L 5570.32, 121.86" />
      <path d="M 5608.59,110.52 L 5611.42, 107.69 L 5611.42, 104.86 L 5608.59, 107.69 L 5605.76, 104.86 L 5605.76, 107.69 L 5608.59, 110.52" style="stroke-linecap:round;stroke-linejoin:round;" />
      <path style="fill:none;stroke:#000000;stroke-width:0.85;stroke-linecap:round;stroke-linejoin:round;" d="M 5612.84,121.86 C 5615.97 121.86 5618.51 119.32 5618.51 116.19 C 5618.51 113.06 5615.97 110.52 5612.84 110.52 L 5604.34, 110.52 C 5601.21 110.52 5598.67 113.06 5598.67 116.19 C 5598.67 119.32 5601.21 121.86 5604.34 121.86 L 5612.84, 121.86" />
      <text transform="matrix(1 0 0 1 5560.7295 117.897)" style="font-family:'Arial'; font-size:6px;">13E</text>
      <text transform="matrix(1 0 0 1 5548.0557 117.897)" style="font-family:'Arial'; font-size:6px;">18</text>
      <text transform="matrix(1 0 0 1 5603.249 117.897)" style="font-family:'Arial'; font-size:6px;">13S</text>
      <text transform="matrix(1 0 0 1 5593.9121 117.897)" style="font-family:'Arial'; font-size:6px;">8</text>
    </g><g ewd:figtype="rb" ewd:code="FUSE130" ewd:figID="19">
      <path style="fill:none;stroke:#000000;stroke-width:0.85;" d="M 5489.53,80.75 L 5489.53, 102.01" />
      <path d="M 5489.53,102.01 L 5492.37, 99.18 L 5492.37, 96.35 L 5489.53, 99.18 L 5486.7, 96.35 L 5486.7, 99.18 L 5489.53, 102.01" style="stroke-linecap:round;stroke-linejoin:round;" />
      <path style="fill:none;stroke:#000000;stroke-width:0.85;stroke-linecap:round;stroke-linejoin:round;" d="M 5493.79,113.35 C 5496.92 113.35 5499.46 110.81 5499.46 107.68 C 5499.46 104.55 5496.92 102.01 5493.79 102.01 L 5485.28, 102.01 C 5482.15 102.01 5479.61 104.55 5479.61 107.68 C 5479.61 110.81 5482.15 113.35 5485.28 113.35 L 5493.79, 113.35" />
      <path style="fill:none;stroke:#000000;stroke-width:0.85;stroke-linecap:round;stroke-linejoin:round;" d="M 5489.53,80.75 C 5490.31 80.75 5490.95 80.12 5490.95 79.33 C 5490.95 78.55 5490.32 77.91 5489.53 77.91 C 5488.75 77.91 5488.11 78.54 5488.11 79.33 C 5488.12 80.12 5488.75 80.75 5489.53 80.75" />
      <path style="fill:none;stroke:#000000;stroke-width:0.85;stroke-linecap:round;stroke-linejoin:round;" d="M 5489.53,55.24 C 5490.31 55.24 5490.95 54.61 5490.95 53.82 C 5490.950390625 53.0299993896484 5490.32 52.4 5489.53 52.4 C 5488.75 52.4 5488.11 53.03 5488.11 53.82 C 5488.1097265625 54.6099993896484 5488.75 55.24 5489.53 55.24" />
      <path style="fill:none;stroke:#000000;stroke-width:1.417;" d="M 5488.53,54.82 C 5488.53 54.82 5482.46 59.5 5489.53 66.57 C 5496.5995703125 73.6399993896484 5490.53 78.32 5490.53 78.32" />
      <path style="fill:none;stroke:#000000;stroke-width:1.417;stroke-linecap:round;stroke-linejoin:round;" d="M 5502.29,87.84 L 5502.29, 45.32 L 5476.78, 45.32 L 5476.78, 87.84 L 5502.29, 87.84" />
      <text transform="matrix(1 0 0 1 5486.1963 109.3882)" style="font-family:'Arial'; font-size:6px;">11</text>
      <text transform="matrix(1 0 0 1 5481.2344 95.2144)" style="font-family:'Arial'; font-size:6px;">2</text>
      <text transform="matrix(1 0 0 1 5481.7002 41.3545)" style="font-family:'Arial'; font-size:6px;">(BAT)</text>
      <text transform="matrix(1 0 0 1 5505.124 64.7412)" style="font-family:'Arial'; font-size:6px;">10A<tspan x="0" dy="1em">DOME</tspan><tspan x="0" dy="1em">NO. 1</tspan></text>
    </g><g ewd:figtype="jb" ewd:code="13" ewd:figID="1">
      <path style="fill:none;stroke:#000000;stroke-width:0.85;" d="M 5668.17,80.75 L 5668.17, 87.84" />
      <path style="fill:none;stroke:#000000;stroke-width:0.85;" d="M 5668.17,87.84 L 5668.17, 110.52" />
      <path style="fill:none;stroke:#000000;stroke-width:0.85;" d="M 5744.67,80.75 L 5744.67, 87.84" />
      <path style="fill:none;stroke:#000000;stroke-width:0.85;" d="M 5744.67,87.84 L 5744.67, 110.52" />
      <path style="fill:none;stroke:#000000;stroke-width:0.85;stroke-linecap:round;stroke-linejoin:round;" d="M 5668.17,80.75 C 5668.95 80.75 5669.59 80.12 5669.59 79.33 C 5669.5896875 78.5400036621094 5668.96 77.91 5668.17 77.91 C 5667.37984375 77.9100073242188 5666.75 78.54 5666.75 79.33 C 5666.75 80.1200036621094 5667.39 80.75 5668.17 80.75" />
      <path style="fill:none;stroke:#000000;stroke-width:0.85;stroke-linecap:round;stroke-linejoin:round;" d="M 5668.17,55.24 C 5668.95 55.24 5669.59 54.61 5669.59 53.82 C 5669.5896875 53.0299993896484 5668.96 52.4 5668.17 52.4 C 5667.37984375 52.4000030517578 5666.75 53.03 5666.75 53.82 C 5666.75 54.6099993896484 5667.39 55.24 5668.17 55.24" />
      <path style="fill:none;stroke:#000000;stroke-width:1.417;" d="M 5667.17,54.82 C 5667.17 54.82 5661.1 59.5 5668.17 66.57 C 5675.23984375 73.6399993896484 5669.17 78.32 5669.17 78.32" />
      <path style="fill:none;stroke:#000000;stroke-width:1.417;stroke-linecap:round;stroke-linejoin:round;" d="M 5680.93,87.84 L 5680.93, 45.32 L 5655.42, 45.32 L 5655.42, 87.84 L 5680.93, 87.84" />
      <path d="M 5668.17,110.52 L 5671, 107.69 L 5671, 104.86 L 5668.17, 107.69 L 5665.33, 104.86 L 5665.33, 107.69 L 5668.17, 110.52" style="stroke-linecap:round;stroke-linejoin:round;" />
      <path style="fill:none;stroke:#000000;stroke-width:0.85;stroke-linecap:round;stroke-linejoin:round;" d="M 5672.43,121.85 C 5675.56 121.85 5678.1 119.31 5678.1 116.18 C 5678.1 113.05 5675.56 110.51 5672.43 110.51 L 5663.92, 110.51 C 5660.79 110.51 5658.25 113.05 5658.25 116.18 C 5658.25 119.31 5660.79 121.85 5663.92 121.85 L 5672.43, 121.85" />
      <path style="fill:none;stroke:#000000;stroke-width:0.85;stroke-linecap:round;stroke-linejoin:round;" d="M 5744.67,80.75 C 5745.45 80.75 5746.09 80.12 5746.09 79.33 C 5746.0896875 78.5400036621094 5745.46 77.91 5744.67 77.91 C 5743.87984375 77.9100073242188 5743.25 78.54 5743.25 79.33 C 5743.25 80.1200036621094 5743.89 80.75 5744.67 80.75" />
      <path style="fill:none;stroke:#000000;stroke-width:0.85;stroke-linecap:round;stroke-linejoin:round;" d="M 5744.67,55.24 C 5745.45 55.24 5746.09 54.61 5746.09 53.82 C 5746.0896875 53.0299993896484 5745.46 52.4 5744.67 52.4 C 5743.87984375 52.4000030517578 5743.25 53.03 5743.25 53.82 C 5743.25 54.6099993896484 5743.89 55.24 5744.67 55.24" />
      <path style="fill:none;stroke:#000000;stroke-width:1.417;" d="M 5743.67,54.82 C 5743.67 54.82 5737.6 59.5 5744.67 66.57 C 5751.73984375 73.6399993896484 5745.67 78.32 5745.67 78.32" />
      <path style="fill:none;stroke:#000000;stroke-width:1.417;stroke-linecap:round;stroke-linejoin:round;" d="M 5757.42,87.84 L 5757.42, 45.32 L 5731.91, 45.32 L 5731.91, 87.84 L 5757.42, 87.84" />
      <path d="M 5744.67,110.51 L 5747.5, 107.68 L 5747.5, 104.85 L 5744.67, 107.68 L 5741.83, 104.85 L 5741.83, 107.68 L 5744.67, 110.51" style="stroke-linecap:round;stroke-linejoin:round;" />
      <path style="fill:none;stroke:#000000;stroke-width:0.85;stroke-linecap:round;stroke-linejoin:round;" d="M 5748.92,121.85 C 5752.05 121.85 5754.59 119.31 5754.59 116.18 C 5754.59 113.05 5752.05 110.51 5748.92 110.51 L 5740.41, 110.51 C 5737.28 110.51 5734.74 113.05 5734.74 116.18 C 5734.74 119.31 5737.28 121.85 5740.41 121.85 L 5748.92, 121.85" />
      <text transform="matrix(1 0 0 1 5659.877 95.2134)" style="font-family:'Arial'; font-size:6px;">2</text>
      <text transform="matrix(1 0 0 1 5663.0098 41.354)" style="font-family:'Arial'; font-size:6px;">(IG)</text>
      <text transform="matrix(1 0 0 1 5683.7646 64.7407)" style="font-family:'Arial'; font-size:6px;">10A<tspan x="0" dy="1em">MET IGN</tspan></text>
      <text transform="matrix(1 0 0 1 5662.3379 117.8911)" style="font-family:'Arial'; font-size:6px;">13M</text>
      <text transform="matrix(1 0 0 1 5653.5 117.8911)" style="font-family:'Arial'; font-size:6px;">1</text>
      <text transform="matrix(1 0 0 1 5739.5029 41.353)" style="font-family:'Arial'; font-size:6px;">(IG)</text>
      <text transform="matrix(1 0 0 1 5760.2588 61.1963)" style="font-family:'Arial'; font-size:6px;">10A <tspan x="0" dy="1em">GAUGE</tspan><tspan x="0" dy="1em">NO. 1</tspan></text>
      <text transform="matrix(1 0 0 1 5739.3301 117.8906)" style="font-family:'Arial'; font-size:6px;">13E</text>
      <text transform="matrix(1 0 0 1 5729.9941 117.8906)" style="font-family:'Arial'; font-size:6px;">2</text>
    </g><g ewd:figtype="w2w" ewd:code="HB4" ewd:pin_no="17" ewd:figID="123">
      <path style="fill:#FFFFFF;stroke:#FFFFFF;stroke-width:0;stroke-linecap:round;stroke-linejoin:round;" d="M 5697.9,505.44 L 5693.65, 501.19 L 5689.4, 505.44 L 5689.4, 498.89 L 5697.9, 498.89 L 5697.9, 505.44" />
      <path style="fill:#FFFFFF;stroke:#FFFFFF;stroke-width:0;stroke-linecap:round;stroke-linejoin:round;" d="M 5697.9,502.6 L 5693.65, 498.35 L 5689.4, 502.6 L 5689.4, 496.05 L 5697.9, 496.05 L 5697.9, 502.6" />
      <path style="fill:none;stroke:#000000;stroke-width:0.85;" d="M 5697.9,503.14 L 5693.65, 498.89 L 5689.4, 503.14" />
      <path style="fill:none;stroke:#000000;stroke-width:0.85;" d="M 5697.9,500.3 L 5693.65, 496.05 L 5689.4, 500.3" />
      <path style="fill:none;stroke:#000000;stroke-width:0.85;stroke-linecap:round;stroke-linejoin:round;" d="M 5703.57,487.54 L 5703.57, 496.04 L 5683.73, 496.04 L 5683.73, 487.54 L 5703.57, 487.54" />
      <text transform="matrix(1 0 0 1 5675.6318 493.5029)" style="font-family:'Arial'; font-size:6px;">17</text>
    </g><g ewd:figtype="w2w" ewd:code="DB4" ewd:pin_no="7" ewd:figID="124">
      <path style="fill:#FFFFFF;stroke:#FFFFFF;stroke-width:0;stroke-linecap:round;stroke-linejoin:round;" d="M 5697.9,546.18 L 5693.65, 550.43 L 5689.4, 546.18 L 5689.4, 552.73 L 5697.9, 552.73 L 5697.9, 546.18" />
      <path style="fill:#FFFFFF;stroke:#FFFFFF;stroke-width:0;stroke-linecap:round;stroke-linejoin:round;" d="M 5697.9,549.01 L 5693.65, 553.26 L 5689.4, 549.01 L 5689.4, 555.56 L 5697.9, 555.56 L 5697.9, 549.01" />
      <path style="fill:none;stroke:#000000;stroke-width:0.85;" d="M 5697.9,548.48 L 5693.65, 552.73 L 5689.4, 548.48" />
      <path style="fill:none;stroke:#000000;stroke-width:0.85;" d="M 5697.9,551.31 L 5693.65, 555.56 L 5689.4, 551.31" />
      <path style="fill:none;stroke:#000000;stroke-width:0.85;stroke-linecap:round;stroke-linejoin:round;" d="M 5703.57,564.07 L 5703.57, 555.57 L 5683.73, 555.57 L 5683.73, 564.07 L 5703.57, 564.07" />
      <text transform="matrix(1 0 0 1 5678.9727 561.5215)" style="font-family:'Arial'; font-size:6px;">7</text>
    </g><g ewd:figtype="w2w" ewd:code="DB4" ewd:pin_no="5" ewd:figID="125">
      <path style="fill:#FFFFFF;stroke:#FFFFFF;stroke-width:0;stroke-linecap:round;stroke-linejoin:round;" d="M 5748.93,546.18 L 5744.68, 550.43 L 5740.43, 546.18 L 5740.43, 552.73 L 5748.93, 552.73 L 5748.93, 546.18" />
      <path style="fill:#FFFFFF;stroke:#FFFFFF;stroke-width:0;stroke-linecap:round;stroke-linejoin:round;" d="M 5748.93,549.01 L 5744.68, 553.26 L 5740.43, 549.01 L 5740.43, 555.56 L 5748.93, 555.56 L 5748.93, 549.01" />
      <path style="fill:none;stroke:#000000;stroke-width:0.85;" d="M 5748.93,548.48 L 5744.68, 552.73 L 5740.43, 548.48" />
      <path style="fill:none;stroke:#000000;stroke-width:0.85;" d="M 5748.93,551.31 L 5744.68, 555.56 L 5740.43, 551.31" />
      <path style="fill:none;stroke:#000000;stroke-width:0.85;stroke-linecap:round;stroke-linejoin:round;" d="M 5754.6,564.07 L 5754.6, 555.57 L 5734.76, 555.57 L 5734.76, 564.07 L 5754.6, 564.07" />
      <text transform="matrix(1 0 0 1 5730.002 561.5215)" style="font-family:'Arial'; font-size:6px;">5</text>
    </g><g ewd:figtype="w2w" ewd:code="HB4" ewd:pin_no="16" ewd:figID="145">
      <path style="fill:#FFFFFF;stroke:#FFFFFF;stroke-width:0;stroke-linecap:round;stroke-linejoin:round;" d="M 5663.88,505.44 L 5659.63, 501.19 L 5655.38, 505.44 L 5655.38, 498.89 L 5663.88, 498.89 L 5663.88, 505.44" />
      <path style="fill:#FFFFFF;stroke:#FFFFFF;stroke-width:0;stroke-linecap:round;stroke-linejoin:round;" d="M 5663.88,502.6 L 5659.63, 498.35 L 5655.38, 502.6 L 5655.38, 496.05 L 5663.88, 496.05 L 5663.88, 502.6" />
      <path style="fill:none;stroke:#000000;stroke-width:0.85;" d="M 5663.88,503.14 L 5659.63, 498.89 L 5655.38, 503.14" />
      <path style="fill:none;stroke:#000000;stroke-width:0.85;" d="M 5663.88,500.3 L 5659.63, 496.05 L 5655.38, 500.3" />
      <path style="fill:none;stroke:#000000;stroke-width:0.85;stroke-linecap:round;stroke-linejoin:round;" d="M 5669.55,487.54 L 5669.55, 496.04 L 5649.71, 496.04 L 5649.71, 487.54 L 5669.55, 487.54" />
      <text transform="matrix(1 0 0 1 5641.6123 493.5029)" style="font-family:'Arial'; font-size:6px;">16</text>
    </g><g ewd:figtype="w2w" ewd:code="DB4" ewd:pin_no="3" ewd:figID="146">
      <path style="fill:#FFFFFF;stroke:#FFFFFF;stroke-width:0;stroke-linecap:round;stroke-linejoin:round;" d="M 5663.88,546.18 L 5659.63, 550.43 L 5655.38, 546.18 L 5655.38, 552.73 L 5663.88, 552.73 L 5663.88, 546.18" />
      <path style="fill:#FFFFFF;stroke:#FFFFFF;stroke-width:0;stroke-linecap:round;stroke-linejoin:round;" d="M 5663.88,549.01 L 5659.63, 553.26 L 5655.38, 549.01 L 5655.38, 555.56 L 5663.88, 555.56 L 5663.88, 549.01" />
      <path style="fill:none;stroke:#000000;stroke-width:0.85;" d="M 5663.88,548.48 L 5659.63, 552.73 L 5655.38, 548.48" />
      <path style="fill:none;stroke:#000000;stroke-width:0.85;" d="M 5663.88,551.31 L 5659.63, 555.56 L 5655.38, 551.31" />
      <path style="fill:none;stroke:#000000;stroke-width:0.85;stroke-linecap:round;stroke-linejoin:round;" d="M 5669.55,564.07 L 5669.55, 555.57 L 5649.71, 555.57 L 5649.71, 564.07 L 5669.55, 564.07" />
      <text transform="matrix(1 0 0 1 5644.9531 561.5215)" style="font-family:'Arial'; font-size:6px;">3</text>
    </g><g ewd:figtype="conn" ewd:code="D38" ewd:figID="66">
      <path style="fill:none;stroke:#000000;stroke-width:1.417;stroke-linecap:round;stroke-linejoin:round;" d="M 5710.65,666.13 L 5710.65, 632.12 L 5642.62, 632.12 L 5642.62, 666.13 L 5710.65, 666.13" />
      <g ewd:lineID="44">
        <text transform="matrix(1 0 0 1 5685.3438 628.1572)" style="font-family:'Arial'; font-size:6px;">2</text>
        <text transform="matrix(1 0 0 1 5689.6396 639.4951)" style="font-family:'Arial'; font-size:6px;">SE</text>
      </g>
      <g ewd:lineID="50">
        <text transform="matrix(1 0 0 1 5651.3301 673.5107)" style="font-family:'Arial'; font-size:6px;">1</text>
        <text transform="matrix(1 0 0 1 5654.707 662.1748)" style="font-family:'Arial'; font-size:6px;">IG+</text>
      </g>
      <g ewd:lineID="51">
        <text transform="matrix(1 0 0 1 5651.3301 628.1572)" style="font-family:'Arial'; font-size:6px;">3</text>
        <text transform="matrix(1 0 0 1 5656.792 639.4951)" style="font-family:'Arial'; font-size:6px;">SI</text>
      </g>
      <g ewd:figtype="title">
        <text transform="matrix(0 -1 1 0 5718.7373 666.1377)" style="font-family:'Arial'; font-size:6px;">D38</text>
        <text transform="matrix(0 -1 1 0 5725.8232 666.1377)" style="font-family:'Arial'; font-size:6px;" ewd:textID="44">Speed Sensor</text>
      </g>
    </g><g ewd:figtype="conn" ewd:code="H20" ewd:figID="67">
      <path style="fill:#FFFFFF;stroke:#000000;stroke-width:0.85;stroke-linecap:round;stroke-linejoin:round;" d="M 5668.11,249.42 C 5671.24 249.42 5673.78 246.88 5673.78 243.75 C 5673.7795703125 240.62 5671.24 238.08 5668.11 238.08 C 5664.9797265625 238.080003662109 5662.44 240.62 5662.44 243.75 C 5662.4398828125 246.88 5664.98 249.42 5668.11 249.42" />
      <path style="fill:#FFFFFF;stroke:#000000;stroke-width:0.85;stroke-linecap:round;stroke-linejoin:round;" d="M 5344.96,249.42 C 5348.09 249.42 5350.63 246.88 5350.63 243.75 C 5350.629765625 240.62 5348.09 238.08 5344.96 238.08 C 5341.829921875 238.080003662109 5339.29 240.62 5339.29 243.75 C 5339.290078125 246.88 5341.83 249.42 5344.96 249.42" />
      <path style="fill:#FFFFFF;stroke:#000000;stroke-width:0.85;stroke-linecap:round;stroke-linejoin:round;" d="M 5608.58,249.42 C 5611.71 249.42 5614.25 246.88 5614.25 243.75 C 5614.25 240.62 5611.71 238.08 5608.58 238.08 C 5605.45015625 238.080003662109 5602.91 240.62 5602.91 243.75 C 5602.9103125 246.88 5605.45 249.42 5608.58 249.42" />
      <path style="fill:#FFFFFF;stroke:#000000;stroke-width:0.85;stroke-linecap:round;stroke-linejoin:round;" d="M 5387.48,249.42 C 5390.61 249.42 5393.15 246.88 5393.15 243.75 C 5393.1498046875 240.62 5390.61 238.08 5387.48 238.08 C 5384.3499609375 238.080003662109 5381.81 240.62 5381.81 243.75 C 5381.8101171875 246.88 5384.35 249.42 5387.48 249.42" />
      <path style="fill:#FFFFFF;stroke:#000000;stroke-width:0.85;stroke-linecap:round;stroke-linejoin:round;" d="M 5412.99,422.33 C 5416.12 422.33 5418.66 419.79 5418.66 416.66 C 5418.6603125 413.530007324219 5416.12 410.99 5412.99 410.99 C 5409.86046875 410.98998046875 5407.32 413.53 5407.32 416.66 C 5407.3196484375 419.790007324219 5409.86 422.33 5412.99 422.33" />
      <path style="fill:#FFFFFF;stroke:#000000;stroke-width:0.85;stroke-linecap:round;stroke-linejoin:round;" d="M 5693.62,422.33 C 5696.75 422.33 5699.29 419.79 5699.29 416.66 C 5699.290078125 413.530007324219 5696.75 410.99 5693.62 410.99 C 5690.490234375 410.98998046875 5687.95 413.53 5687.95 416.66 C 5687.950390625 419.790007324219 5690.49 422.33 5693.62 422.33" />
      <path style="fill:#FFFFFF;stroke:#000000;stroke-width:0.85;stroke-linecap:round;stroke-linejoin:round;" d="M 5659.6,422.33 C 5662.73 422.33 5665.27 419.79 5665.27 416.66 C 5665.2700390625 413.530007324219 5662.73 410.99 5659.6 410.99 C 5656.4701953125 410.98998046875 5653.93 413.53 5653.93 416.66 C 5653.9303515625 419.790007324219 5656.47 422.33 5659.6 422.33" />
      <path style="fill:#FFFFFF;stroke:#000000;stroke-width:0.85;stroke-linecap:round;stroke-linejoin:round;" d="M 5344.96,422.33 C 5348.09 422.33 5350.63 419.79 5350.63 416.66 C 5350.629765625 413.530007324219 5348.09 410.99 5344.96 410.99 C 5341.829921875 410.98998046875 5339.29 413.53 5339.29 416.66 C 5339.290078125 419.790007324219 5341.83 422.33 5344.96 422.33" />
      <path style="fill:none;stroke:#000000;stroke-width:0.85;" d="M 5693.62,325.95 L 5693.62, 266.42 L 5668.11, 266.42" />
      <path style="fill:none;stroke:#000000;stroke-width:1.417;stroke-linecap:round;stroke-linejoin:round;" d="M 5395.97,342.96 L 5336.44, 342.96 L 5336.44, 325.95 L 5395.97, 325.95 L 5395.97, 342.96" />
      <path style="fill:none;stroke:#000000;stroke-width:0.85;" d="M 5370.47,368.47 L 5370.47, 376.97" />
      <path style="fill:none;stroke:#000000;stroke-width:0.85;" d="M 5361.97,368.47 L 5361.97, 376.97" />
      <path style="fill:none;stroke:#000000;stroke-width:0.85;" d="M 5353.46,368.47 L 5353.46, 376.97" />
      <path style="fill:none;stroke:#000000;stroke-width:0.85;" d="M 5344.96,368.47 L 5344.96, 376.97" />
      <path style="fill:none;stroke:#000000;stroke-width:0.85;" d="M 5378.98,368.47 L 5378.98, 376.97" />
      <path style="fill:none;stroke:#000000;stroke-width:0.85;" d="M 5387.48,368.47 L 5387.48, 376.97" />
      <path style="fill:none;stroke:#000000;stroke-width:0.85;" d="M 5395.98,368.47 L 5395.98, 376.97" />
      <path style="fill:none;stroke:#000000;stroke-width:0.85;" d="M 5344.96,351.46 L 5344.96, 342.96" />
      <path style="fill:none;stroke:#000000;stroke-width:0.85;" d="M 5404.49,351.46 L 5404.49, 334.45" />
      <path style="fill:none;stroke:#000000;stroke-width:0.85;" d="M 5387.48,351.46 L 5387.48, 342.95" />
      <path style="fill:none;stroke:#000000;stroke-width:0.85;" d="M 5412.99,410.99 L 5412.99, 368.47" />
      <path style="fill:none;stroke:#000000;stroke-width:0.85;" d="M 5515.05,351.47 L 5515.05, 325.96 L 5574.56, 325.96 L 5574.56, 351.46" />
      <path style="fill:none;stroke:#000000;stroke-width:0.85;" d="M 5523.56,351.47 L 5523.56, 334.46 L 5566.08, 334.46 L 5566.08, 351.46" />
      <path style="fill:none;stroke:#000000;stroke-width:0.85;" d="M 5532.06,351.47 L 5532.06, 342.97 L 5557.56, 342.96 L 5557.56, 351.46" />
      <path style="fill:none;stroke:#000000;stroke-width:0.85;" d="M 5396,334.46 L 5412.99, 334.45" />
      <path style="fill:none;stroke:#000000;stroke-width:0.85;" d="M 5608.58,325.95 L 5608.58, 249.42" />
      <path style="fill:none;stroke:#000000;stroke-width:0.85;" d="M 5583.07,308.94 L 5583.07, 266.42 L 5608.58, 266.42" />
      <path style="fill:none;stroke:#000000;stroke-width:0.85;" d="M 5430,325.95 L 5430, 308.94 L 5668.11, 308.94 L 5668.11, 249.42" />
      <path style="fill:none;stroke:#000000;stroke-width:0.85;" d="M 5600.09,342.96 L 5600.09, 351.46" />
      <path style="fill:none;stroke:#000000;stroke-width:0.85;" d="M 5608.6,342.96 L 5608.6, 351.46" />
      <path style="fill:none;stroke:#000000;stroke-width:0.85;" d="M 5617.1,342.96 L 5617.1, 351.46" />
      <path style="fill:none;stroke:#000000;stroke-width:0.85;" d="M 5344.94,325.95 L 5344.94, 249.41" />
      <path style="fill:none;stroke:#000000;stroke-width:0.85;" d="M 5387.5,325.95 L 5387.5, 249.41" />
      <path style="fill:none;stroke:#000000;stroke-width:0.85;" d="M 5693.62,410.99 L 5693.62, 385.48 L 5710.54, 385.48 L 5710.54, 394" />
      <path d="M 5669.52,266.42 C 5669.52 267.2 5668.89 267.84 5668.1 267.84 C 5667.3101953125 267.839992675781 5666.68 267.21 5666.68 266.42 C 5666.68 265.64 5667.31 265 5668.1 265 C 5668.8901953125 265 5669.52 265.64 5669.52 266.42" style="stroke-linecap:round;stroke-linejoin:round;" />
      <path d="M 5610,266.42 C 5610 267.2 5609.37 267.84 5608.58 267.84 C 5607.79015625 267.839992675781 5607.16 267.21 5607.16 266.42 C 5607.16 265.64 5607.79 265 5608.58 265 C 5609.37015625 265 5610 265.64 5610 266.42" style="stroke-linecap:round;stroke-linejoin:round;" />
      <path d="M 5584.49,308.94 C 5584.49 309.72 5583.86 310.36 5583.07 310.36 C 5582.2796484375 310.359970703125 5581.65 309.73 5581.65 308.94 C 5581.65 308.16 5582.28 307.52 5583.07 307.52 C 5583.8596484375 307.519978027344 5584.49 308.16 5584.49 308.94" style="stroke-linecap:round;stroke-linejoin:round;" />
      <path d="M 5405.9,334.45 C 5405.9 335.23 5405.27 335.87 5404.48 335.87 C 5403.6899609375 335.869990234375 5403.06 335.24 5403.06 334.45 C 5403.06 333.67 5403.69 333.03 5404.48 333.03 C 5405.2699609375 333.029997558594 5405.9 333.67 5405.9 334.45" style="stroke-linecap:round;stroke-linejoin:round;" />
      <path style="fill:none;stroke:#000000;stroke-width:1.417;stroke-linecap:round;stroke-linejoin:round;" d="M 5447.01,342.96 L 5412.99, 342.96 L 5412.99, 325.95 L 5447.01, 325.95 L 5447.01, 342.96" />
      <path style="fill:none;stroke:#000000;stroke-width:1.417;stroke-linecap:round;stroke-linejoin:round;" d="M 5702.12,342.96 L 5591.57, 342.96 L 5591.57, 325.95 L 5702.12, 325.95 L 5702.12, 342.96" />
      <path style="fill:none;stroke:#000000;stroke-width:1.417;stroke-linecap:round;stroke-linejoin:round;" d="M 5625.59,368.47 L 5549.05, 368.47 L 5549.05, 351.46 L 5625.59, 351.46 L 5625.59, 368.47" />
      <path style="fill:none;stroke:#000000;stroke-width:1.417;stroke-linecap:round;stroke-linejoin:round;" d="M 5540.55,368.47 L 5336.46, 368.47 L 5336.46, 351.46 L 5540.55, 351.46 L 5540.55, 368.47" />
      <path style="fill:none;stroke:#000000;stroke-width:1.417;stroke-linecap:round;stroke-linejoin:round;" d="M 5727.64,410.99 L 5310.95, 410.99 L 5310.95, 249.42 L 5727.64, 249.42 L 5727.64, 410.99" />
      <path style="fill:none;stroke:#000000;stroke-width:1.417;stroke-linecap:round;stroke-linejoin:round;" d="M 5404.49,393.98 L 5336.46, 393.98 L 5336.46, 376.97 L 5404.49, 376.97 L 5404.49, 393.98" />
      <path style="fill:none;stroke:#000000;stroke-width:0.85;" d="M 5506.53,376.97 L 5506.53, 368.47" />
      <path style="fill:none;stroke:#000000;stroke-width:0.85;" d="M 5659.6,410.99 L 5659.6, 385.47 L 5540.58, 385.47" />
      <path style="fill:none;stroke:#000000;stroke-width:1.417;stroke-linecap:round;stroke-linejoin:round;" d="M 5540.55,393.99 L 5472.52, 393.99 L 5472.52, 376.97 L 5540.55, 376.97 L 5540.55, 393.99" />
      <path style="fill:none;stroke:#000000;stroke-width:0.85;" d="M 5710.54,394 L 5710.54, 391.17" />
      <path style="fill:none;stroke:#000000;stroke-width:0.85;" d="M 5705.72,394 L 5715.36, 394" />
      <path style="fill:none;stroke:#000000;stroke-width:0.85;" d="M 5707.7,395.84 L 5713.37, 395.84" />
      <path style="fill:none;stroke:#000000;stroke-width:0.85;" d="M 5708.55,397.68 L 5712.52, 397.68" />
      <path style="fill:none;stroke:#000000;stroke-width:0.85;" d="M 5709.41,399.52 L 5711.68, 399.52" />
      <path d="M 5577.4,274.92 L 5588.74, 274.92 L 5583.07, 283.42 L 5577.4, 274.92" style="stroke-linecap:round;stroke-linejoin:round;" />
      <path style="fill:none;stroke:#000000;stroke-width:0.85;" d="M 5577.4,283.43 L 5588.74, 283.43" />
      <path d="M 5602.91,274.92 L 5614.25, 274.92 L 5608.58, 283.42 L 5602.91, 274.92" style="stroke-linecap:round;stroke-linejoin:round;" />
      <path style="fill:none;stroke:#000000;stroke-width:0.85;" d="M 5602.91,283.43 L 5614.25, 283.43" />
      <path d="M 5687.95,274.92 L 5699.29, 274.92 L 5693.62, 283.42 L 5687.95, 274.92" style="stroke-linecap:round;stroke-linejoin:round;" />
      <path style="fill:none;stroke:#000000;stroke-width:0.85;" d="M 5687.95,283.43 L 5699.29, 283.43" />
      <path d="M 5662.44,274.92 L 5673.78, 274.92 L 5668.11, 283.42 L 5662.44, 274.92" style="stroke-linecap:round;stroke-linejoin:round;" />
      <path style="fill:none;stroke:#000000;stroke-width:0.85;" d="M 5662.44,283.43 L 5673.78, 283.43" />
      <text transform="matrix(1 0 0 1 5670.9424 256.7915)" style="font-family:'Arial'; font-size:6px;">IG+</text>
      <text transform="matrix(1 0 0 1 5611.415 256.7915)" style="font-family:'Arial'; font-size:6px;">L</text>
      <text transform="matrix(1 0 0 1 5347.7939 256.7925)" style="font-family:'Arial'; font-size:6px;">CANH</text>
      <text transform="matrix(1 0 0 1 5390.3135 256.7925)" style="font-family:'Arial'; font-size:6px;">CANL</text>
      <text transform="matrix(1 0 0 1 5415.8252 407.0273)" style="font-family:'Arial'; font-size:6px;">E1</text>
      <text transform="matrix(1 0 0 1 5696.4541 407.0273)" style="font-family:'Arial'; font-size:6px;">E3</text>
      <text transform="matrix(1 0 0 1 5422.4961 336.1587)" style="font-family:'Arial'; font-size:6px;">5V IC</text>
      <text transform="matrix(1 0 0 1 5627.0898 336.1587)" style="font-family:'Arial'; font-size:6px;">TELLTAILS</text>
      <text transform="matrix(1 0 0 1 5562.499 361.6704)" style="font-family:'Arial'; font-size:6px;">LED/LCD DRIVER</text>
      <text transform="matrix(1 0 0 1 5452.1338 361.6704)" style="font-family:'Arial'; font-size:6px;">CPU</text>
      <text transform="matrix(1 0 0 1 5355.5371 336.1636)" style="font-family:'Arial'; font-size:6px;">CAN I/F</text>
      <text transform="matrix(1 0 0 1 5345.6309 387.1816)" style="font-family:'Arial'; font-size:6px;">DISPLAY DRIVER</text>
      <text transform="matrix(1 0 0 1 5341.207 407.0264)" style="font-family:'Arial'; font-size:6px;">+S</text>
      <text transform="matrix(1 0 0 1 5662.4385 407.0273)" style="font-family:'Arial'; font-size:6px;">SI</text>
      <text transform="matrix(1 0 0 1 5503.0342 387.1875)" style="font-family:'Arial'; font-size:6px;">I/F</text>
      <text transform="matrix(1 0 0 1 5334.3965 418.3643)" style="font-family:'Arial'; font-size:6px;">6</text>
      <text transform="matrix(1 0 0 1 5342.96 418.3643)" style="font-family:'Arial'; font-size:6px;">A</text>
      <text transform="matrix(1 0 0 1 5649.041 418.3662)" style="font-family:'Arial'; font-size:6px;">7</text>
      <text transform="matrix(1 0 0 1 5657.6045 418.3662)" style="font-family:'Arial'; font-size:6px;">A</text>
      <text transform="matrix(1 0 0 1 5679.7197 418.3662)" style="font-family:'Arial'; font-size:6px;">35</text>
      <text transform="matrix(1 0 0 1 5691.6201 418.3662)" style="font-family:'Arial'; font-size:6px;">A</text>
      <text transform="matrix(1 0 0 1 5399.0908 418.3662)" style="font-family:'Arial'; font-size:6px;">21</text>
      <text transform="matrix(1 0 0 1 5410.9912 418.3662)" style="font-family:'Arial'; font-size:6px;">A</text>
      <text transform="matrix(1 0 0 1 5373.5771 245.4536)" style="font-family:'Arial'; font-size:6px;">22</text>
      <text transform="matrix(1 0 0 1 5385.4775 245.4536)" style="font-family:'Arial'; font-size:6px;">A</text>
      <text transform="matrix(1 0 0 1 5598.0156 245.4526)" style="font-family:'Arial'; font-size:6px;">1</text>
      <text transform="matrix(1 0 0 1 5606.5791 245.4526)" style="font-family:'Arial'; font-size:6px;">A</text>
      <text transform="matrix(1 0 0 1 5331.0576 245.4536)" style="font-family:'Arial'; font-size:6px;">23</text>
      <text transform="matrix(1 0 0 1 5342.958 245.4536)" style="font-family:'Arial'; font-size:6px;">A</text>
      <text transform="matrix(1 0 0 1 5657.543 245.4526)" style="font-family:'Arial'; font-size:6px;">2</text>
      <text transform="matrix(1 0 0 1 5666.1064 245.4526)" style="font-family:'Arial'; font-size:6px;">A</text>
      <g ewd:figtype="title">
        <text transform="matrix(1 0 0 1 5438.5244 237.6582)" style="font-family:'Arial'; font-size:6px;">H20(A)</text>
        <text transform="matrix(1 0 0 1 5438.5244 244.7461)" style="font-family:'Arial'; font-size:6px;" ewd:textID="13">Combination Meter</text>
      </g>
    </g><g ewd:figtype="conn" ewd:code="B19" ewd:figID="600">
      <path style="fill:none;stroke:#000000;stroke-width:1.417;stroke-linecap:round;stroke-linejoin:round;" d="M 5608.56,555.58 L 5608.56, 521.57 L 5438.49, 521.57 L 5438.49, 555.58 L 5608.56, 555.58" />
      <g ewd:lineID="219">
        <text transform="matrix(1 0 0 1 5585.8818 551.6182)" style="font-family:'Arial'; font-size:6px;">SP1</text>
        <text transform="matrix(1 0 0 1 5579.9199 562.9531)" style="font-family:'Arial'; font-size:6px;">26</text>
      </g>
      <g ewd:lineID="220">
        <text transform="matrix(1 0 0 1 5545.9063 562.9531)" style="font-family:'Arial'; font-size:6px;">34</text>
        <text transform="matrix(1 0 0 1 5552.207 551.6182)" style="font-family:'Arial'; font-size:6px;">RR-</text>
      </g>
      <g ewd:lineID="221">
        <text transform="matrix(1 0 0 1 5517.4404 551.6182)" style="font-family:'Arial'; font-size:6px;">RR+</text>
        <text transform="matrix(1 0 0 1 5511.8926 562.9531)" style="font-family:'Arial'; font-size:6px;">33</text>
      </g>
      <g ewd:lineID="222">
        <text transform="matrix(1 0 0 1 5484.6777 551.6182)" style="font-family:'Arial'; font-size:6px;">RL-</text>
        <text transform="matrix(1 0 0 1 5477.8789 562.9531)" style="font-family:'Arial'; font-size:6px;">12</text>
      </g>
      <g ewd:lineID="223">
        <text transform="matrix(1 0 0 1 5443.8633 562.9531)" style="font-family:'Arial'; font-size:6px;">11</text>
        <text transform="matrix(1 0 0 1 5449.9092 551.6182)" style="font-family:'Arial'; font-size:6px;">RL+</text>
      </g>
      <g ewd:lineID="224">
        <text transform="matrix(1 0 0 1 5447.2002 517.5996)" style="font-family:'Arial'; font-size:6px;">9</text>
        <text transform="matrix(1 0 0 1 5450.2432 528.9385)" style="font-family:'Arial'; font-size:6px;">FL+</text>
      </g>
      <g ewd:lineID="225">
        <text transform="matrix(1 0 0 1 5485.0117 528.9385)" style="font-family:'Arial'; font-size:6px;">FL-</text>
        <text transform="matrix(1 0 0 1 5481.2158 517.5996)" style="font-family:'Arial'; font-size:6px;">8</text>
      </g>
      <g ewd:lineID="226">
        <text transform="matrix(1 0 0 1 5517.7744 528.9385)" style="font-family:'Arial'; font-size:6px;">FR+</text>
        <text transform="matrix(1 0 0 1 5511.8926 517.5996)" style="font-family:'Arial'; font-size:6px;">31</text>
      </g>
      <g ewd:lineID="227">
        <text transform="matrix(1 0 0 1 5545.9063 517.5996)" style="font-family:'Arial'; font-size:6px;">30</text>
        <text transform="matrix(1 0 0 1 5552.541 528.9385)" style="font-family:'Arial'; font-size:6px;">FR-</text>
      </g>
      <g ewd:figtype="title">
        <text transform="matrix(0 -1 1 0 5616.6602 558.415)" style="font-family:'Arial'; font-size:6px;">B19</text>
        <text transform="matrix(0 -1 1 0 5623.7461 558.415)" style="font-family:'Arial'; font-size:6px;" ewd:textID="42">Skid Control  <tspan x="0" dy="1em">ECU with Actuator</tspan></text>
      </g>
    </g><g ewd:figtype="w2w" ewd:code="DB4" ewd:pin_no="6" ewd:figID="601">
      <path style="fill:#FFFFFF;stroke:#FFFFFF;stroke-width:0;stroke-linecap:round;stroke-linejoin:round;" d="M 5595.82,597.22 L 5591.57, 601.47 L 5587.32, 597.22 L 5587.32, 603.77 L 5595.82, 603.77 L 5595.82, 597.22" />
      <path style="fill:#FFFFFF;stroke:#FFFFFF;stroke-width:0;stroke-linecap:round;stroke-linejoin:round;" d="M 5595.82,600.06 L 5591.57, 604.31 L 5587.32, 600.06 L 5587.32, 606.61 L 5595.83, 606.61 L 5595.83, 600.06" />
      <path style="fill:none;stroke:#000000;stroke-width:0.85;" d="M 5595.82,599.52 L 5591.57, 603.77 L 5587.32, 599.52" />
      <path style="fill:none;stroke:#000000;stroke-width:0.85;" d="M 5595.82,602.36 L 5591.57, 606.61 L 5587.32, 602.36" />
      <path style="fill:none;stroke:#000000;stroke-width:0.85;stroke-linecap:round;stroke-linejoin:round;" d="M 5601.49,615.11 L 5601.49, 606.61 L 5581.65, 606.61 L 5581.65, 615.11 L 5601.49, 615.11" />
      <text transform="matrix(1 0 0 1 5576.8896 612.5654)" style="font-family:'Arial'; font-size:6px;">6</text>
    </g><g ewd:figtype="annex" ewd:code="" ewd:figID="1303">
      <path style="fill:none;stroke:#000000;stroke-width:1.417;" d="M 5451.24,619.36 L 5455.49, 623.61 L 5504.39, 623.61 L 5506.52, 627.86 L 5508.65, 623.61 L 5557.55, 623.61 L 5561.8, 619.36" />
      <path style="fill:none;stroke:#000000;stroke-width:1.417;stroke-linecap:round;stroke-linejoin:round;" d="M 5551.87,609.44 L 5557.54, 598.1 L 5563.21, 609.44" />
      <path style="fill:none;stroke:#000000;stroke-width:1.417;stroke-linecap:round;stroke-linejoin:round;" d="M 5483.84,609.44 L 5489.51, 598.1 L 5495.18, 609.44" />
      <path style="fill:none;stroke:#000000;stroke-width:1.417;stroke-linecap:round;stroke-linejoin:round;" d="M 5461.17,603.77 L 5455.5, 615.11 L 5449.83, 603.77" />
      <path style="fill:none;stroke:#000000;stroke-width:1.417;stroke-linecap:round;stroke-linejoin:round;" d="M 5529.2,603.77 L 5523.53, 615.11 L 5517.86, 603.77" />
      <text transform="matrix(1 0 0 1 5486.0049 635.9521)" style="font-family:'Arial'; font-size:6px;" ewd:textID="45">Speed Sensors</text>
    </g><g ewd:figtype="annex" ewd:code="" ewd:figID="1304">
      <path style="fill:none;stroke:#000000;stroke-width:1.417;" d="M 5561.8,457.78 L 5557.55, 453.53 L 5508.65, 453.53 L 5506.52, 449.28 L 5504.39, 453.53 L 5455.49, 453.53 L 5451.24, 457.78" />
      <path style="fill:none;stroke:#000000;stroke-width:1.417;stroke-linecap:round;stroke-linejoin:round;" d="M 5449.83,473.37 L 5455.5, 462.03 L 5461.17, 473.37" />
      <path style="fill:none;stroke:#000000;stroke-width:1.417;stroke-linecap:round;stroke-linejoin:round;" d="M 5517.86,473.37 L 5523.53, 462.03 L 5529.2, 473.37" />
      <path style="fill:none;stroke:#000000;stroke-width:1.417;stroke-linecap:round;stroke-linejoin:round;" d="M 5563.21,467.7 L 5557.54, 479.04 L 5551.87, 467.7" />
      <path style="fill:none;stroke:#000000;stroke-width:1.417;stroke-linecap:round;stroke-linejoin:round;" d="M 5495.18,467.7 L 5489.51, 479.04 L 5483.84, 467.7" />
      <text transform="matrix(1 0 0 1 5486.0088 444.6016)" style="font-family:'Arial'; font-size:6px;" ewd:textID="45">Speed Sensors</text>
    </g><g ewd:figtype="comment" ewd:code="7" ewd:figID="1009">
      <text transform="matrix(1 0 0 1 5285.334 22.2153)" style="font-family:'Arial'; font-size:6px;" ewd:textID="4">*7 : Except Thailand Long Wheelbase Type</text>
    </g><g ewd:figtype="comment" ewd:code="6" ewd:figID="1008">
      <text transform="matrix(1 0 0 1 5285.334 13.7119)" style="font-family:'Arial'; font-size:6px;" ewd:textID="3">*6 : Thailand Long Wheelbase Type</text>
    </g><text transform="matrix(0 -1 1 0 5655.6553 438.5186)" style="font-family:'Arial'; font-size:6px;">P</text><text transform="matrix(0 -1 1 0 5689.6807 438.8496)" style="font-family:'Arial'; font-size:6px;">G</text><text transform="matrix(0 -1 1 0 5655.6553 529.2324)" style="font-family:'Arial'; font-size:6px;">P</text><text transform="matrix(0 -1 1 0 5689.6807 529.5645)" style="font-family:'Arial'; font-size:6px;">G</text><text transform="matrix(0 -1 1 0 5740.7061 528.8984)" style="font-family:'Arial'; font-size:6px;">L</text><text transform="matrix(0 -1 1 0 5689.6807 608.9355)" style="font-family:'Arial'; font-size:6px;">G</text><text transform="matrix(0 -1 1 0 5740.7041 608.2715)" style="font-family:'Arial'; font-size:6px;">L</text><text transform="matrix(0 -1 1 0 5340.999 438.5176)" style="font-family:'Arial'; font-size:6px;">P</text><text transform="matrix(0 -1 1 0 5340.999 529.2383)" style="font-family:'Arial'; font-size:6px;">P</text><text transform="matrix(0 -1 1 0 5409.0322 595.4375)" style="font-family:'Arial'; font-size:6px;">W-B</text><text transform="matrix(0 -1 1 0 5409.0322 442.3477)" style="font-family:'Arial'; font-size:6px;">W-B</text><text transform="matrix(0 -1 1 0 5655.6553 608.6035)" style="font-family:'Arial'; font-size:6px;">P</text><text transform="matrix(0 -1 1 0 5740.7061 149.0356)" style="font-family:'Arial'; font-size:6px;">L</text><text transform="matrix(0 -1 1 0 5701.0195 441.3506)" style="font-family:'Arial'; font-size:6px;">(*7)</text><text transform="matrix(0 -1 1 0 5701.0195 532.0645)" style="font-family:'Arial'; font-size:6px;">(*7)</text><text transform="matrix(0 -1 1 0 5701.0195 611.4365)" style="font-family:'Arial'; font-size:6px;">(*7)</text><text transform="matrix(0 -1 1 0 5666.9941 611.4375)" style="font-family:'Arial'; font-size:6px;">(*7)</text><text transform="matrix(0 -1 1 0 5664.21 149.3672)" style="font-family:'Arial'; font-size:6px;">B</text><text transform="matrix(0 -1 1 0 5604.6416 149.5327)" style="font-family:'Arial'; font-size:6px;">R</text><text transform="matrix(0 -1 1 0 5485.5615 141.0303)" style="font-family:'Arial'; font-size:6px;">R</text><text transform="matrix(0 -1 1 0 5562.0967 149.5327)" style="font-family:'Arial'; font-size:6px;">R</text><text transform="matrix(1 0 0 1 5300.0986 160.417)" style="font-family:'Arial'; font-size:6px;">G</text><text transform="matrix(1 0 0 1 5299.6006 177.4248)" style="font-family:'Arial'; font-size:6px;">W</text><text transform="matrix(1 0 0 1 5683.4697 687.6885)" style="font-family:'Arial'; font-size:6px;">L</text><text transform="matrix(1 0 0 1 5680.3037 699.0273)" style="font-family:'Arial'; font-size:6px;">(*7)</text><text transform="matrix(1 0 0 1 5300.4629 628.1504)" style="font-family:'Arial'; font-size:6px;">P</text><text transform="matrix(1 0 0 1 5296.6318 645.1582)" style="font-family:'Arial'; font-size:6px;">W-B</text><text transform="matrix(0 -1 1 0 5451.5313 497.7168)" style="font-family:'Arial'; font-size:6px;">L</text><text transform="matrix(0 -1 1 0 5485.5469 498.0498)" style="font-family:'Arial'; font-size:6px;">P</text><text transform="matrix(0 -1 1 0 5519.5625 498.2148)" style="font-family:'Arial'; font-size:6px;">R</text><text transform="matrix(0 -1 1 0 5553.5781 498.8809)" style="font-family:'Arial'; font-size:6px;">W</text><text transform="matrix(0 -1 1 0 5451.5313 583.2549)" style="font-family:'Arial'; font-size:6px;">R</text><text transform="matrix(0 -1 1 0 5485.5469 583.4219)" style="font-family:'Arial'; font-size:6px;">G</text><text transform="matrix(0 -1 1 0 5519.5625 583.0898)" style="font-family:'Arial'; font-size:6px;">B</text><text transform="matrix(0 -1 1 0 5553.5781 583.9199)" style="font-family:'Arial'; font-size:6px;">W</text><text transform="matrix(0 -1 1 0 5587.5918 583.0898)" style="font-family:'Arial'; font-size:6px;">P</text><text transform="matrix(0 -1 1 0 5621.6113 608.6035)" style="font-family:'Arial'; font-size:6px;">P</text><text transform="matrix(0 -1 1 0 5632.9512 611.4375)" style="font-family:'Arial'; font-size:6px;">(*6)</text><text transform="matrix(0 -1 1 0 5598.9316 585.9219)" style="font-family:'Arial'; font-size:6px;">(*6)</text><text transform="matrix(0 -1 1 0 5564.918 500.8828)" style="font-family:'Arial'; font-size:6px;">(*6)</text><text transform="matrix(0 -1 1 0 5564.918 585.9219)" style="font-family:'Arial'; font-size:6px;">(*6)</text><text transform="matrix(0 -1 1 0 5530.9023 500.8828)" style="font-family:'Arial'; font-size:6px;">(*6)</text><text transform="matrix(0 -1 1 0 5530.9023 585.9219)" style="font-family:'Arial'; font-size:6px;">(*6)</text><text transform="matrix(0 -1 1 0 5496.8867 500.8828)" style="font-family:'Arial'; font-size:6px;">(*6)</text><text transform="matrix(0 -1 1 0 5496.8867 585.9219)" style="font-family:'Arial'; font-size:6px;">(*6)</text><text transform="matrix(0 -1 1 0 5462.8711 500.8828)" style="font-family:'Arial'; font-size:6px;">(*6)</text><text transform="matrix(0 -1 1 0 5462.8711 585.9219)" style="font-family:'Arial'; font-size:6px;">(*6)</text></svg>