﻿<?xml version="1.0" encoding="utf-8"?>
<!-- Generator: Adobe Illustrator 10.0, SVG Export Plug-In . SVG Version: 3.0.0 Build 77)  -->
<!DOCTYPE svg PUBLIC "-//W3C//DTD SVG 1.0//EN" "http://www.w3.org/TR/2001/REC-SVG-20010904/DTD/svg10.dtd"[
   <!ENTITY ns_flows "http://ns.adobe.com/Flows/1.0/">
   <!ENTITY ns_svg "http://www.w3.org/2000/svg">
   <!ENTITY ns_xlink "http://www.w3.org/1999/xlink">
   <!ENTITY st0 "font-size:7px;font-family:'MS-PGothic';adobe-font-script:japanese;">
   <!ENTITY st1 "font-size:6px;font-family:'ArialMT';">
   <!ENTITY st2 "fill:#FFFFFF;stroke:#000000; stroke-width:1.41;stroke-linecap:round;stroke-linejoin:round;">
   <!ENTITY st3 "fill:#FFFFCC;stroke:#FFFFCC; stroke-width:0.1;stroke-linecap:round;stroke-linejoin:round;">
   <!ENTITY st4 "fill:#CCCCCC;stroke:#CCCCCC; stroke-width:0.1;stroke-linecap:round;stroke-linejoin:round;">
   <!ENTITY st5 "fill:#CCECF4;stroke:#000000; stroke-width:1.133;stroke-linecap:round;stroke-linejoin:round;">
   <!ENTITY st6 "fill:none;stroke-linecap:butt; stroke-linejoin:round;">
   <!ENTITY st7 "fill:none;stroke:#000000;stroke-linecap:round;stroke-linejoin:round;">
   <!ENTITY st8 "enable-background:new;">
   <!ENTITY st9 "fill:#000000;stroke:#000000; stroke-linecap:round;stroke-linejoin:round;">
   <!ENTITY st10 "font-size:9px;font-family:'ArialMT';">
   <!ENTITY st11 "font-size:9px;font-family:'Svg Symbol';">
   <!ENTITY st12 "font-size:6px;font-family:'Svg Symbol';">
   <!ENTITY st13 "fill:none;stroke:#ff0000;stroke-linecap:round;stroke-linejoin:round;">
   <!ENTITY st14 "fill:#FFFF00;stroke:#FFFF00; stroke-width:0.1;stroke-linecap:round;stroke-linejoin:round;">
   <!ENTITY st15 "font-size:6px;font-family:'MS-PGothic';adobe-font-script:japanese;">
   <!ENTITY st16 "1.00 0.00 0.00 1.00">
   <!ENTITY st17 "0.00 -1.00 1.00 0.00">
   <!ENTITY st18 "font-size:6px;font-family:'Arial';">
   <!ENTITY st19 "font-size:9px;font-family:'Arial';">
   <!ENTITY st20 "font-size:6px;font-family:'MS-PGothic','MS PGothic';adobe-font-script:japanese;">
   <!ENTITY st21 "font-size:7px;font-family:'MS-PGothic','MS PGothic';adobe-font-script:japanese;">
   <!ATTLIST svg
       xmlns:ewd CDATA #FIXED "http://shcl.co.jp/ewd"
       xmlns:a CDATA #FIXED "http://ns.adobe.com/AdobeSVGViewerExtensions/3.0/"
       ewd:ver CDATA #IMPLIED >
   <!ATTLIST a
       ewd:lineID CDATA #IMPLIED
       ewd:groupID CDATA #IMPLIED
       ewd:figtype CDATA #IMPLIED
       ewd:code CDATA #IMPLIED
       ewd:figID CDATA #IMPLIED
       ewd:pinNo CDATA #IMPLIED
       ewd:comment CDATA #IMPLIED >
   <!ATTLIST g
       ewd:lineID CDATA #IMPLIED
       ewd:groupID CDATA #IMPLIED
       ewd:figtype CDATA #IMPLIED
       ewd:code CDATA #IMPLIED
       ewd:figID CDATA #IMPLIED
       ewd:pinNo CDATA #IMPLIED
       ewd:comment CDATA #IMPLIED >
   <!ATTLIST text
       ewd:textID CDATA #IMPLIED >
   <!ATTLIST title
       ewd:textID CDATA #IMPLIED >
]>
<svg xmlns="http://www.w3.org/2000/svg" xmlns:xlink="http://www.w3.org/1999/xlink" width="1037.55" height="720.99" viewBox="0 0 1037.55 720.99" xml:space="preserve" xmlns:ewd="http://shcl.co.jp/ewd" onload="call_execInitLoadProc_svg('system')" ewd:ver="2.0">
  <script type="text/javascript" xlink:href="../../../../../system/js/ewd/fig/svgfig.js" />
  <defs>
    <font horiz-adv-x="1229">
      <font-face font-family="Svg Symbol" units-per-em="2048" panose-1="5 5 1 2 1 7 6 2 5 7" ascent="2059" descent="450" alphabetic="0" />
      <missing-glyph d="M 103,0 l 0,1280 1024,0 0,-1280 -1024,0 z m 32,32 l 960,0 0,1216 -960,0 0,-1216 z" />
      <glyph d4p1:unicode="" horiz-adv-x="1573" d="M 1517,0 l -567,0 24,279 q 141,59 207.5,168 66.5,109 66.5,306 0,272 -132.5,417.5 -132.5,145.5 -333.5,145.5 -194,0 -328,-147.5 -134,-147.5 -134,-401.5 0,-200 68.5,-319 68.5,-119 206.5,-169 l 25,-279 -564,0 0,279 35,0 q 3,-61 32,-83 45,-35 137,-35 l 270,0 0,70 q -210,61 -324.5,209 -114.5,148 -114.5,349 0,252 186.5,425 186.5,173 504.5,173 195,0 358.5,-73.5 163.5,-73.5 252,-214.5 88.5,-141 88.5,-310 0,-207 -121.5,-360.5 -121.5,-153.5 -317.5,-197.5 l -8,-70 275,0 q 92,0 128,28 36,28 42,90 l 38,0 0,-279 z" xmlns:d4p1="def-glyph-attr-unicode" />
    </font>
  </defs>
  <g id="ewd_top">
    <a ewd:lineID="39" style="cursor:pointer;">
      <path style="fill:none;stroke:#000000;stroke-width:5;" d="M 442.2,240.9 L 442.2, 229.6 L 456.3, 215.4 L 467.7, 215.4 L 467.7, 130.4 L 456.3, 130.4 L 442.2, 116.2 L 442.2, 113.4" />
    </a>
    <a ewd:lineID="38" style="cursor:pointer;">
      <path style="fill:none;stroke:#000000;stroke-width:5;" d="M 620.7,164.4 L 620.7, 161.6 L 634.9, 147.4 L 646.3, 147.4 L 646.3, 113.4" />
      <path style="fill:none;stroke:#FFFFFF;stroke-width:3.8;" d="M 620.7,164.4 L 620.7, 161.6 L 634.9, 147.4 L 646.3, 147.4 L 646.3, 113.4" />
      <path style="fill:none;stroke:#FF0000;" d="M 620.7,164.4 L 620.7, 161.6 L 634.9, 147.4 L 646.3, 147.4 L 646.3, 113.4" />
    </a>
    <a ewd:lineID="35" style="cursor:pointer;">
      <path style="fill:none;stroke:#000000;stroke-width:5;" d="M 620.7,266.4 L 620.7, 283.5 L 657.6, 283.5 L 671.8, 297.6 L 671.8, 300.5" />
      <path style="fill:none;stroke:#FFFFFF;stroke-width:3.8;" d="M 620.7,266.4 L 620.7, 283.5 L 657.6, 283.5 L 671.8, 297.6 L 671.8, 300.5" />
      <path style="fill:none;stroke:#0A50A1;" d="M 620.7,266.4 L 620.7, 283.5 L 657.6, 283.5 L 671.8, 297.6 L 671.8, 300.5" />
    </a>
    <a ewd:lineID="2" style="cursor:pointer;">
      <path style="fill:none;stroke:#000000;stroke-width:5;" d="M 59.5,206.9 L 59.5, 691.6" />
      <path style="fill:none;stroke:#FFFFFF;stroke-width:3.8;" d="M 59.5,206.9 L 59.5, 691.6" />
      <path style="fill:none;stroke:#000000;" d="M 59.5,206.9 L 59.5, 691.6" />
    </a>
    <a ewd:lineID="3" style="cursor:pointer;">
      <path style="fill:none;stroke:#000000;stroke-width:5;" d="M 170,184.2 L 170, 385.5" />
    </a>
    <a ewd:lineID="4" style="cursor:pointer;">
      <path style="fill:none;stroke:#000000;stroke-width:5;" d="M 170,445 L 170, 530.1" />
    </a>
    <a ewd:lineID="5" style="cursor:pointer;">
      <path style="fill:none;stroke:#FF0000;stroke-width:5;" d="M 960.9,479 L 960.9, 530.1" />
    </a>
    <a ewd:lineID="6" style="cursor:pointer;">
      <path style="fill:none;stroke:#FF0000;stroke-width:5;" d="M 960.9,547.1 L 960.9, 589.6" />
    </a>
    <a ewd:lineID="7" style="cursor:pointer;">
      <path style="fill:none;stroke:#FF0000;stroke-width:5;" d="M 960.9,598.1 L 960.9, 623.6 L 858.9, 623.6" />
    </a>
    <a ewd:lineID="8" style="cursor:pointer;">
      <path style="fill:none;stroke:#FF0000;stroke-width:5;" d="M 841.8,623.6 L 739.8, 623.6 L 739.8, 479" />
    </a>
    <a ewd:lineID="9" style="cursor:pointer;">
      <path style="fill:none;stroke:#FF0000;stroke-width:5;" d="M 850.3,479 L 850.3, 615.1" />
    </a>
    <a ewd:lineID="11" style="cursor:pointer;">
      <path style="fill:none;stroke:#000000;stroke-width:5;" d="M 782.3,479.09 L 782.3, 649.1 L 884.4, 649.1" />
      <path style="fill:none;stroke:#FFFFFF;stroke-width:3.8;" d="M 782.3,479.09 L 782.3, 649.1 L 884.4, 649.1" />
      <path style="fill:none;stroke:#000000;" d="M 782.3,479.09 L 782.3, 649.1 L 884.4, 649.1" />
    </a>
    <a ewd:lineID="12" style="cursor:pointer;">
      <path style="fill:none;stroke:#000000;stroke-width:5;" d="M 901.4,649.1 L 1003.4, 649.1 L 1003.4, 598.1" />
      <path style="fill:none;stroke:#FFFFFF;stroke-width:3.8;" d="M 901.4,649.1 L 1003.4, 649.1 L 1003.4, 598.1" />
      <path style="fill:none;stroke:#000000;" d="M 901.4,649.1 L 1003.4, 649.1 L 1003.4, 598.1" />
    </a>
    <a ewd:lineID="13" style="cursor:pointer;">
      <path style="fill:none;stroke:#000000;stroke-width:5;" d="M 1003.4,589.6 L 1003.4, 547.1" />
      <path style="fill:none;stroke:#FFFFFF;stroke-width:3.8;" d="M 1003.4,589.6 L 1003.4, 547.1" />
      <path style="fill:none;stroke:#000000;" d="M 1003.4,589.6 L 1003.4, 547.1" />
    </a>
    <a ewd:lineID="14" style="cursor:pointer;">
      <path style="fill:none;stroke:#000000;stroke-width:5;" d="M 1003.4,530.1 L 1003.4, 479" />
      <path style="fill:none;stroke:#FFFFFF;stroke-width:3.8;" d="M 1003.4,530.1 L 1003.4, 479" />
      <path style="fill:none;stroke:#000000;" d="M 1003.4,530.1 L 1003.4, 479" />
    </a>
    <a ewd:lineID="15" style="cursor:pointer;">
      <path style="fill:none;stroke:#008837;stroke-width:5;" d="M 782.3,428 L 782.3, 206.9 L 884.4, 206.9" />
    </a>
    <a ewd:lineID="16" style="cursor:pointer;">
      <path style="fill:none;stroke:#008837;stroke-width:5;" d="M 901.4,206.9 L 1003.4, 206.9 L 1003.4, 257.9" />
    </a>
    <a ewd:lineID="17" style="cursor:pointer;">
      <path style="fill:none;stroke:#0A50A1;stroke-width:5;" d="M 1003.4,266.4 L 1003.4, 309" />
    </a>
    <a ewd:lineID="18" style="cursor:pointer;">
      <path style="fill:none;stroke:#0A50A1;stroke-width:5;" d="M 1003.4,326 L 1003.4, 377" />
    </a>
    <a ewd:lineID="19" style="cursor:pointer;">
      <path style="fill:none;stroke:#000000;stroke-width:5;" d="M 892.9,479 L 892.9, 640.6" />
      <path style="fill:none;stroke:#FFFFFF;stroke-width:3.8;" d="M 892.9,479 L 892.9, 640.6" />
      <path style="fill:none;stroke:#000000;" d="M 892.9,479 L 892.9, 640.6" />
    </a>
    <a ewd:lineID="20" style="cursor:pointer;">
      <path style="fill:none;stroke:#000000;stroke-width:5;" d="M 892.9,657.6 L 892.9, 691.6" />
      <path style="fill:none;stroke:#FFFFFF;stroke-width:3.8;" d="M 892.9,657.6 L 892.9, 691.6" />
      <path style="fill:none;stroke:#000000;" d="M 892.9,657.6 L 892.9, 691.6" />
    </a>
    <a ewd:lineID="21" style="cursor:pointer;">
      <path style="fill:none;stroke:#000000;stroke-width:5;" d="M 476.2,530.1 L 476.2, 479 L 595.2, 479 L 595.2, 606.6" />
      <path style="fill:none;stroke:#FFFFFF;stroke-width:3.8;" d="M 476.2,530.1 L 476.2, 479 L 595.2, 479 L 595.2, 606.6" />
      <path style="fill:none;stroke:#000000;" d="M 476.2,530.1 L 476.2, 479 L 595.2, 479 L 595.2, 606.6" />
    </a>
    <a ewd:lineID="22" style="cursor:pointer;">
      <path style="fill:none;stroke:#000000;stroke-width:5;" d="M 595.2,657.6 L 595.2, 691.6" />
      <path style="fill:none;stroke:#FFFFFF;stroke-width:3.8;" d="M 595.2,657.6 L 595.2, 691.6" />
      <path style="fill:none;stroke:#000000;" d="M 595.2,657.6 L 595.2, 691.6" />
    </a>
    <a ewd:lineID="23" style="cursor:pointer;">
      <path style="fill:none;stroke:#000000;stroke-width:5;" d="M 671.8,300.5 L 671.8, 266.4 L 697.3, 266.4 L 697.3, 300.5" />
      <path style="fill:none;stroke:#FFFFFF;stroke-width:3.8;" d="M 671.8,300.5 L 671.8, 266.4 L 697.3, 266.4 L 697.3, 300.5" />
      <path style="fill:none;stroke:#0A50A1;" d="M 671.8,300.5 L 671.8, 266.4 L 697.3, 266.4 L 697.3, 300.5" />
    </a>
    <a ewd:lineID="24" style="cursor:pointer;">
      <path style="fill:none;stroke:#0A50A1;stroke-width:5;" d="M 739.8,300.5 L 739.8, 113.4" />
    </a>
    <a ewd:lineID="25" style="cursor:pointer;">
      <path style="fill:none;stroke:#008837;stroke-width:5;" d="M 892.9,113.4 L 892.9, 155.9" />
    </a>
    <a ewd:lineID="26" style="cursor:pointer;">
      <path style="fill:none;stroke:#008837;stroke-width:5;" d="M 892.9,164.4 L 892.9, 198.4" />
    </a>
    <a ewd:lineID="27" style="cursor:pointer;">
      <path style="fill:none;stroke:#008837;stroke-width:5;" d="M 892.9,215.4 L 892.9, 428" />
    </a>
    <a ewd:lineID="28" style="cursor:pointer;">
      <path style="fill:none;stroke:#FF0000;stroke-width:5;" d="M 391.1,445 L 391.1, 479 L 348.6, 479" />
    </a>
    <a ewd:lineID="29" style="cursor:pointer;">
      <path style="fill:none;stroke:#000000;stroke-width:5;" d="M 323.1,479 L 280.6, 479 L 280.6, 445" />
    </a>
    <a ewd:lineID="30" style="cursor:pointer;">
      <path style="fill:none;stroke:#000000;stroke-width:5;" d="M 280.6,385.5 L 280.6, 351.5" />
    </a>
    <a ewd:lineID="31" style="cursor:pointer;">
      <path style="fill:none;stroke:#FF0000;stroke-width:5;" d="M 280.6,334.5 L 280.6, 292" />
    </a>
    <a ewd:lineID="32" style="cursor:pointer;">
      <path style="fill:none;stroke:#FF0000;stroke-width:5;" d="M 280.6,274.9 L 280.6, 206.9" />
    </a>
    <a ewd:lineID="33" style="cursor:pointer;">
      <path style="fill:none;stroke:#FF0000;stroke-width:5;" d="M 289.1,283.5 L 595.2, 283.5 L 595.2, 266.4" />
    </a>
    <a ewd:lineID="34" style="cursor:pointer;">
      <path style="fill:none;stroke:#000000;stroke-width:5;" d="M 595.2,164.4 L 595.2, 130.4 L 620.7, 130.4 L 620.7, 164.4" />
      <path style="fill:none;stroke:#FFFFFF;stroke-width:3.8;" d="M 595.2,164.4 L 595.2, 130.4 L 620.7, 130.4 L 620.7, 164.4" />
      <path style="fill:none;stroke:#FF0000;" d="M 595.2,164.4 L 595.2, 130.4 L 620.7, 130.4 L 620.7, 164.4" />
    </a>
    <a ewd:lineID="36" style="cursor:pointer;">
      <path style="fill:none;stroke:#FF0000;stroke-width:5;" d="M 221.1,184.2 L 221.1, 385.5" />
    </a>
    <a ewd:lineID="37" style="cursor:pointer;">
      <path style="fill:none;stroke:#FF0000;stroke-width:5;" d="M 442.2,445 L 442.2, 530.1" />
    </a>
    <a ewd:lineID="40" style="cursor:pointer;">
      <path style="fill:none;stroke:#000000;stroke-width:5;" d="M 442.2,113.4 L 442.2, 164.4" />
    </a>
    <a ewd:lineID="41" style="cursor:pointer;">
      <path style="fill:none;stroke:#000000;stroke-width:5;" d="M 442.2,181.4 L 442.2, 240.9" />
    </a>
    <a ewd:lineID="42" style="cursor:pointer;">
      <path style="fill:none;stroke:#000000;stroke-width:5;" d="M 442.2,249.4 L 442.2, 385.5" />
    </a>
    <a ewd:lineID="43" style="cursor:pointer;">
      <path style="fill:none;stroke:#000000;stroke-width:5;" d="M 348.6,385.5 L 348.6, 206.9" />
    </a>
    <a ewd:figtype="jb" ewd:code="13" style="cursor:pointer;" ewd:figID="3">
      <path style="fill:#CCCCCC;stroke-linecap:round;stroke-linejoin:round;" d="M 365.62,172.9 L 365.62, 121.88 L 42.47, 121.88 L 42.47, 172.9 L 70.82, 172.9 L 70.82, 206.92 L 33.97, 206.92 L 33.97, 45.34 L 374.13, 45.34 L 374.13, 206.92 L 260.74, 206.92 L 260.74, 172.9 L 365.62, 172.9" />
    </a>
    <a ewd:figtype="jb" ewd:code="6" style="cursor:pointer;" ewd:figID="2">
      <path style="fill:#CCCCCC;stroke-linecap:round;stroke-linejoin:round;" d="M 453.5,445.03 L 453.5, 385.5 L 150.2, 385.5 L 150.2, 445.03 L 453.5, 445.03" />
    </a>
    <a ewd:figtype="jb" ewd:code="6" style="cursor:pointer;" ewd:figID="1">
      <path style="fill:#CCCCCC;stroke-linecap:round;stroke-linejoin:round;" d="M 606.57,657.63 L 606.57, 606.6 L 575.39, 606.6 L 575.39, 657.62 L 606.57, 657.62" />
    </a>
    <a ewd:figtype="conn" ewd:code="I27" style="cursor:pointer;" ewd:figID="15">
      <path style="fill:#CCECF4;stroke:#000000;stroke-width:1.133;stroke-linecap:round;stroke-linejoin:round;" d="M 1020.43,479.04 L 1020.43, 377 L 943.89, 377 L 943.89, 479.05 L 1020.43, 479.05" />
      <title ewd:textID="14">Headlamp Leveling SW</title>
    </a>
    <a ewd:figtype="conn" ewd:code="A8" style="cursor:pointer;" ewd:figID="14">
      <path style="fill:#CCECF4;stroke:#000000;stroke-width:1.133;stroke-linecap:round;stroke-linejoin:round;" d="M 909.88,479.04 L 909.88, 428.02 L 833.34, 428.02 L 833.34, 479.04 L 909.88, 479.04" />
      <title ewd:textID="13">Headlamp Leveling Motor (RH)</title>
    </a>
    <a ewd:figtype="conn" ewd:code="A20" style="cursor:pointer;" ewd:figID="12">
      <path style="fill:#CCECF4;stroke:#000000;stroke-width:1.133;stroke-linecap:round;stroke-linejoin:round;" d="M 799.32,479.04 L 799.32, 428.02 L 722.78, 428.02 L 722.78, 479.04 L 799.32, 479.04" />
      <title ewd:textID="12">Headlamp Leveling Motor (LH)</title>
    </a>
    <a ewd:figtype="conn" ewd:code="H74" style="cursor:pointer;" ewd:figID="11">
      <path style="fill:#CCECF4;stroke:#000000;stroke-width:1.133;stroke-linecap:round;stroke-linejoin:round;" d="M 501.68,649.12 L 501.68, 530.07 L 93.5, 530.07 L 93.5, 649.12 L 501.68, 649.12" />
      <title ewd:textID="11">Headlamp Dimmer Switch Assembly</title>
    </a>
    <a ewd:figtype="conn" ewd:code="H38" style="cursor:pointer;" ewd:figID="10">
      <path style="fill:#CCECF4;stroke:#000000;stroke-width:1.133;stroke-linecap:round;stroke-linejoin:round;" d="M 348.61,470.54 L 323.1, 470.54 L 323.1, 487.55 L 348.61, 487.55 L 348.61, 470.54" />
      <title ewd:textID="7">Diode (Headlight)</title>
    </a>
    <a ewd:figtype="conn" ewd:code="H7" style="cursor:pointer;" ewd:figID="9">
      <path style="fill:#CCECF4;stroke:#000000;stroke-width:1.133;stroke-linecap:round;stroke-linejoin:round;" d="M 365.62,172.9 L 365.62, 121.88 L 42.47, 121.88 L 42.47, 172.9 L 365.62, 172.9" />
      <title ewd:textID="16">Integration Relay</title>
    </a>
    <a ewd:figtype="rb" ewd:code="FUSE153" style="cursor:pointer;" ewd:figID="8">
      <path style="fill:#CCECF4;stroke:#000000;stroke-width:1.133;stroke-linecap:round;stroke-linejoin:round;" d="M 905.62,87.87 L 905.62, 45.35 L 880.11, 45.35 L 880.11, 87.87 L 905.62, 87.87" />
    </a>
    <a ewd:figtype="rb" ewd:code="12" style="cursor:pointer;" ewd:figID="7">
      <path style="fill:#CCECF4;stroke:#000000;stroke-width:1.133;stroke-linecap:round;stroke-linejoin:round;" d="M 705.78,334.48 L 705.78, 368.5 L 663.26, 368.5 L 663.26, 334.48 L 705.78, 334.48" />
    </a>
    <a ewd:figtype="rb" ewd:code="12" style="cursor:pointer;" ewd:figID="6">
      <path style="fill:#CCECF4;stroke:#000000;stroke-width:1.133;stroke-linecap:round;stroke-linejoin:round;" d="M 629.24,232.43 L 629.24, 198.41 L 586.72, 198.41 L 586.72, 232.43 L 629.24, 232.43" />
    </a>
    <a ewd:figtype="rb" ewd:code="FUSE145" style="cursor:pointer;" ewd:figID="5">
      <path style="fill:#CCECF4;stroke:#000000;stroke-width:1.133;stroke-linecap:round;stroke-linejoin:round;" d="M 659.01,87.87 L 659.01, 45.35 L 633.5, 45.35 L 633.5, 87.87 L 659.01, 87.87" />
    </a>
    <a ewd:figtype="rb" ewd:code="FUSE147" style="cursor:pointer;" ewd:figID="4">
      <path style="fill:#CCECF4;stroke:#000000;stroke-width:1.133;stroke-linecap:round;stroke-linejoin:round;" d="M 454.91,87.87 L 454.91, 45.35 L 429.4, 45.35 L 429.4, 87.87 L 454.91, 87.87" />
    </a>
    <a ewd:figtype="sp" ewd:code="52000" style="cursor:pointer;" ewd:figID="20">
      <path style="fill:#FFFFFF;stroke:#000000;stroke-width:0.85;stroke-linecap:round;stroke-linejoin:round;" d="M 896.41,198.41 L 889.3199, 198.41 L 884.3599, 203.37 L 884.3599, 210.46 L 889.3199, 215.42 L 896.4099, 215.42 L 901.3699, 210.46 L 901.3699, 203.37 L 896.41, 198.41" />
    </a>
    <a ewd:figtype="sp" ewd:code="52001" style="cursor:pointer;" ewd:figID="19">
      <path style="fill:#FFFFFF;stroke:#000000;stroke-width:0.85;stroke-linecap:round;stroke-linejoin:round;" d="M 853.89,615.11 L 846.8, 615.11 L 841.84, 620.07 L 841.84, 627.16 L 846.8, 632.12 L 853.89, 632.12 L 858.85, 627.16 L 858.85, 620.0699 L 853.89, 615.11" />
    </a>
    <a ewd:figtype="sp" ewd:code="52002" style="cursor:pointer;" ewd:figID="18">
      <path style="fill:#FFFFFF;stroke:#000000;stroke-width:0.85;stroke-linecap:round;stroke-linejoin:round;" d="M 896.41,640.62 L 889.3199, 640.62 L 884.3599, 645.58 L 884.3599, 652.67 L 889.3199, 657.63 L 896.4099, 657.63 L 901.3699, 652.67 L 901.3699, 645.58 L 896.41, 640.62" />
    </a>
    <a ewd:figtype="sp" ewd:code="52003" style="cursor:pointer;" ewd:figID="17">
      <path style="fill:#FFFFFF;stroke:#000000;stroke-width:0.85;stroke-linecap:round;stroke-linejoin:round;" d="M 284.13,274.95 L 277.04, 274.95 L 272.08, 279.91 L 272.08, 287 L 277.04, 291.96 L 284.13, 291.96 L 289.09, 287 L 289.09, 279.91 L 284.13, 274.95" />
    </a>
    <a ewd:figtype="sp" ewd:code="52004" style="cursor:pointer;" ewd:figID="16">
      <path style="fill:#FFFFFF;stroke:#000000;stroke-width:0.85;stroke-linecap:round;stroke-linejoin:round;" d="M 445.7,164.4 L 438.61, 164.4 L 433.65, 169.36 L 433.65, 176.45 L 438.61, 181.41 L 445.7, 181.41 L 450.66, 176.45 L 450.66, 169.36 L 445.7, 164.4" />
    </a>
    <a ewd:figtype="fuse" ewd:code="FUSE187" style="cursor:pointer;" ewd:figID="40">
      <path style="fill:none;stroke:#000000;stroke-width:0.5;stroke-linecap:round;stroke-linejoin:round;" d="M 72.24,87.87 L 72.24, 45.35 L 46.72, 45.35 L 46.72, 87.87 L 72.24, 87.87" />
    </a>
    <a ewd:figtype="fuse" ewd:code="FUSE153" style="cursor:pointer;" ewd:figID="39">
      <path style="fill:none;stroke:#000000;stroke-width:0.5;stroke-linecap:round;stroke-linejoin:round;" d="M 905.62,87.87 L 905.62, 45.35 L 880.11, 45.35 L 880.11, 87.87 L 905.62, 87.87" />
    </a>
    <a ewd:figtype="fuse" ewd:code="FUSE145" style="cursor:pointer;" ewd:figID="38">
      <path style="fill:none;stroke:#000000;stroke-width:0.5;stroke-linecap:round;stroke-linejoin:round;" d="M 659.01,87.87 L 659.01, 45.35 L 633.5, 45.35 L 633.5, 87.87 L 659.01, 87.87" />
    </a>
    <a ewd:figtype="fuse" ewd:code="FUSE147" style="cursor:pointer;" ewd:figID="37">
      <path style="fill:none;stroke:#000000;stroke-width:0.5;stroke-linecap:round;stroke-linejoin:round;" d="M 454.91,87.87 L 454.91, 45.35 L 429.4, 45.35 L 429.4, 87.87 L 454.91, 87.87" />
    </a>
    
    
    
    
    
    
    
    
    
    
    
    
    
    
    
    
    
    
    
    
    
    
    
    
    
    
    
    
    
    
    
    
    
    
    
    
    
    
    
    
    
    
    
    
    
    
    
    
    
    
    
    
    
    
    
    
    
    
    
    
    
    
    
    
    
    
    
    
    
    
    
    
    
    
    
    
    
    
    
    
    
    
    
    
    
    
    
    
    
    
    
    
    
    
    
    
    
    
    
    
    
    
    
    
    
    
    
    
    
    
    <a style="cursor:pointer;" ewd:figID="36" ewd:figtype="w2w" ewd:code="HA1" ewd:pin_no="38">
      <path style="fill:#FFFFFF;stroke:#000000;stroke-width:0.85;stroke-linecap:round;stroke-linejoin:round;" d="M 1013.34,266.45 L 1013.34, 257.95 L 993.5, 257.95 L 993.5, 266.45 L 1013.34, 266.45" />
      <text transform="matrix(1 0 0 1 997.582 264.2495)" style="font-family:'Arial'; font-size:6px;">HA1</text>
    </a>
    <a style="cursor:pointer;" ewd:figID="35" ewd:figtype="w2w" ewd:code="IH5" ewd:pin_no="19">
      <path style="fill:#FFFFFF;stroke:#000000;stroke-width:0.85;stroke-linecap:round;stroke-linejoin:round;" d="M 1013.34,317.47 L 1013.34, 308.97 L 993.5, 308.97 L 993.5, 317.47 L 1013.34, 317.47" />
      <text transform="matrix(1 0 0 1 998.75 315.2725)" style="font-family:'Arial'; font-size:6px;">IH5</text>
    </a>
    <a style="cursor:pointer;" ewd:figID="34" ewd:figtype="w2w" ewd:code="IH2" ewd:pin_no="12">
      <path style="fill:#FFFFFF;stroke:#000000;stroke-width:0.85;stroke-linecap:round;stroke-linejoin:round;" d="M 1013.34,325.97 L 1013.34, 317.47 L 993.5, 317.47 L 993.5, 325.97 L 1013.34, 325.97" />
      <text transform="matrix(1 0 0 1 998.75 323.7764)" style="font-family:'Arial'; font-size:6px;">IH2</text>
    </a>
    <a style="cursor:pointer;" ewd:figID="33" ewd:figtype="w2w" ewd:code="IH2" ewd:pin_no="19">
      <path style="fill:#FFFFFF;stroke:#000000;stroke-width:0.85;stroke-linecap:round;stroke-linejoin:round;" d="M 1013.34,530.07 L 1013.34, 538.57 L 993.5, 538.57 L 993.5, 530.07 L 1013.34, 530.07" />
      <text transform="matrix(1 0 0 1 998.748 536.376)" style="font-family:'Arial'; font-size:6px;">IH2</text>
    </a>
    <a style="cursor:pointer;" ewd:figID="32" ewd:figtype="w2w" ewd:code="IH5" ewd:pin_no="11">
      <path style="fill:#FFFFFF;stroke:#000000;stroke-width:0.85;stroke-linecap:round;stroke-linejoin:round;" d="M 1013.34,538.57 L 1013.34, 547.07 L 993.5, 547.07 L 993.5, 538.57 L 1013.34, 538.57" />
      <text transform="matrix(1 0 0 1 998.748 544.8799)" style="font-family:'Arial'; font-size:6px;">IH5</text>
    </a>
    <a style="cursor:pointer;" ewd:figID="31" ewd:figtype="w2w" ewd:code="IH2" ewd:pin_no="9">
      <path style="fill:#FFFFFF;stroke:#000000;stroke-width:0.85;stroke-linecap:round;stroke-linejoin:round;" d="M 970.82,530.07 L 970.82, 538.57 L 950.98, 538.57 L 950.98, 530.07 L 970.82, 530.07" />
      <text transform="matrix(1 0 0 1 956.2285 536.376)" style="font-family:'Arial'; font-size:6px;">IH2</text>
    </a>
    <a style="cursor:pointer;" ewd:figID="30" ewd:figtype="w2w" ewd:code="IH5" ewd:pin_no="3">
      <path style="fill:#FFFFFF;stroke:#000000;stroke-width:0.85;stroke-linecap:round;stroke-linejoin:round;" d="M 970.82,538.57 L 970.82, 547.07 L 950.98, 547.07 L 950.98, 538.57 L 970.82, 538.57" />
      <text transform="matrix(1 0 0 1 956.2285 544.8799)" style="font-family:'Arial'; font-size:6px;">IH5</text>
    </a>
    <a style="cursor:pointer;" ewd:figID="29" ewd:figtype="w2w" ewd:code="HA1" ewd:pin_no="23">
      <path style="fill:#FFFFFF;stroke:#000000;stroke-width:0.85;stroke-linecap:round;stroke-linejoin:round;" d="M 1013.34,589.6 L 1013.34, 598.1 L 993.5, 598.1 L 993.5, 589.6 L 1013.34, 589.6" />
      <text transform="matrix(1 0 0 1 997.5811 595.9033)" style="font-family:'Arial'; font-size:6px;">HA1</text>
    </a>
    <a style="cursor:pointer;" ewd:figID="28" ewd:figtype="w2w" ewd:code="HA1" ewd:pin_no="14">
      <path style="fill:#FFFFFF;stroke:#000000;stroke-width:0.85;stroke-linecap:round;stroke-linejoin:round;" d="M 970.82,589.6 L 970.82, 598.1 L 950.98, 598.1 L 950.98, 589.6 L 970.82, 589.6" />
      <text transform="matrix(1 0 0 1 955.0605 595.9033)" style="font-family:'Arial'; font-size:6px;">HA1</text>
    </a>
    <a style="cursor:pointer;" ewd:figID="27" ewd:figtype="gp" ewd:code="A1">
      <path style="fill:#FFFFFF;stroke:#000000;stroke-width:0.85;stroke-linecap:round;stroke-linejoin:round;" d="M 880.11,691.64 L 905.62, 691.64 L 892.87, 708.65 L 880.11, 691.64" />
      <text transform="matrix(1 0 0 1 889.1973 698.5156)" style="font-family:'Arial'; font-size:6px;">A1</text>
    </a>
    <a style="cursor:pointer;" ewd:figID="26" ewd:figtype="gp" ewd:code="H1">
      <path style="fill:#FFFFFF;stroke:#000000;stroke-width:0.85;stroke-linecap:round;stroke-linejoin:round;" d="M 582.47,691.64 L 607.98, 691.64 L 595.22, 708.65 L 582.47, 691.64" />
      <text transform="matrix(1 0 0 1 591.3936 698.5156)" style="font-family:'Arial'; font-size:6px;">H1</text>
    </a>
    <a style="cursor:pointer;" ewd:figID="25" ewd:figtype="w2w" ewd:code="AB4" ewd:pin_no="3">
      <path style="fill:#FFFFFF;stroke:#000000;stroke-width:0.85;stroke-linecap:round;stroke-linejoin:round;" d="M 902.79,164.4 L 902.79, 155.9 L 882.95, 155.9 L 882.95, 164.4 L 902.79, 164.4" />
      <text transform="matrix(1 0 0 1 887.1934 162.2021)" style="font-family:'Arial'; font-size:6px;">AB4</text>
    </a>
    <a style="cursor:pointer;" ewd:figID="24" ewd:figtype="w2w" ewd:code="HB2" ewd:pin_no="9">
      <path style="fill:#FFFFFF;stroke:#000000;stroke-width:0.85;stroke-linecap:round;stroke-linejoin:round;" d="M 290.5,342.98 L 290.5, 334.48 L 270.66, 334.48 L 270.66, 342.98 L 290.5, 342.98" />
      <text transform="matrix(1 0 0 1 274.7461 340.7861)" style="font-family:'Arial'; font-size:6px;">HB2</text>
    </a>
    <a style="cursor:pointer;" ewd:figID="23" ewd:figtype="w2w" ewd:code="HB6" ewd:pin_no="17">
      <path style="fill:#FFFFFF;stroke:#000000;stroke-width:0.85;stroke-linecap:round;stroke-linejoin:round;" d="M 290.5,351.49 L 290.5, 342.99 L 270.66, 342.99 L 270.66, 351.49 L 290.5, 351.49" />
      <text transform="matrix(1 0 0 1 274.7461 349.29)" style="font-family:'Arial'; font-size:6px;">HB6</text>
    </a>
    <a style="cursor:pointer;" ewd:figID="22" ewd:figtype="gp" ewd:code="H1">
      <path style="fill:#FFFFFF;stroke:#000000;stroke-width:0.85;stroke-linecap:round;stroke-linejoin:round;" d="M 46.72,691.64 L 72.23, 691.64 L 59.47, 708.65 L 46.72, 691.64" />
      <text transform="matrix(1 0 0 1 55.645 698.5156)" style="font-family:'Arial'; font-size:6px;">H1</text>
    </a>
    <a style="cursor:pointer;" ewd:figID="21" ewd:figtype="w2w" ewd:code="HB1" ewd:pin_no="23">
      <path style="fill:#FFFFFF;stroke:#000000;stroke-width:0.85;stroke-linecap:round;stroke-linejoin:round;" d="M 452.08,249.44 L 452.08, 240.94 L 432.24, 240.94 L 432.24, 249.44 L 452.08, 249.44" />
      <text transform="matrix(1 0 0 1 436.3218 247.2427)" style="font-family:'Arial'; font-size:6px;">HB1</text>
    </a>
  </g>
</svg>