﻿<?xml version="1.0" encoding="utf-8"?>
<!-- Generator: Adobe Illustrator 10.0, SVG Export Plug-In . SVG Version: 3.0.0 Build 77)  -->
<!DOCTYPE svg PUBLIC "-//W3C//DTD SVG 1.0//EN" "http://www.w3.org/TR/2001/REC-SVG-20010904/DTD/svg10.dtd"[
   <!ENTITY ns_flows "http://ns.adobe.com/Flows/1.0/">
   <!ENTITY ns_svg "http://www.w3.org/2000/svg">
   <!ENTITY ns_xlink "http://www.w3.org/1999/xlink">
   <!ENTITY st0 "font-size:7px;font-family:'MS-PGothic';adobe-font-script:japanese;">
   <!ENTITY st1 "font-size:6px;font-family:'ArialMT';">
   <!ENTITY st2 "fill:#FFFFFF;stroke:#000000; stroke-width:1.41;stroke-linecap:round;stroke-linejoin:round;">
   <!ENTITY st3 "fill:#FFFFCC;stroke:#FFFFCC; stroke-width:0.1;stroke-linecap:round;stroke-linejoin:round;">
   <!ENTITY st4 "fill:#CCCCCC;stroke:#CCCCCC; stroke-width:0.1;stroke-linecap:round;stroke-linejoin:round;">
   <!ENTITY st5 "fill:#CCECF4;stroke:#000000; stroke-width:1.133;stroke-linecap:round;stroke-linejoin:round;">
   <!ENTITY st6 "fill:none;stroke-linecap:butt; stroke-linejoin:round;">
   <!ENTITY st7 "fill:none;stroke:#000000;stroke-linecap:round;stroke-linejoin:round;">
   <!ENTITY st8 "enable-background:new;">
   <!ENTITY st9 "fill:#000000;stroke:#000000; stroke-linecap:round;stroke-linejoin:round;">
   <!ENTITY st10 "font-size:9px;font-family:'ArialMT';">
   <!ENTITY st11 "font-size:9px;font-family:'Svg Symbol';">
   <!ENTITY st12 "font-size:6px;font-family:'Svg Symbol';">
   <!ENTITY st13 "fill:none;stroke:#ff0000;stroke-linecap:round;stroke-linejoin:round;">
   <!ENTITY st14 "fill:#FFFF00;stroke:#FFFF00; stroke-width:0.1;stroke-linecap:round;stroke-linejoin:round;">
   <!ENTITY st15 "font-size:6px;font-family:'MS-PGothic';adobe-font-script:japanese;">
   <!ENTITY st16 "1.00 0.00 0.00 1.00">
   <!ENTITY st17 "0.00 -1.00 1.00 0.00">
   <!ENTITY st18 "font-size:6px;font-family:'Arial';">
   <!ENTITY st19 "font-size:9px;font-family:'Arial';">
   <!ENTITY st20 "font-size:6px;font-family:'MS-PGothic','MS PGothic';adobe-font-script:japanese;">
   <!ENTITY st21 "font-size:7px;font-family:'MS-PGothic','MS PGothic';adobe-font-script:japanese;">
   <!ATTLIST svg
       xmlns:ewd CDATA #FIXED "http://shcl.co.jp/ewd"
       xmlns:a CDATA #FIXED "http://ns.adobe.com/AdobeSVGViewerExtensions/3.0/"
       ewd:ver CDATA #IMPLIED >
   <!ATTLIST a
       ewd:lineID CDATA #IMPLIED
       ewd:groupID CDATA #IMPLIED
       ewd:figtype CDATA #IMPLIED
       ewd:code CDATA #IMPLIED
       ewd:figID CDATA #IMPLIED
       ewd:pinNo CDATA #IMPLIED
       ewd:comment CDATA #IMPLIED >
   <!ATTLIST g
       ewd:lineID CDATA #IMPLIED
       ewd:groupID CDATA #IMPLIED
       ewd:figtype CDATA #IMPLIED
       ewd:code CDATA #IMPLIED
       ewd:figID CDATA #IMPLIED
       ewd:pinNo CDATA #IMPLIED
       ewd:comment CDATA #IMPLIED >
   <!ATTLIST text
       ewd:textID CDATA #IMPLIED >
   <!ATTLIST title
       ewd:textID CDATA #IMPLIED >
]>
<svg xmlns="http://www.w3.org/2000/svg" xmlns:xlink="http://www.w3.org/1999/xlink" width="1060.15" height="721.01" viewBox="0 0 1060.15 721.01" xml:space="preserve" xmlns:ewd="http://shcl.co.jp/ewd" ewd:ver="2.0">
  
  <defs>
    <font horiz-adv-x="1229">
      <font-face font-family="Svg Symbol" units-per-em="2048" panose-1="5 5 1 2 1 7 6 2 5 7" ascent="2059" descent="450" alphabetic="0" />
      <missing-glyph d="M 103,0 l 0,1280 1024,0 0,-1280 -1024,0 z m 32,32 l 960,0 0,1216 -960,0 0,-1216 z" />
      <glyph d4p1:unicode="" horiz-adv-x="1573" d="M 1517,0 l -567,0 24,279 q 141,59 207.5,168 66.5,109 66.5,306 0,272 -132.5,417.5 -132.5,145.5 -333.5,145.5 -194,0 -328,-147.5 -134,-147.5 -134,-401.5 0,-200 68.5,-319 68.5,-119 206.5,-169 l 25,-279 -564,0 0,279 35,0 q 3,-61 32,-83 45,-35 137,-35 l 270,0 0,70 q -210,61 -324.5,209 -114.5,148 -114.5,349 0,252 186.5,425 186.5,173 504.5,173 195,0 358.5,-73.5 163.5,-73.5 252,-214.5 88.5,-141 88.5,-310 0,-207 -121.5,-360.5 -121.5,-153.5 -317.5,-197.5 l -8,-70 275,0 q 92,0 128,28 36,28 42,90 l 38,0 0,-279 z" xmlns:d4p1="def-glyph-attr-unicode" />
    </font>
  </defs>
  
<g ewd:figtype="rb" ewd:code="FUSE150" ewd:figID="5">
      <path style="fill:none;stroke:#000000;stroke-width:0.85;" d="M 50.98,80.78 L 50.98, 87.87" />
      <path style="fill:none;stroke:#000000;stroke-width:0.85;" d="M 50.98,87.87 L 50.98, 102.04" />
      <path d="M 50.98,102.04 L 53.81, 99.21 L 53.81, 96.38 L 50.98, 99.21 L 48.15, 96.38 L 48.15, 99.21 L 50.98, 102.04" style="stroke-linecap:round;stroke-linejoin:round;" />
      <path style="fill:none;stroke:#000000;stroke-width:0.85;stroke-linecap:round;stroke-linejoin:round;" d="M 55.23,113.38 C 58.36 113.38 60.9 110.84 60.9 107.71 C 60.9 104.58 58.36 102.04 55.23 102.04 L 46.73, 102.04 C 43.6 102.04 41.06 104.58 41.06 107.71 C 41.06 110.84 43.6 113.38 46.73 113.38 L 55.23, 113.38" />
      <path style="fill:none;stroke:#000000;stroke-width:0.85;stroke-linecap:round;stroke-linejoin:round;" d="M 50.98,80.78 C 51.76 80.78 52.4 80.15 52.4 79.36 C 52.4000030517578 78.5700012207031 51.77 77.94 50.98 77.94 C 50.2 77.94 49.56 78.57 49.56 79.36 C 49.560002746582 80.1500012207031 50.19 80.78 50.98 80.78" />
      <path style="fill:none;stroke:#000000;stroke-width:0.85;stroke-linecap:round;stroke-linejoin:round;" d="M 50.98,55.27 C 51.76 55.27 52.4 54.64 52.4 53.85 C 52.4000030517578 53.0599969482422 51.77 52.43 50.98 52.43 C 50.2 52.43 49.56 53.06 49.56 53.85 C 49.560002746582 54.6399969482422 50.19 55.27 50.98 55.27" />
      <path style="fill:none;stroke:#000000;stroke-width:1.417;" d="M 49.97,54.85 C 49.97 54.85 43.9 59.53 50.97 66.6 C 58.04 73.67 51.97 78.35 51.97 78.35" />
      <path style="fill:none;stroke:#000000;stroke-width:1.417;stroke-linecap:round;stroke-linejoin:round;" d="M 63.73,87.87 L 63.73, 45.35 L 38.22, 45.35 L 38.22, 87.87 L 63.73, 87.87" />
      <text transform="matrix(1 0 0 1 47.6387 109.4136)" style="font-family:'Arial'; font-size:6px;">12</text>
      <text transform="matrix(1 0 0 1 42.6782 95.2412)" style="font-family:'Arial'; font-size:6px;">2</text>
      <text transform="matrix(1 0 0 1 45.8105 41.3823)" style="font-family:'Arial'; font-size:6px;">(IG)</text>
      <text transform="matrix(1 0 0 1 66.5659 64.769)" style="font-family:'Arial'; font-size:6px;">10A<tspan x="0" dy="1em">GAUGE NO.2</tspan></text>
    </g><g ewd:figtype="rb" ewd:code="FUSE147" ewd:figID="6">
      <path style="fill:none;stroke:#000000;stroke-width:0.85;" d="M 212.58,80.78 L 212.58, 87.87" />
      <path style="fill:none;stroke:#000000;stroke-width:0.85;" d="M 212.58,87.87 L 212.58, 102.04" />
      <path d="M 212.55,102.04 L 215.38, 99.21 L 215.38, 96.38 L 212.55, 99.21 L 209.72, 96.38 L 209.72, 99.21 L 212.55, 102.04" style="stroke-linecap:round;stroke-linejoin:round;" />
      <path style="fill:none;stroke:#000000;stroke-width:0.85;stroke-linecap:round;stroke-linejoin:round;" d="M 216.8,113.38 C 219.93 113.38 222.47 110.84 222.47 107.71 C 222.47 104.58 219.93 102.04 216.8 102.04 L 208.3, 102.04 C 205.17 102.04 202.63 104.58 202.63 107.71 C 202.63 110.84 205.17 113.38 208.3 113.38 L 216.8, 113.38" />
      <path style="fill:none;stroke:#000000;stroke-width:0.85;stroke-linecap:round;stroke-linejoin:round;" d="M 212.55,80.78 C 213.33 80.78 213.97 80.15 213.97 79.36 C 213.970002441406 78.5700012207031 213.34 77.94 212.55 77.94 C 211.77 77.94 211.13 78.57 211.13 79.36 C 211.130009765625 80.1500012207031 211.77 80.78 212.55 80.78" />
      <path style="fill:none;stroke:#000000;stroke-width:0.85;stroke-linecap:round;stroke-linejoin:round;" d="M 212.55,55.27 C 213.33 55.27 213.97 54.64 213.97 53.85 C 213.970002441406 53.0599969482422 213.34 52.43 212.55 52.43 C 211.77 52.43 211.13 53.06 211.13 53.85 C 211.130009765625 54.6399969482422 211.77 55.27 212.55 55.27" />
      <path style="fill:none;stroke:#000000;stroke-width:1.417;" d="M 211.55,54.85 C 211.55 54.85 205.48 59.53 212.55 66.6 C 219.62 73.67 213.55 78.35 213.55 78.35" />
      <path style="fill:none;stroke:#000000;stroke-width:1.417;stroke-linecap:round;stroke-linejoin:round;" d="M 225.31,87.87 L 225.31, 45.35 L 199.8, 45.35 L 199.8, 87.87 L 225.31, 87.87" />
      <text transform="matrix(1 0 0 1 209.2134 109.4136)" style="font-family:'Arial'; font-size:6px;">12</text>
      <text transform="matrix(1 0 0 1 204.2529 95.2412)" style="font-family:'Arial'; font-size:6px;">2</text>
      <text transform="matrix(1 0 0 1 207.3853 41.3823)" style="font-family:'Arial'; font-size:6px;">(IG)</text>
      <text transform="matrix(1 0 0 1 228.1406 64.769)" style="font-family:'Arial'; font-size:6px;">7.5A<tspan x="0" dy="1em">ECU-IG NO.2</tspan></text>
    </g><g ewd:figtype="jb" ewd:code="6" ewd:figID="4">
      <path style="fill:none;stroke:#000000;stroke-width:0.85;" d="M 212.58,354.34 L 212.58, 382.69" />
      <path d="M 212.58,382.68 L 215.41, 379.85 L 215.41, 377.02 L 212.58, 379.85 L 209.75, 377.02 L 209.75, 379.85 L 212.58, 382.68" style="stroke-linecap:round;stroke-linejoin:round;" />
      <path style="fill:none;stroke:#000000;stroke-width:0.85;stroke-linecap:round;stroke-linejoin:round;" d="M 216.83,394.02 C 219.96 394.02 222.5 391.48 222.5 388.35 C 222.5 385.22 219.96 382.68 216.83 382.68 L 208.33, 382.68 C 205.2 382.68 202.66 385.22 202.66 388.35 C 202.66 391.48 205.2 394.02 208.33 394.02 L 216.83, 394.02" />
      <path d="M 212.58,354.34 L 215.41, 357.18 L 215.41, 360.01 L 212.58, 357.18 L 209.75, 360.01 L 209.75, 357.18 L 212.58, 354.34" style="stroke-linecap:round;stroke-linejoin:round;" />
      <path style="fill:none;stroke:#000000;stroke-width:0.85;stroke-linecap:round;stroke-linejoin:round;" d="M 216.83,354.34 C 219.96 354.34 222.5 351.8 222.5 348.67 C 222.5 345.54 219.96 343 216.83 343 L 208.33, 343 C 205.2 343 202.66 345.54 202.66 348.67 C 202.66 351.8 205.2 354.34 208.33 354.34 L 216.83, 354.34" />
      <text transform="matrix(1 0 0 1 208.9072 390.0596)" style="font-family:'Arial'; font-size:6px;">6B</text>
      <text transform="matrix(1 0 0 1 197.9014 390.0596)" style="font-family:'Arial'; font-size:6px;">8</text>
      <text transform="matrix(1 0 0 1 208.9072 350.373)" style="font-family:'Arial'; font-size:6px;">6B</text>
      <text transform="matrix(1 0 0 1 197.9014 350.373)" style="font-family:'Arial'; font-size:6px;">5</text>
    </g><g ewd:figtype="jb" ewd:code="13" ewd:figID="3">
      <path style="fill:none;stroke:#000000;stroke-width:0.85;" d="M 50.98,498.89 L 50.98, 527.24" />
      <path d="M 50.98,527.24 L 53.81, 524.4 L 53.81, 521.57 L 50.98, 524.4 L 48.15, 521.57 L 48.15, 524.4 L 50.98, 527.24" style="stroke-linecap:round;stroke-linejoin:round;" />
      <path style="fill:none;stroke:#000000;stroke-width:0.85;stroke-linecap:round;stroke-linejoin:round;" d="M 55.23,538.57 C 58.36 538.57 60.9 536.03 60.9 532.9 C 60.9 529.77 58.36 527.23 55.23 527.23 L 46.73, 527.23 C 43.6 527.23 41.06 529.77 41.06 532.9 C 41.06 536.03 43.6 538.57 46.73 538.57 L 55.23, 538.57" />
      <path d="M 50.98,498.89 L 53.81, 501.72 L 53.81, 504.55 L 50.98, 501.72 L 48.15, 504.55 L 48.15, 501.72 L 50.98, 498.89" style="stroke-linecap:round;stroke-linejoin:round;" />
      <path style="fill:none;stroke:#000000;stroke-width:0.85;stroke-linecap:round;stroke-linejoin:round;" d="M 55.23,498.89 C 58.36 498.89 60.9 496.35 60.9 493.22 C 60.9 490.09 58.36 487.55 55.23 487.55 L 46.73, 487.55 C 43.6 487.55 41.06 490.09 41.06 493.22 C 41.06 496.35 43.6 498.89 46.73 498.89 L 55.23, 498.89" />
      <text transform="matrix(1 0 0 1 45.4722 534.6113)" style="font-family:'Arial'; font-size:6px;">13D</text>
      <text transform="matrix(1 0 0 1 36.3008 534.6113)" style="font-family:'Arial'; font-size:6px;">8</text>
      <text transform="matrix(1 0 0 1 45.6377 494.9248)" style="font-family:'Arial'; font-size:6px;">13E</text>
      <text transform="matrix(1 0 0 1 36.3008 494.9248)" style="font-family:'Arial'; font-size:6px;">1</text>
    </g><g ewd:figtype="w2w" ewd:code="DB1" ewd:pin_no="5" ewd:comment="2" ewd:figID="26">
      <path style="fill:none;stroke:#000000;stroke-width:0.85;stroke-linecap:round;stroke-linejoin:round;" d="M 60.9,189.91 L 60.9, 181.41 L 41.05, 181.41 L 41.05, 189.91 L 60.9, 189.91" />
      <text transform="matrix(1 0 0 1 63.7324 187.3677)" style="font-family:'Arial'; font-size:6px;">(*2)</text>
      <text transform="matrix(1 0 0 1 36.3008 187.3667)" style="font-family:'Arial'; font-size:6px;">5</text>
    </g><g ewd:figtype="w2w" ewd:code="DB3" ewd:pin_no="8" ewd:comment="1" ewd:figID="27">
      <path style="fill:#FFFFFF;stroke:#FFFFFF;stroke-width:0;stroke-linecap:round;stroke-linejoin:round;" d="M 55.23,163.52 L 50.98, 167.77 L 46.73, 163.52 L 46.73, 170.07 L 55.23, 170.07 L 55.23, 163.52" />
      <path style="fill:#FFFFFF;stroke:#FFFFFF;stroke-width:0;stroke-linecap:round;stroke-linejoin:round;" d="M 55.23,166.35 L 50.98, 170.6 L 46.73, 166.35 L 46.73, 172.9 L 55.23, 172.9 L 55.23, 166.35" />
      <path style="fill:none;stroke:#000000;stroke-width:0.85;" d="M 55.23,165.82 L 50.98, 170.07 L 46.73, 165.82" />
      <path style="fill:none;stroke:#000000;stroke-width:0.85;" d="M 55.23,168.65 L 50.98, 172.9 L 46.73, 168.65" />
      <path style="fill:none;stroke:#000000;stroke-width:0.85;stroke-linecap:round;stroke-linejoin:round;" d="M 60.9,181.41 L 60.9, 172.91 L 41.05, 172.91 L 41.05, 181.41 L 60.9, 181.41" />
      <text transform="matrix(1 0 0 1 63.7324 178.8638)" style="font-family:'Arial'; font-size:6px;">(*1)</text>
      <text transform="matrix(1 0 0 1 36.3008 178.8628)" style="font-family:'Arial'; font-size:6px;">8</text>
    </g><g ewd:figtype="conn" ewd:code="D36" ewd:figID="7">
      <path style="fill:none;stroke:#000000;stroke-width:0.85;" d="M 50.98,257.95 L 50.98, 262.2" />
      <path style="fill:none;stroke:#000000;stroke-width:0.85;" d="M 50.98,287.71 L 50.98, 291.96" />
      <path style="fill:none;stroke:#000000;stroke-width:1.417;" d="M 56.66,262.24 L 51.34, 284.92" />
      <path style="fill:none;stroke:#000000;stroke-width:0.85;stroke-linecap:round;stroke-linejoin:round;" d="M 50.98,265.03 C 51.76 265.03 52.4 264.4 52.4 263.61 C 52.4000030517578 262.819970703125 51.77 262.19 50.98 262.19 C 50.2 262.19 49.56 262.82 49.56 263.61 C 49.560002746582 264.399970703125 50.19 265.03 50.98 265.03" />
      <path style="fill:none;stroke:#000000;stroke-width:0.85;stroke-linecap:round;stroke-linejoin:round;" d="M 50.98,287.71 C 51.76 287.71 52.4 287.08 52.4 286.29 C 52.4000030517578 285.500017089844 51.77 284.87 50.98 284.87 C 50.2 284.87 49.56 285.5 49.56 286.29 C 49.560002746582 287.080017089844 50.19 287.71 50.98 287.71" />
      <path style="fill:none;stroke:#000000;stroke-width:1.417;stroke-linecap:round;stroke-linejoin:round;" d="M 59.48,291.96 L 59.48, 257.94 L 42.47, 257.94 L 42.47, 291.96 L 59.48, 291.96" />
      <text transform="matrix(1 0 0 1 42.6787 253.9829)" style="font-family:'Arial'; font-size:6px;">2</text>
      <text transform="matrix(1 0 0 1 42.6787 299.3369)" style="font-family:'Arial'; font-size:6px;">1</text>
      <g ewd:figtype="title">
        <text transform="matrix(0 -1 1 0 67.5645 291.9609)" style="font-family:'Arial'; font-size:6px;">D36</text>
        <text transform="matrix(0 -1 1 0 74.6514 291.9609)" style="font-family:'Arial'; font-size:6px;" ewd:textID="6">Back-Up Lamp SW</text>
      </g>
    </g><g ewd:figtype="conn" ewd:code="D37" ewd:figID="8">
      <path style="fill:none;stroke:#000000;stroke-width:1.417;" d="M 131.76,283.46 L 140.26, 283.46" />
      <path style="fill:none;stroke:#000000;stroke-width:0.85;stroke-linecap:round;stroke-linejoin:round;" d="M 127.51,287.71 C 129.86 287.71 131.76 285.81 131.76 283.46 C 131.76 281.11 129.86 279.21 127.51 279.21 C 125.16 279.21 123.26 281.11 123.26 283.46 C 123.26 285.81 125.16 287.71 127.51 287.71" />
      <path style="fill:none;stroke:#000000;stroke-width:0.85;stroke-linecap:round;stroke-linejoin:round;" d="M 144.52,287.71 C 146.87 287.71 148.77 285.81 148.77 283.46 C 148.77 281.11 146.87 279.21 144.52 279.21 C 142.170008544922 279.209982910156 140.27 281.11 140.27 283.46 C 140.27 285.81 142.17 287.71 144.52 287.71" />
      <path style="fill:none;stroke:#000000;stroke-width:0.85;" d="M 136.01,257.95 L 136.01, 291.97" />
      <path style="fill:none;stroke:#000000;stroke-width:0.85;" d="M 119.01,257.95 L 119.01, 291.97" />
      <path style="fill:none;stroke:#000000;stroke-width:0.85;" d="M 102,274.95 L 153.02, 274.95" />
      <path style="fill:none;stroke:#000000;stroke-width:1.417;stroke-linecap:round;stroke-linejoin:round;" d="M 153.02,291.96 L 153.02, 257.94 L 102, 257.94 L 102, 291.96 L 153.02, 291.96" />
      <text transform="matrix(1 0 0 1 119.2134 253.9829)" style="font-family:'Arial'; font-size:6px;">2</text>
      <text transform="matrix(1 0 0 1 136.2212 299.3369)" style="font-family:'Arial'; font-size:6px;">1</text>
      <text transform="matrix(1 0 0 1 140.6836 268.1558)" style="font-family:'Arial'; font-size:6px;">RL</text>
      <text transform="matrix(1 0 0 1 108.3369 285.1641)" style="font-family:'Arial'; font-size:6px;">R</text>
      <text transform="matrix(1 0 0 1 123.3438 268.1558)" style="font-family:'Arial'; font-size:6px;">RB</text>
      <g ewd:figtype="title">
        <text transform="matrix(0 -1 1 0 161.1079 291.9609)" style="font-family:'Arial'; font-size:6px;">D37</text>
        <text transform="matrix(0 -1 1 0 168.1948 291.9609)" style="font-family:'Arial'; font-size:6px;" ewd:textID="11">Park/Neutral Position SW</text>
      </g>
    </g><g ewd:figtype="w2w" ewd:code="HB1" ewd:pin_no="23" ewd:figID="28">
      <path style="fill:#FFFFFF;stroke:#FFFFFF;stroke-width:0;stroke-linecap:round;stroke-linejoin:round;" d="M 216.8,257.06 L 212.55, 261.31 L 208.3, 257.06 L 208.3, 263.61 L 216.8, 263.61 L 216.8, 257.06" />
      <path style="fill:#FFFFFF;stroke:#FFFFFF;stroke-width:0;stroke-linecap:round;stroke-linejoin:round;" d="M 216.8,259.9 L 212.55, 264.15 L 208.3, 259.9 L 208.3, 266.45 L 216.8, 266.45 L 216.8, 259.9" />
      <path style="fill:none;stroke:#000000;stroke-width:0.85;" d="M 216.8,259.36 L 212.55, 263.61 L 208.3, 259.36" />
      <path style="fill:none;stroke:#000000;stroke-width:0.85;" d="M 216.8,262.2 L 212.55, 266.45 L 208.3, 262.2" />
      <path style="fill:none;stroke:#000000;stroke-width:0.85;stroke-linecap:round;stroke-linejoin:round;" d="M 222.47,274.95 L 222.47, 266.45 L 202.63, 266.45 L 202.63, 274.95 L 222.47, 274.95" />
      <text transform="matrix(1 0 0 1 194.5381 272.4053)" style="font-family:'Arial'; font-size:6px;">23</text>
    </g><g ewd:figtype="w2w" ewd:code="DB4" ewd:pin_no="1" ewd:figID="29">
      <path style="fill:#FFFFFF;stroke:#FFFFFF;stroke-width:0;stroke-linecap:round;stroke-linejoin:round;" d="M 55.23,377.88 L 50.98, 373.63 L 46.73, 377.88 L 46.73, 371.33 L 55.23, 371.33 L 55.23, 377.88" />
      <path style="fill:#FFFFFF;stroke:#FFFFFF;stroke-width:0;stroke-linecap:round;stroke-linejoin:round;" d="M 55.23,375.05 L 50.98, 370.8 L 46.73, 375.05 L 46.73, 368.5 L 55.23, 368.5 L 55.23, 375.05" />
      <path style="fill:none;stroke:#000000;stroke-width:0.85;" d="M 55.23,375.58 L 50.98, 371.33 L 46.73, 375.58" />
      <path style="fill:none;stroke:#000000;stroke-width:0.85;" d="M 55.23,372.75 L 50.98, 368.5 L 46.73, 372.75" />
      <path style="fill:none;stroke:#000000;stroke-width:0.85;stroke-linecap:round;stroke-linejoin:round;" d="M 60.9,359.99 L 60.9, 368.49 L 41.05, 368.49 L 41.05, 359.99 L 60.9, 359.99" />
      <text transform="matrix(1 0 0 1 36.3008 365.9512)" style="font-family:'Arial'; font-size:6px;">1</text>
    </g><g ewd:figtype="conn" ewd:code="B85" ewd:figID="9">
      <path style="fill:none;stroke:#000000;stroke-width:0.85;" d="M 50.98,419.52 L 50.98, 436.53" />
      <path style="fill:none;stroke:#000000;stroke-width:1.417;stroke-linecap:round;stroke-linejoin:round;" d="M 59.48,436.53 L 59.48, 419.52 L 42.47, 419.52 L 42.47, 436.53 L 59.48, 436.53" />
      <text transform="matrix(1 0 0 1 39.3413 443.9033)" style="font-family:'Arial'; font-size:6px;">17</text>
      <text transform="matrix(1 0 0 1 39.3413 415.5566)" style="font-family:'Arial'; font-size:6px;">16</text>
      <g ewd:figtype="title">
        <text transform="matrix(1 0 0 1 62.3145 426.1865)" style="font-family:'Arial'; font-size:6px;">B85</text>
        <text transform="matrix(1 0 0 1 62.3145 433.2734)" style="font-family:'Arial'; font-size:6px;" ewd:textID="10">Junction Connector</text>
      </g>
    </g><text transform="matrix(0 -1 1 0 47.0127 149.061)" style="font-family:'Arial'; font-size:6px;">L</text><text transform="matrix(0 -1 1 0 208.5874 149.3936)" style="font-family:'Arial'; font-size:6px;">B</text><text transform="matrix(0 -1 1 0 208.5874 225.9292)" style="font-family:'Arial'; font-size:6px;">B</text><text transform="matrix(0 -1 1 0 208.5874 327.9766)" style="font-family:'Arial'; font-size:6px;">B</text><text transform="matrix(0 -1 1 0 47.0127 226.0947)" style="font-family:'Arial'; font-size:6px;">R</text><text transform="matrix(0 -1 1 0 47.0127 327.644)" style="font-family:'Arial'; font-size:6px;">L</text><text transform="matrix(0 -1 1 0 47.0127 395.6758)" style="font-family:'Arial'; font-size:6px;">L</text><text transform="matrix(0 -1 1 0 47.0127 463.707)" style="font-family:'Arial'; font-size:6px;">L</text><text transform="matrix(0 -1 1 0 47.0127 565.7549)" style="font-family:'Arial'; font-size:6px;">L</text><text transform="matrix(0 -1 1 0 123.5479 226.0947)" style="font-family:'Arial'; font-size:6px;">R</text><text transform="matrix(0 -1 1 0 140.5562 327.644)" style="font-family:'Arial'; font-size:6px;">L</text><text transform="matrix(0 -1 1 0 234.0991 149.3936)" style="font-family:'Arial'; font-size:6px;">B</text><text transform="matrix(0 -1 1 0 58.3516 228.7622)" style="font-family:'Arial'; font-size:6px;">(*3)</text><text transform="matrix(0 -1 1 0 58.3516 330.8096)" style="font-family:'Arial'; font-size:6px;">(*3)</text><text transform="matrix(0 -1 1 0 219.9263 152.2266)" style="font-family:'Arial'; font-size:6px;">(*5)</text><text transform="matrix(0 -1 1 0 219.9263 228.7617)" style="font-family:'Arial'; font-size:6px;">(*5)</text><text transform="matrix(0 -1 1 0 134.8872 228.7622)" style="font-family:'Arial'; font-size:6px;">(*4)</text><text transform="matrix(0 -1 1 0 151.895 330.8096)" style="font-family:'Arial'; font-size:6px;">(*4)</text><text transform="matrix(0 -1 1 0 245.438 152.2266)" style="font-family:'Arial'; font-size:6px;">(*6)</text><text transform="matrix(0 -1 1 0 47.0127 395.6758)" style="font-family:'Arial'; font-size:6px;">L</text></svg>