﻿<?xml version="1.0" encoding="utf-8"?>
<!-- Generator: Adobe Illustrator 10.0, SVG Export Plug-In . SVG Version: 3.0.0 Build 77)  -->
<!DOCTYPE svg PUBLIC "-//W3C//DTD SVG 1.0//EN" "http://www.w3.org/TR/2001/REC-SVG-20010904/DTD/svg10.dtd"[
   <!ENTITY ns_flows "http://ns.adobe.com/Flows/1.0/">
   <!ENTITY ns_svg "http://www.w3.org/2000/svg">
   <!ENTITY ns_xlink "http://www.w3.org/1999/xlink">
   <!ENTITY st0 "font-size:7px;font-family:'MS-PGothic';adobe-font-script:japanese;">
   <!ENTITY st1 "font-size:6px;font-family:'ArialMT';">
   <!ENTITY st2 "fill:#FFFFFF;stroke:#000000; stroke-width:1.41;stroke-linecap:round;stroke-linejoin:round;">
   <!ENTITY st3 "fill:#FFFFCC;stroke:#FFFFCC; stroke-width:0.1;stroke-linecap:round;stroke-linejoin:round;">
   <!ENTITY st4 "fill:#CCCCCC;stroke:#CCCCCC; stroke-width:0.1;stroke-linecap:round;stroke-linejoin:round;">
   <!ENTITY st5 "fill:#CCECF4;stroke:#000000; stroke-width:1.133;stroke-linecap:round;stroke-linejoin:round;">
   <!ENTITY st6 "fill:none;stroke-linecap:butt; stroke-linejoin:round;">
   <!ENTITY st7 "fill:none;stroke:#000000;stroke-linecap:round;stroke-linejoin:round;">
   <!ENTITY st8 "enable-background:new;">
   <!ENTITY st9 "fill:#000000;stroke:#000000; stroke-linecap:round;stroke-linejoin:round;">
   <!ENTITY st10 "font-size:9px;font-family:'ArialMT';">
   <!ENTITY st11 "font-size:9px;font-family:'Svg Symbol';">
   <!ENTITY st12 "font-size:6px;font-family:'Svg Symbol';">
   <!ENTITY st13 "fill:none;stroke:#ff0000;stroke-linecap:round;stroke-linejoin:round;">
   <!ENTITY st14 "fill:#FFFF00;stroke:#FFFF00; stroke-width:0.1;stroke-linecap:round;stroke-linejoin:round;">
   <!ENTITY st15 "font-size:6px;font-family:'MS-PGothic';adobe-font-script:japanese;">
   <!ENTITY st16 "1.00 0.00 0.00 1.00">
   <!ENTITY st17 "0.00 -1.00 1.00 0.00">
   <!ENTITY st18 "font-size:6px;font-family:'Arial';">
   <!ENTITY st19 "font-size:9px;font-family:'Arial';">
   <!ENTITY st20 "font-size:6px;font-family:'MS-PGothic','MS PGothic';adobe-font-script:japanese;">
   <!ENTITY st21 "font-size:7px;font-family:'MS-PGothic','MS PGothic';adobe-font-script:japanese;">
   <!ATTLIST svg
       xmlns:ewd CDATA #FIXED "http://shcl.co.jp/ewd"
       xmlns:a CDATA #FIXED "http://ns.adobe.com/AdobeSVGViewerExtensions/3.0/"
       ewd:ver CDATA #IMPLIED >
   <!ATTLIST a
       ewd:lineID CDATA #IMPLIED
       ewd:groupID CDATA #IMPLIED
       ewd:figtype CDATA #IMPLIED
       ewd:code CDATA #IMPLIED
       ewd:figID CDATA #IMPLIED
       ewd:pinNo CDATA #IMPLIED
       ewd:comment CDATA #IMPLIED >
   <!ATTLIST g
       ewd:lineID CDATA #IMPLIED
       ewd:groupID CDATA #IMPLIED
       ewd:figtype CDATA #IMPLIED
       ewd:code CDATA #IMPLIED
       ewd:figID CDATA #IMPLIED
       ewd:pinNo CDATA #IMPLIED
       ewd:comment CDATA #IMPLIED >
   <!ATTLIST text
       ewd:textID CDATA #IMPLIED >
   <!ATTLIST title
       ewd:textID CDATA #IMPLIED >
]>
<svg xmlns="http://www.w3.org/2000/svg" xmlns:xlink="http://www.w3.org/1999/xlink" width="855.7" height="721" viewBox="0 0 855.7 721" xml:space="preserve" xmlns:ewd="http://shcl.co.jp/ewd" ewd:ver="2.0">
  
  <defs>
    <font horiz-adv-x="1229">
      <font-face font-family="Svg Symbol" units-per-em="2048" panose-1="5 5 1 2 1 7 6 2 5 7" ascent="2059" descent="450" alphabetic="0" />
      <missing-glyph d="M 103,0 l 0,1280 1024,0 0,-1280 -1024,0 z m 32,32 l 960,0 0,1216 -960,0 0,-1216 z" />
      <glyph d4p1:unicode="" horiz-adv-x="1573" d="M 1517,0 l -567,0 24,279 q 141,59 207.5,168 66.5,109 66.5,306 0,272 -132.5,417.5 -132.5,145.5 -333.5,145.5 -194,0 -328,-147.5 -134,-147.5 -134,-401.5 0,-200 68.5,-319 68.5,-119 206.5,-169 l 25,-279 -564,0 0,279 35,0 q 3,-61 32,-83 45,-35 137,-35 l 270,0 0,70 q -210,61 -324.5,209 -114.5,148 -114.5,349 0,252 186.5,425 186.5,173 504.5,173 195,0 358.5,-73.5 163.5,-73.5 252,-214.5 88.5,-141 88.5,-310 0,-207 -121.5,-360.5 -121.5,-153.5 -317.5,-197.5 l -8,-70 275,0 q 92,0 128,28 36,28 42,90 l 38,0 0,-279 z" xmlns:d4p1="def-glyph-attr-unicode" />
    </font>
  </defs>
  
<g ewd:figtype="conn" ewd:code="D20" ewd:figID="4">
      <path style="fill:none;stroke:#000000;stroke-width:1.42;stroke-linecap:round;stroke-linejoin:round;" d="M 527.28,376.98 L 442.24, 376.98 L 442.24, 334.46 L 527.28, 334.46 L 527.28, 376.98" />
      <g ewd:lineID="18">
        <text transform="matrix(1 0 0 1 450.9521 330.5083)" style="font-family:'Arial'; font-size:6px;">1</text>
        <text transform="matrix(1 0 0 1 455.5 341.8418)" style="font-family:'Arial'; font-size:6px;">+B</text>
      </g>
      <g ewd:lineID="19">
        <text transform="matrix(1 0 0 1 450.9521 384.3643)" style="font-family:'Arial'; font-size:6px;">3</text>
        <text transform="matrix(1 0 0 1 452.585 373.0215)" style="font-family:'Arial'; font-size:6px;">IGT1</text>
      </g>
      <g ewd:lineID="26">
        <text transform="matrix(1 0 0 1 501.9717 384.3643)" style="font-family:'Arial'; font-size:6px;">4</text>
        <text transform="matrix(1 0 0 1 503.6055 373.0215)" style="font-family:'Arial'; font-size:6px;">GND</text>
      </g>
      <g ewd:lineID="30">
        <text transform="matrix(1 0 0 1 476.4619 384.3643)" style="font-family:'Arial'; font-size:6px;">2</text>
        <text transform="matrix(1 0 0 1 479.7637 373.0215)" style="font-family:'Arial'; font-size:6px;">IGF</text>
      </g>
      <g ewd:figtype="title">
        <text transform="matrix(1 0 0 1 467.7549 315.6196)" style="font-family:'Arial'; font-size:6px;">D20</text>
        <text transform="matrix(1 0 0 1 467.7549 322.7065)" style="font-family:'Arial'; font-size:6px;" ewd:textID="3">Ignition <tspan x="0" dy="1em">Coil (No.1)</tspan></text>
      </g>
    </g><g ewd:figtype="conn" ewd:code="D21" ewd:figID="5">
      <path style="fill:none;stroke:#000000;stroke-width:1.42;stroke-linecap:round;stroke-linejoin:round;" d="M 620.82,376.98 L 535.78, 376.98 L 535.78, 334.46 L 620.82, 334.46 L 620.82, 376.98" />
      <g ewd:lineID="25">
        <text transform="matrix(1 0 0 1 595.5146 384.3643)" style="font-family:'Arial'; font-size:6px;">4</text>
        <text transform="matrix(1 0 0 1 597.1484 373.0215)" style="font-family:'Arial'; font-size:6px;">GND</text>
      </g>
      <g ewd:lineID="37">
        <text transform="matrix(1 0 0 1 570.0049 384.3643)" style="font-family:'Arial'; font-size:6px;">2</text>
        <text transform="matrix(1 0 0 1 573.3066 373.0215)" style="font-family:'Arial'; font-size:6px;">IGF</text>
        <text transform="matrix(1 0 0 1 546.127 373.0215)" style="font-family:'Arial'; font-size:6px;">IGT2</text>
      </g>
      <g ewd:lineID="38">
        <text transform="matrix(1 0 0 1 544.4941 384.3643)" style="font-family:'Arial'; font-size:6px;">3</text>
      </g>
      <g ewd:lineID="6">
        <text transform="matrix(1 0 0 1 544.4941 330.5083)" style="font-family:'Arial'; font-size:6px;">1</text>
        <text transform="matrix(1 0 0 1 549.042 341.8418)" style="font-family:'Arial'; font-size:6px;">+B</text>
      </g>
      <g ewd:figtype="title">
        <text transform="matrix(1 0 0 1 561.2979 315.6196)" style="font-family:'Arial'; font-size:6px;">D21</text>
        <text transform="matrix(1 0 0 1 561.2979 322.7065)" style="font-family:'Arial'; font-size:6px;" ewd:textID="4">Ignition <tspan x="0" dy="1em">Coil (No.2)</tspan></text>
      </g>
    </g><g ewd:figtype="conn" ewd:code="D22" ewd:figID="6">
      <path style="fill:none;stroke:#000000;stroke-width:1.42;stroke-linecap:round;stroke-linejoin:round;" d="M 714.37,376.98 L 629.33, 376.98 L 629.33, 334.46 L 714.37, 334.46 L 714.37, 376.98" />
      <g ewd:lineID="22">
        <text transform="matrix(1 0 0 1 638.0371 330.5083)" style="font-family:'Arial'; font-size:6px;">1</text>
        <text transform="matrix(1 0 0 1 642.585 341.8418)" style="font-family:'Arial'; font-size:6px;">+B</text>
      </g>
      <g ewd:lineID="23">
        <text transform="matrix(1 0 0 1 638.0371 384.3643)" style="font-family:'Arial'; font-size:6px;">3</text>
        <text transform="matrix(1 0 0 1 639.6699 373.0215)" style="font-family:'Arial'; font-size:6px;">IGT3</text>
      </g>
      <g ewd:lineID="24">
        <text transform="matrix(1 0 0 1 689.0576 384.3643)" style="font-family:'Arial'; font-size:6px;">4</text>
        <text transform="matrix(1 0 0 1 690.6914 373.0215)" style="font-family:'Arial'; font-size:6px;">GND</text>
      </g>
      <g ewd:lineID="36">
        <text transform="matrix(1 0 0 1 663.5479 384.3643)" style="font-family:'Arial'; font-size:6px;">2</text>
        <text transform="matrix(1 0 0 1 666.8496 373.0215)" style="font-family:'Arial'; font-size:6px;">IGF</text>
      </g>
      <g ewd:figtype="title">
        <text transform="matrix(1 0 0 1 654.8408 315.6196)" style="font-family:'Arial'; font-size:6px;">D22</text>
        <text transform="matrix(1 0 0 1 654.8408 322.7065)" style="font-family:'Arial'; font-size:6px;" ewd:textID="5">Ignition <tspan x="0" dy="1em">Coil (No.3)</tspan></text>
      </g>
    </g><g ewd:figtype="conn" ewd:code="D23" ewd:figID="7">
      <path style="fill:none;stroke:#000000;stroke-width:1.42;stroke-linecap:round;stroke-linejoin:round;" d="M 807.91,376.98 L 722.87, 376.98 L 722.87, 334.46 L 807.91, 334.46 L 807.91, 376.98" />
      <g ewd:lineID="20">
        <text transform="matrix(1 0 0 1 731.5811 330.5083)" style="font-family:'Arial'; font-size:6px;">1</text>
        <text transform="matrix(1 0 0 1 736.1289 341.8418)" style="font-family:'Arial'; font-size:6px;">+B</text>
      </g>
      <g ewd:lineID="21">
        <text transform="matrix(1 0 0 1 731.5811 384.3643)" style="font-family:'Arial'; font-size:6px;">3</text>
        <text transform="matrix(1 0 0 1 733.2139 373.0215)" style="font-family:'Arial'; font-size:6px;">IGT4</text>
      </g>
      <g ewd:lineID="34">
        <text transform="matrix(1 0 0 1 782.6006 384.3643)" style="font-family:'Arial'; font-size:6px;">4</text>
        <text transform="matrix(1 0 0 1 784.2344 373.0215)" style="font-family:'Arial'; font-size:6px;">GND</text>
      </g>
      <g ewd:lineID="35">
        <text transform="matrix(1 0 0 1 757.0908 384.3643)" style="font-family:'Arial'; font-size:6px;">2</text>
        <text transform="matrix(1 0 0 1 760.3926 373.0215)" style="font-family:'Arial'; font-size:6px;">IGF</text>
      </g>
      <g ewd:figtype="title">
        <text transform="matrix(1 0 0 1 748.3838 315.6196)" style="font-family:'Arial'; font-size:6px;">D23</text>
        <text transform="matrix(1 0 0 1 748.3838 322.7065)" style="font-family:'Arial'; font-size:6px;" ewd:textID="6">Ignition <tspan x="0" dy="1em">Coil (No.4)</tspan></text>
      </g>
    </g><g ewd:figtype="conn" ewd:code="D97" ewd:figID="8">
      <path style="fill:none;stroke:#000000;stroke-width:1.42;stroke-linecap:round;stroke-linejoin:round;" d="M 807.91,674.64 L 442.24, 674.64 L 442.24, 640.62 L 807.91, 640.62 L 807.91, 674.64" />
      <g ewd:lineID="19">
        <path style="fill:#FFFFFF;stroke:#000000;stroke-width:0.85;stroke-linecap:round;stroke-linejoin:round;" d="M 459.29,640.62 C 462.42 640.62 464.96 638.08 464.96 634.95 C 464.959982910156 631.820024414062 462.42 629.28 459.29 629.28 C 456.160017089844 629.28005859375 453.62 631.82 453.62 634.95 C 453.619990234375 638.080024414062 456.16 640.62 459.29 640.62" />
        <text transform="matrix(1 0 0 1 457.2852 636.6602)" style="font-family:'Arial'; font-size:6px;">B</text>
        <text transform="matrix(1 0 0 1 442.0488 636.6602)" style="font-family:'Arial'; font-size:6px;">109</text>
        <text transform="matrix(1 0 0 1 452.623 648.001)" style="font-family:'Arial'; font-size:6px;">IGT1</text>
      </g>
      <g ewd:lineID="21">
        <path style="fill:#FFFFFF;stroke:#000000;stroke-width:0.85;stroke-linecap:round;stroke-linejoin:round;" d="M 739.9,640.62 C 743.03 640.62 745.57 638.08 745.57 634.95 C 745.570014648437 631.820024414062 743.03 629.28 739.9 629.28 C 736.770048828125 629.28005859375 734.23 631.82 734.23 634.95 C 734.2299609375 638.080024414062 736.77 640.62 739.9 640.62" />
        <text transform="matrix(1 0 0 1 737.8965 636.6602)" style="font-family:'Arial'; font-size:6px;">B</text>
        <text transform="matrix(1 0 0 1 722.6602 636.6602)" style="font-family:'Arial'; font-size:6px;">106</text>
        <text transform="matrix(1 0 0 1 733.2354 648.001)" style="font-family:'Arial'; font-size:6px;">IGT4</text>
      </g>
      <g ewd:lineID="23">
        <path style="fill:#FFFFFF;stroke:#000000;stroke-width:0.85;stroke-linecap:round;stroke-linejoin:round;" d="M 646.36,640.62 C 649.49 640.62 652.03 638.08 652.03 634.95 C 652.03005859375 631.820024414062 649.4901 629.28 646.36 629.28 C 643.229870703125 629.28005859375 640.69 631.82 640.69 634.95 C 640.690004882812 638.080024414062 643.23 640.62 646.36 640.62" />
        <text transform="matrix(1 0 0 1 644.3594 636.6602)" style="font-family:'Arial'; font-size:6px;">B</text>
        <text transform="matrix(1 0 0 1 629.123 636.6602)" style="font-family:'Arial'; font-size:6px;">107</text>
        <text transform="matrix(1 0 0 1 639.6973 648.001)" style="font-family:'Arial'; font-size:6px;">IGT3</text>
      </g>
      <g ewd:lineID="33">
        <path style="fill:#FFFFFF;stroke:#000000;stroke-width:0.85;stroke-linecap:round;stroke-linejoin:round;" d="M 790.92,640.62 C 794.05 640.62 796.59 638.08 796.59 634.95 C 796.590053710937 631.820024414062 794.05 629.28 790.92 629.28 C 787.789965820313 629.28005859375 785.25 631.82 785.25 634.95 C 785.25 638.080024414062 787.79 640.62 790.92 640.62" />
        <text transform="matrix(1 0 0 1 788.9199 636.6602)" style="font-family:'Arial'; font-size:6px;">B</text>
        <text transform="matrix(1 0 0 1 777.0195 636.6602)" style="font-family:'Arial'; font-size:6px;">82</text>
        <text transform="matrix(1 0 0 1 784.2529 648.001)" style="font-family:'Arial'; font-size:6px;">IGF1</text>
      </g>
      <g ewd:lineID="38">
        <path style="fill:#FFFFFF;stroke:#000000;stroke-width:0.85;stroke-linecap:round;stroke-linejoin:round;" d="M 552.82,640.62 C 555.95 640.62 558.49 638.08 558.49 634.95 C 558.48998046875 631.820024414062 555.95 629.28 552.82 629.28 C 549.690014648437 629.28005859375 547.15 631.82 547.15 634.95 C 547.150048828125 638.080024414062 549.69 640.62 552.82 640.62" />
        <text transform="matrix(1 0 0 1 550.8223 636.6602)" style="font-family:'Arial'; font-size:6px;">B</text>
        <text transform="matrix(1 0 0 1 535.5859 636.6602)" style="font-family:'Arial'; font-size:6px;">108</text>
        <text transform="matrix(1 0 0 1 546.1602 648.001)" style="font-family:'Arial'; font-size:6px;">IGT2</text>
      </g>
      <g ewd:figtype="title">
        <text transform="matrix(1 0 0 1 600.9893 682.7275)" style="font-family:'Arial'; font-size:6px;">D97(B)</text>
        <text transform="matrix(1 0 0 1 600.9893 689.8145)" style="font-family:'Arial'; font-size:6px;" ewd:textID="2">Engine ECU</text>
      </g>
    </g><g ewd:figtype="w2w" ewd:code="DB1" ewd:pin_no="4" ewd:figID="27">
      <path style="fill:#FFFFFF;stroke:#FFFFFF;stroke-width:0;stroke-linecap:round;stroke-linejoin:round;" d="M 335.96,258.81 L 331.71, 254.56 L 327.46, 258.81 L 327.46, 252.26 L 335.96, 252.26 L 335.96, 258.81" />
      <path style="fill:#FFFFFF;stroke:#FFFFFF;stroke-width:0;stroke-linecap:round;stroke-linejoin:round;" d="M 335.96,255.98 L 331.71, 251.73 L 327.46, 255.98 L 327.46, 249.43 L 335.96, 249.43 L 335.96, 255.98" />
      <path style="fill:none;stroke:#000000;stroke-width:0.85;" d="M 335.96,256.51 L 331.71, 252.26 L 327.46, 256.51" />
      <path style="fill:none;stroke:#000000;stroke-width:0.85;" d="M 335.96,253.68 L 331.71, 249.43 L 327.46, 253.68" />
      <path style="fill:none;stroke:#000000;stroke-width:0.85;stroke-linecap:round;stroke-linejoin:round;" d="M 341.63,240.92 L 341.63, 249.42 L 321.79, 249.42 L 321.79, 240.92 L 341.63, 240.92" />
      <text transform="matrix(1 0 0 1 317.0361 246.8774)" style="font-family:'Arial'; font-size:6px;">4</text>
    </g><text transform="matrix(0 -1 1 0 735.8975 416.1709)" style="font-family:'Arial'; font-size:6px;">Y-R</text><text transform="matrix(1 0 0 1 614.8242 483.5811)" style="font-family:'Arial'; font-size:6px;">W-R</text><text transform="matrix(1 0 0 1 699.8594 483.5811)" style="font-family:'Arial'; font-size:6px;">W-R</text><text transform="matrix(1 0 0 1 718.6953 432.5518)" style="font-family:'Arial'; font-size:6px;">BR</text><text transform="matrix(1 0 0 1 625.1572 432.5518)" style="font-family:'Arial'; font-size:6px;">BR</text><text transform="matrix(1 0 0 1 352.0273 202.9351)" style="font-family:'Arial'; font-size:6px;">B-R</text><text transform="matrix(0 -1 1 0 327.7471 280.1211)" style="font-family:'Arial'; font-size:6px;">B-R</text><text transform="matrix(0 -1 1 0 548.8369 280.0894)" style="font-family:'Arial'; font-size:6px;">B-R</text><text transform="matrix(0 -1 1 0 455.2998 280.0894)" style="font-family:'Arial'; font-size:6px;">B-R</text><text transform="matrix(0 -1 1 0 735.9111 280.0894)" style="font-family:'Arial'; font-size:6px;">B-R</text><text transform="matrix(0 -1 1 0 642.374 280.0894)" style="font-family:'Arial'; font-size:6px;">B-R</text><text transform="matrix(1 0 0 1 505.0957 202.9185)" style="font-family:'Arial'; font-size:6px;">B-R</text><text transform="matrix(1 0 0 1 607.1367 202.9185)" style="font-family:'Arial'; font-size:6px;">B-R</text><text transform="matrix(1 0 0 1 700.6738 202.9185)" style="font-family:'Arial'; font-size:6px;">B-R</text><text transform="matrix(0 -1 1 0 455.2861 415.8379)" style="font-family:'Arial'; font-size:6px;">R-L</text><text transform="matrix(0 -1 1 0 480.7959 417.002)" style="font-family:'Arial'; font-size:6px;">W-R</text><text transform="matrix(0 -1 1 0 506.3066 415.1719)" style="font-family:'Arial'; font-size:6px;">BR</text><text transform="matrix(0 -1 1 0 548.8232 416.5039)" style="font-family:'Arial'; font-size:6px;">L-W</text><text transform="matrix(0 -1 1 0 574.333 417.002)" style="font-family:'Arial'; font-size:6px;">W-R</text><text transform="matrix(0 -1 1 0 667.8701 417.002)" style="font-family:'Arial'; font-size:6px;">W-R</text><text transform="matrix(0 -1 1 0 599.8428 415.1719)" style="font-family:'Arial'; font-size:6px;">BR</text><text transform="matrix(0 -1 1 0 642.3604 416.0059)" style="font-family:'Arial'; font-size:6px;">B-Y</text><text transform="matrix(0 -1 1 0 693.3809 415.1719)" style="font-family:'Arial'; font-size:6px;">BR</text><text transform="matrix(0 -1 1 0 455.2861 602.9453)" style="font-family:'Arial'; font-size:6px;">R-L</text><text transform="matrix(0 -1 1 0 548.8232 603.6113)" style="font-family:'Arial'; font-size:6px;">L-W</text><text transform="matrix(0 -1 1 0 642.3604 603.1133)" style="font-family:'Arial'; font-size:6px;">B-Y</text><text transform="matrix(0 -1 1 0 735.8975 603.2783)" style="font-family:'Arial'; font-size:6px;">Y-R</text><text transform="matrix(1 0 0 1 529.791 483.5811)" style="font-family:'Arial'; font-size:6px;">W-R</text><text transform="matrix(1 0 0 1 531.6201 432.5518)" style="font-family:'Arial'; font-size:6px;">BR</text><text transform="matrix(1 0 0 1 403.0508 202.9351)" style="font-family:'Arial'; font-size:6px;">B-R</text></svg>