﻿<?xml version="1.0" encoding="utf-8"?>
<!-- Generator: Adobe Illustrator 10.0, SVG Export Plug-In . SVG Version: 3.0.0 Build 77)  -->
<!DOCTYPE svg PUBLIC "-//W3C//DTD SVG 1.0//EN" "http://www.w3.org/TR/2001/REC-SVG-20010904/DTD/svg10.dtd"[
   <!ENTITY ns_flows "http://ns.adobe.com/Flows/1.0/">
   <!ENTITY ns_svg "http://www.w3.org/2000/svg">
   <!ENTITY ns_xlink "http://www.w3.org/1999/xlink">
   <!ENTITY st0 "font-size:7px;font-family:'MS-PGothic';adobe-font-script:japanese;">
   <!ENTITY st1 "font-size:6px;font-family:'ArialMT';">
   <!ENTITY st2 "fill:#FFFFFF;stroke:#000000; stroke-width:1.41;stroke-linecap:round;stroke-linejoin:round;">
   <!ENTITY st3 "fill:#FFFFCC;stroke:#FFFFCC; stroke-width:0.1;stroke-linecap:round;stroke-linejoin:round;">
   <!ENTITY st4 "fill:#CCCCCC;stroke:#CCCCCC; stroke-width:0.1;stroke-linecap:round;stroke-linejoin:round;">
   <!ENTITY st5 "fill:#CCECF4;stroke:#000000; stroke-width:1.133;stroke-linecap:round;stroke-linejoin:round;">
   <!ENTITY st6 "fill:none;stroke-linecap:butt; stroke-linejoin:round;">
   <!ENTITY st7 "fill:none;stroke:#000000;stroke-linecap:round;stroke-linejoin:round;">
   <!ENTITY st8 "enable-background:new;">
   <!ENTITY st9 "fill:#000000;stroke:#000000; stroke-linecap:round;stroke-linejoin:round;">
   <!ENTITY st10 "font-size:9px;font-family:'ArialMT';">
   <!ENTITY st11 "font-size:9px;font-family:'Svg Symbol';">
   <!ENTITY st12 "font-size:6px;font-family:'Svg Symbol';">
   <!ENTITY st13 "fill:none;stroke:#ff0000;stroke-linecap:round;stroke-linejoin:round;">
   <!ENTITY st14 "fill:#FFFF00;stroke:#FFFF00; stroke-width:0.1;stroke-linecap:round;stroke-linejoin:round;">
   <!ENTITY st15 "font-size:6px;font-family:'MS-PGothic';adobe-font-script:japanese;">
   <!ENTITY st16 "1.00 0.00 0.00 1.00">
   <!ENTITY st17 "0.00 -1.00 1.00 0.00">
   <!ENTITY st18 "font-size:6px;font-family:'Arial';">
   <!ENTITY st19 "font-size:9px;font-family:'Arial';">
   <!ENTITY st20 "font-size:6px;font-family:'MS-PGothic','MS PGothic';adobe-font-script:japanese;">
   <!ENTITY st21 "font-size:7px;font-family:'MS-PGothic','MS PGothic';adobe-font-script:japanese;">
   <!ATTLIST svg
       xmlns:ewd CDATA #FIXED "http://shcl.co.jp/ewd"
       xmlns:a CDATA #FIXED "http://ns.adobe.com/AdobeSVGViewerExtensions/3.0/"
       ewd:ver CDATA #IMPLIED >
   <!ATTLIST a
       ewd:lineID CDATA #IMPLIED
       ewd:groupID CDATA #IMPLIED
       ewd:figtype CDATA #IMPLIED
       ewd:code CDATA #IMPLIED
       ewd:figID CDATA #IMPLIED
       ewd:pinNo CDATA #IMPLIED
       ewd:comment CDATA #IMPLIED >
   <!ATTLIST g
       ewd:lineID CDATA #IMPLIED
       ewd:groupID CDATA #IMPLIED
       ewd:figtype CDATA #IMPLIED
       ewd:code CDATA #IMPLIED
       ewd:figID CDATA #IMPLIED
       ewd:pinNo CDATA #IMPLIED
       ewd:comment CDATA #IMPLIED >
   <!ATTLIST text
       ewd:textID CDATA #IMPLIED >
   <!ATTLIST title
       ewd:textID CDATA #IMPLIED >
]>
<svg xmlns="http://www.w3.org/2000/svg" xmlns:xlink="http://www.w3.org/1999/xlink" width="1058.72" height="721" viewBox="0 0 1058.72 721" xml:space="preserve" xmlns:ewd="http://shcl.co.jp/ewd" ewd:ver="2.0">
  
  <defs>
    <font horiz-adv-x="1229">
      <font-face font-family="Svg Symbol" units-per-em="2048" panose-1="5 5 1 2 1 7 6 2 5 7" ascent="2059" descent="450" alphabetic="0" />
      <missing-glyph d="M 103,0 l 0,1280 1024,0 0,-1280 -1024,0 z m 32,32 l 960,0 0,1216 -960,0 0,-1216 z" />
      <glyph d4p1:unicode="" horiz-adv-x="1573" d="M 1517,0 l -567,0 24,279 q 141,59 207.5,168 66.5,109 66.5,306 0,272 -132.5,417.5 -132.5,145.5 -333.5,145.5 -194,0 -328,-147.5 -134,-147.5 -134,-401.5 0,-200 68.5,-319 68.5,-119 206.5,-169 l 25,-279 -564,0 0,279 35,0 q 3,-61 32,-83 45,-35 137,-35 l 270,0 0,70 q -210,61 -324.5,209 -114.5,148 -114.5,349 0,252 186.5,425 186.5,173 504.5,173 195,0 358.5,-73.5 163.5,-73.5 252,-214.5 88.5,-141 88.5,-310 0,-207 -121.5,-360.5 -121.5,-153.5 -317.5,-197.5 l -8,-70 275,0 q 92,0 128,28 36,28 42,90 l 38,0 0,-279 z" xmlns:d4p1="def-glyph-attr-unicode" />
    </font>
  </defs>
  
<g ewd:figtype="jb" ewd:code="13" ewd:figID="4">
      <path style="fill:none;stroke:#000000;stroke-width:0.85;" d="M 153.05,158.74 L 153.05, 172.91 L 76.51, 172.91 L 76.51, 189.92" />
      <path style="fill:none;stroke:#000000;stroke-width:0.85;" d="M 76.51,189.92 L 76.51, 194.17" />
      <path style="fill:none;stroke:#000000;stroke-width:0.85;" d="M 76.51,219.69 L 76.51, 223.94" />
      <path style="fill:none;stroke:#000000;stroke-width:0.85;" d="M 76.51,223.94 L 76.51, 240.95 L 110.53, 240.95 L 110.53, 257.96" />
      <path style="fill:none;stroke:#000000;stroke-width:0.85;" d="M 110.53,257.95 L 110.53, 265.04" />
      <path style="fill:none;stroke:#000000;stroke-width:0.85;" d="M 110.53,293.38 L 110.53, 300.47" />
      <path style="fill:none;stroke:#000000;stroke-width:0.85;" d="M 110.53,300.47 L 110.53, 323.15" />
      <path style="fill:none;stroke:#000000;stroke-width:0.85;" d="M 51,80.79 L 51, 87.88" />
      <path style="fill:none;stroke:#000000;stroke-width:0.85;" d="M 51,87.88 L 51, 189.93" />
      <path style="fill:none;stroke:#000000;stroke-width:0.85;" d="M 51,189.92 L 51, 197.43" />
      <path style="fill:none;stroke:#000000;stroke-width:0.85;" d="M 51,216.43 L 51, 223.94" />
      <path style="fill:none;stroke:#000000;stroke-width:0.85;" d="M 51,223.94 L 51, 323.15" />
      <path d="M 51,323.15 L 53.83, 320.32 L 53.83, 317.49 L 51, 320.31 L 48.17, 317.48 L 48.17, 320.31 L 51, 323.15" style="stroke-linecap:round;stroke-linejoin:round;" />
      <path style="fill:none;stroke:#000000;stroke-width:0.85;stroke-linecap:round;stroke-linejoin:round;" d="M 55.25,334.49 C 58.38 334.49 60.92 331.95 60.92 328.82 C 60.92 325.69 58.38 323.15 55.25 323.15 L 46.75, 323.15 C 43.62 323.15 41.08 325.69 41.08 328.82 C 41.08 331.95 43.62 334.49 46.75 334.49 L 55.25, 334.49" />
      <path d="M 110.53,323.15 L 113.36, 320.32 L 113.36, 317.49 L 110.53, 320.32 L 107.69, 317.49 L 107.69, 320.32 L 110.53, 323.15" style="stroke-linecap:round;stroke-linejoin:round;" />
      <path style="fill:none;stroke:#000000;stroke-width:0.85;stroke-linecap:round;stroke-linejoin:round;" d="M 114.78,334.49 C 117.91 334.49 120.45 331.95 120.45 328.82 C 120.45 325.69 117.91 323.15 114.78 323.15 L 106.28, 323.15 C 103.15 323.15 100.61 325.69 100.61 328.82 C 100.61 331.95 103.15 334.49 106.28 334.49 L 114.78, 334.49" />
      <path style="fill:none;stroke:#000000;stroke-width:1.417;" d="M 111.53,290.96 C 111.53 290.96 121.03 284.83 110.65 275.66 C 106.47 271.97 109.52 267.45 109.52 267.45" />
      <path style="fill:none;stroke:#000000;stroke-width:1.417;" d="M 109.52,267.46 C 109.52 267.46 100.02 273.59 110.4 282.76 C 114.58 286.45 111.53 290.97 111.53 290.97" />
      <path style="fill:none;stroke:#000000;stroke-width:0.85;stroke-linecap:round;stroke-linejoin:round;" d="M 110.53,293.38 C 111.31 293.38 111.95 292.75 111.95 291.96 C 111.949993896484 291.169982910156 111.32 290.54 110.53 290.54 C 109.75 290.54 109.11 291.17 109.11 291.96 C 109.110001220703 292.749982910156 109.75 293.38 110.53 293.38" />
      <path style="fill:none;stroke:#000000;stroke-width:0.85;stroke-linecap:round;stroke-linejoin:round;" d="M 110.53,267.87 C 111.31 267.87 111.95 267.24 111.95 266.45 C 111.949993896484 265.660024414062 111.32 265.03 110.53 265.03 C 109.75 265.03 109.11 265.66 109.11 266.45 C 109.110001220703 267.240024414062 109.75 267.87 110.53 267.87" />
      <path style="fill:none;stroke:#000000;stroke-width:1.417;" d="M 109.52,267.46 C 109.52 267.46 103.45 272.14 110.52 279.21 C 117.59 286.28 111.52 290.96 111.52 290.96" />
      <path style="fill:none;stroke:#000000;stroke-width:1.417;stroke-linecap:round;stroke-linejoin:round;" d="M 123.28,300.47 L 123.28, 257.95 L 97.77, 257.95 L 97.77, 300.47 L 123.28, 300.47" />
      <path style="fill:none;stroke:#000000;stroke-width:0.85;stroke-linecap:round;stroke-linejoin:round;" d="M 76.51,219.69 C 77.29 219.69 77.93 219.06 77.93 218.27 C 77.9300006103516 217.480008544922 77.3 216.85 76.51 216.85 C 75.73 216.85 75.09 217.48 75.09 218.27 C 75.0899926757812 219.060008544922 75.73 219.69 76.51 219.69" />
      <path style="fill:none;stroke:#000000;stroke-width:1.417;" d="M 76.88,216.9 L 82.18, 194.17" />
      <path style="fill:none;stroke:#000000;stroke-width:0.85;stroke-linecap:round;stroke-linejoin:round;" d="M 76.51,197.01 C 77.29 197.01 77.93 196.38 77.93 195.59 C 77.9300006103516 194.799992675781 77.3 194.17 76.51 194.17 C 75.73 194.17 75.09 194.8 75.09 195.59 C 75.0899926757812 196.379992675781 75.73 197.01 76.51 197.01" />
      <path style="fill:none;stroke:#000000;stroke-width:0.85;stroke-linecap:round;" d="M 47.85,209.74 C 48.63 208.88 49.75 208.34 51 208.34 C 53.35 208.34 55.25 210.24 55.25 212.59 C 55.25 214.939992675781 53.35 216.84 51 216.84" />
      <path style="fill:none;stroke:#000000;stroke-width:0.85;stroke-linecap:round;" d="M 47.8,209.72 C 48.58 210.61 49.73 211.18 51 211.18 C 53.35 211.18 55.25 209.28 55.25 206.93 C 55.25 204.58 53.35 202.68 51 202.68 C 49.72 202.68 48.58 203.24 47.8 204.13" />
      <path style="fill:none;stroke:#000000;stroke-width:0.85;stroke-linecap:round;" d="M 47.82,204.08 C 48.6 204.96 49.74 205.51 51 205.51 C 53.35 205.51 55.25 203.61 55.25 201.26 C 55.25 198.909989013672 53.35 197.01 51 197.01" />
      <path style="fill:none;stroke:#000000;stroke-width:1.417;stroke-linecap:round;stroke-linejoin:round;" d="M 85.02,223.94 L 85.02, 189.92 L 42.5, 189.92 L 42.5, 223.94 L 85.02, 223.94" />
      <path d="M 153.05,158.74 L 155.88, 161.57 L 155.88, 164.4 L 153.05, 161.57 L 150.22, 164.4 L 150.22, 161.57 L 153.05, 158.74" style="stroke-linecap:round;stroke-linejoin:round;" />
      <path style="fill:none;stroke:#000000;stroke-width:0.85;stroke-linecap:round;stroke-linejoin:round;" d="M 157.3,158.74 C 160.43 158.74 162.97 156.2 162.97 153.07 C 162.97 149.94 160.43 147.4 157.3 147.4 L 148.8, 147.4 C 145.67 147.4 143.13 149.94 143.13 153.07 C 143.13 156.2 145.67 158.74 148.8 158.74 L 157.3, 158.74" />
      <path style="fill:none;stroke:#000000;stroke-width:0.85;stroke-linecap:round;stroke-linejoin:round;" d="M 51,80.79 C 51.78 80.79 52.42 80.15 52.42 79.37 C 52.42 78.59 51.78 77.95 51 77.95 C 50.22 77.9499938964844 49.58 78.59 49.58 79.37 C 49.58 80.15 50.22 80.79 51 80.79" />
      <path style="fill:none;stroke:#000000;stroke-width:0.85;stroke-linecap:round;stroke-linejoin:round;" d="M 51,55.28 C 51.78 55.28 52.42 54.65 52.42 53.86 C 52.42 53.08 51.78 52.44 51 52.44 C 50.22 52.439997253418 49.58 53.07 49.58 53.86 C 49.58 54.64 50.22 55.28 51 55.28" />
      <path style="fill:none;stroke:#000000;stroke-width:1.417;" d="M 50,54.86 C 50 54.86 43.93 59.54 51 66.61 C 58.07 73.6800012207031 52 78.36 52 78.36" />
      <path style="fill:none;stroke:#000000;stroke-width:1.417;stroke-linecap:round;stroke-linejoin:round;" d="M 63.76,87.88 L 63.76, 45.36 L 38.25, 45.36 L 38.25, 87.88 L 63.76, 87.88" />
      <text transform="matrix(1 0 0 1 45.165 330.5254)" style="font-family:'Arial'; font-size:6px;">13M</text>
      <text transform="matrix(1 0 0 1 36.3262 330.5254)" style="font-family:'Arial'; font-size:6px;">7</text>
      <text transform="matrix(1 0 0 1 105.1909 330.5254)" style="font-family:'Arial'; font-size:6px;">13B</text>
      <text transform="matrix(1 0 0 1 92.5171 330.5254)" style="font-family:'Arial'; font-size:6px;">36</text>
      <text transform="matrix(1 0 0 1 102.231 253.9902)" style="font-family:'Arial'; font-size:6px;">1</text>
      <text transform="matrix(1 0 0 1 102.231 307.8481)" style="font-family:'Arial'; font-size:6px;">2</text>
      <text transform="matrix(1 0 0 1 126.1191 277.3755)" style="font-family:'Arial'; font-size:6px;">30A<tspan x="0" dy="1em">POWER</tspan></text>
      <text transform="matrix(1 0 0 1 87.8511 205.0918)" style="font-family:'Arial'; font-size:6px;" ewd:textID="10">PWR <tspan x="0" dy="1em">Relay</tspan></text>
      <text transform="matrix(1 0 0 1 147.3779 154.7769)" style="font-family:'Arial'; font-size:6px;">13G</text>
      <text transform="matrix(1 0 0 1 138.3735 154.7769)" style="font-family:'Arial'; font-size:6px;">1</text>
      <text transform="matrix(1 0 0 1 42.7036 95.251)" style="font-family:'Arial'; font-size:6px;">2</text>
      <text transform="matrix(1 0 0 1 45.8359 41.3921)" style="font-family:'Arial'; font-size:6px;">(IG)</text>
      <text transform="matrix(1 0 0 1 66.5918 64.7783)" style="font-family:'Arial'; font-size:6px;">10A<tspan x="0" dy="1em">GAUGE NO. 1</tspan></text>
    </g><g ewd:figtype="jb" ewd:code="13" ewd:figID="3">
      <path style="fill:none;stroke:#000000;stroke-width:0.85;" d="M 238.09,80.79 L 238.09, 87.88" />
      <path style="fill:none;stroke:#000000;stroke-width:0.85;" d="M 238.09,87.88 L 238.09, 102.05" />
      <path d="M 238.09,102.05 L 240.92, 99.22 L 240.92, 96.39 L 238.09, 99.22 L 235.26, 96.39 L 235.26, 99.22 L 238.09, 102.05" style="stroke-linecap:round;stroke-linejoin:round;" />
      <path style="fill:none;stroke:#000000;stroke-width:0.85;stroke-linecap:round;stroke-linejoin:round;" d="M 242.34,113.39 C 245.47 113.39 248.01 110.85 248.01 107.72 C 248.01 104.59 245.47 102.05 242.34 102.05 L 233.84, 102.05 C 230.71 102.05 228.17 104.59 228.17 107.72 C 228.17 110.85 230.71 113.39 233.84 113.39 L 242.34, 113.39" />
      <path style="fill:none;stroke:#000000;stroke-width:0.85;stroke-linecap:round;stroke-linejoin:round;" d="M 238.09,80.79 C 238.87 80.79 239.51 80.15 239.51 79.37 C 239.51 78.59 238.88 77.95 238.09 77.95 C 237.299992675781 77.9499938964844 236.67 78.59 236.67 79.37 C 236.67 80.15 237.31 80.79 238.09 80.79" />
      <path style="fill:none;stroke:#000000;stroke-width:0.85;stroke-linecap:round;stroke-linejoin:round;" d="M 238.09,55.28 C 238.87 55.28 239.51 54.65 239.51 53.86 C 239.51 53.08 238.88 52.44 238.09 52.44 C 237.299992675781 52.439997253418 236.67 53.07 236.67 53.86 C 236.67 54.64 237.31 55.28 238.09 55.28" />
      <path style="fill:none;stroke:#000000;stroke-width:1.417;" d="M 237.08,54.86 C 237.08 54.86 231.01 59.54 238.08 66.61 C 245.150003662109 73.6800012207031 239.08 78.36 239.08 78.36" />
      <path style="fill:none;stroke:#000000;stroke-width:1.417;stroke-linecap:round;stroke-linejoin:round;" d="M 250.84,87.88 L 250.84, 45.36 L 225.33, 45.36 L 225.33, 87.88 L 250.84, 87.88" />
      <text transform="matrix(1 0 0 1 232.5845 109.4233)" style="font-family:'Arial'; font-size:6px;">13H</text>
      <text transform="matrix(1 0 0 1 223.4131 109.4233)" style="font-family:'Arial'; font-size:6px;">1</text>
      <text transform="matrix(1 0 0 1 229.79 95.251)" style="font-family:'Arial'; font-size:6px;">2</text>
      <text transform="matrix(1 0 0 1 230.2554 41.3921)" style="font-family:'Arial'; font-size:6px;">(BAT)</text>
      <text transform="matrix(1 0 0 1 253.6787 64.7783)" style="font-family:'Arial'; font-size:6px;">30A<tspan x="0" dy="1em">DOOR</tspan></text>
    </g><g ewd:figtype="rb" ewd:code="FUSE126" ewd:figID="5">
      <path style="fill:none;stroke:#000000;stroke-width:0.85;" d="M 153.05,80.79 L 153.05, 87.88" />
      <path style="fill:none;stroke:#000000;stroke-width:0.85;" d="M 153.05,87.88 L 153.05, 102.05" />
      <path d="M 153.05,102.05 L 155.88, 99.22 L 155.88, 96.39 L 153.05, 99.22 L 150.22, 96.39 L 150.22, 99.22 L 153.05, 102.05" style="stroke-linecap:round;stroke-linejoin:round;" />
      <path style="fill:none;stroke:#000000;stroke-width:0.85;stroke-linecap:round;stroke-linejoin:round;" d="M 157.3,113.39 C 160.43 113.39 162.97 110.85 162.97 107.72 C 162.97 104.59 160.43 102.05 157.3 102.05 L 148.8, 102.05 C 145.67 102.05 143.13 104.59 143.13 107.72 C 143.13 110.85 145.67 113.39 148.8 113.39 L 157.3, 113.39" />
      <path style="fill:none;stroke:#000000;stroke-width:1.417;" d="M 154.05,78.37 C 154.05 78.37 163.55 72.24001 153.17 63.07 C 148.99 59.38 152.04 54.87 152.04 54.87" />
      <path style="fill:none;stroke:#000000;stroke-width:1.417;" d="M 152.04,54.86 C 152.04 54.86 142.54 60.99 152.92 70.16 C 157.1 73.85001 154.05 78.37 154.05 78.37" />
      <path style="fill:none;stroke:#000000;stroke-width:0.85;stroke-linecap:round;stroke-linejoin:round;" d="M 153.05,80.79 C 153.83 80.79 154.47 80.15 154.47 79.37 C 154.47 78.59 153.83 77.95 153.05 77.95 C 152.270006103516 77.9499938964844 151.63 78.59 151.63 79.37 C 151.63 80.15 152.27 80.79 153.05 80.79" />
      <path style="fill:none;stroke:#000000;stroke-width:0.85;stroke-linecap:round;stroke-linejoin:round;" d="M 153.05,55.28 C 153.83 55.28 154.47 54.65 154.47 53.86 C 154.47 53.08 153.83 52.44 153.05 52.44 C 152.270006103516 52.439997253418 151.63 53.07 151.63 53.86 C 151.63 54.64 152.27 55.28 153.05 55.28" />
      <path style="fill:none;stroke:#000000;stroke-width:1.417;" d="M 152.04,54.86 C 152.04 54.86 145.97 59.54 153.04 66.61 C 160.109986572266 73.6800012207031 154.04 78.36 154.04 78.36" />
      <path style="fill:none;stroke:#000000;stroke-width:1.417;stroke-linecap:round;stroke-linejoin:round;" d="M 165.8,87.88 L 165.8, 45.36 L 140.29, 45.36 L 140.29, 87.88 L 165.8, 87.88" />
      <text transform="matrix(1 0 0 1 149.7119 109.4233)" style="font-family:'Arial'; font-size:6px;">10</text>
      <text transform="matrix(1 0 0 1 144.751 95.251)" style="font-family:'Arial'; font-size:6px;">2</text>
      <text transform="matrix(1 0 0 1 145.2158 41.3921)" style="font-family:'Arial'; font-size:6px;">(BAT)</text>
      <text transform="matrix(1 0 0 1 168.6382 64.7783)" style="font-family:'Arial'; font-size:6px;">100A<tspan x="0" dy="1em">J/B</tspan></text>
    </g><g ewd:figtype="w2w" ewd:code="HA2" ewd:pin_no="7" ewd:figID="17">
      <path style="fill:#FFFFFF;stroke:#FFFFFF;stroke-width:0;stroke-linecap:round;stroke-linejoin:round;" d="M 242.34,165.29 L 238.09, 161.04 L 233.84, 165.29 L 233.84, 158.74 L 242.34, 158.74 L 242.34, 165.29" />
      <path style="fill:#FFFFFF;stroke:#FFFFFF;stroke-width:0;stroke-linecap:round;stroke-linejoin:round;" d="M 242.34,162.46 L 238.09, 158.21 L 233.84, 162.46 L 233.84, 155.91 L 242.34, 155.91 L 242.34, 162.46" />
      <path style="fill:none;stroke:#000000;stroke-width:0.85;" d="M 242.34,162.99 L 238.09, 158.74 L 233.84, 162.99" />
      <path style="fill:none;stroke:#000000;stroke-width:0.85;" d="M 242.34,160.16 L 238.09, 155.91 L 233.84, 160.16" />
      <path style="fill:none;stroke:#000000;stroke-width:0.85;stroke-linecap:round;stroke-linejoin:round;" d="M 248.01,147.4 L 248.01, 155.9 L 228.17, 155.9 L 228.17, 147.4 L 248.01, 147.4" />
      <text transform="matrix(1 0 0 1 223.4136 153.3594)" style="font-family:'Arial'; font-size:6px;">7</text>
    </g><g ewd:figtype="gp" ewd:code="H1" ewd:figID="27">
      <path style="fill:none;stroke:#000000;stroke-width:0.85;" d="M 51,708.66 L 51, 711.49" />
      <path style="fill:none;stroke:#000000;stroke-width:0.85;" d="M 49.58,720 L 52.42, 720" />
      <path style="fill:none;stroke:#000000;stroke-width:0.85;" d="M 48.17,717.17 L 53.84, 717.17" />
      <path style="fill:none;stroke:#000000;stroke-width:0.85;" d="M 45.33,714.33 L 56.67, 714.33" />
      <path style="fill:none;stroke:#000000;stroke-width:0.85;" d="M 42.5,711.5 L 59.5, 711.5" />
    </g><text transform="matrix(0 -1 1 0 149.0854 135.7275)" style="font-family:'Arial'; font-size:6px;">B-G</text><text transform="matrix(0 -1 1 0 234.125 136.3906)" style="font-family:'Arial'; font-size:6px;">W-R</text><text transform="matrix(0 -1 1 0 234.125 187.4146)" style="font-family:'Arial'; font-size:6px;">W-R</text><text transform="matrix(0 -1 1 0 47.0381 680.4775)" style="font-family:'Arial'; font-size:6px;">W-B</text><text transform="matrix(0 -1 1 0 106.5659 356.9961)" style="font-family:'Arial'; font-size:6px;">W-L</text><text transform="matrix(0 -1 1 0 47.0376 357.3281)" style="font-family:'Arial'; font-size:6px;">W-B</text></svg>