﻿<?xml version="1.0" encoding="utf-8"?>
<!-- Generator: Adobe Illustrator 10.0, SVG Export Plug-In . SVG Version: 3.0.0 Build 77)  -->
<!DOCTYPE svg PUBLIC "-//W3C//DTD SVG 1.0//EN" "http://www.w3.org/TR/2001/REC-SVG-20010904/DTD/svg10.dtd"[
   <!ENTITY ns_flows "http://ns.adobe.com/Flows/1.0/">
   <!ENTITY ns_svg "http://www.w3.org/2000/svg">
   <!ENTITY ns_xlink "http://www.w3.org/1999/xlink">
   <!ENTITY st0 "font-size:7px;font-family:'MS-PGothic';adobe-font-script:japanese;">
   <!ENTITY st1 "font-size:6px;font-family:'ArialMT';">
   <!ENTITY st2 "fill:#FFFFFF;stroke:#000000; stroke-width:1.41;stroke-linecap:round;stroke-linejoin:round;">
   <!ENTITY st3 "fill:#FFFFCC;stroke:#FFFFCC; stroke-width:0.1;stroke-linecap:round;stroke-linejoin:round;">
   <!ENTITY st4 "fill:#CCCCCC;stroke:#CCCCCC; stroke-width:0.1;stroke-linecap:round;stroke-linejoin:round;">
   <!ENTITY st5 "fill:#CCECF4;stroke:#000000; stroke-width:1.133;stroke-linecap:round;stroke-linejoin:round;">
   <!ENTITY st6 "fill:none;stroke-linecap:butt; stroke-linejoin:round;">
   <!ENTITY st7 "fill:none;stroke:#000000;stroke-linecap:round;stroke-linejoin:round;">
   <!ENTITY st8 "enable-background:new;">
   <!ENTITY st9 "fill:#000000;stroke:#000000; stroke-linecap:round;stroke-linejoin:round;">
   <!ENTITY st10 "font-size:9px;font-family:'ArialMT';">
   <!ENTITY st11 "font-size:9px;font-family:'Svg Symbol';">
   <!ENTITY st12 "font-size:6px;font-family:'Svg Symbol';">
   <!ENTITY st13 "fill:none;stroke:#ff0000;stroke-linecap:round;stroke-linejoin:round;">
   <!ENTITY st14 "fill:#FFFF00;stroke:#FFFF00; stroke-width:0.1;stroke-linecap:round;stroke-linejoin:round;">
   <!ENTITY st15 "font-size:6px;font-family:'MS-PGothic';adobe-font-script:japanese;">
   <!ENTITY st16 "1.00 0.00 0.00 1.00">
   <!ENTITY st17 "0.00 -1.00 1.00 0.00">
   <!ENTITY st18 "font-size:6px;font-family:'Arial';">
   <!ENTITY st19 "font-size:9px;font-family:'Arial';">
   <!ENTITY st20 "font-size:6px;font-family:'MS-PGothic','MS PGothic';adobe-font-script:japanese;">
   <!ENTITY st21 "font-size:7px;font-family:'MS-PGothic','MS PGothic';adobe-font-script:japanese;">
   <!ATTLIST svg
       xmlns:ewd CDATA #FIXED "http://shcl.co.jp/ewd"
       xmlns:a CDATA #FIXED "http://ns.adobe.com/AdobeSVGViewerExtensions/3.0/"
       ewd:ver CDATA #IMPLIED >
   <!ATTLIST a
       ewd:lineID CDATA #IMPLIED
       ewd:groupID CDATA #IMPLIED
       ewd:figtype CDATA #IMPLIED
       ewd:code CDATA #IMPLIED
       ewd:figID CDATA #IMPLIED
       ewd:pinNo CDATA #IMPLIED
       ewd:comment CDATA #IMPLIED >
   <!ATTLIST g
       ewd:lineID CDATA #IMPLIED
       ewd:groupID CDATA #IMPLIED
       ewd:figtype CDATA #IMPLIED
       ewd:code CDATA #IMPLIED
       ewd:figID CDATA #IMPLIED
       ewd:pinNo CDATA #IMPLIED
       ewd:comment CDATA #IMPLIED >
   <!ATTLIST text
       ewd:textID CDATA #IMPLIED >
   <!ATTLIST title
       ewd:textID CDATA #IMPLIED >
]>
<svg xmlns="http://www.w3.org/2000/svg" xmlns:xlink="http://www.w3.org/1999/xlink" width="3138.77" height="721" viewBox="0 0 3138.77 721" xml:space="preserve" xmlns:ewd="http://shcl.co.jp/ewd" onload="call_execInitLoadProc_svg('system')" ewd:ver="2.0">
  <script type="text/javascript" xlink:href="../../../../../system/js/ewd/fig/svgfig.js" />
  <defs>
    <font horiz-adv-x="1229">
      <font-face font-family="Svg Symbol" units-per-em="2048" panose-1="5 5 1 2 1 7 6 2 5 7" ascent="2059" descent="450" alphabetic="0" />
      <missing-glyph d="M 103,0 l 0,1280 1024,0 0,-1280 -1024,0 z m 32,32 l 960,0 0,1216 -960,0 0,-1216 z" />
      <glyph d4p1:unicode="" horiz-adv-x="1573" d="M 1517,0 l -567,0 24,279 q 141,59 207.5,168 66.5,109 66.5,306 0,272 -132.5,417.5 -132.5,145.5 -333.5,145.5 -194,0 -328,-147.5 -134,-147.5 -134,-401.5 0,-200 68.5,-319 68.5,-119 206.5,-169 l 25,-279 -564,0 0,279 35,0 q 3,-61 32,-83 45,-35 137,-35 l 270,0 0,70 q -210,61 -324.5,209 -114.5,148 -114.5,349 0,252 186.5,425 186.5,173 504.5,173 195,0 358.5,-73.5 163.5,-73.5 252,-214.5 88.5,-141 88.5,-310 0,-207 -121.5,-360.5 -121.5,-153.5 -317.5,-197.5 l -8,-70 275,0 q 92,0 128,28 36,28 42,90 l 38,0 0,-279 z" xmlns:d4p1="def-glyph-attr-unicode" />
    </font>
  </defs>
  <g id="ewd_top">
    <a ewd:lineID="101" style="cursor:pointer;">
      <path style="fill:none;stroke:#000000;stroke-width:5;" d="M 500.72,266.41 L 500.72, 223.91 L 463.82, 223.91 L 458.22, 218.21 L 458.22, 215.41" />
    </a>
    <a ewd:lineID="99" style="cursor:pointer;">
      <path style="fill:none;stroke:#000000;stroke-width:5;" d="M 458.22,368.51 L 458.22, 365.61 L 463.82, 359.91 L 500.72, 359.91 L 500.72, 317.41" />
    </a>
    <a ewd:lineID="98" style="cursor:pointer;">
      <path style="fill:none;stroke:#000000;stroke-width:5;" d="M 602.72,377.01 L 602.72, 138.91 L 639.62, 138.91 L 645.22, 133.21 L 645.22, 130.41" />
      <path style="fill:none;stroke:#FFFFFF;stroke-width:3.8;" d="M 602.72,377.01 L 602.72, 138.91 L 639.62, 138.91 L 645.22, 133.21 L 645.22, 130.41" />
    </a>
    <a ewd:lineID="97" style="cursor:pointer;">
      <path style="fill:none;stroke:#000000;stroke-width:5;" d="M 645.22,428.01 L 645.22, 425.21 L 639.62, 419.51 L 602.72, 419.51 L 602.72, 385.51" />
      <path style="fill:none;stroke:#FFFFFF;stroke-width:3.8;" d="M 645.22,428.01 L 645.22, 425.21 L 639.62, 419.51 L 602.72, 419.51 L 602.72, 385.51" />
    </a>
    <a ewd:lineID="95" style="cursor:pointer;">
      <path style="fill:none;stroke:#000000;stroke-width:5;" d="M 645.22,436.51 L 645.22, 447.81 L 639.62, 453.51 L 585.72, 453.51 L 585.72, 555.51" />
      <path style="fill:none;stroke:#FFFFFF;stroke-width:3.8;" d="M 645.22,436.51 L 645.22, 447.81 L 639.62, 453.51 L 585.72, 453.51 L 585.72, 555.51" />
    </a>
    <a ewd:lineID="88" style="cursor:pointer;">
      <path style="fill:none;stroke:#000000;stroke-width:5;" d="M 704.82,181.41 L 704.82, 138.91 L 650.92, 138.91 L 645.22, 133.21 L 645.22, 130.41" />
      <path style="fill:none;stroke:#FFFFFF;stroke-width:3.8;" d="M 704.82,181.41 L 704.82, 138.91 L 650.92, 138.91 L 645.22, 133.21 L 645.22, 130.41" />
    </a>
    <a ewd:lineID="86" style="cursor:pointer;">
      <path style="fill:none;stroke:#008837;stroke-width:5;" d="M 645.22,317.41 L 645.22, 314.61 L 650.92, 308.91 L 704.82, 308.91 L 704.82, 274.91" />
    </a>
    <a ewd:lineID="62" style="cursor:pointer;">
      <path style="fill:none;stroke:#FF0000;stroke-width:5;" d="M 2021.12,274.91 L 2021.12, 172.91 L 1740.22, 172.91 L 1720.82, 192.41" />
    </a>
    <a ewd:lineID="49" style="cursor:pointer;">
      <path style="fill:none;stroke:#0A50A1;stroke-width:5;" d="M 1669.72,229.91 L 1689.22, 249.41 L 1825.32, 249.41 L 1825.32, 334.41" />
    </a>
    <a ewd:lineID="38" style="cursor:pointer;">
      <path style="fill:none;stroke:#0A50A1;stroke-width:5;" d="M 2149.52,308.91 L 2149.52, 351.51 L 2186.32, 351.51 L 2200.52, 365.61 L 2200.52, 368.51" />
    </a>
    <a ewd:lineID="36" style="cursor:pointer;">
      <path style="fill:none;stroke:#0A50A1;stroke-width:5;" d="M 2200.52,155.91 L 2200.52, 158.71 L 2186.32, 172.91 L 2149.52, 172.91 L 2149.52, 223.91" />
    </a>
    <a ewd:lineID="35" style="cursor:pointer;">
      <path style="fill:none;stroke:#FF0000;stroke-width:5;" d="M 2302.52,308.91 L 2302.52, 351.51 L 2265.72, 351.51 L 2251.52, 365.61 L 2251.52, 368.51" />
    </a>
    <a ewd:lineID="33" style="cursor:pointer;">
      <path style="fill:none;stroke:#FF0000;stroke-width:5;" d="M 2251.52,155.91 L 2251.52, 158.71 L 2265.72, 172.91 L 2302.52, 172.91 L 2302.52, 223.91" />
    </a>
    <a ewd:lineID="26" style="cursor:pointer;">
      <path style="fill:none;stroke:#000000;stroke-width:5;" d="M 2727.72,189.91 L 2727.72, 232.41 L 2702.22, 232.41 L 2685.22, 249.41 L 2685.22, 257.91" />
    </a>
    <a ewd:lineID="25" style="cursor:pointer;">
      <path style="fill:none;stroke:#000000;stroke-width:5;" d="M 2685.22,113.31 L 2685.22, 116.21 L 2699.42, 130.31 L 2727.72, 130.31 L 2727.72, 172.91" />
    </a>
    <a ewd:lineID="2" style="cursor:pointer;">
      <path style="fill:none;stroke:#000000;stroke-width:5;" d="M 1108.22,99.21 L 1108.22, 147.31" />
      <path style="fill:none;stroke:#FFFFFF;stroke-width:3.8;" d="M 1108.22,99.21 L 1108.22, 147.31" />
    </a>
    <a ewd:lineID="3" style="cursor:pointer;">
      <path style="fill:none;stroke:#000000;stroke-width:5;" d="M 1108.22,155.81 L 1108.22, 325.91" />
      <path style="fill:none;stroke:#FFFFFF;stroke-width:3.8;" d="M 1108.22,155.81 L 1108.22, 325.91" />
    </a>
    <a ewd:lineID="4" style="cursor:pointer;">
      <path style="fill:none;stroke:#000000;stroke-width:5;" d="M 1108.22,334.41 L 1108.22, 394.01" />
      <path style="fill:none;stroke:#FFFFFF;stroke-width:3.8;" d="M 1108.22,334.41 L 1108.22, 394.01" />
    </a>
    <a ewd:lineID="5" style="cursor:pointer;">
      <path style="fill:none;stroke:#000000;stroke-width:5;" d="M 1108.22,453.51 L 1108.22, 504.51" />
      <path style="fill:none;stroke:#FFFFFF;stroke-width:3.8;" d="M 1108.22,453.51 L 1108.22, 504.51" />
      <path style="fill:none;stroke:#000000;" d="M 1108.22,453.51 L 1108.22, 504.51" />
    </a>
    <a ewd:lineID="6" style="cursor:pointer;">
      <path style="fill:none;stroke:#000000;stroke-width:5;" d="M 1108.22,513.01 L 1108.22, 623.61" />
      <path style="fill:none;stroke:#FFFFFF;stroke-width:3.8;" d="M 1108.22,513.01 L 1108.22, 623.61" />
      <path style="fill:none;stroke:#000000;" d="M 1108.22,513.01 L 1108.22, 623.61" />
    </a>
    <a ewd:lineID="7" style="cursor:pointer;">
      <path style="fill:none;stroke:#000000;stroke-width:5;" d="M 1099.72,632.11 L 866.42, 632.11 L 866.42, 547.01" />
      <path style="fill:none;stroke:#FFFFFF;stroke-width:3.8;" d="M 1099.72,632.11 L 866.42, 632.11 L 866.42, 547.01" />
      <path style="fill:none;stroke:#000000;" d="M 1099.72,632.11 L 866.42, 632.11 L 866.42, 547.01" />
    </a>
    <a ewd:lineID="8" style="cursor:pointer;">
      <path style="fill:none;stroke:#000000;stroke-width:5;" d="M 866.42,538.51 L 866.42, 496.01" />
      <path style="fill:none;stroke:#FFFFFF;stroke-width:3.8;" d="M 866.42,538.51 L 866.42, 496.01" />
      <path style="fill:none;stroke:#000000;" d="M 866.42,538.51 L 866.42, 496.01" />
    </a>
    <a ewd:lineID="9" style="cursor:pointer;">
      <path style="fill:none;stroke:#000000;stroke-width:5;" d="M 866.42,445.01 L 866.42, 351.41" />
      <path style="fill:none;stroke:#FFFFFF;stroke-width:3.8;" d="M 866.42,445.01 L 866.42, 351.41" />
      <path style="fill:none;stroke:#000000;" d="M 866.42,445.01 L 866.42, 351.41" />
    </a>
    <a ewd:lineID="10" style="cursor:pointer;">
      <path style="fill:none;stroke:#FFF200;stroke-width:5;" d="M 866.42,317.41 L 866.42, 240.91" />
    </a>
    <a ewd:lineID="11" style="cursor:pointer;">
      <path style="fill:none;stroke:#F4449F;stroke-width:5;" d="M 2251.52,428.01 L 2251.52, 377.01" />
    </a>
    <a ewd:lineID="12" style="cursor:pointer;">
      <path style="fill:none;stroke:#FF0000;stroke-width:5;" d="M 2251.52,368.51 L 2251.52, 308.91" />
    </a>
    <a ewd:lineID="13" style="cursor:pointer;">
      <path style="fill:none;stroke:#FF0000;stroke-width:5;" d="M 2251.52,300.41 L 2251.52, 155.91" />
    </a>
    <a ewd:lineID="14" style="cursor:pointer;">
      <path style="fill:none;stroke:#0A50A1;stroke-width:5;" d="M 2200.52,428.01 L 2200.52, 377.01" />
    </a>
    <a ewd:lineID="15" style="cursor:pointer;">
      <path style="fill:none;stroke:#0A50A1;stroke-width:5;" d="M 2200.52,368.51 L 2200.52, 308.91" />
    </a>
    <a ewd:lineID="16" style="cursor:pointer;">
      <path style="fill:none;stroke:#0A50A1;stroke-width:5;" d="M 2200.52,300.41 L 2200.52, 155.91" />
    </a>
    <a ewd:lineID="17" style="cursor:pointer;">
      <path style="fill:none;stroke:#FF0000;stroke-width:5;" d="M 2855.32,113.31 L 2855.32, 189.91 L 2880.82, 189.91" />
    </a>
    <a ewd:lineID="18" style="cursor:pointer;">
      <path style="fill:none;stroke:#FF0000;stroke-width:5;" d="M 2897.82,189.91 L 2931.82, 189.91 L 2931.82, 121.81" />
    </a>
    <a ewd:lineID="19" style="cursor:pointer;">
      <path style="fill:none;stroke:#FF0000;stroke-width:5;" d="M 2974.32,121.81 L 2974.32, 238.11" />
    </a>
    <a ewd:lineID="20" style="cursor:pointer;">
      <path style="fill:none;stroke:#000000;stroke-width:5;" d="M 3033.92,121.81 L 3033.92, 238.11" />
    </a>
    <a ewd:lineID="21" style="cursor:pointer;">
      <path style="fill:none;stroke:#000000;stroke-width:5;" d="M 2778.72,422.31 L 2778.72, 462.01" />
      <path style="fill:none;stroke:#FFFFFF;stroke-width:3.8;" d="M 2778.72,422.31 L 2778.72, 462.01" />
      <path style="fill:none;stroke:#000000;" d="M 2778.72,422.31 L 2778.72, 462.01" />
    </a>
    <a ewd:lineID="22" style="cursor:pointer;">
      <path style="fill:none;stroke:#000000;stroke-width:5;" d="M 2778.72,513.01 L 2778.72, 691.61" />
      <path style="fill:none;stroke:#FFFFFF;stroke-width:3.8;" d="M 2778.72,513.01 L 2778.72, 691.61" />
      <path style="fill:none;stroke:#000000;" d="M 2778.72,513.01 L 2778.72, 691.61" />
    </a>
    <a ewd:lineID="23" style="cursor:pointer;">
      <path style="fill:none;stroke:#000000;stroke-width:5;" d="M 2838.32,422.31 L 2838.32, 615.11 L 2447.12, 615.11 L 2447.12, 266.41" />
      <path style="fill:none;stroke:#FFFFFF;stroke-width:3.8;" d="M 2838.32,422.31 L 2838.32, 615.11 L 2447.12, 615.11 L 2447.12, 266.41" />
    </a>
    <a ewd:lineID="24" style="cursor:pointer;">
      <path style="fill:none;stroke:#000000;stroke-width:5;" d="M 2447.12,215.41 L 2447.12, 99.21" />
      <path style="fill:none;stroke:#FFFFFF;stroke-width:3.8;" d="M 2447.12,215.41 L 2447.12, 99.21" />
    </a>
    <a ewd:lineID="27" style="cursor:pointer;">
      <path style="fill:none;stroke:#000000;stroke-width:5;" d="M 2685.22,113.31 L 2685.22, 257.91" />
    </a>
    <a ewd:lineID="28" style="cursor:pointer;">
      <path style="fill:none;stroke:#000000;stroke-width:5;" d="M 2685.22,266.41 L 2685.22, 291.91 L 2498.12, 291.91 L 2498.12, 266.41" />
    </a>
    <a ewd:lineID="29" style="cursor:pointer;">
      <path style="fill:none;stroke:#000000;stroke-width:5;" d="M 2498.12,215.41 L 2498.12, 130.31" />
    </a>
    <a ewd:lineID="30" style="cursor:pointer;">
      <path style="fill:none;stroke:#000000;stroke-width:5;" d="M 2404.62,691.61 L 2404.62, 521.51" />
      <path style="fill:none;stroke:#FFFFFF;stroke-width:3.8;" d="M 2404.62,691.61 L 2404.62, 521.51" />
      <path style="fill:none;stroke:#000000;" d="M 2404.62,691.61 L 2404.62, 521.51" />
    </a>
    <a ewd:lineID="31" style="cursor:pointer;">
      <path style="fill:none;stroke:#000000;stroke-width:5;" d="M 2404.62,504.51 L 2404.62, 130.31" />
      <path style="fill:none;stroke:#FFFFFF;stroke-width:3.8;" d="M 2404.62,504.51 L 2404.62, 130.31" />
      <path style="fill:none;stroke:#000000;" d="M 2404.62,504.51 L 2404.62, 130.31" />
    </a>
    <a ewd:lineID="32" style="cursor:pointer;">
      <path style="fill:none;stroke:#000000;stroke-width:5;" d="M 2345.12,130.31 L 2345.12, 691.61" />
      <path style="fill:none;stroke:#FFFFFF;stroke-width:3.8;" d="M 2345.12,130.31 L 2345.12, 691.61" />
      <path style="fill:none;stroke:#000000;" d="M 2345.12,130.31 L 2345.12, 691.61" />
    </a>
    <a ewd:lineID="34" style="cursor:pointer;">
      <path style="fill:none;stroke:#FF0000;stroke-width:5;" d="M 2302.52,232.41 L 2302.52, 300.41" />
    </a>
    <a ewd:lineID="37" style="cursor:pointer;">
      <path style="fill:none;stroke:#0A50A1;stroke-width:5;" d="M 2149.52,232.41 L 2149.52, 300.41" />
    </a>
    <a ewd:lineID="39" style="cursor:pointer;">
      <path style="fill:none;stroke:#0A50A1;stroke-width:5;" d="M 1663.72,155.91 L 1663.72, 215.41" />
    </a>
    <a ewd:lineID="40" style="cursor:pointer;">
      <path style="fill:none;stroke:#0A50A1;stroke-width:5;" d="M 1663.72,232.41 L 1663.72, 283.41" />
    </a>
    <a ewd:lineID="41" style="cursor:pointer;">
      <path style="fill:none;stroke:#0A50A1;stroke-width:5;" d="M 1663.72,291.91 L 1663.72, 342.91" />
    </a>
    <a ewd:lineID="42" style="cursor:pointer;">
      <path style="fill:none;stroke:#0A50A1;stroke-width:5;" d="M 1663.72,351.51 L 1663.72, 394.01" />
    </a>
    <a ewd:lineID="43" style="cursor:pointer;">
      <path style="fill:none;stroke:#0A50A1;stroke-width:5;" d="M 1663.72,402.51 L 1663.72, 445.01" />
    </a>
    <a ewd:lineID="44" style="cursor:pointer;">
      <path style="fill:none;stroke:#FF0000;stroke-width:5;" d="M 1714.82,445.01 L 1714.82, 402.51" />
    </a>
    <a ewd:lineID="45" style="cursor:pointer;">
      <path style="fill:none;stroke:#FF0000;stroke-width:5;" d="M 1714.82,394.01 L 1714.82, 351.51" />
    </a>
    <a ewd:lineID="46" style="cursor:pointer;">
      <path style="fill:none;stroke:#FF0000;stroke-width:5;" d="M 1714.82,342.91 L 1714.82, 291.91" />
    </a>
    <a ewd:lineID="47" style="cursor:pointer;">
      <path style="fill:none;stroke:#FF0000;stroke-width:5;" d="M 1714.82,283.41 L 1714.82, 206.91" />
    </a>
    <a ewd:lineID="48" style="cursor:pointer;">
      <path style="fill:none;stroke:#FF0000;stroke-width:5;" d="M 1714.82,189.91 L 1714.82, 155.91" />
    </a>
    <a ewd:lineID="50" style="cursor:pointer;">
      <path style="fill:none;stroke:#0A50A1;stroke-width:5;" d="M 1825.32,342.91 L 1825.32, 385.51" />
    </a>
    <a ewd:lineID="51" style="cursor:pointer;">
      <path style="fill:none;stroke:#FF0000;stroke-width:5;" d="M 1876.32,385.51 L 1876.32, 342.91" />
    </a>
    <a ewd:lineID="52" style="cursor:pointer;">
      <path style="fill:none;stroke:#FF0000;stroke-width:5;" d="M 1876.32,334.41 L 1876.32, 198.41 L 1723.22, 198.41" />
    </a>
    <a ewd:lineID="53" style="cursor:pointer;">
      <path style="fill:none;stroke:#FF0000;stroke-width:5;" d="M 1706.22,198.41 L 1510.72, 198.41 L 1510.72, 385.51" />
    </a>
    <a ewd:lineID="54" style="cursor:pointer;">
      <path style="fill:none;stroke:#0A50A1;stroke-width:5;" d="M 1459.72,385.51 L 1459.72, 223.91 L 1655.22, 223.91" />
    </a>
    <a ewd:lineID="55" style="cursor:pointer;">
      <path style="fill:none;stroke:#0A50A1;stroke-width:5;" d="M 1672.22,223.91 L 1970.12, 223.91 L 1970.12, 274.91" />
    </a>
    <a ewd:lineID="56" style="cursor:pointer;">
      <path style="fill:none;stroke:#0A50A1;stroke-width:5;" d="M 1970.12,283.41 L 1970.12, 334.41" />
    </a>
    <a ewd:lineID="57" style="cursor:pointer;">
      <path style="fill:none;stroke:#0A50A1;stroke-width:5;" d="M 1970.12,342.91 L 1970.12, 385.51" />
    </a>
    <a ewd:lineID="58" style="cursor:pointer;">
      <path style="fill:none;stroke:#0A50A1;stroke-width:5;" d="M 1970.12,394.01 L 1970.12, 445.01" />
    </a>
    <a ewd:lineID="59" style="cursor:pointer;">
      <path style="fill:none;stroke:#FF0000;stroke-width:5;" d="M 2021.12,445.01 L 2021.12, 394.01" />
    </a>
    <a ewd:lineID="60" style="cursor:pointer;">
      <path style="fill:none;stroke:#FF0000;stroke-width:5;" d="M 2021.12,385.51 L 2021.12, 342.91" />
    </a>
    <a ewd:lineID="61" style="cursor:pointer;">
      <path style="fill:none;stroke:#FF0000;stroke-width:5;" d="M 2021.12,334.41 L 2021.12, 283.41" />
    </a>
    <a ewd:lineID="63" style="cursor:pointer;">
      <path style="fill:none;stroke:#0A50A1;stroke-width:5;" d="M 1176.22,257.91 L 1300.92, 257.91 L 1300.92, 325.91" />
    </a>
    <a ewd:lineID="64" style="cursor:pointer;">
      <path style="fill:none;stroke:#0A50A1;stroke-width:5;" d="M 1300.92,334.41 L 1300.92, 394.01" />
    </a>
    <a ewd:lineID="65" style="cursor:pointer;">
      <path style="fill:none;stroke:#FF0000;stroke-width:5;" d="M 1351.92,394.01 L 1351.92, 334.41" />
    </a>
    <a ewd:lineID="66" style="cursor:pointer;">
      <path style="fill:none;stroke:#FF0000;stroke-width:5;" d="M 1351.92,325.91 L 1351.92, 223.91 L 1227.22, 223.91" />
    </a>
    <a ewd:lineID="67" style="cursor:pointer;">
      <path style="fill:none;stroke:#FF0000;stroke-width:5;" d="M 1218.72,155.81 L 1218.72, 215.41" />
    </a>
    <a ewd:lineID="68" style="cursor:pointer;">
      <path style="fill:none;stroke:#FF0000;stroke-width:5;" d="M 1218.72,232.41 L 1218.72, 325.91" />
    </a>
    <a ewd:lineID="69" style="cursor:pointer;">
      <path style="fill:none;stroke:#FF0000;stroke-width:5;" d="M 1218.72,334.41 L 1218.72, 394.01" />
    </a>
    <a ewd:lineID="70" style="cursor:pointer;">
      <path style="fill:none;stroke:#0A50A1;stroke-width:5;" d="M 1167.72,394.01 L 1167.72, 334.41" />
    </a>
    <a ewd:lineID="71" style="cursor:pointer;">
      <path style="fill:none;stroke:#0A50A1;stroke-width:5;" d="M 1167.72,325.91 L 1167.72, 266.41" />
    </a>
    <a ewd:lineID="72" style="cursor:pointer;">
      <path style="fill:none;stroke:#0A50A1;stroke-width:5;" d="M 1167.72,249.41 L 1167.72, 155.81" />
    </a>
    <a ewd:lineID="73" style="cursor:pointer;">
      <path style="fill:none;stroke:#FFF200;stroke-width:5;" d="M 781.32,121.81 L 781.32, 189.91" />
    </a>
    <a ewd:lineID="74" style="cursor:pointer;">
      <path style="fill:none;stroke:#FFF200;stroke-width:5;" d="M 781.32,240.91 L 781.32, 317.41" />
    </a>
    <a ewd:lineID="75" style="cursor:pointer;">
      <path style="fill:none;stroke:#000000;stroke-width:5;" d="M 781.32,351.41 L 781.32, 445.01" />
      <path style="fill:none;stroke:#FFFFFF;stroke-width:3.8;" d="M 781.32,351.41 L 781.32, 445.01" />
      <path style="fill:none;stroke:#000000;" d="M 781.32,351.41 L 781.32, 445.01" />
    </a>
    <a ewd:lineID="76" style="cursor:pointer;">
      <path style="fill:none;stroke:#000000;stroke-width:5;" d="M 781.32,496.01 L 781.32, 589.61" />
      <path style="fill:none;stroke:#FFFFFF;stroke-width:3.8;" d="M 781.32,496.01 L 781.32, 589.61" />
      <path style="fill:none;stroke:#000000;" d="M 781.32,496.01 L 781.32, 589.61" />
    </a>
    <a ewd:lineID="77" style="cursor:pointer;">
      <path style="fill:none;stroke:#000000;stroke-width:5;" d="M 781.32,640.61 L 781.32, 691.61" />
      <path style="fill:none;stroke:#FFFFFF;stroke-width:3.8;" d="M 781.32,640.61 L 781.32, 691.61" />
      <path style="fill:none;stroke:#000000;" d="M 781.32,640.61 L 781.32, 691.61" />
    </a>
    <a ewd:lineID="78" style="cursor:pointer;">
      <path style="fill:none;stroke:#008837;stroke-width:5;" d="M 262.62,232.41 L 262.62, 130.31" />
    </a>
    <a ewd:lineID="79" style="cursor:pointer;">
      <path style="fill:none;stroke:#FF0000;stroke-width:5;" d="M 322.12,130.31 L 322.12, 232.41" />
    </a>
    <a ewd:lineID="80" style="cursor:pointer;">
      <path style="fill:none;stroke:#000000;stroke-width:5;" d="M 458.22,130.31 L 458.22, 181.41" />
      <path style="fill:none;stroke:#FFFFFF;stroke-width:3.8;" d="M 458.22,130.31 L 458.22, 181.41" />
    </a>
    <a ewd:lineID="81" style="cursor:pointer;">
      <path style="fill:none;stroke:#000000;stroke-width:5;" d="M 458.22,215.41 L 458.22, 308.91" />
    </a>
    <a ewd:lineID="82" style="cursor:pointer;">
      <path style="fill:none;stroke:#000000;stroke-width:5;" d="M 458.22,317.41 L 458.22, 368.51" />
    </a>
    <a ewd:lineID="83" style="cursor:pointer;">
      <path style="fill:none;stroke:#000000;stroke-width:5;" d="M 381.62,130.31 L 381.62, 181.41" />
      <path style="fill:none;stroke:#FFFFFF;stroke-width:3.8;" d="M 381.62,130.31 L 381.62, 181.41" />
    </a>
    <a ewd:lineID="84" style="cursor:pointer;">
      <path style="fill:none;stroke:#FF0000;stroke-width:5;" d="M 381.62,215.41 L 381.62, 308.91" />
    </a>
    <a ewd:lineID="85" style="cursor:pointer;">
      <path style="fill:none;stroke:#FF0000;stroke-width:5;" d="M 381.62,317.41 L 381.62, 368.51" />
    </a>
    <a ewd:lineID="87" style="cursor:pointer;">
      <path style="fill:none;stroke:#008837;stroke-width:5;" d="M 704.82,257.91 L 704.82, 206.91" />
    </a>
    <a ewd:lineID="89" style="cursor:pointer;">
      <path style="fill:none;stroke:#000000;stroke-width:5;" d="M 645.32,598.11 L 645.32, 640.61" />
      <path style="fill:none;stroke:#FFFFFF;stroke-width:3.8;" d="M 645.32,598.11 L 645.32, 640.61" />
      <path style="fill:none;stroke:#000000;" d="M 645.32,598.11 L 645.32, 640.61" />
    </a>
    <a ewd:lineID="90" style="cursor:pointer;">
      <path style="fill:none;stroke:#000000;stroke-width:5;" d="M 645.32,657.61 L 645.32, 691.61" />
      <path style="fill:none;stroke:#FFFFFF;stroke-width:3.8;" d="M 645.32,657.61 L 645.32, 691.61" />
      <path style="fill:none;stroke:#000000;" d="M 645.32,657.61 L 645.32, 691.61" />
    </a>
    <a ewd:lineID="91" style="cursor:pointer;">
      <path style="fill:none;stroke:#000000;stroke-width:5;" d="M 645.32,130.41 L 645.32, 317.41" />
      <path style="fill:none;stroke:#FFFFFF;stroke-width:3.8;" d="M 645.32,130.41 L 645.32, 317.41" />
    </a>
    <a ewd:lineID="92" style="cursor:pointer;">
      <path style="fill:none;stroke:#000000;stroke-width:5;" d="M 645.32,325.91 L 645.32, 377.01" />
      <path style="fill:none;stroke:#FFFFFF;stroke-width:3.8;" d="M 645.32,325.91 L 645.32, 377.01" />
    </a>
    <a ewd:lineID="93" style="cursor:pointer;">
      <path style="fill:none;stroke:#000000;stroke-width:5;" d="M 645.32,385.51 L 645.32, 428.01" />
      <path style="fill:none;stroke:#FFFFFF;stroke-width:3.8;" d="M 645.32,385.51 L 645.32, 428.01" />
    </a>
    <a ewd:lineID="94" style="cursor:pointer;">
      <path style="fill:none;stroke:#000000;stroke-width:5;" d="M 645.32,436.51 L 645.32, 496.01" />
      <path style="fill:none;stroke:#FFFFFF;stroke-width:3.8;" d="M 645.32,436.51 L 645.32, 496.01" />
    </a>
    <a ewd:lineID="96" style="cursor:pointer;">
      <path style="fill:none;stroke:#000000;stroke-width:5;" d="M 585.72,589.61 L 585.72, 649.11 L 636.72, 649.11" />
      <path style="fill:none;stroke:#FFFFFF;stroke-width:3.8;" d="M 585.72,589.61 L 585.72, 649.11 L 636.72, 649.11" />
      <path style="fill:none;stroke:#000000;" d="M 585.72,589.61 L 585.72, 649.11 L 636.72, 649.11" />
    </a>
    <a ewd:lineID="100" style="cursor:pointer;">
      <path style="fill:none;stroke:#000000;stroke-width:5;" d="M 500.72,308.91 L 500.72, 274.91" />
    </a>
    <a ewd:lineID="102" style="cursor:pointer;">
      <path style="fill:none;stroke:#000000;stroke-width:5;" d="M 84.02,462.01 L 84.02, 691.61" />
      <path style="fill:none;stroke:#FFFFFF;stroke-width:3.8;" d="M 84.02,462.01 L 84.02, 691.61" />
      <path style="fill:none;stroke:#000000;" d="M 84.02,462.01 L 84.02, 691.61" />
    </a>
    <a ewd:lineID="103" style="cursor:pointer;">
      <path style="fill:none;stroke:#000000;stroke-width:5;" d="M 84.02,428.01 L 84.02, 359.91" />
      <path style="fill:none;stroke:#FFFFFF;stroke-width:3.8;" d="M 84.02,428.01 L 84.02, 359.91" />
    </a>
    <a ewd:lineID="104" style="cursor:pointer;">
      <path style="fill:none;stroke:#000000;stroke-width:5;" d="M 84.02,351.41 L 84.02, 283.41" />
      <path style="fill:none;stroke:#FFFFFF;stroke-width:3.8;" d="M 84.02,351.41 L 84.02, 283.41" />
    </a>
    <a ewd:lineID="105" style="cursor:pointer;">
      <path style="fill:none;stroke:#000000;stroke-width:5;" d="M 84.02,274.91 L 84.02, 215.41" />
      <path style="fill:none;stroke:#FFFFFF;stroke-width:3.8;" d="M 84.02,274.91 L 84.02, 215.41" />
    </a>
    <a ewd:lineID="106" style="cursor:pointer;">
      <path style="fill:none;stroke:#000000;stroke-width:5;" d="M 84.02,198.41 L 84.02, 113.31" />
      <path style="fill:none;stroke:#FFFFFF;stroke-width:3.8;" d="M 84.02,198.41 L 84.02, 113.31" />
    </a>
    <a ewd:lineID="107" style="cursor:pointer;">
      <path style="fill:none;stroke:#000000;stroke-width:5;" d="M 152.02,99.21 L 152.02, 198.41" />
    </a>
    <a ewd:lineID="108" style="cursor:pointer;">
      <path style="fill:none;stroke:#000000;stroke-width:5;" d="M 152.02,206.91 L 152.02, 274.91" />
    </a>
    <a ewd:lineID="109" style="cursor:pointer;">
      <path style="fill:none;stroke:#000000;stroke-width:5;" d="M 152.02,283.41 L 152.02, 351.41" />
    </a>
    <a ewd:lineID="110" style="cursor:pointer;">
      <path style="fill:none;stroke:#000000;stroke-width:5;" d="M 152.02,359.91 L 152.02, 428.01" />
    </a>
    <a ewd:lineID="111" style="cursor:pointer;">
      <path style="fill:none;stroke:#000000;stroke-width:5;" d="M 194.52,99.21 L 194.52, 198.41" />
      <path style="fill:none;stroke:#FFFFFF;stroke-width:3.8;" d="M 194.52,99.21 L 194.52, 198.41" />
    </a>
    <a ewd:lineID="112" style="cursor:pointer;">
      <path style="fill:none;stroke:#000000;stroke-width:5;" d="M 194.52,206.91 L 194.52, 274.91" />
      <path style="fill:none;stroke:#FFFFFF;stroke-width:3.8;" d="M 194.52,206.91 L 194.52, 274.91" />
    </a>
    <a ewd:lineID="113" style="cursor:pointer;">
      <path style="fill:none;stroke:#000000;stroke-width:5;" d="M 194.52,283.41 L 194.52, 351.41" />
      <path style="fill:none;stroke:#FFFFFF;stroke-width:3.8;" d="M 194.52,283.41 L 194.52, 351.41" />
    </a>
    <a ewd:lineID="114" style="cursor:pointer;">
      <path style="fill:none;stroke:#000000;stroke-width:5;" d="M 194.52,359.91 L 194.52, 428.01" />
      <path style="fill:none;stroke:#FFFFFF;stroke-width:3.8;" d="M 194.52,359.91 L 194.52, 428.01" />
    </a>
    <a ewd:figtype="jb" ewd:code="13" style="cursor:pointer;" ewd:figID="13">
      <path style="fill:#CCCCCC;stroke-linecap:round;stroke-linejoin:round;" d="M 656.62,130.35 L 656.62, 87.83 L 242.76, 87.83 L 242.76, 130.35 L 656.62, 130.35" />
    </a>
    <a ewd:figtype="jb" ewd:code="6" style="cursor:pointer;" ewd:figID="12">
      <path style="fill:#CCCCCC;stroke-linecap:round;stroke-linejoin:round;" d="M 877.72,496.02 L 877.72, 445 L 761.5, 445 L 761.5, 496.02 L 877.72, 496.02" />
    </a>
    <a ewd:figtype="jb" ewd:code="13" style="cursor:pointer;" ewd:figID="11">
      <path style="fill:#CCCCCC;stroke-linecap:round;stroke-linejoin:round;" d="M 792.68,121.85 L 792.68, 87.84 L 761.5, 87.84 L 761.5, 121.86 L 792.68, 121.86" />
    </a>
    <a ewd:figtype="jb" ewd:code="6" style="cursor:pointer;" ewd:figID="10">
      <path style="fill:#CCCCCC;stroke-linecap:round;stroke-linejoin:round;" d="M 877.72,240.91 L 877.72, 189.89 L 761.5, 189.89 L 761.5, 240.91 L 877.72, 240.91" />
    </a>
    <a ewd:figtype="jb" ewd:code="6" style="cursor:pointer;" ewd:figID="9">
      <path style="fill:#CCCCCC;stroke-linecap:round;stroke-linejoin:round;" d="M 792.68,640.59 L 792.68, 589.57 L 761.5, 589.57 L 761.5, 640.59 L 792.68, 640.59" />
    </a>
    <a ewd:figtype="jb" ewd:code="13" style="cursor:pointer;" ewd:figID="8">
      <path style="fill:#CCCCCC;stroke-linecap:round;stroke-linejoin:round;" d="M 2415.91,130.36 L 2415.91, 87.84 L 2325.2, 87.84 L 2325.2, 130.36 L 2415.91, 130.36" />
    </a>
    <a ewd:figtype="jb" ewd:code="13" style="cursor:pointer;" ewd:figID="7">
      <path style="fill:#CCCCCC;stroke-linecap:round;stroke-linejoin:round;" d="M 2628.51,130.36 L 2628.51, 45.32 L 2557.69, 45.32 L 2557.69, 87.84 L 2478.28, 87.84 L 2478.28, 130.36 L 2628.51, 130.36" />
    </a>
    <a ewd:figtype="jb" ewd:code="6" style="cursor:pointer;" ewd:figID="6">
      <path style="fill:#CCCCCC;stroke-linecap:round;stroke-linejoin:round;" d="M 2509.46,266.42 L 2509.46, 215.4 L 2478.28, 215.4 L 2478.28, 266.42 L 2509.46, 266.42" />
    </a>
    <a ewd:figtype="jb" ewd:code="6" style="cursor:pointer;" ewd:figID="5">
      <path style="fill:#CCCCCC;stroke-linecap:round;stroke-linejoin:round;" d="M 2458.43,266.42 L 2458.43, 215.4 L 2427.25, 215.4 L 2427.25, 266.42 L 2458.43, 266.42" />
    </a>
    <a ewd:figtype="jb" ewd:code="6" style="cursor:pointer;" ewd:figID="4">
      <path style="fill:#CCCCCC;stroke-linecap:round;stroke-linejoin:round;" d="M 2790.1,513.06 L 2790.1, 462.04 L 2758.92, 462.04 L 2758.92, 513.06 L 2790.1, 513.06" />
    </a>
    <a ewd:figtype="jb" ewd:code="13" style="cursor:pointer;" ewd:figID="3">
      <path style="fill:#CCCCCC;stroke-linecap:round;stroke-linejoin:round;" d="M 2985.7,121.86 L 2985.7, 87.84 L 2912, 87.84 L 2912, 121.86 L 2985.7, 121.86" />
    </a>
    <a ewd:figtype="jb" ewd:code="13" style="cursor:pointer;" ewd:figID="2">
      <path style="fill:#CCCCCC;stroke-linecap:round;stroke-linejoin:round;" d="M 3087.56,121.85 L 3087.56, 45.32 L 3014.11, 45.32 L 3014.11, 121.85 L 3087.56, 121.85" />
    </a>
    <a ewd:figtype="jb" ewd:code="13" style="cursor:pointer;" ewd:figID="1">
      <path style="fill:#CCCCCC;stroke-linecap:round;stroke-linejoin:round;" d="M 1147.89,87.82 L 1147.89, 155.85 L 2262.88, 155.85 L 2262.88, 87.84 L 1147.89, 87.82" />
    </a>
    <a ewd:figtype="conn" ewd:code="H7" style="cursor:pointer;" ewd:figID="37">
      <path style="fill:#CCECF4;stroke:#000000;stroke-width:1.133;stroke-linecap:round;stroke-linejoin:round;" d="M 135.04,36.81 L 2557.69, 36.81 L 2557.69, 87.84 L 135.04, 87.84 L 135.04, 36.81" />
      <title ewd:textID="31">Integration Relay</title>
    </a>
    <a ewd:figtype="conn" ewd:code="a3" style="cursor:pointer;" ewd:figID="36">
      <path style="fill:#CCECF4;stroke:#000000;stroke-width:1.133;stroke-linecap:round;stroke-linejoin:round;" d="M 2268.53,496.04 L 2268.53, 428.01 L 2183.49, 428.01 L 2183.49, 496.04 L 2268.53, 496.04" />
      <title ewd:textID="12">Back Door Lock Assembly</title>
    </a>
    <a ewd:figtype="conn" ewd:code="H20" style="cursor:pointer;" ewd:figID="35">
      <path style="fill:#CCECF4;stroke:#000000;stroke-width:1.133;stroke-linecap:round;stroke-linejoin:round;" d="M 3084.91,410.99 L 2753.26, 410.99 L 2753.26, 249.42 L 3084.91, 249.42 L 3084.91, 410.99" />
      <title ewd:textID="17">Combination Meter</title>
    </a>
    <a ewd:figtype="conn" ewd:code="a7" style="cursor:pointer;" ewd:figID="34">
      <path style="fill:#CCECF4;stroke:#000000;stroke-width:1.133;stroke-linecap:round;stroke-linejoin:round;" d="M 662.27,598.08 L 662.27, 496.03 L 628.25, 496.03 L 628.25, 598.08 L 662.27, 598.08" />
      <title ewd:textID="13">Back Door Lock Assembly  (Door Control Switch)</title>
    </a>
    <a ewd:figtype="conn" ewd:code="H27" style="cursor:pointer;" ewd:figID="33">
      <path style="fill:#CCECF4;stroke:#000000;stroke-width:1.133;stroke-linecap:round;stroke-linejoin:round;" d="M 789.85,351.46 L 789.85, 317.44 L 772.84, 317.44 L 772.84, 351.46 L 789.85, 351.46" />
      <title ewd:textID="41">Unlock Warning SW</title>
    </a>
    <a ewd:figtype="conn" ewd:code="H26" style="cursor:pointer;" ewd:figID="32">
      <path style="fill:#CCECF4;stroke:#000000;stroke-width:1.133;stroke-linecap:round;stroke-linejoin:round;" d="M 874.88,351.46 L 874.88, 317.44 L 857.87, 317.44 L 857.87, 351.46 L 874.88, 351.46" />
      <title ewd:textID="41">Unlock Warning SW</title>
    </a>
    <a ewd:figtype="conn" ewd:code="B57" style="cursor:pointer;" ewd:figID="31">
      <path style="fill:#CCECF4;stroke:#000000;stroke-width:1.133;stroke-linecap:round;stroke-linejoin:round;" d="M 271.1,266.42 L 271.1, 232.4 L 254.1, 232.4 L 254.1, 266.42 L 271.1, 266.42" />
      <title ewd:textID="23">Door Courtesy SW  (Front RH)</title>
    </a>
    <a ewd:figtype="conn" ewd:code="B56" style="cursor:pointer;" ewd:figID="30">
      <path style="fill:#CCECF4;stroke:#000000;stroke-width:1.133;stroke-linecap:round;stroke-linejoin:round;" d="M 330.63,266.42 L 330.63, 232.4 L 313.62, 232.4 L 313.62, 266.42 L 330.63, 266.42" />
      <title ewd:textID="22">Door Courtesy SW  (Front LH)</title>
    </a>
    <a ewd:figtype="conn" ewd:code="T17" style="cursor:pointer;" ewd:figID="29">
      <path style="fill:#CCECF4;stroke:#000000;stroke-width:1.133;stroke-linecap:round;stroke-linejoin:round;" d="M 713.26,206.92 L 713.26, 181.41 L 696.25, 181.41 L 696.25, 206.92 L 713.26, 206.92" />
      <title ewd:textID="20">Diode  (Door Courtesy No.6)</title>
    </a>
    <a ewd:figtype="conn" ewd:code="a2" style="cursor:pointer;" ewd:figID="28">
      <path style="fill:#CCECF4;stroke:#000000;stroke-width:1.133;stroke-linecap:round;stroke-linejoin:round;" d="M 594.25,589.58 L 594.25, 555.56 L 577.24, 555.56 L 577.24, 589.58 L 594.25, 589.58" />
      <title ewd:textID="11">Back Door Courtesy SW</title>
    </a>
    <a ewd:figtype="conn" ewd:code="X2" style="cursor:pointer;" ewd:figID="27">
      <path style="fill:#CCECF4;stroke:#000000;stroke-width:1.133;stroke-linecap:round;stroke-linejoin:round;" d="M 466.7,402.48 L 466.7, 368.46 L 449.69, 368.46 L 449.69, 402.48 L 466.7, 402.48" />
      <title ewd:textID="25">Door Courtesy SW  (Slide Door RH)</title>
    </a>
    <a ewd:figtype="conn" ewd:code="T9" style="cursor:pointer;" ewd:figID="26">
      <path style="fill:#CCECF4;stroke:#000000;stroke-width:1.133;stroke-linecap:round;stroke-linejoin:round;" d="M 483.7,215.41 L 483.7, 181.39 L 449.68, 181.39 L 449.68, 215.41 L 483.7, 215.41" />
      <title ewd:textID="19">Diode (Door Courtesy No.5)</title>
    </a>
    <a ewd:figtype="conn" ewd:code="Y3" style="cursor:pointer;" ewd:figID="25">
      <path style="fill:#CCECF4;stroke:#000000;stroke-width:1.133;stroke-linecap:round;stroke-linejoin:round;" d="M 390.16,402.48 L 390.16, 368.46 L 373.15, 368.46 L 373.15, 402.48 L 390.16, 402.48" />
      <title ewd:textID="24">Door Courtesy SW  (Slide Door LH)</title>
    </a>
    <a ewd:figtype="conn" ewd:code="T6" style="cursor:pointer;" ewd:figID="24">
      <path style="fill:#CCECF4;stroke:#000000;stroke-width:1.133;stroke-linecap:round;stroke-linejoin:round;" d="M 407.17,215.41 L 407.17, 181.39 L 373.15, 181.39 L 373.15, 215.41 L 407.17, 215.41" />
      <title ewd:textID="18">Diode (Door Courtesy No.4)</title>
    </a>
    <a ewd:figtype="rb" ewd:code="FUSE130" style="cursor:pointer;" ewd:figID="23">
      <path style="fill:#CCECF4;stroke:#000000;stroke-width:1.133;stroke-linecap:round;stroke-linejoin:round;" d="M 2868.06,87.84 L 2868.06, 45.32 L 2842.55, 45.32 L 2842.55, 87.84 L 2868.06, 87.84" />
    </a>
    <a ewd:figtype="rb" ewd:code="FUSE132" style="cursor:pointer;" ewd:figID="22">
      <path style="fill:#CCECF4;stroke:#000000;stroke-width:1.133;stroke-linecap:round;stroke-linejoin:round;" d="M 96.77,87.83 L 96.77, 45.31 L 71.26, 45.31 L 71.26, 87.83 L 96.77, 87.83" />
    </a>
    <a ewd:figtype="conn" ewd:code="M1" style="cursor:pointer;" ewd:figID="21">
      <path style="fill:#CCECF4;stroke:#000000;stroke-width:1.133;stroke-linecap:round;stroke-linejoin:round;" d="M 1918.89,555.56 L 1918.89, 385.48 L 1799.83, 385.48 L 1799.83, 555.56 L 1918.89, 555.56" />
      <title ewd:textID="37">Slide Door Control Junction (Male RH)</title>
    </a>
    <a ewd:figtype="conn" ewd:code="B55" style="cursor:pointer;" ewd:figID="20">
      <path style="fill:#CCECF4;stroke:#000000;stroke-width:1.133;stroke-linecap:round;stroke-linejoin:round;" d="M 1553.22,555.55 L 1553.22, 385.48 L 1434.16, 385.48 L 1434.16, 555.56 L 1553.22, 555.56" />
      <title ewd:textID="36">Slide Door Control Junction (Male LH)</title>
    </a>
    <a ewd:figtype="conn" ewd:code="f5" style="cursor:pointer;" ewd:figID="19">
      <path style="fill:#CCECF4;stroke:#000000;stroke-width:1.133;stroke-linecap:round;stroke-linejoin:round;" d="M 1961.56,521.56 L 2029.59, 521.56 L 2029.59, 445.02 L 1961.56, 445.02 L 1961.56, 521.56" />
      <title ewd:textID="39">Slide Door Lock Remote Control Assembly (RH)</title>
    </a>
    <a ewd:figtype="conn" ewd:code="p5" style="cursor:pointer;" ewd:figID="18">
      <path style="fill:#CCECF4;stroke:#000000;stroke-width:1.133;stroke-linecap:round;stroke-linejoin:round;" d="M 1655.27,521.56 L 1723.3, 521.56 L 1723.3, 445.02 L 1655.27, 445.02 L 1655.27, 521.56" />
      <title ewd:textID="38">Slide Door Lock Remote Control Assembly (LH)</title>
    </a>
    <a ewd:figtype="conn" ewd:code="L1" style="cursor:pointer;" ewd:figID="17">
      <path style="fill:#CCECF4;stroke:#000000;stroke-width:1.133;stroke-linecap:round;stroke-linejoin:round;" d="M 1368.97,453.5 L 1368.97, 393.97 L 1283.93, 393.97 L 1283.93, 453.5 L 1368.97, 453.5" />
      <title ewd:textID="26">Door Lock Assembly (Front LH)</title>
    </a>
    <a ewd:figtype="conn" ewd:code="K1" style="cursor:pointer;" ewd:figID="16">
      <path style="fill:#CCECF4;stroke:#000000;stroke-width:1.133;stroke-linecap:round;stroke-linejoin:round;" d="M 1235.74,453.5 L 1235.74, 393.97 L 1099.67, 393.97 L 1099.67, 453.5 L 1235.74, 453.5" />
      <title ewd:textID="27">Door Lock Assembly (Front RH)</title>
    </a>
    <a ewd:figtype="conn" ewd:code="Y2" style="cursor:pointer;" ewd:figID="15">
      <path style="fill:#CCECF4;stroke:#000000;stroke-width:1.133;stroke-linecap:round;stroke-linejoin:round;" d="M 211.57,462.01 L 211.57, 428 L 67.01, 428 L 67.01, 462.01 L 211.57, 462.01" />
      <title ewd:textID="21">Door Control Receiver</title>
    </a>
    <a ewd:figtype="rb" ewd:code="FUSE147" style="cursor:pointer;" ewd:figID="14">
      <path style="fill:#CCECF4;stroke:#000000;stroke-width:1.133;stroke-linecap:round;stroke-linejoin:round;" d="M 2697.96,87.84 L 2697.96, 45.32 L 2672.45, 45.32 L 2672.45, 87.84 L 2697.96, 87.84" />
    </a>
    <a ewd:figtype="sp" ewd:code="52264" style="cursor:pointer;" ewd:figID="48">
      <path style="fill:#FFFFFF;stroke:#000000;stroke-width:0.85;stroke-linecap:round;stroke-linejoin:round;" d="M 2892.87,181.4 L 2885.78, 181.4 L 2880.82, 186.36 L 2880.82, 193.45 L 2885.78, 198.41 L 2892.87, 198.41 L 2897.83, 193.45 L 2897.83, 186.36 L 2892.87, 181.4" />
    </a>
    <a ewd:figtype="sp" ewd:code="52265" style="cursor:pointer;" ewd:figID="47">
      <path style="fill:#FFFFFF;stroke:#000000;stroke-width:0.85;stroke-linecap:round;stroke-linejoin:round;" d="M 2731.27,172.88 L 2724.18, 172.88 L 2719.22, 177.84 L 2719.22, 184.93 L 2724.18, 189.89 L 2731.27, 189.89 L 2736.23, 184.93 L 2736.23, 177.84 L 2731.27, 172.88" />
    </a>
    <a ewd:figtype="sp" ewd:code="52266" style="cursor:pointer;" ewd:figID="46">
      <path style="fill:#FFFFFF;stroke:#000000;stroke-width:0.85;stroke-linecap:round;stroke-linejoin:round;" d="M 2408.14,504.53 L 2401.05, 504.53 L 2396.09, 509.49 L 2396.09, 516.58 L 2401.05, 521.54 L 2408.14, 521.54 L 2413.1, 516.58 L 2413.1, 509.49 L 2408.14, 504.53" />
    </a>
    <a ewd:figtype="sp" ewd:code="52267" style="cursor:pointer;" ewd:figID="45">
      <path style="fill:#FFFFFF;stroke:#000000;stroke-width:0.85;stroke-linecap:round;stroke-linejoin:round;" d="M 1718.3,189.88 L 1711.21, 189.88 L 1706.25, 194.84 L 1706.25, 201.93 L 1711.21, 206.89 L 1718.3, 206.89 L 1723.26, 201.93 L 1723.26, 194.84 L 1718.3, 189.88" />
    </a>
    <a ewd:figtype="sp" ewd:code="52268" style="cursor:pointer;" ewd:figID="44">
      <path style="fill:#FFFFFF;stroke:#000000;stroke-width:0.85;stroke-linecap:round;stroke-linejoin:round;" d="M 1667.26,215.4 L 1660.17, 215.4 L 1655.21, 220.36 L 1655.21, 227.45 L 1660.17, 232.41 L 1667.26, 232.41 L 1672.22, 227.45 L 1672.22, 220.36 L 1667.26, 215.4" />
    </a>
    <a ewd:figtype="sp" ewd:code="52269" style="cursor:pointer;" ewd:figID="43">
      <path style="fill:#FFFFFF;stroke:#000000;stroke-width:0.85;stroke-linecap:round;stroke-linejoin:round;" d="M 1111.75,623.57 L 1104.66, 623.57 L 1099.7, 628.53 L 1099.7, 635.6201 L 1104.66, 640.5801 L 1111.75, 640.5801 L 1116.71, 635.6201 L 1116.71, 628.5301 L 1111.75, 623.57" />
    </a>
    <a ewd:figtype="sp" ewd:code="52272" style="cursor:pointer;" ewd:figID="42">
      <path style="fill:#FFFFFF;stroke:#000000;stroke-width:0.85;stroke-linecap:round;stroke-linejoin:round;" d="M 1222.3,215.38 L 1215.21, 215.38 L 1210.25, 220.34 L 1210.25, 227.43 L 1215.21, 232.39 L 1222.3, 232.39 L 1227.26, 227.43 L 1227.26, 220.34 L 1222.3, 215.38" />
    </a>
    <a ewd:figtype="sp" ewd:code="52273" style="cursor:pointer;" ewd:figID="41">
      <path style="fill:#FFFFFF;stroke:#000000;stroke-width:0.85;stroke-linecap:round;stroke-linejoin:round;" d="M 1171.25,249.4 L 1164.16, 249.4 L 1159.2, 254.36 L 1159.2, 261.45 L 1164.16, 266.41 L 1171.25, 266.41 L 1176.21, 261.45 L 1176.21, 254.36 L 1171.25, 249.4" />
    </a>
    <a ewd:figtype="sp" ewd:code="52270" style="cursor:pointer;" ewd:figID="40">
      <path style="fill:#FFFFFF;stroke:#000000;stroke-width:0.85;stroke-linecap:round;stroke-linejoin:round;" d="M 708.3,257.95 L 701.21, 257.95 L 696.25, 262.91 L 696.25, 270 L 701.21, 274.96 L 708.3, 274.96 L 713.26, 270 L 713.26, 262.91 L 708.3, 257.95" />
    </a>
    <a ewd:figtype="sp" ewd:code="52271" style="cursor:pointer;" ewd:figID="39">
      <path style="fill:#FFFFFF;stroke:#000000;stroke-width:0.85;stroke-linecap:round;stroke-linejoin:round;" d="M 648.81,640.6 L 641.72, 640.6 L 636.7599, 645.56 L 636.7599, 652.65 L 641.7199, 657.61 L 648.8099, 657.61 L 653.7699, 652.65 L 653.7699, 645.56 L 648.81, 640.6" />
    </a>
    <a ewd:figtype="sp" ewd:code="52274" style="cursor:pointer;" ewd:figID="38">
      <path style="fill:#FFFFFF;stroke:#000000;stroke-width:0.85;stroke-linecap:round;stroke-linejoin:round;" d="M 87.56,198.38 L 80.47, 198.38 L 75.51, 203.34 L 75.51, 210.43 L 80.47, 215.39 L 87.56, 215.39 L 92.52, 210.43 L 92.52, 203.34 L 87.56, 198.38" />
    </a>
    <a ewd:figtype="fuse" ewd:code="FUSE173" style="cursor:pointer;" ewd:figID="106">
      <path style="fill:none;stroke:#000000;stroke-width:0.5;stroke-linecap:round;stroke-linejoin:round;" d="M 3046.71,87.84 L 3046.71, 45.32 L 3021.2, 45.32 L 3021.2, 87.84 L 3046.71, 87.84" />
    </a>
    <a ewd:figtype="fuse" ewd:code="FUSE130" style="cursor:pointer;" ewd:figID="105">
      <path style="fill:none;stroke:#000000;stroke-width:0.5;stroke-linecap:round;stroke-linejoin:round;" d="M 2868.06,87.84 L 2868.06, 45.32 L 2842.55, 45.32 L 2842.55, 87.84 L 2868.06, 87.84" />
    </a>
    <a ewd:figtype="fuse" ewd:code="FUSE132" style="cursor:pointer;" ewd:figID="104">
      <path style="fill:none;stroke:#000000;stroke-width:0.5;stroke-linecap:round;stroke-linejoin:round;" d="M 96.77,87.83 L 96.77, 45.31 L 71.26, 45.31 L 71.26, 87.83 L 96.77, 87.83" />
    </a>
    <a ewd:figtype="fuse" ewd:code="FUSE147" style="cursor:pointer;" ewd:figID="103">
      <path style="fill:none;stroke:#000000;stroke-width:0.5;stroke-linecap:round;stroke-linejoin:round;" d="M 2697.96,87.84 L 2697.96, 45.32 L 2672.45, 45.32 L 2672.45, 87.84 L 2697.96, 87.84" />
    </a>
    <a ewd:figtype="fuse" ewd:code="FUSE187" style="cursor:pointer;" ewd:figID="102">
      <path style="fill:none;stroke:#000000;stroke-width:0.5;stroke-linecap:round;stroke-linejoin:round;" d="M 2595.91,87.84 L 2595.91, 45.32 L 2570.4, 45.32 L 2570.4, 87.84 L 2595.91, 87.84" />
    </a>
    
    
    
    
    
    
    
    
    
    
    
    
    
    
    
    
    
    
    
    
    
    
    
    
    
    
    
    
    
    
    
    
    
    
    
    
    
    
    
    
    
    
    
    
    
    
    
    
    
    
    
    
    
    
    
    
    
    
    
    
    
    
    
    
    
    
    
    
    
    
    
    
    
    
    
    
    
    
    
    
    
    
    
    
    
    
    
    
    
    
    
    
    
    
    
    
    
    
    
    
    
    
    
    
    
    
    
    
    
    
    
    
    
    
    
    
    
    
    
    
    
    
    
    
    
    
    
    
    
    
    
    
    
    
    
    
    
    
    
    
    
    
    
    
    
    
    
    
    
    
    
    
    
    
    
    
    
    
    
    
    
    
    
    
    
    
    
    
    
    
    
    
    
    
    
    
    
    
    
    
    
    
    
    
    
    
    
    
    
    
    
    
    
    
    
    
    
    
    
    
    
    
    
    
    
    
    
    
    
    
    
    
    
    
    
    
    
    
    
    
    
    
    
    
    
    
    
    
    
    
    
    
    
    
    
    
    
    
    
    
    
    
    
    
    
    
    
    
    
    
    
    
    
    
    
    
    
    
    
    
    
    
    
    
    
    
    
    
    
    
    
    
    
    
    
    
    
    
    
    
    
    
    
    
    
    
    
    
    
    
    <a style="cursor:pointer;" ewd:figID="101" ewd:figtype="gp" ewd:code="H1">
      <path style="fill:#FFFFFF;stroke:#000000;stroke-width:0.85;stroke-linecap:round;stroke-linejoin:round;" d="M 2766.02,691.65 L 2791.53, 691.65 L 2778.78, 708.66 L 2766.02, 691.65" />
      <text transform="matrix(1 0 0 1 2774.9399 698.5264)" style="font-family:'Arial'; font-size:6px;">H1</text>
    </a>
    <a style="cursor:pointer;" ewd:figID="100" ewd:figtype="w2w" ewd:code="HB1" ewd:pin_no="23">
      <path style="fill:#FFFFFF;stroke:#000000;stroke-width:0.85;stroke-linecap:round;stroke-linejoin:round;" d="M 2695.13,266.42 L 2695.13, 257.92 L 2675.29, 257.92 L 2675.29, 266.42 L 2695.13, 266.42" />
      <text transform="matrix(1 0 0 1 2679.3726 264.2231)" style="font-family:'Arial'; font-size:6px;">HB1</text>
    </a>
    <a style="cursor:pointer;" ewd:figID="99" ewd:figtype="gp" ewd:code="B4">
      <path style="fill:#FFFFFF;stroke:#000000;stroke-width:0.85;stroke-linecap:round;stroke-linejoin:round;" d="M 2391.82,691.62 L 2417.33, 691.62 L 2404.57, 708.63 L 2391.82, 691.62" />
      <text transform="matrix(1 0 0 1 2400.9048 698.4922)" style="font-family:'Arial'; font-size:6px;">B4</text>
    </a>
    <a style="cursor:pointer;" ewd:figID="98" ewd:figtype="gp" ewd:code="H1">
      <path style="fill:#FFFFFF;stroke:#000000;stroke-width:0.85;stroke-linecap:round;stroke-linejoin:round;" d="M 2332.29,691.62 L 2357.8, 691.62 L 2345.05, 708.63 L 2332.29, 691.62" />
      <text transform="matrix(1 0 0 1 2341.2124 698.4922)" style="font-family:'Arial'; font-size:6px;">H1</text>
    </a>
    <a style="cursor:pointer;" ewd:figID="97" ewd:figtype="w2w" ewd:code="ZU2" ewd:pin_no="7">
      <path style="fill:#FFFFFF;stroke:#000000;stroke-width:0.85;stroke-linecap:round;stroke-linejoin:round;" d="M 2312.46,308.96 L 2312.46, 300.46 L 2292.62, 300.46 L 2292.62, 308.96 L 2312.46, 308.96" />
      <text transform="matrix(1 0 0 1 2296.8735 306.7627)" style="font-family:'Arial'; font-size:6px;">ZU2</text>
    </a>
    <a style="cursor:pointer;" ewd:figID="96" ewd:figtype="w2w" ewd:code="ZT1" ewd:pin_no="7">
      <path style="fill:#FFFFFF;stroke:#000000;stroke-width:0.85;stroke-linecap:round;stroke-linejoin:round;" d="M 2261.44,308.96 L 2261.44, 300.46 L 2241.6, 300.46 L 2241.6, 308.96 L 2261.44, 308.96" />
      <text transform="matrix(1 0 0 1 2246.1841 306.7627)" style="font-family:'Arial'; font-size:6px;">ZT1</text>
    </a>
    <a style="cursor:pointer;" ewd:figID="95" ewd:figtype="w2w" ewd:code="ZU2" ewd:pin_no="1">
      <path style="fill:#FFFFFF;stroke:#000000;stroke-width:0.85;stroke-linecap:round;stroke-linejoin:round;" d="M 2159.39,308.96 L 2159.39, 300.46 L 2139.55, 300.46 L 2139.55, 308.96 L 2159.39, 308.96" />
      <text transform="matrix(1 0 0 1 2143.8032 306.7627)" style="font-family:'Arial'; font-size:6px;">ZU2</text>
    </a>
    <a style="cursor:pointer;" ewd:figID="94" ewd:figtype="w2w" ewd:code="ZT1" ewd:pin_no="1">
      <path style="fill:#FFFFFF;stroke:#000000;stroke-width:0.85;stroke-linecap:round;stroke-linejoin:round;" d="M 2210.42,308.96 L 2210.42, 300.46 L 2190.58, 300.46 L 2190.58, 308.96 L 2210.42, 308.96" />
      <text transform="matrix(1 0 0 1 2195.1606 306.7627)" style="font-family:'Arial'; font-size:6px;">ZT1</text>
    </a>
    <a style="cursor:pointer;" ewd:figID="93" ewd:figtype="w2w" ewd:code="Za4" ewd:pin_no="7">
      <path style="fill:#FFFFFF;stroke:#000000;stroke-width:0.85;stroke-linecap:round;stroke-linejoin:round;" d="M 2261.44,368.49 L 2261.44, 376.99 L 2241.6, 376.99 L 2241.6, 368.49 L 2261.44, 368.49" />
      <text transform="matrix(1 0 0 1 2246.3481 374.7939)" style="font-family:'Arial'; font-size:6px;" ewd:textID="42">Za4</text>
    </a>
    <a style="cursor:pointer;" ewd:figID="92" ewd:figtype="w2w" ewd:code="Za4" ewd:pin_no="1">
      <path style="fill:#FFFFFF;stroke:#000000;stroke-width:0.85;stroke-linecap:round;stroke-linejoin:round;" d="M 2210.42,368.49 L 2210.42, 376.99 L 2190.58, 376.99 L 2190.58, 368.49 L 2210.42, 368.49" />
      <text transform="matrix(1 0 0 1 2195.3247 374.7939)" style="font-family:'Arial'; font-size:6px;" ewd:textID="42">Za4</text>
    </a>
    <a style="cursor:pointer;" ewd:figID="91" ewd:figtype="w2w" ewd:code="TU6" ewd:pin_no="3">
      <path style="fill:#FFFFFF;stroke:#000000;stroke-width:0.85;stroke-linecap:round;stroke-linejoin:round;" d="M 2312.51,223.9 L 2312.51, 232.4 L 2292.67, 232.4 L 2292.67, 223.9 L 2312.51, 223.9" />
      <text transform="matrix(1 0 0 1 2296.9243 230.2124)" style="font-family:'Arial'; font-size:6px;">TU6</text>
    </a>
    <a style="cursor:pointer;" ewd:figID="90" ewd:figtype="w2w" ewd:code="TU6" ewd:pin_no="1">
      <path style="fill:#FFFFFF;stroke:#000000;stroke-width:0.85;stroke-linecap:round;stroke-linejoin:round;" d="M 2159.44,223.9 L 2159.44, 232.4 L 2139.6, 232.4 L 2139.6, 223.9 L 2159.44, 223.9" />
      <text transform="matrix(1 0 0 1 2143.854 230.2124)" style="font-family:'Arial'; font-size:6px;">TU6</text>
    </a>
    <a style="cursor:pointer;" ewd:figID="89" ewd:figtype="w2w" ewd:code="Bq1" ewd:pin_no="8">
      <path style="fill:#FFFFFF;stroke:#000000;stroke-width:0.85;stroke-linecap:round;stroke-linejoin:round;" d="M 1724.66,283.43 L 1724.66, 291.93 L 1704.82, 291.93 L 1704.82, 283.43 L 1724.66, 283.43" />
      <text transform="matrix(1 0 0 1 1709.397 289.7397)" style="font-family:'Arial'; font-size:6px;" ewd:textID="15">Bq1</text>
    </a>
    <a style="cursor:pointer;" ewd:figID="88" ewd:figtype="w2w" ewd:code="Bq1" ewd:pin_no="4">
      <path style="fill:#FFFFFF;stroke:#000000;stroke-width:0.85;stroke-linecap:round;stroke-linejoin:round;" d="M 1673.63,283.43 L 1673.63, 291.93 L 1653.79, 291.93 L 1653.79, 283.43 L 1673.63, 283.43" />
      <text transform="matrix(1 0 0 1 1658.3735 289.7397)" style="font-family:'Arial'; font-size:6px;" ewd:textID="15">Bq1</text>
    </a>
    <a style="cursor:pointer;" ewd:figID="87" ewd:figtype="w2w" ewd:code="oq1" ewd:pin_no="6">
      <path style="fill:#FFFFFF;stroke:#000000;stroke-width:0.85;stroke-linecap:round;stroke-linejoin:round;" d="M 1724.66,351.46 L 1724.66, 342.96 L 1704.82, 342.96 L 1704.82, 351.46 L 1724.66, 351.46" />
      <text transform="matrix(1 0 0 1 1709.729 349.2671)" style="font-family:'Arial'; font-size:6px;" ewd:textID="32">oq1</text>
    </a>
    <a style="cursor:pointer;" ewd:figID="86" ewd:figtype="w2w" ewd:code="oq1" ewd:pin_no="2">
      <path style="fill:#FFFFFF;stroke:#000000;stroke-width:0.85;stroke-linecap:round;stroke-linejoin:round;" d="M 1673.63,351.46 L 1673.63, 342.96 L 1653.79, 342.96 L 1653.79, 351.46 L 1673.63, 351.46" />
      <text transform="matrix(1 0 0 1 1658.7056 349.2671)" style="font-family:'Arial'; font-size:6px;" ewd:textID="32">oq1</text>
    </a>
    <a style="cursor:pointer;" ewd:figID="85" ewd:figtype="w2w" ewd:code="MB1" ewd:pin_no="5">
      <path style="fill:#FFFFFF;stroke:#000000;stroke-width:0.85;stroke-linecap:round;stroke-linejoin:round;" d="M 1886.29,342.96 L 1886.29, 334.46 L 1866.45, 334.46 L 1866.45, 342.96 L 1886.29, 342.96" />
      <text transform="matrix(1 0 0 1 1870.1958 340.7627)" style="font-family:'Arial'; font-size:6px;">MB1</text>
    </a>
    <a style="cursor:pointer;" ewd:figID="84" ewd:figtype="w2w" ewd:code="MB1" ewd:pin_no="1">
      <path style="fill:#FFFFFF;stroke:#000000;stroke-width:0.85;stroke-linecap:round;stroke-linejoin:round;" d="M 1835.26,342.96 L 1835.26, 334.46 L 1815.42, 334.46 L 1815.42, 342.96 L 1835.26, 342.96" />
      <text transform="matrix(1 0 0 1 1819.1724 340.7627)" style="font-family:'Arial'; font-size:6px;">MB1</text>
    </a>
    <a style="cursor:pointer;" ewd:figID="83" ewd:figtype="w2w" ewd:code="po2" ewd:pin_no="3">
      <path style="fill:#FFFFFF;stroke:#000000;stroke-width:0.85;stroke-linecap:round;stroke-linejoin:round;" d="M 1724.66,402.49 L 1724.66, 393.99 L 1704.82, 393.99 L 1704.82, 402.49 L 1724.66, 402.49" />
      <text transform="matrix(1 0 0 1 1709.729 400.29)" style="font-family:'Arial'; font-size:6px;" ewd:textID="33">po2</text>
    </a>
    <a style="cursor:pointer;" ewd:figID="82" ewd:figtype="w2w" ewd:code="po2" ewd:pin_no="2">
      <path style="fill:#FFFFFF;stroke:#000000;stroke-width:0.85;stroke-linecap:round;stroke-linejoin:round;" d="M 1673.63,402.49 L 1673.63, 393.99 L 1653.79, 393.99 L 1653.79, 402.49 L 1673.63, 402.49" />
      <text transform="matrix(1 0 0 1 1658.7056 400.29)" style="font-family:'Arial'; font-size:6px;" ewd:textID="33">po2</text>
    </a>
    <a style="cursor:pointer;" ewd:figID="81" ewd:figtype="w2w" ewd:code="HA1" ewd:pin_no="9">
      <path style="fill:#FFFFFF;stroke:#000000;stroke-width:0.85;stroke-linecap:round;stroke-linejoin:round;" d="M 876.3,538.54 L 876.3, 547.04 L 856.46, 547.04 L 856.46, 538.54 L 876.3, 538.54" />
      <text transform="matrix(1 0 0 1 860.543 544.8516)" style="font-family:'Arial'; font-size:6px;">HA1</text>
    </a>
    <a style="cursor:pointer;" ewd:figID="80" ewd:figtype="gp" ewd:code="H1">
      <path style="fill:#FFFFFF;stroke:#000000;stroke-width:0.85;stroke-linecap:round;stroke-linejoin:round;" d="M 768.59,691.61 L 794.1, 691.61 L 781.35, 708.62 L 768.59, 691.61" />
      <text transform="matrix(1 0 0 1 777.5088 698.4863)" style="font-family:'Arial'; font-size:6px;">H1</text>
    </a>
    <a style="cursor:pointer;" ewd:figID="79" ewd:figtype="w2w" ewd:code="TU5" ewd:pin_no="8">
      <path style="fill:#FFFFFF;stroke:#000000;stroke-width:0.85;stroke-linecap:round;stroke-linejoin:round;" d="M 510.63,274.92 L 510.63, 266.42 L 490.79, 266.42 L 490.79, 274.92 L 510.63, 274.92" />
      <text transform="matrix(1 0 0 1 495.0415 272.7256)" style="font-family:'Arial'; font-size:6px;">TU5</text>
    </a>
    <a style="cursor:pointer;" ewd:figID="78" ewd:figtype="w2w" ewd:code="TY5" ewd:pin_no="14">
      <path style="fill:#FFFFFF;stroke:#000000;stroke-width:0.85;stroke-linecap:round;stroke-linejoin:round;" d="M 161.97,351.46 L 161.97, 359.96 L 142.13, 359.96 L 142.13, 351.46 L 161.97, 351.46" />
      <text transform="matrix(1 0 0 1 146.5439 357.7637)" style="font-family:'Arial'; font-size:6px;">TY5</text>
    </a>
    <a style="cursor:pointer;" ewd:figID="77" ewd:figtype="w2w" ewd:code="BT1" ewd:pin_no="7">
      <path style="fill:#FFFFFF;stroke:#000000;stroke-width:0.85;stroke-linecap:round;stroke-linejoin:round;" d="M 204.49,274.92 L 204.49, 283.42 L 184.65, 283.42 L 184.65, 274.92 L 204.49, 274.92" />
      <text transform="matrix(1 0 0 1 189.0635 281.228)" style="font-family:'Arial'; font-size:6px;">BT1</text>
    </a>
    <a style="cursor:pointer;" ewd:figID="76" ewd:figtype="w2w" ewd:code="BT1" ewd:pin_no="6">
      <path style="fill:#FFFFFF;stroke:#000000;stroke-width:0.85;stroke-linecap:round;stroke-linejoin:round;" d="M 93.94,274.92 L 93.94, 283.42 L 74.09, 283.42 L 74.09, 274.92 L 93.94, 274.92" />
      <text transform="matrix(1 0 0 1 78.5127 281.228)" style="font-family:'Arial'; font-size:6px;">BT1</text>
    </a>
    <a style="cursor:pointer;" ewd:figID="75" ewd:figtype="w2w" ewd:code="BT1" ewd:pin_no="13">
      <path style="fill:#FFFFFF;stroke:#000000;stroke-width:0.85;stroke-linecap:round;stroke-linejoin:round;" d="M 161.97,274.92 L 161.97, 283.42 L 142.13, 283.42 L 142.13, 274.92 L 161.97, 274.92" />
      <text transform="matrix(1 0 0 1 146.5439 281.228)" style="font-family:'Arial'; font-size:6px;">BT1</text>
    </a>
    <a style="cursor:pointer;" ewd:figID="74" ewd:figtype="w2w" ewd:code="HB1" ewd:pin_no="34">
      <path style="fill:#FFFFFF;stroke:#000000;stroke-width:0.85;stroke-linecap:round;stroke-linejoin:round;" d="M 204.49,198.38 L 204.49, 206.88 L 184.65, 206.88 L 184.65, 198.38 L 204.49, 198.38" />
      <text transform="matrix(1 0 0 1 188.7295 204.6924)" style="font-family:'Arial'; font-size:6px;">HB1</text>
    </a>
    <a style="cursor:pointer;" ewd:figID="73" ewd:figtype="w2w" ewd:code="HB1" ewd:pin_no="18">
      <path style="fill:#FFFFFF;stroke:#000000;stroke-width:0.85;stroke-linecap:round;stroke-linejoin:round;" d="M 161.97,198.38 L 161.97, 206.88 L 142.13, 206.88 L 142.13, 198.38 L 161.97, 198.38" />
      <text transform="matrix(1 0 0 1 146.21 204.6924)" style="font-family:'Arial'; font-size:6px;">HB1</text>
    </a>
    <a style="cursor:pointer;" ewd:figID="72" ewd:figtype="gp" ewd:code="Y1">
      <path style="fill:#FFFFFF;stroke:#000000;stroke-width:0.85;stroke-linecap:round;stroke-linejoin:round;" d="M 71.26,691.62 L 96.77, 691.62 L 84.02, 708.63 L 71.26, 691.62" />
      <text transform="matrix(1 0 0 1 80.3462 698.4912)" style="font-family:'Arial'; font-size:6px;">Y1</text>
    </a>
    <a style="cursor:pointer;" ewd:figID="71" ewd:figtype="w2w" ewd:code="Bi1" ewd:pin_no="8">
      <path style="fill:#FFFFFF;stroke:#000000;stroke-width:0.85;stroke-linecap:round;stroke-linejoin:round;" d="M 2031.01,274.93 L 2031.01, 283.43 L 2011.17, 283.43 L 2011.17, 274.93 L 2031.01, 274.93" />
      <text transform="matrix(1 0 0 1 2016.7485 281.2358)" style="font-family:'Arial'; font-size:6px;" ewd:textID="14">Bi1</text>
    </a>
    <a style="cursor:pointer;" ewd:figID="70" ewd:figtype="w2w" ewd:code="Bi1" ewd:pin_no="4">
      <path style="fill:#FFFFFF;stroke:#000000;stroke-width:0.85;stroke-linecap:round;stroke-linejoin:round;" d="M 1979.98,274.93 L 1979.98, 283.43 L 1960.14, 283.43 L 1960.14, 274.93 L 1979.98, 274.93" />
      <text transform="matrix(1 0 0 1 1965.7261 281.2358)" style="font-family:'Arial'; font-size:6px;" ewd:textID="14">Bi1</text>
    </a>
    <a style="cursor:pointer;" ewd:figID="69" ewd:figtype="w2w" ewd:code="ci1" ewd:pin_no="6">
      <path style="fill:#FFFFFF;stroke:#000000;stroke-width:0.85;stroke-linecap:round;stroke-linejoin:round;" d="M 2031.01,342.96 L 2031.01, 334.46 L 2011.17, 334.46 L 2011.17, 342.96 L 2031.01, 342.96" />
      <text transform="matrix(1 0 0 1 2017.2505 340.7632)" style="font-family:'Arial'; font-size:6px;" ewd:textID="16">ci1</text>
    </a>
    <a style="cursor:pointer;" ewd:figID="68" ewd:figtype="w2w" ewd:code="ci1" ewd:pin_no="2">
      <path style="fill:#FFFFFF;stroke:#000000;stroke-width:0.85;stroke-linecap:round;stroke-linejoin:round;" d="M 1979.98,342.96 L 1979.98, 334.46 L 1960.14, 334.46 L 1960.14, 342.96 L 1979.98, 342.96" />
      <text transform="matrix(1 0 0 1 1966.228 340.7632)" style="font-family:'Arial'; font-size:6px;" ewd:textID="16">ci1</text>
    </a>
    <a style="cursor:pointer;" ewd:figID="67" ewd:figtype="w2w" ewd:code="fc1" ewd:pin_no="3">
      <path style="fill:#FFFFFF;stroke:#000000;stroke-width:0.85;stroke-linecap:round;stroke-linejoin:round;" d="M 2031.01,393.98 L 2031.01, 385.48 L 2011.17, 385.48 L 2011.17, 393.98 L 2031.01, 393.98" />
      <text transform="matrix(1 0 0 1 2017.0835 391.7861)" style="font-family:'Arial'; font-size:6px;" ewd:textID="30">fc1</text>
    </a>
    <a style="cursor:pointer;" ewd:figID="66" ewd:figtype="w2w" ewd:code="fc1" ewd:pin_no="2">
      <path style="fill:#FFFFFF;stroke:#000000;stroke-width:0.85;stroke-linecap:round;stroke-linejoin:round;" d="M 1980.04,393.98 L 1980.04, 385.48 L 1960.2, 385.48 L 1960.2, 393.98 L 1980.04, 393.98" />
      <text transform="matrix(1 0 0 1 1966.1206 391.7861)" style="font-family:'Arial'; font-size:6px;" ewd:textID="30">fc1</text>
    </a>
    <a style="cursor:pointer;" ewd:figID="65" ewd:figtype="w2w" ewd:code="KA2" ewd:pin_no="5">
      <path style="fill:#FFFFFF;stroke:#000000;stroke-width:0.85;stroke-linecap:round;stroke-linejoin:round;" d="M 1118.13,504.52 L 1118.13, 513.02 L 1098.28, 513.02 L 1098.28, 504.52 L 1118.13, 504.52" />
      <text transform="matrix(1 0 0 1 1102.5313 510.8271)" style="font-family:'Arial'; font-size:6px;">KA2</text>
    </a>
    <a style="cursor:pointer;" ewd:figID="64" ewd:figtype="w2w" ewd:code="LA3" ewd:pin_no="6">
      <path style="fill:#FFFFFF;stroke:#000000;stroke-width:0.85;stroke-linecap:round;stroke-linejoin:round;" d="M 1361.88,334.44 L 1361.88, 325.94 L 1342.04, 325.94 L 1342.04, 334.44 L 1361.88, 334.44" />
      <text transform="matrix(1 0 0 1 1346.6245 332.2451)" style="font-family:'Arial'; font-size:6px;">LA3</text>
    </a>
    <a style="cursor:pointer;" ewd:figID="63" ewd:figtype="w2w" ewd:code="LA3" ewd:pin_no="2">
      <path style="fill:#FFFFFF;stroke:#000000;stroke-width:0.85;stroke-linecap:round;stroke-linejoin:round;" d="M 1310.86,334.44 L 1310.86, 325.94 L 1291.02, 325.94 L 1291.02, 334.44 L 1310.86, 334.44" />
      <text transform="matrix(1 0 0 1 1295.6011 332.2451)" style="font-family:'Arial'; font-size:6px;">LA3</text>
    </a>
    <a style="cursor:pointer;" ewd:figID="62" ewd:figtype="w2w" ewd:code="KA3" ewd:pin_no="6">
      <path style="fill:#FFFFFF;stroke:#000000;stroke-width:0.85;stroke-linecap:round;stroke-linejoin:round;" d="M 1228.66,334.44 L 1228.66, 325.94 L 1208.82, 325.94 L 1208.82, 334.44 L 1228.66, 334.44" />
      <text transform="matrix(1 0 0 1 1213.0645 332.2451)" style="font-family:'Arial'; font-size:6px;">KA3</text>
    </a>
    <a style="cursor:pointer;" ewd:figID="61" ewd:figtype="w2w" ewd:code="KA3" ewd:pin_no="2">
      <path style="fill:#FFFFFF;stroke:#000000;stroke-width:0.85;stroke-linecap:round;stroke-linejoin:round;" d="M 1177.63,334.44 L 1177.63, 325.94 L 1157.79, 325.94 L 1157.79, 334.44 L 1177.63, 334.44" />
      <text transform="matrix(1 0 0 1 1162.041 332.2451)" style="font-family:'Arial'; font-size:6px;">KA3</text>
    </a>
    <a style="cursor:pointer;" ewd:figID="60" ewd:figtype="w2w" ewd:code="KA4" ewd:pin_no="8">
      <path style="fill:#FFFFFF;stroke:#000000;stroke-width:0.85;stroke-linecap:round;stroke-linejoin:round;" d="M 1118.11,334.44 L 1118.11, 325.94 L 1098.26, 325.94 L 1098.26, 334.44 L 1118.11, 334.44" />
      <text transform="matrix(1 0 0 1 1102.5098 332.2451)" style="font-family:'Arial'; font-size:6px;">KA4</text>
    </a>
    <a style="cursor:pointer;" ewd:figID="59" ewd:figtype="w2w" ewd:code="HA1" ewd:pin_no="18">
      <path style="fill:#FFFFFF;stroke:#000000;stroke-width:0.85;stroke-linecap:round;stroke-linejoin:round;" d="M 1118.1,147.36 L 1118.1, 155.86 L 1098.25, 155.86 L 1098.25, 147.36 L 1118.1, 147.36" />
      <text transform="matrix(1 0 0 1 1102.3442 153.6631)" style="font-family:'Arial'; font-size:6px;">HA1</text>
    </a>
    <a style="cursor:pointer;" ewd:figID="58" ewd:figtype="w2w" ewd:code="ZT1" ewd:pin_no="2">
      <path style="fill:#FFFFFF;stroke:#000000;stroke-width:0.85;stroke-linecap:round;stroke-linejoin:round;" d="M 612.67,385.48 L 612.67, 376.98 L 592.83, 376.98 L 592.83, 385.48 L 612.67, 385.48" />
      <text transform="matrix(1 0 0 1 597.4165 383.2852)" style="font-family:'Arial'; font-size:6px;">ZT1</text>
    </a>
    <a style="cursor:pointer;" ewd:figID="57" ewd:figtype="w2w" ewd:code="ZU2" ewd:pin_no="2">
      <path style="fill:#FFFFFF;stroke:#000000;stroke-width:0.85;stroke-linecap:round;stroke-linejoin:round;" d="M 655.19,385.48 L 655.19, 376.98 L 635.35, 376.98 L 635.35, 385.48 L 655.19, 385.48" />
      <text transform="matrix(1 0 0 1 639.603 383.2852)" style="font-family:'Arial'; font-size:6px;">ZU2</text>
    </a>
    <a style="cursor:pointer;" ewd:figID="56" ewd:figtype="gp" ewd:code="a1">
      <path style="fill:#FFFFFF;stroke:#000000;stroke-width:0.85;stroke-linecap:round;stroke-linejoin:round;" d="M 632.51,691.64 L 658.02, 691.64 L 645.27, 708.65 L 632.51, 691.64" />
      <text transform="matrix(1 0 0 1 641.9336 698.5098)" style="font-family:'Arial'; font-size:6px;">a1</text>
    </a>
    <a style="cursor:pointer;" ewd:figID="55" ewd:figtype="w2w" ewd:code="TY5" ewd:pin_no="2">
      <path style="fill:#FFFFFF;stroke:#000000;stroke-width:0.85;stroke-linecap:round;stroke-linejoin:round;" d="M 391.58,308.94 L 391.58, 317.44 L 371.74, 317.44 L 371.74, 308.94 L 391.58, 308.94" />
      <text transform="matrix(1 0 0 1 376.1543 315.2451)" style="font-family:'Arial'; font-size:6px;">TY5</text>
    </a>
    <a style="cursor:pointer;" ewd:figID="54" ewd:figtype="w2w" ewd:code="TX1" ewd:pin_no="3">
      <path style="fill:#FFFFFF;stroke:#000000;stroke-width:0.85;stroke-linecap:round;stroke-linejoin:round;" d="M 468.11,308.94 L 468.11, 317.44 L 448.27, 317.44 L 448.27, 308.94 L 468.11, 308.94" />
      <text transform="matrix(1 0 0 1 452.6895 315.2451)" style="font-family:'Arial'; font-size:6px;">TX1</text>
    </a>
    <a style="cursor:pointer;" ewd:figID="53" ewd:figtype="w2w" ewd:code="UX1" ewd:pin_no="3">
      <path style="fill:#FFFFFF;stroke:#000000;stroke-width:0.85;stroke-linecap:round;stroke-linejoin:round;" d="M 510.63,308.94 L 510.63, 317.44 L 490.79, 317.44 L 490.79, 308.94 L 510.63, 308.94" />
      <text transform="matrix(1 0 0 1 494.873 315.2451)" style="font-family:'Arial'; font-size:6px;">UX1</text>
    </a>
    <a style="cursor:pointer;" ewd:figID="52" ewd:figtype="w2w" ewd:code="Za4" ewd:pin_no="2">
      <path style="fill:#FFFFFF;stroke:#000000;stroke-width:0.85;stroke-linecap:round;stroke-linejoin:round;" d="M 655.19,428 L 655.19, 436.5 L 635.35, 436.5 L 635.35, 428 L 655.19, 428" />
      <text transform="matrix(1 0 0 1 640.1011 434.3096)" style="font-family:'Arial'; font-size:6px;" ewd:textID="42">Za4</text>
    </a>
    <a style="cursor:pointer;" ewd:figID="51" ewd:figtype="w2w" ewd:code="TU5" ewd:pin_no="13">
      <path style="fill:#FFFFFF;stroke:#000000;stroke-width:0.85;stroke-linecap:round;stroke-linejoin:round;" d="M 655.19,317.45 L 655.19, 325.95 L 635.35, 325.95 L 635.35, 317.45 L 655.19, 317.45" />
      <text transform="matrix(1 0 0 1 639.603 323.7588)" style="font-family:'Arial'; font-size:6px;">TU5</text>
    </a>
    <a style="cursor:pointer;" ewd:figID="50" ewd:figtype="w2w" ewd:code="TY5" ewd:pin_no="15">
      <path style="fill:#FFFFFF;stroke:#000000;stroke-width:0.85;stroke-linecap:round;stroke-linejoin:round;" d="M 204.49,351.46 L 204.49, 359.96 L 184.65, 359.96 L 184.65, 351.46 L 204.49, 351.46" />
      <text transform="matrix(1 0 0 1 189.0635 357.7637)" style="font-family:'Arial'; font-size:6px;">TY5</text>
    </a>
    <a style="cursor:pointer;" ewd:figID="49" ewd:figtype="w2w" ewd:code="TY5" ewd:pin_no="4">
      <path style="fill:#FFFFFF;stroke:#000000;stroke-width:0.85;stroke-linecap:round;stroke-linejoin:round;" d="M 93.94,351.46 L 93.94, 359.96 L 74.09, 359.96 L 74.09, 351.46 L 93.94, 351.46" />
      <text transform="matrix(1 0 0 1 78.5127 357.7637)" style="font-family:'Arial'; font-size:6px;">TY5</text>
    </a>
  </g>
</svg>