﻿<?xml version="1.0" encoding="utf-8"?>
<!-- Generator: Adobe Illustrator 10.0, SVG Export Plug-In . SVG Version: 3.0.0 Build 77)  -->
<!DOCTYPE svg PUBLIC "-//W3C//DTD SVG 1.0//EN" "http://www.w3.org/TR/2001/REC-SVG-20010904/DTD/svg10.dtd"[
   <!ENTITY ns_flows "http://ns.adobe.com/Flows/1.0/">
   <!ENTITY ns_svg "http://www.w3.org/2000/svg">
   <!ENTITY ns_xlink "http://www.w3.org/1999/xlink">
   <!ENTITY st0 "font-size:7px;font-family:'MS-PGothic';adobe-font-script:japanese;">
   <!ENTITY st1 "font-size:6px;font-family:'ArialMT';">
   <!ENTITY st2 "fill:#FFFFFF;stroke:#000000; stroke-width:1.41;stroke-linecap:round;stroke-linejoin:round;">
   <!ENTITY st3 "fill:#FFFFCC;stroke:#FFFFCC; stroke-width:0.1;stroke-linecap:round;stroke-linejoin:round;">
   <!ENTITY st4 "fill:#CCCCCC;stroke:#CCCCCC; stroke-width:0.1;stroke-linecap:round;stroke-linejoin:round;">
   <!ENTITY st5 "fill:#CCECF4;stroke:#000000; stroke-width:1.133;stroke-linecap:round;stroke-linejoin:round;">
   <!ENTITY st6 "fill:none;stroke-linecap:butt; stroke-linejoin:round;">
   <!ENTITY st7 "fill:none;stroke:#000000;stroke-linecap:round;stroke-linejoin:round;">
   <!ENTITY st8 "enable-background:new;">
   <!ENTITY st9 "fill:#000000;stroke:#000000; stroke-linecap:round;stroke-linejoin:round;">
   <!ENTITY st10 "font-size:9px;font-family:'ArialMT';">
   <!ENTITY st11 "font-size:9px;font-family:'Svg Symbol';">
   <!ENTITY st12 "font-size:6px;font-family:'Svg Symbol';">
   <!ENTITY st13 "fill:none;stroke:#ff0000;stroke-linecap:round;stroke-linejoin:round;">
   <!ENTITY st14 "fill:#FFFF00;stroke:#FFFF00; stroke-width:0.1;stroke-linecap:round;stroke-linejoin:round;">
   <!ENTITY st15 "font-size:6px;font-family:'MS-PGothic';adobe-font-script:japanese;">
   <!ENTITY st16 "1.00 0.00 0.00 1.00">
   <!ENTITY st17 "0.00 -1.00 1.00 0.00">
   <!ENTITY st18 "font-size:6px;font-family:'Arial';">
   <!ENTITY st19 "font-size:9px;font-family:'Arial';">
   <!ENTITY st20 "font-size:6px;font-family:'MS-PGothic','MS PGothic';adobe-font-script:japanese;">
   <!ENTITY st21 "font-size:7px;font-family:'MS-PGothic','MS PGothic';adobe-font-script:japanese;">
   <!ATTLIST svg
       xmlns:ewd CDATA #FIXED "http://shcl.co.jp/ewd"
       xmlns:a CDATA #FIXED "http://ns.adobe.com/AdobeSVGViewerExtensions/3.0/"
       ewd:ver CDATA #IMPLIED >
   <!ATTLIST a
       ewd:lineID CDATA #IMPLIED
       ewd:groupID CDATA #IMPLIED
       ewd:figtype CDATA #IMPLIED
       ewd:code CDATA #IMPLIED
       ewd:figID CDATA #IMPLIED
       ewd:pinNo CDATA #IMPLIED
       ewd:comment CDATA #IMPLIED >
   <!ATTLIST g
       ewd:lineID CDATA #IMPLIED
       ewd:groupID CDATA #IMPLIED
       ewd:figtype CDATA #IMPLIED
       ewd:code CDATA #IMPLIED
       ewd:figID CDATA #IMPLIED
       ewd:pinNo CDATA #IMPLIED
       ewd:comment CDATA #IMPLIED >
   <!ATTLIST text
       ewd:textID CDATA #IMPLIED >
   <!ATTLIST title
       ewd:textID CDATA #IMPLIED >
]>
<svg xmlns="http://www.w3.org/2000/svg" xmlns:xlink="http://www.w3.org/1999/xlink" width="3156.6" height="721" viewBox="0 0 3156.6 721" xml:space="preserve" xmlns:ewd="http://shcl.co.jp/ewd" ewd:ver="2.0">
  
  <defs>
    <font horiz-adv-x="1229">
      <font-face font-family="Svg Symbol" units-per-em="2048" panose-1="5 5 1 2 1 7 6 2 5 7" ascent="2059" descent="450" alphabetic="0" />
      <missing-glyph d="M 103,0 l 0,1280 1024,0 0,-1280 -1024,0 z m 32,32 l 960,0 0,1216 -960,0 0,-1216 z" />
      <glyph d4p1:unicode="" horiz-adv-x="1573" d="M 1517,0 l -567,0 24,279 q 141,59 207.5,168 66.5,109 66.5,306 0,272 -132.5,417.5 -132.5,145.5 -333.5,145.5 -194,0 -328,-147.5 -134,-147.5 -134,-401.5 0,-200 68.5,-319 68.5,-119 206.5,-169 l 25,-279 -564,0 0,279 35,0 q 3,-61 32,-83 45,-35 137,-35 l 270,0 0,70 q -210,61 -324.5,209 -114.5,148 -114.5,349 0,252 186.5,425 186.5,173 504.5,173 195,0 358.5,-73.5 163.5,-73.5 252,-214.5 88.5,-141 88.5,-310 0,-207 -121.5,-360.5 -121.5,-153.5 -317.5,-197.5 l -8,-70 275,0 q 92,0 128,28 36,28 42,90 l 38,0 0,-279 z" xmlns:d4p1="def-glyph-attr-unicode" />
    </font>
  </defs>
  
<g ewd:figtype="w2w" ewd:code="MB1" ewd:pin_no="1" ewd:figID="77">
      <path style="fill:#FFFFFF;stroke:#FFFFFF;stroke-width:0;stroke-linecap:round;stroke-linejoin:round;" d="M 1829.59,325.07 L 1825.34, 329.32 L 1821.09, 325.07 L 1821.09, 331.62 L 1829.59, 331.62 L 1829.59, 325.07" />
      <path style="fill:#FFFFFF;stroke:#FFFFFF;stroke-width:0;stroke-linecap:round;stroke-linejoin:round;" d="M 1829.59,327.9 L 1825.34, 332.15 L 1821.09, 327.9 L 1821.09, 334.45 L 1829.59, 334.45 L 1829.59, 327.9" />
      <path style="fill:none;stroke:#000000;stroke-width:0.85;" d="M 1829.59,327.37 L 1825.34, 331.62 L 1821.09, 327.37" />
      <path style="fill:none;stroke:#000000;stroke-width:0.85;" d="M 1829.59,330.2 L 1825.34, 334.45 L 1821.09, 330.2" />
      <path style="fill:none;stroke:#000000;stroke-width:0.85;stroke-linecap:round;stroke-linejoin:round;" d="M 1835.26,342.96 L 1835.26, 334.46 L 1815.42, 334.46 L 1815.42, 342.96 L 1835.26, 342.96" />
      <text transform="matrix(1 0 0 1 1810.6665 340.4141)" style="font-family:'Arial'; font-size:6px;">1</text>
    </g><g ewd:figtype="w2w" ewd:code="MB1" ewd:pin_no="5" ewd:figID="78">
      <path style="fill:#FFFFFF;stroke:#FFFFFF;stroke-width:0;stroke-linecap:round;stroke-linejoin:round;" d="M 1880.62,325.07 L 1876.37, 329.32 L 1872.12, 325.07 L 1872.12, 331.62 L 1880.62, 331.62 L 1880.62, 325.07" />
      <path style="fill:#FFFFFF;stroke:#FFFFFF;stroke-width:0;stroke-linecap:round;stroke-linejoin:round;" d="M 1880.62,327.9 L 1876.37, 332.15 L 1872.12, 327.9 L 1872.12, 334.45 L 1880.62, 334.45 L 1880.62, 327.9" />
      <path style="fill:none;stroke:#000000;stroke-width:0.85;" d="M 1880.62,327.37 L 1876.37, 331.62 L 1872.12, 327.37" />
      <path style="fill:none;stroke:#000000;stroke-width:0.85;" d="M 1880.62,330.2 L 1876.37, 334.45 L 1872.12, 330.2" />
      <path style="fill:none;stroke:#000000;stroke-width:0.85;stroke-linecap:round;stroke-linejoin:round;" d="M 1886.29,342.96 L 1886.29, 334.46 L 1866.45, 334.46 L 1866.45, 342.96 L 1886.29, 342.96" />
      <text transform="matrix(1 0 0 1 1861.689 340.4141)" style="font-family:'Arial'; font-size:6px;">5</text>
    </g><g ewd:figtype="conn" ewd:code="M1" ewd:figID="26">
      <path style="fill:none;stroke:#000000;stroke-width:0.85;" d="M 1825.33,385.49 L 1825.33, 445.01" />
      <path style="fill:none;stroke:#008837;stroke-width:5;" d="M 1825.33,385.49 L 1825.33, 445.01" />
      <path style="fill:none;stroke:#000000;stroke-width:0.85;" d="M 1825.33,462.03 L 1825.33, 504.54 L 1838.1, 504.54" />
      <path style="fill:none;stroke:#008837;stroke-width:5;" d="M 1825.33,462.03 L 1825.33, 504.54 L 1838.1, 504.54" />
      <path style="fill:none;stroke:#000000;stroke-width:0.85;" d="M 1863.61,504.55 L 1876.37, 504.55 L 1876.37, 462.04" />
      <path style="fill:none;stroke:#0A50A1;stroke-width:5;" d="M 1863.61,504.55 L 1876.37, 504.55 L 1876.37, 462.04" />
      <path style="fill:none;stroke:#FFFFFF;stroke-width:2.2;" d="M 1863.61,504.55 L 1876.37, 504.55 L 1876.37, 462.04" />
      <path style="fill:none;stroke:#000000;" d="M 1863.61,504.55 L 1876.37, 504.55 L 1876.37, 462.04" />
      <path style="fill:none;stroke:#000000;stroke-width:0.85;" d="M 1876.37,445.01 L 1876.37, 385.49" />
      <path style="fill:none;stroke:#0A50A1;stroke-width:5;" d="M 1876.37,445.01 L 1876.37, 385.49" />
      <path style="fill:none;stroke:#FFFFFF;stroke-width:2.2;" d="M 1876.37,445.01 L 1876.37, 385.49" />
      <path style="fill:none;stroke:#000000;" d="M 1876.37,445.01 L 1876.37, 385.49" />
      <path style="fill:none;stroke:#000000;stroke-width:1.417;stroke-linecap:round;stroke-linejoin:round;" d="M 1838.1,508.79 L 1838.1, 500.29 L 1843.48, 500.29 C 1844.95 497.76 1847.71 496.04 1850.85 496.04 C 1853.99 496.04 1856.75 497.76 1858.22 500.29 L 1863.61, 500.29 L 1863.61, 508.79 L 1858.22, 508.79 C 1856.75 511.32 1853.99 513.04 1850.85 513.04 C 1847.71 513.04 1844.95 511.32 1843.48 508.79 L 1838.1, 508.79" />
      <path style="fill:none;stroke:#000000;stroke-width:1.417;" d="M 1858.23,500.28 C 1858.97 501.54 1859.36 502.97 1859.36 504.53 C 1859.36 506.09 1858.96 507.53 1858.23 508.78" />
      <path style="fill:none;stroke:#000000;stroke-width:1.417;" d="M 1843.49,500.28 C 1842.75 501.54 1842.36 502.97 1842.36 504.53 C 1842.36 506.09 1842.76 507.53 1843.49 508.78" />
      <path style="fill:none;stroke:#000000;stroke-width:1.417;stroke-linecap:round;stroke-linejoin:round;" d="M 1884.87,462.01 L 1884.87, 445 L 1816.84, 445 L 1816.84, 462.01 L 1884.87, 462.01" />
      <path style="fill:none;stroke:#000000;stroke-width:1.417;stroke-linecap:round;stroke-linejoin:round;" d="M 1918.89,555.56 L 1918.89, 385.48 L 1799.83, 385.48 L 1799.83, 555.56 L 1918.89, 555.56" />
      <text transform="matrix(0 -1 1 0 1892.9429 484.709)" style="font-family:'Arial'; font-size:6px;" ewd:textID="32">Slide Door Control Junction <tspan x="0" dy="1em">(Female RH)</tspan></text>
      <text transform="matrix(0 -1 1 0 1821.4233 413.3682)" style="font-family:'Arial'; font-size:6px;">G</text>
      <text transform="matrix(0 -1 1 0 1872.4468 415.7031)" style="font-family:'Arial'; font-size:6px;">L-B</text>
      <text transform="matrix(0 -1 1 0 1821.4233 481.3994)" style="font-family:'Arial'; font-size:6px;">G</text>
      <text transform="matrix(0 -1 1 0 1872.4468 483.7344)" style="font-family:'Arial'; font-size:6px;">L-B</text>
      <text transform="matrix(1 0 0 1 1813.9907 521.168)" style="font-family:'Arial'; font-size:6px;" ewd:textID="27">Door Lock Motor Assembly<tspan x="0" dy="1em">(Slide Door RH)</tspan></text>
      <text transform="matrix(1 0 0 1 1848.3569 506.2402)" style="font-family:'Arial'; font-size:6px;">M</text>
      <text transform="matrix(1 0 0 1 1868.0688 381.5166)" style="font-family:'Arial'; font-size:6px;">3</text>
      <text transform="matrix(1 0 0 1 1817.0464 381.5166)" style="font-family:'Arial'; font-size:6px;">2</text>
      <g ewd:figtype="title">
        <text transform="matrix(1 0 0 1 1799.8149 563.6426)" style="font-family:'Arial'; font-size:6px;">M1</text>
        <text transform="matrix(1 0 0 1 1799.8149 570.7295)" style="font-family:'Arial'; font-size:6px;" ewd:textID="34">Slide Door Control Junction (Male RH)</text>
      </g>
    </g><g ewd:figtype="w2w" ewd:code="TU6" ewd:pin_no="1" ewd:figID="60">
      <path style="fill:#FFFFFF;stroke:#FFFFFF;stroke-width:0;stroke-linecap:round;stroke-linejoin:round;" d="M 2153.77,241.8 L 2149.52, 237.55 L 2145.27, 241.8 L 2145.27, 235.25 L 2153.77, 235.25 L 2153.77, 241.8" />
      <path style="fill:#FFFFFF;stroke:#FFFFFF;stroke-width:0;stroke-linecap:round;stroke-linejoin:round;" d="M 2153.77,238.96 L 2149.52, 234.71 L 2145.27, 238.96 L 2145.27, 232.41 L 2153.77, 232.41 L 2153.77, 238.96" />
      <path style="fill:none;stroke:#000000;stroke-width:0.85;" d="M 2153.77,239.5 L 2149.52, 235.25 L 2145.27, 239.5" />
      <path style="fill:none;stroke:#000000;stroke-width:0.85;" d="M 2153.77,236.66 L 2149.52, 232.41 L 2145.27, 236.66" />
      <path style="fill:none;stroke:#000000;stroke-width:0.85;stroke-linecap:round;stroke-linejoin:round;" d="M 2159.44,223.9 L 2159.44, 232.4 L 2139.6, 232.4 L 2139.6, 223.9 L 2159.44, 223.9" />
      <text transform="matrix(1 0 0 1 2134.8472 229.8628)" style="font-family:'Arial'; font-size:6px;">1</text>
    </g><g ewd:figtype="w2w" ewd:code="Za4" ewd:pin_no="1" ewd:figID="62">
      <path style="fill:#FFFFFF;stroke:#FFFFFF;stroke-width:0;stroke-linecap:round;stroke-linejoin:round;" d="M 2204.75,386.38 L 2200.5, 382.13 L 2196.25, 386.38 L 2196.25, 379.83 L 2204.75, 379.83 L 2204.75, 386.38" />
      <path style="fill:#FFFFFF;stroke:#FFFFFF;stroke-width:0;stroke-linecap:round;stroke-linejoin:round;" d="M 2204.75,383.54 L 2200.5, 379.29 L 2196.25, 383.54 L 2196.25, 376.99 L 2204.75, 376.99 L 2204.75, 383.54" />
      <path style="fill:none;stroke:#000000;stroke-width:0.85;" d="M 2204.75,384.08 L 2200.5, 379.83 L 2196.25, 384.08" />
      <path style="fill:none;stroke:#000000;stroke-width:0.85;" d="M 2204.75,381.24 L 2200.5, 376.99 L 2196.25, 381.24" />
      <path style="fill:none;stroke:#000000;stroke-width:0.85;stroke-linecap:round;stroke-linejoin:round;" d="M 2210.42,368.49 L 2210.42, 376.99 L 2190.58, 376.99 L 2190.58, 368.49 L 2210.42, 368.49" />
      <text transform="matrix(1 0 0 1 2185.8198 374.4443)" style="font-family:'Arial'; font-size:6px;">1</text>
    </g><g ewd:figtype="w2w" ewd:code="Za4" ewd:pin_no="7" ewd:figID="63">
      <path style="fill:#FFFFFF;stroke:#FFFFFF;stroke-width:0;stroke-linecap:round;stroke-linejoin:round;" d="M 2255.77,386.38 L 2251.52, 382.13 L 2247.27, 386.38 L 2247.27, 379.83 L 2255.77, 379.83 L 2255.77, 386.38" />
      <path style="fill:#FFFFFF;stroke:#FFFFFF;stroke-width:0;stroke-linecap:round;stroke-linejoin:round;" d="M 2255.77,383.54 L 2251.52, 379.29 L 2247.27, 383.54 L 2247.27, 376.99 L 2255.77, 376.99 L 2255.77, 383.54" />
      <path style="fill:none;stroke:#000000;stroke-width:0.85;" d="M 2255.77,384.08 L 2251.52, 379.83 L 2247.27, 384.08" />
      <path style="fill:none;stroke:#000000;stroke-width:0.85;" d="M 2255.77,381.24 L 2251.52, 376.99 L 2247.27, 381.24" />
      <path style="fill:none;stroke:#000000;stroke-width:0.85;stroke-linecap:round;stroke-linejoin:round;" d="M 2261.44,368.49 L 2261.44, 376.99 L 2241.6, 376.99 L 2241.6, 368.49 L 2261.44, 368.49" />
      <text transform="matrix(1 0 0 1 2236.8433 374.4443)" style="font-family:'Arial'; font-size:6px;">7</text>
    </g><g ewd:figtype="w2w" ewd:code="ZT1" ewd:pin_no="1" ewd:figID="64">
      <path style="fill:#FFFFFF;stroke:#FFFFFF;stroke-width:0;stroke-linecap:round;stroke-linejoin:round;" d="M 2204.75,291.07 L 2200.5, 295.32 L 2196.25, 291.07 L 2196.25, 297.62 L 2204.76, 297.62 L 2204.76, 291.07" />
      <path style="fill:#FFFFFF;stroke:#FFFFFF;stroke-width:0;stroke-linecap:round;stroke-linejoin:round;" d="M 2204.75,293.9 L 2200.5, 298.15 L 2196.25, 293.9 L 2196.25, 300.45 L 2204.75, 300.45 L 2204.75, 293.9" />
      <path style="fill:none;stroke:#000000;stroke-width:0.85;" d="M 2204.75,293.37 L 2200.5, 297.62 L 2196.25, 293.37" />
      <path style="fill:none;stroke:#000000;stroke-width:0.85;" d="M 2204.75,296.2 L 2200.5, 300.45 L 2196.25, 296.2" />
      <path style="fill:none;stroke:#000000;stroke-width:0.85;stroke-linecap:round;stroke-linejoin:round;" d="M 2210.42,308.96 L 2210.42, 300.46 L 2190.58, 300.46 L 2190.58, 308.96 L 2210.42, 308.96" />
      <text transform="matrix(1 0 0 1 2185.8198 306.4141)" style="font-family:'Arial'; font-size:6px;">1</text>
    </g><g ewd:figtype="w2w" ewd:code="ZU2" ewd:pin_no="1" ewd:figID="89">
      <path style="fill:#FFFFFF;stroke:#FFFFFF;stroke-width:0;stroke-linecap:round;stroke-linejoin:round;" d="M 2153.73,291.07 L 2149.48, 295.32 L 2145.23, 291.07 L 2145.23, 297.62 L 2153.74, 297.62 L 2153.74, 291.07" />
      <path style="fill:#FFFFFF;stroke:#FFFFFF;stroke-width:0;stroke-linecap:round;stroke-linejoin:round;" d="M 2153.72,293.9 L 2149.47, 298.15 L 2145.22, 293.9 L 2145.22, 300.45 L 2153.72, 300.45 L 2153.72, 293.9" />
      <path style="fill:none;stroke:#000000;stroke-width:0.85;" d="M 2153.73,293.37 L 2149.48, 297.62 L 2145.23, 293.37" />
      <path style="fill:none;stroke:#000000;stroke-width:0.85;" d="M 2153.72,296.2 L 2149.47, 300.45 L 2145.22, 296.2" />
      <path style="fill:none;stroke:#000000;stroke-width:0.85;stroke-linecap:round;stroke-linejoin:round;" d="M 2159.39,308.96 L 2159.39, 300.46 L 2139.55, 300.46 L 2139.55, 308.96 L 2159.39, 308.96" />
      <text transform="matrix(1 0 0 1 2134.7964 306.4141)" style="font-family:'Arial'; font-size:6px;">1</text>
    </g><g ewd:figtype="w2w" ewd:code="ZT1" ewd:pin_no="7" ewd:figID="90">
      <path style="fill:#FFFFFF;stroke:#FFFFFF;stroke-width:0;stroke-linecap:round;stroke-linejoin:round;" d="M 2255.77,291.07 L 2251.52, 295.32 L 2247.27, 291.07 L 2247.27, 297.62 L 2255.78, 297.62 L 2255.78, 291.07" />
      <path style="fill:#FFFFFF;stroke:#FFFFFF;stroke-width:0;stroke-linecap:round;stroke-linejoin:round;" d="M 2255.77,293.9 L 2251.52, 298.15 L 2247.27, 293.9 L 2247.27, 300.45 L 2255.77, 300.45 L 2255.77, 293.9" />
      <path style="fill:none;stroke:#000000;stroke-width:0.85;" d="M 2255.77,293.37 L 2251.52, 297.62 L 2247.27, 293.37" />
      <path style="fill:none;stroke:#000000;stroke-width:0.85;" d="M 2255.77,296.2 L 2251.52, 300.45 L 2247.27, 296.2" />
      <path style="fill:none;stroke:#000000;stroke-width:0.85;stroke-linecap:round;stroke-linejoin:round;" d="M 2261.44,308.96 L 2261.44, 300.46 L 2241.6, 300.46 L 2241.6, 308.96 L 2261.44, 308.96" />
      <text transform="matrix(1 0 0 1 2236.8433 306.4141)" style="font-family:'Arial'; font-size:6px;">7</text>
    </g><g ewd:figtype="conn" ewd:code="a3" ewd:figID="34">
      <path style="fill:none;stroke:#000000;stroke-width:0.85;" d="M 2251.53,445.16 L 2251.53, 453.66 L 2253.98, 455.08 L 2249.07, 457.91 L 2253.98, 460.74 L 2249.07, 463.58 L 2253.98, 466.41 L 2249.07, 469.24 L 2251.53, 470.66 L 2251.53, 479.03" />
      <path style="fill:none;stroke:#000000;stroke-width:1.42;stroke-linecap:round;stroke-linejoin:round;" d="M 2260.04,453.67 C 2260.04 448.97 2256.23 445.17 2251.54 445.17 C 2246.84 445.17 2243.04 448.98 2243.04 453.67 L 2243.04, 470.68 C 2243.04 475.38 2246.85 479.18 2251.54 479.18 C 2256.24 479.18 2260.04 475.37 2260.04 470.68 L 2260.04, 453.67" />
      <path style="fill:none;stroke:#000000;stroke-width:1.35;stroke-linecap:round;stroke-linejoin:round;" d="M 2204.75,470.53 L 2196.25, 470.53 L 2196.25, 465.14 C 2193.72 463.67 2192 460.91 2192 457.77 C 2192 454.63 2193.72 451.87 2196.25 450.4 L 2196.25, 445.01 L 2204.75, 445.01 L 2204.75, 450.4 C 2207.28 451.87 2209 454.63 2209 457.77 C 2209 460.91 2207.28 463.67 2204.75 465.14 L 2204.75, 470.53" />
      <path style="fill:none;stroke:#000000;stroke-width:1.417;" d="M 2196.25,450.41 C 2197.51 449.67 2198.94 449.28 2200.5 449.28 C 2202.06 449.28 2203.5 449.68 2204.75 450.41" />
      <path style="fill:none;stroke:#000000;stroke-width:1.417;" d="M 2196.25,465.15 C 2197.51 465.89 2198.94 466.28 2200.5 466.28 C 2202.06 466.28 2203.5 465.88 2204.75 465.15" />
      <path style="fill:none;stroke:#000000;stroke-width:1.417;stroke-linecap:round;stroke-linejoin:round;" d="M 2268.53,496.04 L 2268.53, 428.01 L 2183.49, 428.01 L 2183.49, 496.04 L 2268.53, 496.04" />
      <path style="fill:none;stroke:#000000;stroke-width:0.85;" d="M 2200.52,428.01 L 2200.52, 445.02" />
      <path style="fill:none;stroke:#000000;stroke-width:0.85;" d="M 2200.52,470.54 L 2200.52, 487.52 L 2251.56, 487.52 L 2251.56, 479.04" />
      <path style="fill:none;stroke:#000000;stroke-width:0.85;" d="M 2251.56,445.02 L 2251.56, 428.01" />
      <text transform="matrix(1 0 0 1 2192.1948 424.0518)" style="font-family:'Arial'; font-size:6px;">2</text>
      <text transform="matrix(1 0 0 1 2243.2183 424.0518)" style="font-family:'Arial'; font-size:6px;">1</text>
      <text transform="matrix(1 0 0 1 2197.9985 459.4844)" style="font-family:'Arial'; font-size:6px;">M</text>
      <g ewd:figtype="title">
        <text transform="matrix(1 0 0 1 2174.9868 504.1299)" style="font-family:'Arial'; font-size:6px;">a3</text>
        <text transform="matrix(1 0 0 1 2174.9868 511.2168)" style="font-family:'Arial'; font-size:6px;" ewd:textID="13">Back Door Lock Assembly</text>
      </g>
    </g><g ewd:figtype="comment" ewd:code="1" ewd:figID="1001">
      <text transform="matrix(1 0 0 1 2129.6401 672.8057)" style="font-family:'Arial'; font-size:6px;" ewd:textID="1">*1 : Short Wheelbase Type</text>
    </g><g ewd:figtype="comment" ewd:code="2" ewd:figID="1000">
      <text transform="matrix(1 0 0 1 2129.6401 681.3096)" style="font-family:'Arial'; font-size:6px;" ewd:textID="6">*2 : Long Wheelbase Type</text>
    </g><text transform="matrix(0 -1 1 0 1821.4067 310.6128)" style="font-family:'Arial'; font-size:6px;">L</text><text transform="matrix(0 -1 1 0 1872.4438 311.1108)" style="font-family:'Arial'; font-size:6px;">R</text><text transform="matrix(0 -1 1 0 1821.3774 361.6357)" style="font-family:'Arial'; font-size:6px;">L</text><text transform="matrix(0 -1 1 0 1872.3999 362.1338)" style="font-family:'Arial'; font-size:6px;">R</text><text transform="matrix(0 -1 1 0 2196.5278 404.1699)" style="font-family:'Arial'; font-size:6px;">L</text><text transform="matrix(0 -1 1 0 2247.5513 404.502)" style="font-family:'Arial'; font-size:6px;">P</text><text transform="matrix(0 -1 1 0 2196.5278 336.1387)" style="font-family:'Arial'; font-size:6px;">L</text><text transform="matrix(0 -1 1 0 2196.5278 200.0762)" style="font-family:'Arial'; font-size:6px;">L</text><text transform="matrix(0 -1 1 0 2247.5513 200.5742)" style="font-family:'Arial'; font-size:6px;">R</text><text transform="matrix(0 -1 1 0 2247.5513 336.6367)" style="font-family:'Arial'; font-size:6px;">R</text><text transform="matrix(0 -1 1 0 2145.5122 336.1401)" style="font-family:'Arial'; font-size:6px;">L</text><text transform="matrix(0 -1 1 0 2145.5122 268.1089)" style="font-family:'Arial'; font-size:6px;">L</text><text transform="matrix(0 -1 1 0 2145.5122 200.0776)" style="font-family:'Arial'; font-size:6px;">L</text><text transform="matrix(0 -1 1 0 2207.8677 339.3042)" style="font-family:'Arial'; font-size:6px;">(*1)</text><text transform="matrix(0 -1 1 0 2207.8677 203.2412)" style="font-family:'Arial'; font-size:6px;">(*1)</text><text transform="matrix(0 -1 1 0 2156.8501 203.2324)" style="font-family:'Arial'; font-size:6px;">(*2)</text><text transform="matrix(0 -1 1 0 2156.8501 271.2642)" style="font-family:'Arial'; font-size:6px;">(*2)</text><text transform="matrix(0 -1 1 0 2156.8501 339.2954)" style="font-family:'Arial'; font-size:6px;">(*2)</text><text transform="matrix(0 -1 1 0 1883.7397 364.8013)" style="font-family:'Arial'; font-size:6px;">(*5)</text><text transform="matrix(0 -1 1 0 1883.7983 313.7783)" style="font-family:'Arial'; font-size:6px;">(*5)</text><text transform="matrix(0 -1 1 0 1832.7612 313.7783)" style="font-family:'Arial'; font-size:6px;">(*5)</text><text transform="matrix(0 -1 1 0 1832.7173 364.8013)" style="font-family:'Arial'; font-size:6px;">(*5)</text><text transform="matrix(0 -1 1 0 2196.5337 336.1299)" style="font-family:'Arial'; font-size:6px;">L</text><text transform="matrix(0 -1 1 0 2247.5571 336.6279)" style="font-family:'Arial'; font-size:6px;">R</text></svg>