﻿<?xml version="1.0" encoding="utf-8"?>
<!-- Generator: Adobe Illustrator 10.0, SVG Export Plug-In . SVG Version: 3.0.0 Build 77)  -->
<!DOCTYPE svg PUBLIC "-//W3C//DTD SVG 1.0//EN" "http://www.w3.org/TR/2001/REC-SVG-20010904/DTD/svg10.dtd"[
   <!ENTITY ns_flows "http://ns.adobe.com/Flows/1.0/">
   <!ENTITY ns_svg "http://www.w3.org/2000/svg">
   <!ENTITY ns_xlink "http://www.w3.org/1999/xlink">
   <!ENTITY st0 "font-size:7px;font-family:'MS-PGothic';adobe-font-script:japanese;">
   <!ENTITY st1 "font-size:6px;font-family:'ArialMT';">
   <!ENTITY st2 "fill:#FFFFFF;stroke:#000000; stroke-width:1.41;stroke-linecap:round;stroke-linejoin:round;">
   <!ENTITY st3 "fill:#FFFFCC;stroke:#FFFFCC; stroke-width:0.1;stroke-linecap:round;stroke-linejoin:round;">
   <!ENTITY st4 "fill:#CCCCCC;stroke:#CCCCCC; stroke-width:0.1;stroke-linecap:round;stroke-linejoin:round;">
   <!ENTITY st5 "fill:#CCECF4;stroke:#000000; stroke-width:1.133;stroke-linecap:round;stroke-linejoin:round;">
   <!ENTITY st6 "fill:none;stroke-linecap:butt; stroke-linejoin:round;">
   <!ENTITY st7 "fill:none;stroke:#000000;stroke-linecap:round;stroke-linejoin:round;">
   <!ENTITY st8 "enable-background:new;">
   <!ENTITY st9 "fill:#000000;stroke:#000000; stroke-linecap:round;stroke-linejoin:round;">
   <!ENTITY st10 "font-size:9px;font-family:'ArialMT';">
   <!ENTITY st11 "font-size:9px;font-family:'Svg Symbol';">
   <!ENTITY st12 "font-size:6px;font-family:'Svg Symbol';">
   <!ENTITY st13 "fill:none;stroke:#ff0000;stroke-linecap:round;stroke-linejoin:round;">
   <!ENTITY st14 "fill:#FFFF00;stroke:#FFFF00; stroke-width:0.1;stroke-linecap:round;stroke-linejoin:round;">
   <!ENTITY st15 "font-size:6px;font-family:'MS-PGothic';adobe-font-script:japanese;">
   <!ENTITY st16 "1.00 0.00 0.00 1.00">
   <!ENTITY st17 "0.00 -1.00 1.00 0.00">
   <!ENTITY st18 "font-size:6px;font-family:'Arial';">
   <!ENTITY st19 "font-size:9px;font-family:'Arial';">
   <!ENTITY st20 "font-size:6px;font-family:'MS-PGothic','MS PGothic';adobe-font-script:japanese;">
   <!ENTITY st21 "font-size:7px;font-family:'MS-PGothic','MS PGothic';adobe-font-script:japanese;">
   <!ATTLIST svg
       xmlns:ewd CDATA #FIXED "http://shcl.co.jp/ewd"
       xmlns:a CDATA #FIXED "http://ns.adobe.com/AdobeSVGViewerExtensions/3.0/"
       ewd:ver CDATA #IMPLIED >
   <!ATTLIST a
       ewd:lineID CDATA #IMPLIED
       ewd:groupID CDATA #IMPLIED
       ewd:figtype CDATA #IMPLIED
       ewd:code CDATA #IMPLIED
       ewd:figID CDATA #IMPLIED
       ewd:pinNo CDATA #IMPLIED
       ewd:comment CDATA #IMPLIED >
   <!ATTLIST g
       ewd:lineID CDATA #IMPLIED
       ewd:groupID CDATA #IMPLIED
       ewd:figtype CDATA #IMPLIED
       ewd:code CDATA #IMPLIED
       ewd:figID CDATA #IMPLIED
       ewd:pinNo CDATA #IMPLIED
       ewd:comment CDATA #IMPLIED >
   <!ATTLIST text
       ewd:textID CDATA #IMPLIED >
   <!ATTLIST title
       ewd:textID CDATA #IMPLIED >
]>
<svg xmlns="http://www.w3.org/2000/svg" xmlns:xlink="http://www.w3.org/1999/xlink" width="3156.6" height="721" viewBox="0 0 3156.6 721" xml:space="preserve" xmlns:ewd="http://shcl.co.jp/ewd" ewd:ver="2.0">
  
  <defs>
    <font horiz-adv-x="1229">
      <font-face font-family="Svg Symbol" units-per-em="2048" panose-1="5 5 1 2 1 7 6 2 5 7" ascent="2059" descent="450" alphabetic="0" />
      <missing-glyph d="M 103,0 l 0,1280 1024,0 0,-1280 -1024,0 z m 32,32 l 960,0 0,1216 -960,0 0,-1216 z" />
      <glyph d4p1:unicode="" horiz-adv-x="1573" d="M 1517,0 l -567,0 24,279 q 141,59 207.5,168 66.5,109 66.5,306 0,272 -132.5,417.5 -132.5,145.5 -333.5,145.5 -194,0 -328,-147.5 -134,-147.5 -134,-401.5 0,-200 68.5,-319 68.5,-119 206.5,-169 l 25,-279 -564,0 0,279 35,0 q 3,-61 32,-83 45,-35 137,-35 l 270,0 0,70 q -210,61 -324.5,209 -114.5,148 -114.5,349 0,252 186.5,425 186.5,173 504.5,173 195,0 358.5,-73.5 163.5,-73.5 252,-214.5 88.5,-141 88.5,-310 0,-207 -121.5,-360.5 -121.5,-153.5 -317.5,-197.5 l -8,-70 275,0 q 92,0 128,28 36,28 42,90 l 38,0 0,-279 z" xmlns:d4p1="def-glyph-attr-unicode" />
    </font>
  </defs>
  
<g ewd:figtype="jb" ewd:code="13" ewd:figID="12">
      <path style="fill:none;stroke:#000000;stroke-width:0.85;" d="M 781.34,87.84 L 781.34, 110.52" />
      <path d="M 781.34,110.51 L 784.17, 107.68 L 784.17, 104.85 L 781.34, 107.68 L 778.51, 104.85 L 778.51, 107.68 L 781.34, 110.51" style="stroke-linecap:round;stroke-linejoin:round;" />
      <path style="fill:none;stroke:#000000;stroke-width:0.85;stroke-linecap:round;stroke-linejoin:round;" d="M 785.59,121.85 C 788.72 121.85 791.26 119.31 791.26 116.18 C 791.26 113.05 788.72 110.51 785.59 110.51 L 777.09, 110.51 C 773.96 110.51 771.42 113.05 771.42 116.18 C 771.42 119.31 773.96 121.85 777.09 121.85 L 785.59, 121.85" />
      <text transform="matrix(1 0 0 1 769.7061 95.2129)" style="font-family:'Arial'; font-size:6px;">11</text>
      <text transform="matrix(1 0 0 1 775.8364 117.8901)" style="font-family:'Arial'; font-size:6px;">13H</text>
      <text transform="matrix(1 0 0 1 763.3281 117.8901)" style="font-family:'Arial'; font-size:6px;">13</text>
    </g><g ewd:figtype="jb" ewd:code="6" ewd:figID="11">
      <path d="M 782.76,215.4 C 782.76 216.18 782.13 216.82 781.34 216.82 C 780.56 216.82 779.92 216.19 779.92 215.4 C 779.919965820313 214.609987792969 780.55 213.98 781.34 213.98 C 782.12 213.98 782.76 214.61 782.76 215.4" style="stroke-linecap:round;stroke-linejoin:round;" />
      <path style="fill:none;stroke:#000000;stroke-width:0.85;" d="M 866.38,229.57 L 866.38, 215.4 L 781.34, 215.4" />
      <path style="fill:none;stroke:#000000;stroke-width:0.85;" d="M 781.34,201.22 L 781.34, 229.57" />
      <path d="M 866.38,229.57 L 869.21, 226.74 L 869.21, 223.91 L 866.38, 226.74 L 863.55, 223.91 L 863.55, 226.74 L 866.38, 229.57" style="stroke-linecap:round;stroke-linejoin:round;" />
      <path style="fill:none;stroke:#000000;stroke-width:0.85;stroke-linecap:round;stroke-linejoin:round;" d="M 870.63,240.91 C 873.76 240.91 876.3 238.37 876.3 235.24 C 876.3 232.11 873.76 229.57 870.63 229.57 L 862.13, 229.57 C 859 229.57 856.46 232.11 856.46 235.24 C 856.46 238.37 859 240.91 862.13 240.91 L 870.63, 240.91" />
      <path d="M 781.34,229.57 L 784.17, 226.74 L 784.17, 223.91 L 781.34, 226.74 L 778.51, 223.91 L 778.51, 226.74 L 781.34, 229.57" style="stroke-linecap:round;stroke-linejoin:round;" />
      <path style="fill:none;stroke:#000000;stroke-width:0.85;stroke-linecap:round;stroke-linejoin:round;" d="M 785.59,240.91 C 788.72 240.91 791.26 238.37 791.26 235.24 C 791.26 232.11 788.72 229.57 785.59 229.57 L 777.09, 229.57 C 773.96 229.57 771.42 232.11 771.42 235.24 C 771.42 238.37 773.96 240.91 777.09 240.91 L 785.59, 240.91" />
      <path d="M 781.34,201.22 L 784.17, 204.05 L 784.17, 206.88 L 781.34, 204.05 L 778.51, 206.88 L 778.51, 204.05 L 781.34, 201.22" style="stroke-linecap:round;stroke-linejoin:round;" />
      <path style="fill:none;stroke:#000000;stroke-width:0.85;stroke-linecap:round;stroke-linejoin:round;" d="M 785.59,201.22 C 788.72 201.22 791.26 198.68 791.26 195.55 C 791.26 192.42 788.72 189.88 785.59 189.88 L 777.09, 189.88 C 773.96 189.88 771.42 192.42 771.42 195.55 C 771.42 198.68 773.96 201.22 777.09 201.22 L 785.59, 201.22" />
      <text transform="matrix(1 0 0 1 862.7104 236.9458)" style="font-family:'Arial'; font-size:6px;">6B</text>
      <text transform="matrix(1 0 0 1 851.7051 236.9458)" style="font-family:'Arial'; font-size:6px;">2</text>
      <text transform="matrix(1 0 0 1 777.6704 236.9458)" style="font-family:'Arial'; font-size:6px;">6B</text>
      <text transform="matrix(1 0 0 1 766.665 236.9458)" style="font-family:'Arial'; font-size:6px;">3</text>
      <text transform="matrix(1 0 0 1 777.6704 197.2593)" style="font-family:'Arial'; font-size:6px;">6B</text>
      <text transform="matrix(1 0 0 1 766.665 197.2593)" style="font-family:'Arial'; font-size:6px;">1</text>
    </g><g ewd:figtype="jb" ewd:code="6" ewd:figID="10">
      <path style="fill:none;stroke:#000000;stroke-width:0.85;" d="M 781.34,600.9 L 781.34, 629.25" />
      <path d="M 781.34,629.25 L 784.17, 626.41 L 784.17, 623.58 L 781.34, 626.41 L 778.51, 623.58 L 778.51, 626.41 L 781.34, 629.25" style="stroke-linecap:round;stroke-linejoin:round;" />
      <path style="fill:none;stroke:#000000;stroke-width:0.85;stroke-linecap:round;stroke-linejoin:round;" d="M 785.59,640.59 C 788.72 640.59 791.26 638.05 791.26 634.92 C 791.26 631.79 788.72 629.25 785.59 629.25 L 777.09, 629.25 C 773.96 629.25 771.42 631.79 771.42 634.92 C 771.42 638.05 773.96 640.59 777.09 640.59 L 785.59, 640.59" />
      <path d="M 781.34,600.9 L 784.17, 603.7401 L 784.17, 606.5701 L 781.34, 603.7401 L 778.51, 606.5701 L 778.51, 603.7401 L 781.34, 600.9" style="stroke-linecap:round;stroke-linejoin:round;" />
      <path style="fill:none;stroke:#000000;stroke-width:0.85;stroke-linecap:round;stroke-linejoin:round;" d="M 785.59,600.9 C 788.72 600.9 791.26 598.36 791.26 595.23 C 791.26 592.1 788.72 589.56 785.59 589.56 L 777.09, 589.56 C 773.96 589.56 771.42 592.1 771.42 595.23 C 771.42 598.36 773.96 600.9 777.09 600.9 L 785.59, 600.9" />
      <text transform="matrix(1 0 0 1 777.8389 636.627)" style="font-family:'Arial'; font-size:6px;">6F</text>
      <text transform="matrix(1 0 0 1 766.665 636.627)" style="font-family:'Arial'; font-size:6px;">1</text>
      <text transform="matrix(1 0 0 1 777.8389 596.9414)" style="font-family:'Arial'; font-size:6px;">6F</text>
      <text transform="matrix(1 0 0 1 766.665 596.9414)" style="font-family:'Arial'; font-size:6px;">9</text>
    </g><g ewd:figtype="jb" ewd:code="6" ewd:figID="13">
      <path d="M 782.76,470.51 C 782.76 471.29 782.13 471.93 781.34 471.93 C 780.56 471.93 779.92 471.3 779.92 470.51 C 779.919965820313 469.72001953125 780.55 469.09 781.34 469.09 C 782.12 469.09 782.76 469.72 782.76 470.51" style="stroke-linecap:round;stroke-linejoin:round;" />
      <path d="M 867.8,470.51 C 867.8 471.29 867.17 471.93 866.38 471.93 C 865.6 471.93 864.96 471.3 864.96 470.51 C 864.960043945312 469.72001953125 865.59 469.09 866.38 469.09 C 867.16 469.09 867.8 469.72 867.8 470.51" style="stroke-linecap:round;stroke-linejoin:round;" />
      <path style="fill:none;stroke:#000000;stroke-width:0.85;" d="M 866.38,484.68 L 866.38, 456.33" />
      <path style="fill:none;stroke:#000000;stroke-width:0.85;" d="M 781.34,470.51 L 866.38, 470.51" />
      <path style="fill:none;stroke:#000000;stroke-width:0.85;" d="M 781.34,456.33 L 781.34, 484.68" />
      <path d="M 781.34,484.68 L 784.17, 481.84 L 784.17, 479.01 L 781.34, 481.84 L 778.51, 479.01 L 778.51, 481.84 L 781.34, 484.68" style="stroke-linecap:round;stroke-linejoin:round;" />
      <path style="fill:none;stroke:#000000;stroke-width:0.85;stroke-linecap:round;stroke-linejoin:round;" d="M 785.59,496.02 C 788.72 496.02 791.26 493.48 791.26 490.35 C 791.26 487.22 788.72 484.68 785.59 484.68 L 777.09, 484.68 C 773.96 484.68 771.42 487.22 771.42 490.35 C 771.42 493.48 773.96 496.02 777.09 496.02 L 785.59, 496.02" />
      <path d="M 781.34,456.33 L 784.17, 459.17 L 784.17, 462 L 781.34, 459.17 L 778.5, 462 L 778.5, 459.17 L 781.34, 456.33" style="stroke-linecap:round;stroke-linejoin:round;" />
      <path style="fill:none;stroke:#000000;stroke-width:0.85;stroke-linecap:round;stroke-linejoin:round;" d="M 785.59,456.33 C 788.72 456.33 791.26 453.79 791.26 450.66 C 791.26 447.53 788.72 444.99 785.59 444.99 L 777.09, 444.99 C 773.96 444.99 771.42 447.53 771.42 450.66 C 771.42 453.79 773.96 456.33 777.09 456.33 L 785.59, 456.33" />
      <path d="M 866.38,484.68 L 869.21, 481.84 L 869.21, 479.01 L 866.38, 481.84 L 863.55, 479.01 L 863.55, 481.84 L 866.38, 484.68" style="stroke-linecap:round;stroke-linejoin:round;" />
      <path style="fill:none;stroke:#000000;stroke-width:0.85;stroke-linecap:round;stroke-linejoin:round;" d="M 870.63,496.02 C 873.76 496.02 876.3 493.48 876.3 490.35 C 876.3 487.22 873.76 484.68 870.63 484.68 L 862.13, 484.68 C 859 484.68 856.46 487.22 856.46 490.35 C 856.46 493.48 859 496.02 862.13 496.02 L 870.63, 496.02" />
      <path d="M 866.38,456.33 L 869.21, 459.17 L 869.21, 462 L 866.38, 459.17 L 863.55, 462 L 863.55, 459.17 L 866.38, 456.33" style="stroke-linecap:round;stroke-linejoin:round;" />
      <path style="fill:none;stroke:#000000;stroke-width:0.85;stroke-linecap:round;stroke-linejoin:round;" d="M 870.63,456.33 C 873.76 456.33 876.3 453.79 876.3 450.66 C 876.3 447.53 873.76 444.99 870.63 444.99 L 862.13, 444.99 C 859 444.99 856.46 447.53 856.46 450.66 C 856.46 453.79 859 456.33 862.13 456.33 L 870.63, 456.33" />
      <text transform="matrix(1 0 0 1 777.8389 492.0547)" style="font-family:'Arial'; font-size:6px;">6F</text>
      <text transform="matrix(1 0 0 1 763.3281 492.0547)" style="font-family:'Arial'; font-size:6px;">10</text>
      <text transform="matrix(1 0 0 1 777.8389 452.3691)" style="font-family:'Arial'; font-size:6px;">6F</text>
      <text transform="matrix(1 0 0 1 763.3281 452.3691)" style="font-family:'Arial'; font-size:6px;">17</text>
      <text transform="matrix(1 0 0 1 862.8779 492.0547)" style="font-family:'Arial'; font-size:6px;">6F</text>
      <text transform="matrix(1 0 0 1 848.3672 492.0547)" style="font-family:'Arial'; font-size:6px;">19</text>
      <text transform="matrix(1 0 0 1 862.8779 452.3691)" style="font-family:'Arial'; font-size:6px;">6F</text>
      <text transform="matrix(1 0 0 1 848.3672 452.3691)" style="font-family:'Arial'; font-size:6px;">16</text>
    </g><g ewd:figtype="jb" ewd:code="13" ewd:figID="1">
      <path style="fill:none;stroke:#000000;stroke-width:0.85;" d="M 2251.56,144.54 L 2251.56, 104.84 L 1213.09, 104.84" />
      <path style="fill:none;stroke:#000000;stroke-width:0.85;" d="M 2200.52,144.54 L 2200.52, 113.34 L 1162.06, 113.34" />
      <path style="fill:none;stroke:#000000;stroke-width:0.85;" d="M 1663.77,113.35 L 1663.77, 144.53" />
      <path style="fill:none;stroke:#000000;stroke-width:0.85;" d="M 1714.81,144.53 L 1714.81, 104.84" />
      <path style="fill:none;stroke:#000000;stroke-width:0.85;" d="M 1213.09,87.84 L 1213.09, 144.52" />
      <path style="fill:none;stroke:#000000;stroke-width:0.85;" d="M 1162.06,144.51 L 1162.06, 87.84" />
      <path d="M 2251.54,144.54 L 2254.38, 141.71 L 2254.38, 138.88 L 2251.54, 141.71 L 2248.71, 138.88 L 2248.71, 141.71 L 2251.54, 144.54" style="stroke-linecap:round;stroke-linejoin:round;" />
      <path style="fill:none;stroke:#000000;stroke-width:0.85;stroke-linecap:round;stroke-linejoin:round;" d="M 2255.79,155.88 C 2258.92 155.88 2261.46 153.34 2261.46 150.21 C 2261.46 147.08 2258.92 144.54 2255.79 144.54 L 2247.29, 144.54 C 2244.16 144.54 2241.62 147.08 2241.62 150.21 C 2241.62 153.34 2244.16 155.88 2247.29 155.88 L 2255.79, 155.88" />
      <path d="M 2200.52,144.54 L 2203.36, 141.71 L 2203.36, 138.88 L 2200.52, 141.71 L 2197.69, 138.88 L 2197.69, 141.71 L 2200.52, 144.54" style="stroke-linecap:round;stroke-linejoin:round;" />
      <path style="fill:none;stroke:#000000;stroke-width:0.85;stroke-linecap:round;stroke-linejoin:round;" d="M 2204.77,155.88 C 2207.9 155.88 2210.44 153.34 2210.44 150.21 C 2210.44 147.08 2207.9 144.54 2204.77 144.54 L 2196.27, 144.54 C 2193.14 144.54 2190.6 147.08 2190.6 150.21 C 2190.6 153.34 2193.14 155.88 2196.27 155.88 L 2204.77, 155.88" />
      <path d="M 1714.76,144.53 L 1717.59, 141.7 L 1717.59, 138.87 L 1714.76, 141.7 L 1711.93, 138.87 L 1711.93, 141.7 L 1714.76, 144.53" style="stroke-linecap:round;stroke-linejoin:round;" />
      <path style="fill:none;stroke:#000000;stroke-width:0.85;stroke-linecap:round;stroke-linejoin:round;" d="M 1719.01,155.87 C 1722.14 155.87 1724.68 153.33 1724.68 150.2 C 1724.68 147.07 1722.14 144.53 1719.01 144.53 L 1710.51, 144.53 C 1707.38 144.53 1704.84 147.07 1704.84 150.2 C 1704.84 153.33 1707.38 155.87 1710.51 155.87 L 1719.01, 155.87" />
      <path d="M 1663.74,144.53 L 1666.57, 141.7 L 1666.57, 138.87 L 1663.74, 141.7 L 1660.91, 138.87 L 1660.91, 141.7 L 1663.74, 144.53" style="stroke-linecap:round;stroke-linejoin:round;" />
      <path style="fill:none;stroke:#000000;stroke-width:0.85;stroke-linecap:round;stroke-linejoin:round;" d="M 1667.99,155.87 C 1671.12 155.87 1673.66 153.33 1673.66 150.2 C 1673.66 147.07 1671.12 144.53 1667.99 144.53 L 1659.49, 144.53 C 1656.36 144.53 1653.82 147.07 1653.82 150.2 C 1653.82 153.33 1656.36 155.87 1659.49 155.87 L 1667.99, 155.87" />
      <path d="M 1213.09,144.51 L 1215.92, 141.68 L 1215.92, 138.85 L 1213.09, 141.68 L 1210.26, 138.85 L 1210.26, 141.68 L 1213.09, 144.51" style="stroke-linecap:round;stroke-linejoin:round;" />
      <path style="fill:none;stroke:#000000;stroke-width:0.85;stroke-linecap:round;stroke-linejoin:round;" d="M 1217.34,155.85 C 1220.47 155.85 1223.01 153.31 1223.01 150.18 C 1223.01 147.05 1220.47 144.51 1217.34 144.51 L 1208.84, 144.51 C 1205.71 144.51 1203.17 147.05 1203.17 150.18 C 1203.17 153.31 1205.71 155.85 1208.84 155.85 L 1217.34, 155.85" />
      <path d="M 1162.06,144.51 L 1164.89, 141.68 L 1164.89, 138.85 L 1162.06, 141.68 L 1159.23, 138.85 L 1159.23, 141.68 L 1162.06, 144.51" style="stroke-linecap:round;stroke-linejoin:round;" />
      <path style="fill:none;stroke:#000000;stroke-width:0.85;stroke-linecap:round;stroke-linejoin:round;" d="M 1166.31,155.85 C 1169.44 155.85 1171.98 153.31 1171.98 150.18 C 1171.98 147.05 1169.44 144.51 1166.31 144.51 L 1157.81, 144.51 C 1154.68 144.51 1152.14 147.05 1152.14 150.18 C 1152.14 153.31 1154.68 155.85 1157.81 155.85 L 1166.31, 155.85" />
      <path d="M 1716.24,104.83 C 1716.24 105.61 1715.61 106.25 1714.82 106.25 C 1714.04 106.25 1713.4 105.62 1713.4 104.83 C 1713.40004882812 104.040003662109 1714.03 103.41 1714.82 103.41 C 1715.6 103.41 1716.24 104.05 1716.24 104.83" style="stroke-linecap:round;stroke-linejoin:round;" />
      <path d="M 1665.21,113.33 C 1665.21 114.11 1664.58 114.75 1663.79 114.75 C 1663.01 114.75 1662.37 114.12 1662.37 113.33 C 1662.36999023438 112.540003662109 1663 111.91 1663.79 111.91 C 1664.58 111.92 1665.21 112.55 1665.21 113.33" style="stroke-linecap:round;stroke-linejoin:round;" />
      <path d="M 1214.5,104.83 C 1214.5 105.61 1213.87 106.25 1213.08 106.25 C 1212.3 106.25 1211.66 105.62 1211.66 104.83 C 1211.66006835937 104.040003662109 1212.29 103.41 1213.08 103.41 C 1213.87 103.41 1214.5 104.05 1214.5 104.83" style="stroke-linecap:round;stroke-linejoin:round;" />
      <path d="M 1163.48,113.33 C 1163.48 114.11 1162.85 114.75 1162.06 114.75 C 1161.28 114.75 1160.64 114.12 1160.64 113.33 C 1160.64002929687 112.540003662109 1161.27 111.91 1162.06 111.91 C 1162.85 111.92 1163.48 112.55 1163.48 113.33" style="stroke-linecap:round;stroke-linejoin:round;" />
      <text transform="matrix(1 0 0 1 2246.2036 151.9185)" style="font-family:'Arial'; font-size:6px;">13A</text>
      <text transform="matrix(1 0 0 1 2233.5298 151.9185)" style="font-family:'Arial'; font-size:6px;">29</text>
      <text transform="matrix(1 0 0 1 2195.1802 151.9185)" style="font-family:'Arial'; font-size:6px;">13A</text>
      <text transform="matrix(1 0 0 1 2182.5063 151.9185)" style="font-family:'Arial'; font-size:6px;">10</text>
      <text transform="matrix(1 0 0 1 1709.4204 151.9043)" style="font-family:'Arial'; font-size:6px;">13E</text>
      <text transform="matrix(1 0 0 1 1696.7466 151.9043)" style="font-family:'Arial'; font-size:6px;">27</text>
      <text transform="matrix(1 0 0 1 1658.3979 151.9043)" style="font-family:'Arial'; font-size:6px;">13E</text>
      <text transform="matrix(1 0 0 1 1645.7241 151.9043)" style="font-family:'Arial'; font-size:6px;">26</text>
      <text transform="matrix(1 0 0 1 1207.7485 151.8901)" style="font-family:'Arial'; font-size:6px;">13B</text>
      <text transform="matrix(1 0 0 1 1195.0747 151.8901)" style="font-family:'Arial'; font-size:6px;">35</text>
      <text transform="matrix(1 0 0 1 1156.7251 151.8901)" style="font-family:'Arial'; font-size:6px;">13B</text>
      <text transform="matrix(1 0 0 1 1144.0513 151.8901)" style="font-family:'Arial'; font-size:6px;">17</text>
    </g><g ewd:figtype="gp" ewd:code="H1" ewd:figID="56">
      <path style="fill:none;stroke:#000000;stroke-width:0.85;" d="M 781.34,708.62 L 781.34, 711.45" />
      <path style="fill:none;stroke:#000000;stroke-width:0.85;" d="M 779.92,719.96 L 782.76, 719.96" />
      <path style="fill:none;stroke:#000000;stroke-width:0.85;" d="M 778.51,717.13 L 784.18, 717.13" />
      <path style="fill:none;stroke:#000000;stroke-width:0.85;" d="M 775.67,714.29 L 787.01, 714.29" />
      <path style="fill:none;stroke:#000000;stroke-width:0.85;" d="M 772.84,711.46 L 789.85, 711.46" />
    </g><g ewd:figtype="w2w" ewd:code="HA1" ewd:pin_no="9" ewd:figID="57">
      <path style="fill:#FFFFFF;stroke:#FFFFFF;stroke-width:0;stroke-linecap:round;stroke-linejoin:round;" d="M 870.63,556.43 L 866.38, 552.18 L 862.13, 556.43 L 862.13, 549.88 L 870.63, 549.88 L 870.63, 556.43" />
      <path style="fill:#FFFFFF;stroke:#FFFFFF;stroke-width:0;stroke-linecap:round;stroke-linejoin:round;" d="M 870.63,553.6 L 866.38, 549.35 L 862.13, 553.6 L 862.13, 547.05 L 870.63, 547.05 L 870.63, 553.6" />
      <path style="fill:none;stroke:#000000;stroke-width:0.85;" d="M 870.63,554.13 L 866.38, 549.88 L 862.13, 554.13" />
      <path style="fill:none;stroke:#000000;stroke-width:0.85;" d="M 870.63,551.3 L 866.38, 547.05 L 862.13, 551.3" />
      <path style="fill:none;stroke:#000000;stroke-width:0.85;stroke-linecap:round;stroke-linejoin:round;" d="M 876.3,538.54 L 876.3, 547.04 L 856.46, 547.04 L 856.46, 538.54 L 876.3, 538.54" />
      <text transform="matrix(1 0 0 1 851.7041 544.502)" style="font-family:'Arial'; font-size:6px;">9</text>
    </g><g ewd:figtype="conn" ewd:code="H26" ewd:figID="23">
      <path style="fill:none;stroke:#000000;stroke-width:0.85;" d="M 866.38,351.46 L 866.38, 347.21" />
      <path style="fill:none;stroke:#000000;stroke-width:0.85;" d="M 866.38,321.69 L 866.38, 317.44" />
      <path style="fill:none;stroke:#000000;stroke-width:1.417;" d="M 872.06,321.74 L 866.74, 344.42" />
      <path style="fill:none;stroke:#000000;stroke-width:0.85;stroke-linecap:round;stroke-linejoin:round;" d="M 866.38,324.53 C 867.16 324.53 867.8 323.9 867.8 323.11 C 867.799975585938 322.319970703125 867.17 321.69 866.38 321.69 C 865.590009765625 321.690004882813 864.96 322.32 864.96 323.11 C 864.960043945312 323.899970703125 865.6 324.53 866.38 324.53" />
      <path style="fill:none;stroke:#000000;stroke-width:0.85;stroke-linecap:round;stroke-linejoin:round;" d="M 866.38,347.21 C 867.16 347.21 867.8 346.58 867.8 345.79 C 867.8 345.01 867.17 344.37 866.38 344.37 C 865.590009765625 344.369990234375 864.96 345 864.96 345.79 C 864.96 346.57 865.6 347.21 866.38 347.21" />
      <path style="fill:none;stroke:#000000;stroke-width:1.417;stroke-linecap:round;stroke-linejoin:round;" d="M 874.88,351.46 L 874.88, 317.44 L 857.87, 317.44 L 857.87, 351.46 L 874.88, 351.46" />
      <text transform="matrix(1 0 0 1 858.084 313.4795)" style="font-family:'Arial'; font-size:6px;">2</text>
      <text transform="matrix(1 0 0 1 858.084 358.8335)" style="font-family:'Arial'; font-size:6px;">1</text>
      <g ewd:figtype="title">
        <text transform="matrix(0 -1 1 0 882.9697 351.4575)" style="font-family:'Arial'; font-size:6px;">H26</text>
        <text transform="matrix(0 -1 1 0 890.0566 351.4575)" style="font-family:'Arial'; font-size:6px;" ewd:textID="38">Unlock Warning SW</text>
      </g>
    </g><g ewd:figtype="conn" ewd:code="H27" ewd:figID="24">
      <path style="fill:none;stroke:#000000;stroke-width:0.85;" d="M 781.34,317.44 L 781.34, 321.69" />
      <path style="fill:none;stroke:#000000;stroke-width:0.85;" d="M 781.34,347.21 L 781.34, 351.46" />
      <path style="fill:none;stroke:#000000;stroke-width:1.417;" d="M 787.02,321.74 L 781.7, 344.42" />
      <path style="fill:none;stroke:#000000;stroke-width:0.85;stroke-linecap:round;stroke-linejoin:round;" d="M 781.34,324.53 C 782.1201 324.53 782.76 323.9 782.76 323.11 C 782.76001953125 322.319970703125 782.13 321.69 781.34 321.69 C 780.550053710938 321.690004882813 779.92 322.32 779.92 323.11 C 779.919965820313 323.899970703125 780.56 324.53 781.34 324.53" />
      <path style="fill:none;stroke:#000000;stroke-width:0.85;stroke-linecap:round;stroke-linejoin:round;" d="M 781.34,347.21 C 782.1201 347.21 782.76 346.58 782.76 345.79 C 782.76 345.01 782.13 344.37 781.34 344.37 C 780.550053710938 344.369990234375 779.92 345 779.92 345.79 C 779.92 346.57 780.56 347.21 781.34 347.21" />
      <path style="fill:none;stroke:#000000;stroke-width:1.417;stroke-linecap:round;stroke-linejoin:round;" d="M 789.85,351.46 L 789.85, 317.44 L 772.84, 317.44 L 772.84, 351.46 L 789.85, 351.46" />
      <text transform="matrix(1 0 0 1 773.0449 313.4795)" style="font-family:'Arial'; font-size:6px;">2</text>
      <text transform="matrix(1 0 0 1 773.0449 358.8335)" style="font-family:'Arial'; font-size:6px;">1</text>
      <g ewd:figtype="title">
        <text transform="matrix(0 -1 1 0 797.9297 351.4575)" style="font-family:'Arial'; font-size:6px;">H27</text>
        <text transform="matrix(0 -1 1 0 805.0166 351.4575)" style="font-family:'Arial'; font-size:6px;" ewd:textID="38">Unlock Warning SW</text>
      </g>
    </g><g ewd:figtype="w2w" ewd:code="HA1" ewd:pin_no="18" ewd:figID="74">
      <path style="fill:#FFFFFF;stroke:#FFFFFF;stroke-width:0;stroke-linecap:round;stroke-linejoin:round;" d="M 1115.27,165.25 L 1111.02, 161 L 1106.77, 165.25 L 1106.77, 158.7 L 1115.27, 158.7 L 1115.27, 165.25" />
      <path style="fill:#FFFFFF;stroke:#FFFFFF;stroke-width:0;stroke-linecap:round;stroke-linejoin:round;" d="M 1115.27,162.41 L 1111.02, 158.16 L 1106.77, 162.41 L 1106.77, 155.86 L 1115.27, 155.86 L 1115.27, 162.41" />
      <path style="fill:none;stroke:#000000;stroke-width:0.85;" d="M 1115.27,162.95 L 1111.02, 158.7 L 1106.77, 162.95" />
      <path style="fill:none;stroke:#000000;stroke-width:0.85;" d="M 1115.27,160.11 L 1111.02, 155.86 L 1106.77, 160.11" />
      <path style="fill:none;stroke:#000000;stroke-width:0.85;stroke-linecap:round;stroke-linejoin:round;" d="M 1120.94,147.36 L 1120.94, 155.86 L 1101.09, 155.86 L 1101.09, 147.36 L 1120.94, 147.36" />
      <text transform="matrix(1 0 0 1 1093.0024 153.3135)" style="font-family:'Arial'; font-size:6px;">18</text>
    </g><g ewd:figtype="w2w" ewd:code="KA3" ewd:pin_no="2" ewd:figID="83">
      <path style="fill:#FFFFFF;stroke:#FFFFFF;stroke-width:0;stroke-linecap:round;stroke-linejoin:round;" d="M 1166.29,350.57 L 1162.04, 354.82 L 1157.79, 350.57 L 1157.79, 357.12 L 1166.29, 357.12 L 1166.29, 350.57" />
      <path style="fill:#FFFFFF;stroke:#FFFFFF;stroke-width:0;stroke-linecap:round;stroke-linejoin:round;" d="M 1166.29,353.4 L 1162.04, 357.65 L 1157.79, 353.4 L 1157.79, 359.95 L 1166.29, 359.95 L 1166.29, 353.4" />
      <path style="fill:none;stroke:#000000;stroke-width:0.85;" d="M 1166.29,352.87 L 1162.04, 357.12 L 1157.79, 352.87" />
      <path style="fill:none;stroke:#000000;stroke-width:0.85;" d="M 1166.29,355.7 L 1162.04, 359.95 L 1157.79, 355.7" />
      <path style="fill:none;stroke:#000000;stroke-width:0.85;stroke-linecap:round;stroke-linejoin:round;" d="M 1171.96,368.46 L 1171.96, 359.96 L 1152.12, 359.96 L 1152.12, 368.46 L 1171.96, 368.46" />
      <text transform="matrix(1 0 0 1 1147.3667 365.9121)" style="font-family:'Arial'; font-size:6px;">2</text>
    </g><g ewd:figtype="w2w" ewd:code="KA3" ewd:pin_no="6" ewd:figID="84">
      <path style="fill:#FFFFFF;stroke:#FFFFFF;stroke-width:0;stroke-linecap:round;stroke-linejoin:round;" d="M 1217.32,350.57 L 1213.07, 354.82 L 1208.82, 350.57 L 1208.82, 357.12 L 1217.32, 357.12 L 1217.32, 350.57" />
      <path style="fill:#FFFFFF;stroke:#FFFFFF;stroke-width:0;stroke-linecap:round;stroke-linejoin:round;" d="M 1217.32,353.4 L 1213.07, 357.65 L 1208.82, 353.4 L 1208.82, 359.95 L 1217.32, 359.95 L 1217.32, 353.4" />
      <path style="fill:none;stroke:#000000;stroke-width:0.85;" d="M 1217.32,352.87 L 1213.07, 357.12 L 1208.82, 352.87" />
      <path style="fill:none;stroke:#000000;stroke-width:0.85;" d="M 1217.32,355.7 L 1213.07, 359.95 L 1208.82, 355.7" />
      <path style="fill:none;stroke:#000000;stroke-width:0.85;stroke-linecap:round;stroke-linejoin:round;" d="M 1222.99,368.46 L 1222.99, 359.96 L 1203.15, 359.96 L 1203.15, 368.46 L 1222.99, 368.46" />
      <text transform="matrix(1 0 0 1 1198.3901 365.9121)" style="font-family:'Arial'; font-size:6px;">6</text>
    </g><g ewd:figtype="conn" ewd:code="K1" ewd:figID="30">
      <path style="fill:none;stroke:#000000;stroke-width:0.85;" d="M 1213.09,427.98 L 1213.09, 453.49 L 1200.35, 453.49" />
      <path style="fill:none;stroke:#000000;stroke-width:0.85;" d="M 1174.83,453.5 L 1162.06, 453.5 L 1162.06, 427.99" />
      <path style="fill:none;stroke:#000000;stroke-width:1.417;stroke-linecap:round;stroke-linejoin:round;" d="M 1174.83,457.75 L 1174.83, 449.25 L 1180.21, 449.25 C 1181.68 446.72 1184.44 445 1187.58 445 C 1190.71991210937 445 1193.48 446.72 1194.95 449.25 L 1200.34, 449.25 L 1200.34, 457.75 L 1194.95, 457.75 C 1193.48 460.28 1190.72 462 1187.58 462 C 1184.43991210937 462 1181.68 460.28 1180.21 457.75 L 1174.83, 457.75" />
      <path style="fill:none;stroke:#000000;stroke-width:1.417;" d="M 1194.96,449.24 C 1195.7 450.5 1196.09 451.93 1196.09 453.49 C 1196.09 455.05 1195.69 456.49 1194.96 457.74" />
      <path style="fill:none;stroke:#000000;stroke-width:1.417;" d="M 1180.22,449.24 C 1179.48 450.5 1179.09 451.93 1179.09 453.49 C 1179.09 455.05 1179.49 456.49 1180.22 457.74" />
      <path style="fill:none;stroke:#000000;stroke-width:1.417;stroke-linecap:round;stroke-linejoin:round;" d="M 1230.09,487.51 L 1230.09, 427.98 L 1145.05, 427.98 L 1145.05, 487.51 L 1230.09, 487.51" />
      <text transform="matrix(1 0 0 1 1214.4663 435.3906)" style="font-family:'Arial'; font-size:6px;">UL</text>
      <text transform="matrix(1 0 0 1 1163.4321 435.3906)" style="font-family:'Arial'; font-size:6px;">L</text>
      <text transform="matrix(1 0 0 1 1204.7808 424.0215)" style="font-family:'Arial'; font-size:6px;">1</text>
      <text transform="matrix(1 0 0 1 1153.7573 424.0215)" style="font-family:'Arial'; font-size:6px;">4</text>
      <text transform="matrix(1 0 0 1 1185.0884 455.2021)" style="font-family:'Arial'; font-size:6px;">M</text>
      <g ewd:figtype="title">
        <text transform="matrix(1 0 0 1 1136.5513 495.5967)" style="font-family:'Arial'; font-size:6px;">K1</text>
        <text transform="matrix(1 0 0 1 1136.5513 502.6836)" style="font-family:'Arial'; font-size:6px;" ewd:textID="25">Door Lock Assembly (Front RH)</text>
      </g>
    </g><g ewd:figtype="comment" ewd:code="13" ewd:figID="1017">
      <text transform="matrix(1 0 0 1 857.8838 178.1279)" style="font-family:'Arial'; font-size:6px;" ewd:textID="5">*13 : Long Wheelbase Type China</text>
    </g><g ewd:figtype="comment" ewd:code="12" ewd:figID="1016">
      <text transform="matrix(1 0 0 1 857.8838 169.624)" style="font-family:'Arial'; font-size:6px;" ewd:textID="4">*12 : Short Wheelbase Type China</text>
    </g><g ewd:figtype="comment" ewd:code="11" ewd:figID="1015">
      <text transform="matrix(1 0 0 1 857.8838 161.1201)" style="font-family:'Arial'; font-size:6px;" ewd:textID="3">*11 : China</text>
    </g><g ewd:figtype="comment" ewd:code="10" ewd:figID="1014">
      <text transform="matrix(1 0 0 1 857.8838 152.6162)" style="font-family:'Arial'; font-size:6px;" ewd:textID="2">*10 : Long Wheelbase Type except China</text>
    </g><g ewd:figtype="comment" ewd:code="9" ewd:figID="1013">
      <text transform="matrix(1 0 0 1 857.8838 144.1123)" style="font-family:'Arial'; font-size:6px;" ewd:textID="11">*9 : Short Wheelbase Type except China</text>
    </g><g ewd:figtype="comment" ewd:code="2" ewd:figID="1010">
      <text transform="matrix(1 0 0 1 857.8838 118.5991)" style="font-family:'Arial'; font-size:6px;" ewd:textID="6">*2 : Long Wheelbase Type</text>
    </g><g ewd:figtype="comment" ewd:code="3" ewd:figID="1009">
      <text transform="matrix(1 0 0 1 857.8838 127.1045)" style="font-family:'Arial'; font-size:6px;">*3 : M/T</text>
    </g><g ewd:figtype="comment" ewd:code="4" ewd:figID="1008">
      <text transform="matrix(1 0 0 1 857.8838 135.6084)" style="font-family:'Arial'; font-size:6px;">*4 : A/T</text>
    </g><g ewd:figtype="comment" ewd:code="1" ewd:figID="1007">
      <text transform="matrix(1 0 0 1 857.8838 110.0938)" style="font-family:'Arial'; font-size:6px;" ewd:textID="1">*1 : Short Wheelbase Type</text>
    </g><g ewd:figtype="comment" ewd:code="5" ewd:figID="1005">
      <text transform="matrix(1 0 0 1 1170.5171 660.041)" style="font-family:'Arial'; font-size:6px;" ewd:textID="7">*5 : w/o Power Slide Door</text>
    </g><text transform="matrix(0 -1 1 0 862.417 527.3672)" style="font-family:'Arial'; font-size:6px;">W-B</text><text transform="matrix(0 -1 1 0 777.3779 527.3672)" style="font-family:'Arial'; font-size:6px;">W-B</text><text transform="matrix(0 -1 1 0 777.3779 671.9336)" style="font-family:'Arial'; font-size:6px;">W-B</text><text transform="matrix(0 -1 1 0 777.377 157.8696)" style="font-family:'Arial'; font-size:6px;">Y</text><text transform="matrix(0 -1 1 0 777.3906 276.918)" style="font-family:'Arial'; font-size:6px;">Y</text><text transform="matrix(0 -1 1 0 862.4307 276.918)" style="font-family:'Arial'; font-size:6px;">Y</text><text transform="matrix(0 -1 1 0 777.3906 408.3066)" style="font-family:'Arial'; font-size:6px;">W-B</text><text transform="matrix(0 -1 1 0 862.4307 408.3066)" style="font-family:'Arial'; font-size:6px;">W-B</text><text transform="matrix(0 -1 1 0 1158.0776 395.6377)" style="font-family:'Arial'; font-size:6px;">L</text><text transform="matrix(0 -1 1 0 1209.1011 396.1357)" style="font-family:'Arial'; font-size:6px;">R</text><text transform="matrix(0 -1 1 0 1158.0776 327.6064)" style="font-family:'Arial'; font-size:6px;">L</text><text transform="matrix(0 -1 1 0 1209.1011 328.1045)" style="font-family:'Arial'; font-size:6px;">R</text><text transform="matrix(0 -1 1 0 1107.0513 124.6753)" style="font-family:'Arial'; font-size:6px;">W</text><text transform="matrix(0 -1 1 0 1107.0513 192.707)" style="font-family:'Arial'; font-size:6px;">W</text><text transform="matrix(0 -1 1 0 1158.0786 191.5439)" style="font-family:'Arial'; font-size:6px;">L</text><text transform="matrix(0 -1 1 0 1209.1021 192.042)" style="font-family:'Arial'; font-size:6px;">R</text><text transform="matrix(1 0 0 1 1245.3887 253.9595)" style="font-family:'Arial'; font-size:6px;">L</text><text transform="matrix(0 -1 1 0 873.7705 407.3096)" style="font-family:'Arial'; font-size:6px;">(*4)</text><text transform="matrix(0 -1 1 0 873.7705 279.751)" style="font-family:'Arial'; font-size:6px;">(*4)</text><text transform="matrix(0 -1 1 0 788.7305 279.751)" style="font-family:'Arial'; font-size:6px;">(*3)</text><text transform="matrix(0 -1 1 0 788.7305 407.3096)" style="font-family:'Arial'; font-size:6px;">(*3)</text><text transform="matrix(0 -1 1 0 862.417 578.3906)" style="font-family:'Arial'; font-size:6px;">W-B</text><text transform="matrix(1 0 0 1 1030.6274 628.1572)" style="font-family:'Arial'; font-size:6px;">W-B</text><text transform="matrix(1 0 0 1 1244.8906 219.9438)" style="font-family:'Arial'; font-size:6px;">R</text><text transform="matrix(1 0 0 1 1244.2256 287.9751)" style="font-family:'Arial'; font-size:6px;">W</text><text transform="matrix(1 0 0 1 1079.6514 628.1328)" style="font-family:'Arial'; font-size:6px;">W-B</text></svg>