﻿<?xml version="1.0" encoding="utf-8"?>
<!DOCTYPE svg PUBLIC "-//W3C//DTD SVG 1.0//EN" "http://www.w3.org/TR/2001/REC-SVG-20010904/DTD/svg10.dtd"[
	<!ENTITY ns_flows "http://ns.adobe.com/Flows/1.0/">
	<!ENTITY ns_svg "http://www.w3.org/2000/svg">
	<!ENTITY ns_xlink "http://www.w3.org/1999/xlink">
	<!ENTITY st0 "font-size:7px;font-family:'MS-PGothic';adobe-font-script:japanese;">
	<!ENTITY st1 "font-size:6px;font-family:'ArialMT';">
	<!-- White fill  -->
	<!ENTITY st2 "fill:#FFFFFF;stroke:#000000; stroke-width:1.41;stroke-linecap:round;stroke-linejoin:round;">
	<!-- Yellow fill  -->
	<!ENTITY st3 "fill:#FFFFCC;stroke:#FFFFCC; stroke-width:0.1;stroke-linecap:round;stroke-linejoin:round;">
	<!-- Gray fill  -->
	<!ENTITY st4 "fill:#CCCCCC;stroke:#CCCCCC; stroke-width:0.1;stroke-linecap:round;stroke-linejoin:round;">
	<!-- Light-blue fill -->
	<!ENTITY st5 "fill:#CCECF4;stroke:#000000; stroke-width:1.133;stroke-linecap:round;stroke-linejoin:round;">
	<!ENTITY st6 "fill:none;stroke-linecap:butt; stroke-linejoin:round;">
	<!ENTITY st7 "fill:none;stroke:#000000;stroke-linecap:round;stroke-linejoin:round;">
	<!ENTITY st8 "enable-background:new    ;">
	<!-- Black fill -->
	<!ENTITY st9 "fill:#000000;stroke:#000000; stroke-linecap:round;stroke-linejoin:round;">
	<!-- SRS note   -->
	<!ENTITY st10 "font-size:9px;font-family:'ArialMT';">
	<!ENTITY st11 "font-size:9px;font-family:'Svg Symbol';">
	<!ENTITY st12 "font-size:6px;font-family:'Svg Symbol';">
	<!ENTITY st13 "fill:none;stroke:#ff0000;stroke-linecap:round;stroke-linejoin:round;">
	<!-- Yellow fill  -->
	<!ENTITY st14 "fill:#FFFF00;stroke:#FFFF00; stroke-width:0.1;stroke-linecap:round;stroke-linejoin:round;">
	<!ENTITY st15 "font-size:6px;font-family:'MS-PGothic';adobe-font-script:japanese;">
	<!ENTITY st16 "1.00 0.00 0.00 1.00">
	<!ENTITY st17 "0.00 -1.00 1.00 0.00">
	<!ENTITY st18 "font-size:6px;font-family:'Arial';">
	<!ENTITY st19 "font-size:9px;font-family:'Arial';">
	<!ENTITY st20 "font-size:6px;font-family:'MS-PGothic','MS PGothic';adobe-font-script:japanese;">
	<!ENTITY st21 "font-size:7px;font-family:'MS-PGothic','MS PGothic';adobe-font-script:japanese;">
	<!ATTLIST svg
		xmlns:ewd CDATA #FIXED "http://shcl.co.jp/ewd"
		xmlns:a CDATA #FIXED "http://ns.adobe.com/AdobeSVGViewerExtensions/3.0/"
		ewd:ver CDATA #IMPLIED
	>
	<!ATTLIST a
		ewd:lineID CDATA #IMPLIED
		ewd:groupID CDATA #IMPLIED
		ewd:figtype CDATA #IMPLIED
		ewd:code CDATA #IMPLIED
		ewd:figID CDATA #IMPLIED
		ewd:pinNo CDATA #IMPLIED
		ewd:comment CDATA #IMPLIED >
	<!ATTLIST g
		ewd:lineID CDATA #IMPLIED
		ewd:groupID CDATA #IMPLIED
		ewd:figtype CDATA #IMPLIED
		ewd:code CDATA #IMPLIED
		ewd:figID CDATA #IMPLIED
		ewd:pinNo CDATA #IMPLIED
		ewd:comment CDATA #IMPLIED >
	<!ATTLIST text
		ewd:textID CDATA #IMPLIED >
	<!ATTLIST title
		ewd:textID CDATA #IMPLIED >
]>
<!-- Generator: Shintec Hozumi YS   -->
<svg onload="call_execInitLoadProc_svg('system')" style="overflow:visible;  enable-background:new 0 0 480.248 710.000" viewBox="0 0 480.248 710.000" height="710.000" width="480.248" xml:space="preserve" ewd:ver="L2.1.2.5" xmlns="&ns_svg;" xmlns:a="http://ns.adobe.com/AdobeSVGViewerExtensions/3.0/" xmlns:ewd="http://shcl.co.jp/ewd" xmlns:xlink="&ns_xlink;">
<path d=" M  384.56,  333.23  L  380.31,  333.23 " style="stroke-width: 1.42 ;&st7; " /><path d=" M  384.56,  324.73  L  380.31,  324.73 " style="stroke-width: 1.42 ;&st7; " /><path d=" M  386.69,  212.12  L  378.19,  212.12 " style="stroke-width: 1.42 ;&st7; " /><path d=" M  386.69,  207.88  L  378.19,  207.88 " style="stroke-width: 1.42 ;&st7; " /><path d=" M  382.44,  207.88  L  382.44,  180.26 " style="stroke-width: 0.85 ;&st7; " /><path d=" M  382.44,  239.75  L  382.44,  212.12 " style="stroke-width: 0.85 ;&st7; " /><path d=" M  152.97,  494.70  L  161.47,  494.70 " style="stroke-width: 1.42 ;&st7; " /><path d=" M  186.97,  494.70  L  195.47,  494.70 " style="stroke-width: 1.42 ;&st7; " /><path d=" M  169.97,  571.19  L  161.47,  571.19 " style="stroke-width: 1.42 ;&st7; " /><path d=" M  203.97,  571.19  L  195.47,  571.19 " style="stroke-width: 1.42 ;&st7; " /><path d=" M  435.55,  375.72  L  431.30,  375.72 " style="stroke-width: 1.42 ;&st7; " /><path d=" M  435.55,  367.22  L  431.30,  367.22 " style="stroke-width: 1.42 ;&st7; " /><path d=" M  203.97,  324.73  L  195.47,  324.73 " style="stroke-width: 1.42 ;&st7; " /><path d=" M  169.97,  324.73  L  161.47,  324.73 " style="stroke-width: 1.42 ;&st7; " /><path d=" M  384.56,  375.72  L  380.31,  375.72 " style="stroke-width: 1.42 ;&st7; " /><path d=" M  384.56,  367.22  L  380.31,  367.22 " style="stroke-width: 1.42 ;&st7; " /><path d=" M  373.94,  701.50  L  390.93,  701.50 " style="stroke-width: 0.85 ;&st7; " /><path d=" M  378.19,  704.33  L  386.69,  704.33 " style="stroke-width: 0.85 ;&st7; " /><path d=" M  381.24,  349.22  L  380.97,  349.69  L  380.88,  350.23  L  380.97,  350.76  L  381.24,  351.23  L  381.66,  351.58  L  382.16,  351.76  L  382.71,  351.76  L  383.21,  351.58  L  383.63,  351.23  L  383.90,  350.76  L  383.99,  350.23  L  383.90,  349.69  L  383.63,  349.22  L  383.21,  348.88  L  382.71,  348.69  L  382.16,  348.69  L  381.66,  348.88  L  381.24,  349.22  L  381.64,  349.94  L  381.64,  350.52  L  382.01,  350.96  L  382.58,  351.06  L  383.09,  350.77  L  383.29,  350.23  L  383.09,  349.68  L  382.58,  349.39  L  382.01,  349.49  L  382.44,  350.23 " style="stroke-width: 0.85 ;&st7; " /><path d=" M  382.44,  350.23  L  433.43,  350.23  L  433.43,  367.22 " style="stroke-width: 0.85 ;&st7; " /><path d=" M  432.01,  710.00  L  434.84,  710.00 " style="stroke-width: 0.85 ;&st7; " /><path d=" M  430.59,  707.17  L  436.26,  707.17 " style="stroke-width: 0.85 ;&st7; " /><path d=" M  429.18,  704.33  L  437.68,  704.33 " style="stroke-width: 0.85 ;&st7; " /><path d=" M  424.93,  701.50  L  441.93,  701.50 " style="stroke-width: 0.85 ;&st7; " /><path d=" M  433.43,  697.25  L  433.43,  701.50 " style="stroke-width: 0.85 ;&st7; " /><path d=" M  433.43,  579.69  L  433.43,  596.69 " style="stroke-width: 0.85 ;&st7; " /><path d=" M  424.93,  579.69  L  441.93,  579.69  L  441.93,  596.69  L  424.93,  596.69  L  424.93,  579.69 " style="stroke-width: 1.42 ;&st7; " /><path d=" M  433.43,  362.33  L  430.59,  359.50  L  430.59,  363.75  L  433.43,  366.58  L  436.26,  363.75  L  436.26,  359.50  L  433.43,  362.33 " style="stroke-width: 0.28 ;&st9;" /><path d=" M  144.48,  392.72  L  212.46,  392.72  L  212.46,  426.71  L  144.48,  426.71  L  144.48,  392.72 " style="stroke-width: 1.42 ;&st7; " /><path d=" M  271.95,  392.72  L  271.95,  426.71  L  339.94,  426.71  L  339.94,  392.72  L  271.95,  392.72 " style="stroke-width: 1.42 ;&st7; " /><path d=" M  199.72,  333.80  L  195.47,  329.55  L  191.22,  333.80 " style="stroke-width: 1.42 ;&st7; " /><path d=" M  199.72,  330.40  L  195.47,  326.15  L  191.22,  330.40 " style="stroke-width: 1.42 ;&st7; " /><path d=" M  165.72,  330.40  L  161.47,  326.15  L  157.22,  330.40 " style="stroke-width: 1.42 ;&st7; " /><path d=" M  165.72,  333.80  L  161.47,  329.55  L  157.22,  333.80 " style="stroke-width: 1.42 ;&st7; " /><path d=" M  381.02,  710.00  L  383.85,  710.00 " style="stroke-width: 0.85 ;&st7; " /><path d=" M  379.60,  707.17  L  385.27,  707.17 " style="stroke-width: 0.85 ;&st7; " /><path d=" M  382.44,  697.25  L  382.44,  701.50 " style="stroke-width: 0.85 ;&st7; " /><path d=" M  382.44,  367.22  L  382.44,  333.23 " style="stroke-width: 0.85 ;&st7; " /><path d=" M  382.44,  362.33  L  379.60,  359.50  L  379.60,  363.75  L  382.44,  366.58  L  385.27,  363.75  L  385.27,  359.50  L  382.44,  362.33 " style="stroke-width: 0.28 ;&st9;" /><path d=" M  382.44,  338.12  L  385.27,  340.96  L  385.27,  336.71  L  382.44,  333.88  L  379.60,  336.71  L  379.60,  340.96  L  382.44,  338.12 " style="stroke-width: 0.28 ;&st9;" /><path d=" M  331.44,  154.76  L  331.44,  239.75 " style="stroke-width: 1.42 ;&st7; " /><path d=" M  381.24,  196.25  L  380.97,  196.72  L  380.88,  197.25  L  380.97,  197.79  L  381.24,  198.26  L  381.66,  198.60  L  382.16,  198.79  L  382.71,  198.79  L  383.21,  198.60  L  383.63,  198.26  L  383.90,  197.79  L  383.99,  197.25  L  383.90,  196.72  L  383.63,  196.25  L  383.21,  195.90  L  382.71,  195.72  L  382.16,  195.72  L  381.66,  195.90  L  381.24,  196.25  L  381.64,  196.96  L  381.64,  197.54  L  382.01,  197.99  L  382.58,  198.09  L  383.09,  197.80  L  383.29,  197.25  L  383.09,  196.71  L  382.58,  196.42  L  382.01,  196.52  L  382.44,  197.25 " style="stroke-width: 0.85 ;&st7; " /><path d=" M  382.44,  197.25  L  373.94,  197.25  L  372.52,  200.09  L  369.69,  194.42  L  366.86,  200.09  L  364.02,  194.42  L  361.19,  200.09  L  358.36,  194.42  L  356.94,  197.25  L  195.47,  197.25 " style="stroke-width: 0.85 ;&st7; " /><path d=" M  382.44,  180.26  L  373.94,  180.26  L  372.52,  183.09  L  369.69,  177.42  L  366.86,  183.09  L  364.02,  177.42  L  361.19,  183.09  L  358.36,  177.42  L  356.94,  180.26  L  161.47,  180.26 " style="stroke-width: 0.85 ;&st7; " /><path d=" M  287.76,  179.25  L  287.49,  179.72  L  287.39,  180.26  L  287.49,  180.79  L  287.76,  181.26  L  288.17,  181.60  L  288.68,  181.79  L  289.22,  181.79  L  289.73,  181.60  L  290.14,  181.26  L  290.42,  180.79  L  290.51,  180.26  L  290.42,  179.72  L  290.14,  179.25  L  289.73,  178.91  L  289.22,  178.72  L  288.68,  178.72  L  288.17,  178.91  L  287.76,  179.25  L  288.15,  179.96  L  288.15,  180.55  L  288.53,  180.99  L  289.10,  181.09  L  289.60,  180.80  L  289.80,  180.26  L  289.60,  179.71  L  289.10,  179.42  L  288.53,  179.52  L  288.95,  180.26 " style="stroke-width: 0.85 ;&st7; " /><path d=" M  321.75,  196.25  L  321.48,  196.72  L  321.39,  197.25  L  321.48,  197.79  L  321.75,  198.26  L  322.17,  198.60  L  322.67,  198.79  L  323.22,  198.79  L  323.72,  198.60  L  324.14,  198.26  L  324.41,  197.79  L  324.50,  197.25  L  324.41,  196.72  L  324.14,  196.25  L  323.72,  195.90  L  323.22,  195.72  L  322.67,  195.72  L  322.17,  195.90  L  321.75,  196.25  L  322.15,  196.96  L  322.15,  197.54  L  322.52,  197.99  L  323.09,  198.09  L  323.60,  197.80  L  323.80,  197.25  L  323.60,  196.71  L  323.09,  196.42  L  322.52,  196.52  L  322.95,  197.25 " style="stroke-width: 0.85 ;&st7; " /><path d=" M  288.95,  180.26  L  288.95,  239.75 " style="stroke-width: 0.85 ;&st7; " /><path d=" M  161.47,  154.76  L  161.47,  239.75 " style="stroke-width: 0.85 ;&st7; " /><path d=" M  195.47,  154.76  L  195.47,  239.75 " style="stroke-width: 0.85 ;&st7; " /><path d=" M  161.47,  180.26  L  161.05,  179.52  L  161.62,  179.42  L  162.12,  179.71  L  162.32,  180.26  L  162.12,  180.80  L  161.62,  181.09  L  161.05,  180.99  L  160.67,  180.55  L  160.67,  179.96  L  160.28,  179.25  L  160.69,  178.91  L  161.20,  178.72  L  161.74,  178.72  L  162.25,  178.91  L  162.67,  179.25  L  162.94,  179.72  L  163.03,  180.26  L  162.94,  180.79  L  162.67,  181.26  L  162.25,  181.60  L  161.74,  181.79  L  161.20,  181.79  L  160.69,  181.60  L  160.28,  181.26  L  160.01,  180.79  L  159.91,  180.26  L  160.01,  179.72  L  160.28,  179.25 " style="stroke-width: 0.85 ;&st7; " /><path d=" M  195.47,  197.25  L  195.04,  196.52  L  195.61,  196.42  L  196.12,  196.71  L  196.32,  197.25  L  196.12,  197.80  L  195.61,  198.09  L  195.04,  197.99  L  194.67,  197.54  L  194.67,  196.96  L  194.27,  196.25  L  194.69,  195.90  L  195.20,  195.72  L  195.74,  195.72  L  196.25,  195.90  L  196.66,  196.25  L  196.93,  196.72  L  197.03,  197.25  L  196.93,  197.79  L  196.66,  198.26  L  196.25,  198.60  L  195.74,  198.79  L  195.20,  198.79  L  194.69,  198.60  L  194.27,  198.26  L  194.00,  197.79  L  193.91,  197.25  L  194.00,  196.72  L  194.27,  196.25 " style="stroke-width: 0.85 ;&st7; " /><path d=" M  322.95,  197.25  L  322.95,  239.75 " style="stroke-width: 0.85 ;&st7; " /><path d=" M  144.48,  154.76  L  144.48,  239.75  L  399.43,  239.75  L  399.43,  154.76  L  144.48,  154.76 " style="stroke-width: 1.42 ;&st7; " /><path d=" M  169.97,  388.19  L  178.47,  388.19 " style="stroke-width: 0.85 ;&st7;stroke-dasharray:3, 1.5;" /><path d=" M  178.47,  379.12  L  169.97,  379.12 " style="stroke-width: 0.85 ;&st7;stroke-dasharray:3, 1.5;" /><path d=" M  144.48,   78.27  L  212.46,   78.27  L  212.46,   35.78  L  144.48,   35.78  L  144.48,   78.27 " style="stroke-width: 1.42 ;&st7; " /><path d=" M  157.22,  485.64  L  161.47,  489.89  L  165.72,  485.64 " style="stroke-width: 1.42 ;&st7; " /><path d=" M  165.72,  489.04  L  161.47,  493.29  L  157.22,  489.04 " style="stroke-width: 1.42 ;&st7; " /><path d=" M  191.22,  485.64  L  195.47,  489.89  L  199.72,  485.64 " style="stroke-width: 1.42 ;&st7; " /><path d=" M  199.72,  489.04  L  195.47,  493.29  L  191.22,  489.04 " style="stroke-width: 1.42 ;&st7; " /><path d=" M  144.48,  622.18  L  212.46,  622.18  L  212.46,  656.18  L  144.48,  656.18  L  144.48,  622.18 " style="stroke-width: 1.42 ;&st7; " /><path d=" M  348.44,  171.76  L  348.44,  222.75  L  390.93,  222.75  L  390.93,  171.76  L  348.44,  171.76 " style="stroke-width: 1.42 ;&st7; " /><path d=" M  165.72,  576.86  L  161.47,  572.61  L  157.22,  576.86 " style="stroke-width: 1.42 ;&st7; " /><path d=" M  165.72,  580.26  L  161.47,  576.01  L  157.22,  580.26 " style="stroke-width: 1.42 ;&st7; " /><path d=" M  199.72,  580.26  L  195.47,  576.01  L  191.22,  580.26 " style="stroke-width: 1.42 ;&st7; " /><path d=" M  199.72,  576.86  L  195.47,  572.61  L  191.22,  576.86 " style="stroke-width: 1.42 ;&st7; " /><path d=" M  169.97,  431.25  L  178.47,  431.25 " style="stroke-width: 0.85 ;&st7;stroke-dasharray:3, 1.5;" /><path d=" M  169.97,  440.31  L  178.47,  440.31 " style="stroke-width: 0.85 ;&st7;stroke-dasharray:3, 1.5;" /><path d=" M  169.97,  370.06  L  178.47,  370.06 " style="stroke-width: 0.85 ;&st7;stroke-dasharray:3, 1.5;" /><path d=" M  439.80,  371.47  C  439.80   369.13   437.90   367.22   435.55   367.22 " style="stroke-width: 1.42 ;&st7; " /><path d=" M  435.55,  375.72  C  437.90   375.72   439.80   373.82   439.80   371.47 " style="stroke-width: 1.42 ;&st7; " /><path d=" M  427.05,  371.47  C  427.05   373.82   428.96   375.72   431.30   375.72 " style="stroke-width: 1.42 ;&st7; " /><path d=" M  431.30,  367.22  C  428.96   367.22   427.05   369.13   427.05   371.47 " style="stroke-width: 1.42 ;&st7; " /><path d=" M  388.81,  371.47  C  388.81   369.13   386.91   367.22   384.56   367.22 " style="stroke-width: 1.42 ;&st7; " /><path d=" M  384.56,  375.72  C  386.91   375.72   388.81   373.82   388.81   371.47 " style="stroke-width: 1.42 ;&st7; " /><path d=" M  376.06,  371.47  C  376.06   373.82   377.96   375.72   380.31   375.72 " style="stroke-width: 1.42 ;&st7; " /><path d=" M  380.31,  367.22  C  377.96   367.22   376.06   369.13   376.06   371.47 " style="stroke-width: 1.42 ;&st7; " /><path d=" M  388.81,  328.98  C  388.81   326.63   386.91   324.73   384.56   324.73 " style="stroke-width: 1.42 ;&st7; " /><path d=" M  384.56,  333.23  C  386.91   333.23   388.81   331.33   388.81   328.98 " style="stroke-width: 1.42 ;&st7; " /><path d=" M  376.06,  328.98  C  376.06   331.33   377.96   333.23   380.31   333.23 " style="stroke-width: 1.42 ;&st7; " /><path d=" M  380.31,  324.73  C  377.96   324.73   376.06   326.63   376.06   328.98 " style="stroke-width: 1.42 ;&st7; " /><path d=" M  166.01,  388.19  C  166.01   385.68   163.98   383.65   161.47   383.65 " style="stroke-width: 1.42 ;&st7; " /><path d=" M  161.47,  383.65  C  158.97   383.65   156.94   385.68   156.94   388.19 " style="stroke-width: 1.42 ;&st7; " /><path d=" M  156.94,  388.19  C  156.94   390.69   158.97   392.72   161.47   392.72 " style="stroke-width: 1.42 ;&st7; " /><path d=" M  161.47,  392.72  C  163.98   392.72   166.01   390.69   166.01   388.19 " style="stroke-width: 1.42 ;&st7; " /><path d=" M  166.01,  244.28  C  166.01   241.77   163.98   239.75   161.47   239.75 " style="stroke-width: 1.42 ;&st7; " /><path d=" M  161.47,  239.75  C  158.97   239.75   156.94   241.77   156.94   244.28 " style="stroke-width: 1.42 ;&st7; " /><path d=" M  156.94,  244.28  C  156.94   246.78   158.97   248.81   161.47   248.81 " style="stroke-width: 1.42 ;&st7; " /><path d=" M  161.47,  248.81  C  163.98   248.81   166.01   246.78   166.01   244.28 " style="stroke-width: 1.42 ;&st7; " /><path d=" M  166.01,  150.23  C  166.01   147.72   163.98   145.69   161.47   145.69 " style="stroke-width: 1.42 ;&st7; " /><path d=" M  161.47,  145.69  C  158.97   145.69   156.94   147.72   156.94   150.23 " style="stroke-width: 1.42 ;&st7; " /><path d=" M  156.94,  150.23  C  156.94   152.73   158.97   154.76   161.47   154.76 " style="stroke-width: 1.42 ;&st7; " /><path d=" M  161.47,  154.76  C  163.98   154.76   166.01   152.73   166.01   150.23 " style="stroke-width: 1.42 ;&st7; " /><path d=" M  200.00,  150.23  C  200.00   147.72   197.97   145.69   195.47   145.69 " style="stroke-width: 1.42 ;&st7; " /><path d=" M  195.47,  145.69  C  192.96   145.69   190.93   147.72   190.93   150.23 " style="stroke-width: 1.42 ;&st7; " /><path d=" M  190.93,  150.23  C  190.93   152.73   192.96   154.76   195.47   154.76 " style="stroke-width: 1.42 ;&st7; " /><path d=" M  195.47,  154.76  C  197.97   154.76   200.00   152.73   200.00   150.23 " style="stroke-width: 1.42 ;&st7; " /><path d=" M  200.00,  244.28  C  200.00   241.77   197.97   239.75   195.47   239.75 " style="stroke-width: 1.42 ;&st7; " /><path d=" M  195.47,  239.75  C  192.96   239.75   190.93   241.77   190.93   244.28 " style="stroke-width: 1.42 ;&st7; " /><path d=" M  190.93,  244.28  C  190.93   246.78   192.96   248.81   195.47   248.81 " style="stroke-width: 1.42 ;&st7; " /><path d=" M  195.47,  248.81  C  197.97   248.81   200.00   246.78   200.00   244.28 " style="stroke-width: 1.42 ;&st7; " /><path d=" M  293.48,  244.28  C  293.48   241.77   291.45   239.75   288.95   239.75 " style="stroke-width: 1.42 ;&st7; " /><path d=" M  288.95,  239.75  C  286.45   239.75   284.42   241.77   284.42   244.28 " style="stroke-width: 1.42 ;&st7; " /><path d=" M  284.42,  244.28  C  284.42   246.78   286.45   248.81   288.95   248.81 " style="stroke-width: 1.42 ;&st7; " /><path d=" M  288.95,  248.81  C  291.45   248.81   293.48   246.78   293.48   244.28 " style="stroke-width: 1.42 ;&st7; " /><path d=" M  327.48,  244.28  C  327.48   241.77   325.45   239.75   322.95   239.75 " style="stroke-width: 1.42 ;&st7; " /><path d=" M  322.95,  239.75  C  320.44   239.75   318.41   241.77   318.41   244.28 " style="stroke-width: 1.42 ;&st7; " /><path d=" M  318.41,  244.28  C  318.41   246.78   320.44   248.81   322.95   248.81 " style="stroke-width: 1.42 ;&st7; " /><path d=" M  322.95,  248.81  C  325.45   248.81   327.48   246.78   327.48   244.28 " style="stroke-width: 1.42 ;&st7; " /><path d=" M  386.97,  244.28  C  386.97   241.77   384.94   239.75   382.44   239.75 " style="stroke-width: 1.42 ;&st7; " /><path d=" M  382.44,  239.75  C  379.93   239.75   377.90   241.77   377.90   244.28 " style="stroke-width: 1.42 ;&st7; " /><path d=" M  377.90,  244.28  C  377.90   246.78   379.93   248.81   382.44   248.81 " style="stroke-width: 1.42 ;&st7; " /><path d=" M  382.44,  248.81  C  384.94   248.81   386.97   246.78   386.97   244.28 " style="stroke-width: 1.42 ;&st7; " /><path d=" M  166.01,  379.12  C  166.01   376.62   163.98   374.59   161.47   374.59 " style="stroke-width: 1.42 ;&st7; " /><path d=" M  161.47,  374.59  C  158.97   374.59   156.94   376.62   156.94   379.12 " style="stroke-width: 1.42 ;&st7; " /><path d=" M  156.94,  379.12  C  156.94   381.63   158.97   383.65   161.47   383.65 " style="stroke-width: 1.42 ;&st7; " /><path d=" M  161.47,  383.65  C  163.98   383.65   166.01   381.63   166.01   379.12 " style="stroke-width: 1.42 ;&st7; " /><path d=" M  200.00,  388.19  C  200.00   385.68   197.97   383.65   195.47   383.65 " style="stroke-width: 1.42 ;&st7; " /><path d=" M  195.47,  383.65  C  192.96   383.65   190.93   385.68   190.93   388.19 " style="stroke-width: 1.42 ;&st7; " /><path d=" M  190.93,  388.19  C  190.93   390.69   192.96   392.72   195.47   392.72 " style="stroke-width: 1.42 ;&st7; " /><path d=" M  195.47,  392.72  C  197.97   392.72   200.00   390.69   200.00   388.19 " style="stroke-width: 1.42 ;&st7; " /><path d=" M  200.00,  379.12  C  200.00   376.62   197.97   374.59   195.47   374.59 " style="stroke-width: 1.42 ;&st7; " /><path d=" M  195.47,  374.59  C  192.96   374.59   190.93   376.62   190.93   379.12 " style="stroke-width: 1.42 ;&st7; " /><path d=" M  190.93,  379.12  C  190.93   381.63   192.96   383.65   195.47   383.65 " style="stroke-width: 1.42 ;&st7; " /><path d=" M  195.47,  383.65  C  197.97   383.65   200.00   381.63   200.00   379.12 " style="stroke-width: 1.42 ;&st7; " /><path d=" M  166.01,  617.65  C  166.01   615.15   163.98   613.12   161.47   613.12 " style="stroke-width: 1.42 ;&st7; " /><path d=" M  161.47,  613.12  C  158.97   613.12   156.94   615.15   156.94   617.65 " style="stroke-width: 1.42 ;&st7; " /><path d=" M  156.94,  617.65  C  156.94   620.15   158.97   622.18   161.47   622.18 " style="stroke-width: 1.42 ;&st7; " /><path d=" M  161.47,  622.18  C  163.98   622.18   166.01   620.15   166.01   617.65 " style="stroke-width: 1.42 ;&st7; " /><path d=" M  200.00,  617.65  C  200.00   615.15   197.97   613.12   195.47   613.12 " style="stroke-width: 1.42 ;&st7; " /><path d=" M  195.47,  613.12  C  192.96   613.12   190.93   615.15   190.93   617.65 " style="stroke-width: 1.42 ;&st7; " /><path d=" M  190.93,  617.65  C  190.93   620.15   192.96   622.18   195.47   622.18 " style="stroke-width: 1.42 ;&st7; " /><path d=" M  195.47,  622.18  C  197.97   622.18   200.00   620.15   200.00   617.65 " style="stroke-width: 1.42 ;&st7; " /><path d=" M  200.00,  431.25  C  200.00   428.74   197.97   426.71   195.47   426.71 " style="stroke-width: 1.42 ;&st7; " /><path d=" M  195.47,  426.71  C  192.96   426.71   190.93   428.74   190.93   431.25 " style="stroke-width: 1.42 ;&st7; " /><path d=" M  190.93,  431.25  C  190.93   433.75   192.96   435.78   195.47   435.78 " style="stroke-width: 1.42 ;&st7; " /><path d=" M  195.47,  435.78  C  197.97   435.78   200.00   433.75   200.00   431.25 " style="stroke-width: 1.42 ;&st7; " /><path d=" M  200.00,  440.31  C  200.00   437.81   197.97   435.78   195.47   435.78 " style="stroke-width: 1.42 ;&st7; " /><path d=" M  195.47,  435.78  C  192.96   435.78   190.93   437.81   190.93   440.31 " style="stroke-width: 1.42 ;&st7; " /><path d=" M  190.93,  440.31  C  190.93   442.81   192.96   444.84   195.47   444.84 " style="stroke-width: 1.42 ;&st7; " /><path d=" M  195.47,  444.84  C  197.97   444.84   200.00   442.81   200.00   440.31 " style="stroke-width: 1.42 ;&st7; " /><path d=" M  166.01,  431.25  C  166.01   428.74   163.98   426.71   161.47   426.71 " style="stroke-width: 1.42 ;&st7; " /><path d=" M  161.47,  426.71  C  158.97   426.71   156.94   428.74   156.94   431.25 " style="stroke-width: 1.42 ;&st7; " /><path d=" M  156.94,  431.25  C  156.94   433.75   158.97   435.78   161.47   435.78 " style="stroke-width: 1.42 ;&st7; " /><path d=" M  161.47,  435.78  C  163.98   435.78   166.01   433.75   166.01   431.25 " style="stroke-width: 1.42 ;&st7; " /><path d=" M  166.01,  440.31  C  166.01   437.81   163.98   435.78   161.47   435.78 " style="stroke-width: 1.42 ;&st7; " /><path d=" M  161.47,  435.78  C  158.97   435.78   156.94   437.81   156.94   440.31 " style="stroke-width: 1.42 ;&st7; " /><path d=" M  156.94,  440.31  C  156.94   442.81   158.97   444.84   161.47   444.84 " style="stroke-width: 1.42 ;&st7; " /><path d=" M  161.47,  444.84  C  163.98   444.84   166.01   442.81   166.01   440.31 " style="stroke-width: 1.42 ;&st7; " /><path d=" M  200.00,  370.06  C  200.00   367.55   197.97   365.52   195.47   365.52 " style="stroke-width: 1.42 ;&st7; " /><path d=" M  195.47,  365.52  C  192.96   365.52   190.93   367.55   190.93   370.06 " style="stroke-width: 1.42 ;&st7; " /><path d=" M  190.93,  370.06  C  190.93   372.56   192.96   374.59   195.47   374.59 " style="stroke-width: 1.42 ;&st7; " /><path d=" M  195.47,  374.59  C  197.97   374.59   200.00   372.56   200.00   370.06 " style="stroke-width: 1.42 ;&st7; " /><path d=" M  166.01,  370.06  C  166.01   367.55   163.98   365.52   161.47   365.52 " style="stroke-width: 1.42 ;&st7; " /><path d=" M  161.47,  365.52  C  158.97   365.52   156.94   367.55   156.94   370.06 " style="stroke-width: 1.42 ;&st7; " /><path d=" M  156.94,  370.06  C  156.94   372.56   158.97   374.59   161.47   374.59 " style="stroke-width: 1.42 ;&st7; " /><path d=" M  161.47,  374.59  C  163.98   374.59   166.01   372.56   166.01   370.06 " style="stroke-width: 1.42 ;&st7; " /><text style="&st18;" transform="matrix(&st16;  201.44  381.09 )">(*5)</text><text style="&st18;" transform="matrix(&st16;  194.48  381.09 )">I</text><text style="&st18;" transform="matrix(&st16;  180.63  381.09 )">36</text><text style="&st18;" transform="matrix(&st16;  152.18  423.02 )">CAN+</text><text style="&st18;" transform="matrix(&st16;  186.18  423.02 )">CAN-</text><text ewd:textID="5" style="&st18;" transform="matrix(&st16;  277.93  151.06 )">Junction Connector</text><text style="&st18;" transform="matrix(&st16;  286.43  441.43 )">DLC3</text><text ewd:textID="3" style="&st18;" transform="matrix(&st16;  150.45  32.08 )">A/C Amplifier</text><text style="&st18;" transform="matrix(&st16;  150.45  24.98 )">H18</text><text style="&st18;" transform="matrix(&st16;  147.44  500.92 )">1</text><text style="&st18;" transform="matrix(&st16;  180.65  500.92 )">6</text><text style="&st18;" transform="matrix(&st16;  159.14  619.62 )">A</text><text style="&st18;" transform="matrix(&st16;  147.45  619.62 )">21</text><text style="&st18;" transform="matrix(&st16;  193.14  619.62 )">A</text><text style="&st18;" transform="matrix(&st16;  180.66  619.62 )">20</text><text style="&st18;" transform="matrix(&st16;  152.18  629.82 )">CAN+</text><text style="&st18;" transform="matrix(&st16;  186.18  629.82 )">CAN-</text><text style="&st18;" transform="matrix(&st17;  157.78  475.43 )">L</text><text style="&st18;" transform="matrix(&st17;  191.77  476.81 )">W</text><text style="&st18;" transform="matrix(&st17;  157.78  522.18 )">L</text><text style="&st18;" transform="matrix(&st17;  191.77  523.55 )">W</text><text style="&st18;" transform="matrix(&st17;  157.78  598.66 )">L</text><text style="&st18;" transform="matrix(&st17;  191.77  600.04 )">W</text><text style="&st18;" transform="matrix(&st17;  169.11  479.64 )">(*6)</text><text style="&st18;" transform="matrix(&st17;  203.1  479.64 )">(*6)</text><text style="&st18;" transform="matrix(&st17;  169.11  526.38 )">(*6)</text><text style="&st18;" transform="matrix(&st17;  203.1  526.38 )">(*6)</text><text ewd:textID="7" style="&st18;" transform="matrix(&st16;  150.45  670.89 )">Transmission <tspan dy="6" x="0">Control ECU</tspan></text><text style="&st18;" transform="matrix(&st16;  150.45  663.79 )">O3(A)</text><text style="&st18;" transform="matrix(&st16;  226.94  54.75 )">* 1 :1TR-FE, 2TR-FE</text><text ewd:textID="6" style="&st18;" transform="matrix(&st16;  356.23  168.06 )">ST-Plug</text><text style="&st18;" transform="matrix(&st16;  376.42  230.94 )">1</text><text style="&st18;" transform="matrix(&st16;  341.65  176.56 )">2</text><text style="&st18;" transform="matrix(&st16;  341.65  193.56 )">3</text><text style="&st18;" transform="matrix(&st16;  146.66  560.41 )">8</text><text style="&st18;" transform="matrix(&st16;  146.66  568.91 )">9</text><text style="&st18;" transform="matrix(&st16;  205.38  568.91 )">(*4)</text><text style="&st18;" transform="matrix(&st16;  205.38  560.41 )">(*3)</text><text style="&st18;" transform="matrix(&st16;  177.47  560.41 )">16</text><text style="&st18;" transform="matrix(&st16;  177.47  568.91 )">19</text><text style="&st18;" transform="matrix(&st16;  226.94  63.24 )">* 3 :1KD-FTV</text><text style="&st18;" transform="matrix(&st16;  226.94  71.74 )">* 4 :2KD-FTV</text><text ewd:textID="1" style="&st18;" transform="matrix(&st16;  226.94  80.24 )">* 5 :1KD-FTV From Aug. 2010 Production</text><text ewd:textID="2" style="&st18;" transform="matrix(&st16;  226.94  88.74 )">* 6 :1KD-FTV Before Aug. 2010 Production, 2KD-FTV</text><text ewd:textID="4" style="&st18;" transform="matrix(&st17;  140.78  429.24 )">Engine ECU</text><text style="&st18;" transform="matrix(&st17;  133.67  429.24 )">B7(B),B47(I),D71(L)</text><text style="&st18;" transform="matrix(&st16;  201.44  433.22 )">(*6)</text><text style="&st18;" transform="matrix(&st16;  181.41  433.22 )">21</text><text style="&st18;" transform="matrix(&st16;  193.14  433.22 )">B</text><text style="&st18;" transform="matrix(&st16;  201.44  442.28 )">(*5)</text><text style="&st18;" transform="matrix(&st16;  181.41  442.28 )">18</text><text style="&st18;" transform="matrix(&st16;  193.49  442.28 )">L</text><text style="&st18;" transform="matrix(&st16;  146.64  433.22 )">22</text><text style="&st18;" transform="matrix(&st16;  159.14  433.22 )">B</text><text style="&st18;" transform="matrix(&st16;  146.64  442.28 )">24</text><text style="&st18;" transform="matrix(&st16;  159.49  442.28 )">L</text><text style="&st18;" transform="matrix(&st16;  201.44  372.03 )">(*6)</text><text style="&st18;" transform="matrix(&st16;  180.63  372.03 )">23</text><text style="&st18;" transform="matrix(&st16;  193.14  372.03 )">B</text><text style="&st18;" transform="matrix(&st16;  146.64  372.03 )">24</text><text style="&st18;" transform="matrix(&st16;  159.14  372.03 )">B</text><text ewd:textID="5" style="&st18;" transform="matrix(&st16;  445.07  591.57 )">Junction <tspan dy="6" x="0">Connector</tspan></text><text style="&st18;" transform="matrix(&st16;  445.07  584.47 )">H41</text><text style="&st18;" transform="matrix(&st16;  427.42  604.88 )">1</text><text style="&st18;" transform="matrix(&st16;  423.46  576.0 )">12</text><text style="&st18;" transform="matrix(&st17;  132.28  496.68 )">L</text><text style="&st18;" transform="matrix(&st17;  143.61  500.88 )">(*5)</text><text style="&st18;" transform="matrix(&st17;  217.27  498.06 )">W</text><text style="&st18;" transform="matrix(&st17;  228.6  500.88 )">(*5)</text><text style="&st18;" transform="matrix(&st16;  159.14  246.25 )">B</text><text style="&st18;" transform="matrix(&st17;  429.73  553.39 )">W-B</text><text style="&st18;" transform="matrix(&st17;  429.73  655.38 )">W-B</text><text style="&st18;" transform="matrix(&st16;  420.74  373.44 )">7</text><text style="&st18;" transform="matrix(&st16;  428.55  373.44 )">5M</text><text style="&st18;" transform="matrix(&st16;  186.21  74.58 )">CANL</text><text style="&st18;" transform="matrix(&st16;  151.72  74.58 )">CANH</text><text style="&st18;" transform="matrix(&st16;  151.72  400.35 )">CANH</text><text style="&st18;" transform="matrix(&st16;  186.21  400.35 )">CANL</text><text style="&st18;" transform="matrix(&st16;  279.2  400.35 )">CANH</text><text style="&st18;" transform="matrix(&st16;  313.69  400.35 )">CANL</text><text style="&st18;" transform="matrix(&st17;  378.74  595.89 )">W-B</text><text style="&st18;" transform="matrix(&st17;  378.74  306.94 )">W-B</text><text style="&st18;" transform="matrix(&st17;  319.25  328.09 )">W</text><text style="&st18;" transform="matrix(&st17;  285.26  327.2 )">R</text><text style="&st18;" transform="matrix(&st17;  191.77  353.58 )">W</text><text style="&st18;" transform="matrix(&st17;  157.78  352.56 )">B</text><text style="&st18;" transform="matrix(&st17;  191.77  285.59 )">W</text><text style="&st18;" transform="matrix(&st17;  157.78  284.57 )">B</text><text style="&st18;" transform="matrix(&st17;  191.77  115.62 )">W</text><text style="&st18;" transform="matrix(&st17;  157.78  114.24 )">L</text><text style="&st18;" transform="matrix(&st16;  277.93  143.96 )">H3(A),H4(B),H5(C),H6(D)</text><text style="&st18;" transform="matrix(&st16;  286.43  434.32 )">H23</text><text style="&st18;" transform="matrix(&st16;  312.97  389.03 )">14</text><text style="&st18;" transform="matrix(&st16;  282.16  389.03 )">6</text><text style="&st18;" transform="matrix(&st16;  186.28  86.47 )">11</text><text style="&st18;" transform="matrix(&st16;  151.51  86.47 )">10</text><text style="&st18;" transform="matrix(&st16;  176.7  322.45 )">22</text><text style="&st18;" transform="matrix(&st16;  144.26  322.45 )">11</text><text style="&st18;" transform="matrix(&st16;  366.57  373.44 )">12</text><text style="&st18;" transform="matrix(&st16;  378.13  373.44 )">5E</text><text style="&st18;" transform="matrix(&st16;  370.52  330.95 )">1</text><text style="&st18;" transform="matrix(&st16;  378.13  330.95 )">5S</text><text style="&st18;" transform="matrix(&st16;  159.14  152.2 )">A</text><text style="&st18;" transform="matrix(&st16;  151.37  152.2 )">1</text><text style="&st18;" transform="matrix(&st16;  193.14  152.2 )">A</text><text style="&st18;" transform="matrix(&st16;  184.59  152.2 )">2</text><text style="&st18;" transform="matrix(&st16;  151.37  246.25 )">1</text><text style="&st18;" transform="matrix(&st16;  193.14  246.25 )">B</text><text style="&st18;" transform="matrix(&st16;  184.59  246.25 )">2</text><text style="&st18;" transform="matrix(&st16;  286.48  246.25 )">C</text><text style="&st18;" transform="matrix(&st16;  278.85  246.25 )">1</text><text style="&st18;" transform="matrix(&st16;  320.47  246.25 )">C</text><text style="&st18;" transform="matrix(&st16;  312.07  246.25 )">2</text><text style="&st18;" transform="matrix(&st16;  379.96  246.25 )">D</text><text style="&st18;" transform="matrix(&st16;  372.34  246.25 )">1</text><text style="&st18;" transform="matrix(&st16;  159.14  390.16 )">B</text><text style="&st18;" transform="matrix(&st16;  146.64  390.16 )">33</text><text style="&st18;" transform="matrix(&st16;  160.48  381.09 )">I</text><text style="&st18;" transform="matrix(&st16;  146.64  381.09 )">35</text><text style="&st18;" transform="matrix(&st16;  201.44  390.16 )">(*1)</text><text style="&st18;" transform="matrix(&st16;  193.14  390.16 )">B</text><text style="&st18;" transform="matrix(&st16;  180.63  390.16 )">34</text></svg>