﻿<?xml version="1.0" encoding="utf-8"?>
<!DOCTYPE svg PUBLIC "-//W3C//DTD SVG 1.0//EN" "http://www.w3.org/TR/2001/REC-SVG-20010904/DTD/svg10.dtd"[
	<!ENTITY ns_flows "http://ns.adobe.com/Flows/1.0/">
	<!ENTITY ns_svg "http://www.w3.org/2000/svg">
	<!ENTITY ns_xlink "http://www.w3.org/1999/xlink">
	<!ENTITY st0 "font-size:7px;font-family:'MS-PGothic';adobe-font-script:japanese;">
	<!ENTITY st1 "font-size:6px;font-family:'ArialMT';">
	<!-- White fill  -->
	<!ENTITY st2 "fill:#FFFFFF;stroke:#000000; stroke-width:1.41;stroke-linecap:round;stroke-linejoin:round;">
	<!-- Yellow fill  -->
	<!ENTITY st3 "fill:#FFFFCC;stroke:#FFFFCC; stroke-width:0.1;stroke-linecap:round;stroke-linejoin:round;">
	<!-- Gray fill  -->
	<!ENTITY st4 "fill:#CCCCCC;stroke:#CCCCCC; stroke-width:0.1;stroke-linecap:round;stroke-linejoin:round;">
	<!-- Light-blue fill -->
	<!ENTITY st5 "fill:#CCECF4;stroke:#000000; stroke-width:1.133;stroke-linecap:round;stroke-linejoin:round;">
	<!ENTITY st6 "fill:none;stroke-linecap:butt; stroke-linejoin:round;">
	<!ENTITY st7 "fill:none;stroke:#000000;stroke-linecap:round;stroke-linejoin:round;">
	<!ENTITY st8 "enable-background:new    ;">
	<!-- Black fill -->
	<!ENTITY st9 "fill:#000000;stroke:#000000; stroke-linecap:round;stroke-linejoin:round;">
	<!-- SRS note   -->
	<!ENTITY st10 "font-size:9px;font-family:'ArialMT';">
	<!ENTITY st11 "font-size:9px;font-family:'Svg Symbol';">
	<!ENTITY st12 "font-size:6px;font-family:'Svg Symbol';">
	<!ENTITY st13 "fill:none;stroke:#ff0000;stroke-linecap:round;stroke-linejoin:round;">
	<!-- Yellow fill  -->
	<!ENTITY st14 "fill:#FFFF00;stroke:#FFFF00; stroke-width:0.1;stroke-linecap:round;stroke-linejoin:round;">
	<!ENTITY st15 "font-size:6px;font-family:'MS-PGothic';adobe-font-script:japanese;">
	<!ENTITY st16 "1.00 0.00 0.00 1.00">
	<!ENTITY st17 "0.00 -1.00 1.00 0.00">
	<!ENTITY st18 "font-size:6px;font-family:'Arial';">
	<!ENTITY st19 "font-size:9px;font-family:'Arial';">
	<!ENTITY st20 "font-size:6px;font-family:'MS-PGothic','MS PGothic';adobe-font-script:japanese;">
	<!ENTITY st21 "font-size:7px;font-family:'MS-PGothic','MS PGothic';adobe-font-script:japanese;">
	<!ATTLIST svg
		xmlns:ewd CDATA #FIXED "http://shcl.co.jp/ewd"
		xmlns:a CDATA #FIXED "http://ns.adobe.com/AdobeSVGViewerExtensions/3.0/"
		ewd:ver CDATA #IMPLIED
	>
	<!ATTLIST a
		ewd:lineID CDATA #IMPLIED
		ewd:groupID CDATA #IMPLIED
		ewd:figtype CDATA #IMPLIED
		ewd:code CDATA #IMPLIED
		ewd:figID CDATA #IMPLIED
		ewd:pinNo CDATA #IMPLIED
		ewd:comment CDATA #IMPLIED >
	<!ATTLIST g
		ewd:lineID CDATA #IMPLIED
		ewd:groupID CDATA #IMPLIED
		ewd:figtype CDATA #IMPLIED
		ewd:code CDATA #IMPLIED
		ewd:figID CDATA #IMPLIED
		ewd:pinNo CDATA #IMPLIED
		ewd:comment CDATA #IMPLIED >
	<!ATTLIST text
		ewd:textID CDATA #IMPLIED >
	<!ATTLIST title
		ewd:textID CDATA #IMPLIED >
]>
<!-- Generator: Shintec Hozumi YS   -->
<svg onload="call_execInitLoadProc_svg('system')" style="overflow:visible;  enable-background:new 0 0 1547.450 710.000" viewBox="0 0 1547.450 710.000" height="710.000" width="1547.450" xml:space="preserve" ewd:ver="L2.1.2.5" xmlns="&ns_svg;" xmlns:a="http://ns.adobe.com/AdobeSVGViewerExtensions/3.0/" xmlns:ewd="http://shcl.co.jp/ewd" xmlns:xlink="&ns_xlink;">
<path d=" M  917.85,  511.70  L  917.85,  589.89  L  909.35,  589.89  L  909.35,  589.88  L  892.35,  589.88 " style="stroke:#000000;stroke-width: 5.10 ;&st6;" /><path d=" M  883.85,  571.19  L  883.85,  511.70 " style="stroke:#FFE600;stroke-width: 5.10 ;&st6;" /><path d=" M  773.37,  596.69  L  798.87,  596.69  L  798.87,  554.19  L  866.86,  554.19  L  866.86,  571.19 " style="stroke:#00A0C6;stroke-width: 5.10 ;&st6;" /><path d=" M  671.39,  571.19  L  671.39,  596.69  L  773.37,  596.69 " style="stroke:#00A0C6;stroke-width: 5.10 ;&st6;" /><path d=" M  773.37,  596.69  L  773.37,  630.68 " style="stroke:#00A0C6;stroke-width: 5.10 ;&st6;" /><path d=" M  620.40,  511.70  L  620.40,  562.69  L  606.23,  562.69 " style="stroke:#000000;stroke-width: 5.10 ;&st6;" /><path d=" M  569.40,  511.70  L  569.40,  562.69  L  583.57,  562.69 " style="stroke:#FF0000;stroke-width: 5.10 ;&st6;" /><path d=" M  764.87,  511.70  L  764.87,  537.20 " style="stroke:#FF0000;stroke-width: 5.10 ;&st6;" /><path d=" M  577.90,   69.77  L  577.90,   95.27 " style="stroke-width: 0.85 ;&st7; " /><path d=" M  580.03,   95.27  L  575.78,   95.27 " style="stroke-width: 1.42 ;&st7; " /><path d=" M  580.03,  103.77  L  575.78,  103.77 " style="stroke-width: 1.42 ;&st7; " /><path d=" M  569.40,  137.76  L  577.90,  137.76 " style="stroke-width: 1.42 ;&st7; " /><path d=" M  569.40,  256.74  L  560.91,  256.74 " style="stroke-width: 1.42 ;&st7; " /><path d=" M  552.41,  299.24  L  560.91,  299.24 " style="stroke-width: 1.42 ;&st7; " /><path d=" M  606.23,  566.94  L  606.23,  558.44 " style="stroke-width: 1.42 ;&st7; " /><path d=" M  602.27,  566.94  L  606.23,  566.94 " style="stroke-width: 1.42 ;&st7; " /><path d=" M  606.23,  558.44  L  602.27,  558.44 " style="stroke-width: 1.42 ;&st7; " /><path d=" M  583.57,  566.94  L  583.57,  558.44 " style="stroke-width: 1.42 ;&st7; " /><path d=" M  587.54,  566.94  L  583.57,  566.94 " style="stroke-width: 1.42 ;&st7; " /><path d=" M  583.57,  558.44  L  587.54,  558.44 " style="stroke-width: 1.42 ;&st7; " /><path d=" M  662.89,  511.70  L  662.89,  537.20 " style="stroke-width: 0.85 ;&st7; " /><path d=" M  671.39,  562.69  L  671.39,  571.19 " style="stroke-width: 0.85 ;&st7; " /><path d=" M  654.91,  563.54  L  662.89,  548.53 " style="stroke-width: 1.42 ;&st7; " /><path d=" M  866.86,  578.27  L  855.87,  598.89 " style="stroke-width: 1.42 ;&st7; " /><path d=" M  773.37,  562.69  L  773.37,  571.19 " style="stroke-width: 0.85 ;&st7; " /><path d=" M  756.89,  563.54  L  764.87,  548.53 " style="stroke-width: 1.42 ;&st7; " /><path d=" M  773.37,  595.69  L  773.37,  597.68 " style="stroke-width: 1.42 ;&st7; " /><path d=" M  662.89,  537.20  L  662.89,  545.69 " style="stroke-width: 0.85 ;&st7; " /><path d=" M  773.37,  571.19  L  773.37,  596.69 " style="stroke-width: 0.85 ;&st7; " /><path d=" M  977.34,  418.22  L  985.84,  418.22 " style="stroke-width: 1.42 ;&st7; " /><path d=" M  654.39,  418.22  L  662.89,  418.22 " style="stroke-width: 1.42 ;&st7; " /><path d=" M  742.21,  252.49  L  738.24,  252.49 " style="stroke-width: 1.42 ;&st7; " /><path d=" M  719.55,  243.99  L  719.55,  252.49 " style="stroke-width: 1.42 ;&st7; " /><path d=" M  742.21,  243.99  L  742.21,  252.49 " style="stroke-width: 1.42 ;&st7; " /><path d=" M  723.51,  243.99  L  719.55,  243.99 " style="stroke-width: 1.42 ;&st7; " /><path d=" M  719.55,  252.49  L  723.51,  252.49 " style="stroke-width: 1.42 ;&st7; " /><path d=" M  738.24,  243.99  L  742.21,  243.99 " style="stroke-width: 1.42 ;&st7; " /><path d=" M  662.89,  290.74  L  654.39,  290.74 " style="stroke-width: 1.42 ;&st7; " /><path d=" M  662.89,  239.75  L  654.39,  239.75 " style="stroke-width: 1.42 ;&st7; " /><path d=" M  654.39,  171.76  L  654.39,  197.25 " style="stroke-width: 0.85 ;&st7; " /><path d=" M  658.64,  188.75  L  650.14,  188.75 " style="stroke-width: 0.85 ;&st7; " /><path d=" M  977.34,  460.71  L  985.84,  460.71 " style="stroke-width: 1.42 ;&st7; " /><path d=" M  654.39,  460.71  L  662.89,  460.71 " style="stroke-width: 1.42 ;&st7; " /><path d=" M  985.84,  538.61  L  991.50,  515.95 " style="stroke-width: 1.42 ;&st7; " /><path d=" M  985.84,  545.69  L  985.84,  541.44 " style="stroke-width: 0.85 ;&st7; " /><path d=" M  985.84,  515.95  L  985.84,  511.70 " style="stroke-width: 0.85 ;&st7; " /><path d=" M  756.37,  418.22  L  764.87,  418.22 " style="stroke-width: 1.42 ;&st7; " /><path d=" M  756.37,  460.71  L  764.87,  460.71 " style="stroke-width: 1.42 ;&st7; " /><path d=" M  909.35,  418.22  L  917.85,  418.22 " style="stroke-width: 1.42 ;&st7; " /><path d=" M  909.35,  460.71  L  917.85,  460.71 " style="stroke-width: 1.42 ;&st7; " /><path d=" M  875.35,  418.22  L  883.85,  418.22 " style="stroke-width: 1.42 ;&st7; " /><path d=" M  875.35,  460.71  L  883.85,  460.71 " style="stroke-width: 1.42 ;&st7; " /><path d=" M  611.90,  418.22  L  620.40,  418.22 " style="stroke-width: 1.42 ;&st7; " /><path d=" M  611.90,  460.71  L  620.40,  460.71 " style="stroke-width: 1.42 ;&st7; " /><path d=" M  560.91,  418.22  L  569.40,  418.22 " style="stroke-width: 1.42 ;&st7; " /><path d=" M  560.91,  460.71  L  569.40,  460.71 " style="stroke-width: 1.42 ;&st7; " /><path d=" M  994.33,  669.65  L  989.36,  664.67 " style="stroke-width: 1.42 ;&st7; " /><path d=" M  977.34,  676.70  L  982.31,  681.67 " style="stroke-width: 1.42 ;&st7; " /><path d=" M  989.36,  681.67  L  994.33,  676.70 " style="stroke-width: 1.42 ;&st7; " /><path d=" M  982.31,  664.67  L  977.34,  669.65 " style="stroke-width: 1.42 ;&st7; " /><path d=" M  781.87,  669.65  L  776.90,  664.67 " style="stroke-width: 1.42 ;&st7; " /><path d=" M  764.87,  676.70  L  769.84,  681.67 " style="stroke-width: 1.42 ;&st7; " /><path d=" M  776.90,  681.67  L  781.87,  676.70 " style="stroke-width: 1.42 ;&st7; " /><path d=" M  769.84,  664.67  L  764.87,  669.65 " style="stroke-width: 1.42 ;&st7; " /><path d=" M  981.59,  409.15  L  985.83,  413.40  L  990.08,  409.15 " style="stroke-width: 1.42 ;&st7; " /><path d=" M  658.64,  296.40  L  654.39,  292.15  L  650.14,  296.40 " style="stroke-width: 1.42 ;&st7; " /><path d=" M  658.64,  299.80  L  654.39,  295.55  L  650.14,  299.80 " style="stroke-width: 1.42 ;&st7; " /><path d=" M  658.64,  409.15  L  662.89,  413.40  L  667.14,  409.15 " style="stroke-width: 1.42 ;&st7; " /><path d=" M  667.14,  412.55  L  662.89,  416.80  L  658.64,  412.55 " style="stroke-width: 1.42 ;&st7; " /><path d=" M  883.85,  256.74  L  883.85,  273.74 " style="stroke-width: 0.85 ;&st7; " /><path d=" M  841.36,  222.75  L  841.36,  256.74  L  951.84,  256.74  L  951.84,  222.75  L  841.36,  222.75 " style="stroke-width: 1.42 ;&st7; " /><path d=" M  858.36,  256.74  L  858.36,  273.74 " style="stroke-width: 0.85 ;&st7; " /><path d=" M  815.86,  256.74  L  815.86,  273.74 " style="stroke-width: 0.85 ;&st7; " /><path d=" M  773.37,  222.75  L  773.37,  256.74  L  824.36,  256.74  L  824.36,  222.75  L  773.37,  222.75 " style="stroke-width: 1.42 ;&st7; " /><path d=" M  781.87,  256.74  L  781.87,  273.74 " style="stroke-width: 0.85 ;&st7; " /><path d=" M  742.21,  248.24  L  756.37,  248.24  L  756.37,  273.74 " style="stroke-width: 0.85 ;&st7; " /><path d=" M  909.35,  256.74  L  909.35,  273.74 " style="stroke-width: 0.85 ;&st7; " /><path d=" M  658.64,  248.81  L  654.39,  244.56  L  650.14,  248.81 " style="stroke-width: 1.42 ;&st7; " /><path d=" M  658.64,  245.41  L  654.39,  241.16  L  650.14,  245.41 " style="stroke-width: 1.42 ;&st7; " /><path d=" M  654.39,  188.75  L  648.72,  180.26  L  660.06,  180.26  L  654.39,  188.75 " style="stroke-width: 0.28 ;&st9;" /><path d=" M  645.89,  197.25  L  662.89,  197.25  L  662.89,  171.76  L  645.89,  171.76  L  645.89,  197.25 " style="stroke-width: 1.42 ;&st7; " /><path d=" M  577.90,   90.37  L  575.07,   87.54  L  575.07,   91.79  L  577.90,   94.62  L  580.74,   91.79  L  580.74,   87.54  L  577.90,   90.37 " style="stroke-width: 0.28 ;&st9;" /><path d=" M  688.38,  205.75  L  688.38,  273.74  L  968.84,  273.74  L  968.84,  205.75  L  688.38,  205.75 " style="stroke-width: 1.42 ;&st7; " /><path d=" M  990.08,  412.55  L  985.83,  416.80  L  981.59,  412.55 " style="stroke-width: 1.42 ;&st7; " /><path d=" M  719.55,  248.24  L  705.38,  248.24  L  705.38,  273.74 " style="stroke-width: 0.85 ;&st7; " /><path d=" M  981.59,  451.64  L  985.83,  455.89  L  990.08,  451.64 " style="stroke-width: 1.42 ;&st7; " /><path d=" M  990.08,  455.04  L  985.83,  459.29  L  981.59,  455.04 " style="stroke-width: 1.42 ;&st7; " /><path d=" M  994.33,  545.69  L  994.33,  511.70  L  977.34,  511.70  L  977.34,  545.69  L  994.33,  545.69 " style="stroke-width: 1.42 ;&st7; " /><path d=" M  658.64,  451.64  L  662.89,  455.89  L  667.14,  451.64 " style="stroke-width: 1.42 ;&st7; " /><path d=" M  667.14,  455.04  L  662.89,  459.29  L  658.64,  455.04 " style="stroke-width: 1.42 ;&st7; " /><path d=" M  760.62,  409.15  L  764.87,  413.40  L  769.12,  409.15 " style="stroke-width: 1.42 ;&st7; " /><path d=" M  769.12,  412.55  L  764.87,  416.80  L  760.62,  412.55 " style="stroke-width: 1.42 ;&st7; " /><path d=" M  760.62,  451.64  L  764.87,  455.89  L  769.12,  451.64 " style="stroke-width: 1.42 ;&st7; " /><path d=" M  769.12,  455.04  L  764.87,  459.29  L  760.62,  455.04 " style="stroke-width: 1.42 ;&st7; " /><path d=" M  913.60,  409.15  L  917.85,  413.40  L  922.10,  409.15 " style="stroke-width: 1.42 ;&st7; " /><path d=" M  922.10,  412.55  L  917.85,  416.80  L  913.60,  412.55 " style="stroke-width: 1.42 ;&st7; " /><path d=" M  866.85,  583.94  L  883.85,  583.94 " style="stroke-width: 0.85 ;&st7; " /><path d=" M  913.60,  451.64  L  917.85,  455.89  L  922.10,  451.64 " style="stroke-width: 1.42 ;&st7; " /><path d=" M  922.10,  455.04  L  917.85,  459.29  L  913.60,  455.04 " style="stroke-width: 1.42 ;&st7; " /><path d=" M  879.60,  409.15  L  883.85,  413.40  L  888.10,  409.15 " style="stroke-width: 1.42 ;&st7; " /><path d=" M  888.10,  412.55  L  883.85,  416.80  L  879.60,  412.55 " style="stroke-width: 1.42 ;&st7; " /><path d=" M  879.60,  451.64  L  883.85,  455.89  L  888.10,  451.64 " style="stroke-width: 1.42 ;&st7; " /><path d=" M  888.10,  455.04  L  883.85,  459.29  L  879.60,  455.04 " style="stroke-width: 1.42 ;&st7; " /><path d=" M  616.15,  409.15  L  620.40,  413.40  L  624.65,  409.15 " style="stroke-width: 1.42 ;&st7; " /><path d=" M  624.65,  412.55  L  620.40,  416.80  L  616.15,  412.55 " style="stroke-width: 1.42 ;&st7; " /><path d=" M  616.15,  451.64  L  620.40,  455.89  L  624.65,  451.64 " style="stroke-width: 1.42 ;&st7; " /><path d=" M  624.65,  455.04  L  620.40,  459.29  L  616.15,  455.04 " style="stroke-width: 1.42 ;&st7; " /><path d=" M  565.16,  409.15  L  569.40,  413.40  L  573.65,  409.15 " style="stroke-width: 1.42 ;&st7; " /><path d=" M  573.65,  412.55  L  569.40,  416.80  L  565.16,  412.55 " style="stroke-width: 1.42 ;&st7; " /><path d=" M  565.16,  451.64  L  569.40,  455.89  L  573.65,  451.64 " style="stroke-width: 1.42 ;&st7; " /><path d=" M  573.65,  455.04  L  569.40,  459.29  L  565.16,  455.04 " style="stroke-width: 1.42 ;&st7; " /><path d=" M  590.65,   78.27  L  590.65,   35.78  L  565.16,   35.78  L  565.16,   78.27  L  590.65,   78.27 " style="stroke-width: 1.42 ;&st7; " /><path d=" M  573.65,  128.70  L  577.90,  132.95  L  582.15,  128.70 " style="stroke-width: 1.42 ;&st7; " /><path d=" M  582.15,  132.10  L  577.90,  136.35  L  573.65,  132.10 " style="stroke-width: 1.42 ;&st7; " /><path d=" M  535.41,  180.26  L  535.41,  214.25  L  586.40,  214.25  L  586.40,  180.26  L  535.41,  180.26 " style="stroke-width: 1.42 ;&st7; " /><path d=" M  552.41,  180.26  L  552.41,  214.25 " style="stroke-width: 0.85 ;&st7; " /><path d=" M  569.40,  180.26  L  569.40,  214.25 " style="stroke-width: 0.85 ;&st7; " /><path d=" M  535.41,  197.25  L  586.40,  197.25 " style="stroke-width: 0.85 ;&st7; " /><path d=" M  562.32,  205.75  L  576.49,  205.75 " style="stroke-width: 0.85 ;&st7; " /><path d=" M  565.16,  265.81  L  560.91,  261.56  L  556.66,  265.81 " style="stroke-width: 1.42 ;&st7; " /><path d=" M  565.16,  262.41  L  560.91,  258.16  L  556.66,  262.41 " style="stroke-width: 1.42 ;&st7; " /><path d=" M  556.66,  290.17  L  560.91,  294.42  L  565.16,  290.17 " style="stroke-width: 1.42 ;&st7; " /><path d=" M  565.16,  293.57  L  560.91,  297.82  L  556.66,  293.57 " style="stroke-width: 1.42 ;&st7; " /><path d=" M  654.39,   86.77  L  654.39,  103.77 " style="stroke-width: 0.85 ;&st7; " /><path d=" M  934.84,  256.74  L  934.84,  273.74 " style="stroke-width: 0.85 ;&st7; " /><path d=" M  645.89,   86.77  L  662.89,   86.77  L  662.89,  103.77  L  645.89,  103.77  L  645.89,   86.77 " style="stroke-width: 1.42 ;&st7; " /><path d=" M  645.89,  537.20  L  679.89,  537.20  L  679.89,  571.19  L  645.89,  571.19  L  645.89,  537.20 " style="stroke-width: 1.42 ;&st7; " /><path d=" M  866.85,  583.94  L  866.85,  589.60 " style="stroke-width: 0.85 ;&st7; " /><path d=" M  892.35,  589.88  L  879.87,  589.88  L  883.88,  593.88 " style="stroke-width: 0.85 ;&st7; " /><path d=" M  781.87,  537.20  L  781.87,  571.19  L  747.87,  571.19  L  747.87,  537.20  L  781.87,  537.20 " style="stroke-width: 1.42 ;&st7; " /><path d=" M  883.85,  571.19  L  883.85,  583.94 " style="stroke-width: 0.85 ;&st7; " /><path d=" M  841.36,  571.19  L  892.35,  571.19  L  892.35,  605.18  L  841.36,  605.18  L  841.36,  571.19 " style="stroke-width: 1.42 ;&st7; " /><path d=" M  866.85,  583.94  L  866.85,  589.60 " style="stroke-width: 0.85 ;&st7; " /><path d=" M  861.85,  581.86  L  857.84,  585.87 " style="stroke-width: 0.85 ;&st7; " /><path d=" M  853.83,  589.88  L  849.83,  593.88 " style="stroke-width: 0.85 ;&st7; " /><path d=" M  934.84,  511.70  L  543.91,  511.70  L  543.91,  630.68  L  934.84,  630.68  L  934.84,  511.70 " style="stroke-width: 1.42 ;&st7; " /><path d=" M  866.85,  571.19  L  866.85,  575.44 " style="stroke-width: 0.85 ;&st7; " /><path d=" M  764.87,  537.20  L  764.87,  545.69 " style="stroke-width: 0.85 ;&st7; " /><path d=" M  579.32,   45.69  C  579.32    44.91   578.69    44.28   577.90    44.28 " style="stroke-width: 0.85 ;&st7; " /><path d=" M  577.90,   44.28  C  577.12    44.28   576.49    44.91   576.49    45.69 " style="stroke-width: 0.85 ;&st7; " /><path d=" M  576.49,   45.69  C  576.49    46.48   577.12    47.11   577.90    47.11 " style="stroke-width: 0.85 ;&st7; " /><path d=" M  577.90,   47.11  C  578.69    47.11   579.32    46.48   579.32    45.69 " style="stroke-width: 0.85 ;&st7; " /><path d=" M  579.32,   68.36  C  579.32    67.57   578.69    66.94   577.90    66.94 " style="stroke-width: 0.85 ;&st7; " /><path d=" M  577.90,   66.94  C  577.12    66.94   576.49    67.57   576.49    68.36 " style="stroke-width: 0.85 ;&st7; " /><path d=" M  576.49,   68.36  C  576.49    69.14   577.12    69.77   577.90    69.77 " style="stroke-width: 0.85 ;&st7; " /><path d=" M  577.90,   69.77  C  578.69    69.77   579.32    69.14   579.32    68.36 " style="stroke-width: 0.85 ;&st7; " /><path d=" M  575.78,   95.27  C  573.43    95.27   571.53    97.17   571.53    99.52 " style="stroke-width: 1.42 ;&st7; " /><path d=" M  571.53,   99.52  C  571.53   101.87   573.43   103.77   575.78   103.77 " style="stroke-width: 1.42 ;&st7; " /><path d=" M  580.03,  103.77  C  582.37   103.77   584.28   101.87   584.28    99.52 " style="stroke-width: 1.42 ;&st7; " /><path d=" M  584.28,   99.52  C  584.28    97.17   582.37    95.27   580.03    95.27 " style="stroke-width: 1.42 ;&st7; " /><path d=" M  939.38,  278.27  C  939.38   275.77   937.35   273.74   934.84   273.74 " style="stroke-width: 1.42 ;&st7; " /><path d=" M  934.84,  273.74  C  932.34   273.74   930.31   275.77   930.31   278.27 " style="stroke-width: 1.42 ;&st7; " /><path d=" M  930.31,  278.27  C  930.31   280.78   932.34   282.80   934.84   282.80 " style="stroke-width: 1.42 ;&st7; " /><path d=" M  934.84,  282.80  C  937.35   282.80   939.38   280.78   939.38   278.27 " style="stroke-width: 1.42 ;&st7; " /><path d=" M  913.88,  278.27  C  913.88   275.77   911.85   273.74   909.35   273.74 " style="stroke-width: 1.42 ;&st7; " /><path d=" M  909.35,  273.74  C  906.84   273.74   904.82   275.77   904.82   278.27 " style="stroke-width: 1.42 ;&st7; " /><path d=" M  904.82,  278.27  C  904.82   280.78   906.84   282.80   909.35   282.80 " style="stroke-width: 1.42 ;&st7; " /><path d=" M  909.35,  282.80  C  911.85   282.80   913.88   280.78   913.88   278.27 " style="stroke-width: 1.42 ;&st7; " /><path d=" M  888.38,  278.27  C  888.38   275.77   886.36   273.74   883.85   273.74 " style="stroke-width: 1.42 ;&st7; " /><path d=" M  883.85,  273.74  C  881.35   273.74   879.32   275.77   879.32   278.27 " style="stroke-width: 1.42 ;&st7; " /><path d=" M  879.32,  278.27  C  879.32   280.78   881.35   282.80   883.85   282.80 " style="stroke-width: 1.42 ;&st7; " /><path d=" M  883.85,  282.80  C  886.36   282.80   888.38   280.78   888.38   278.27 " style="stroke-width: 1.42 ;&st7; " /><path d=" M  862.89,  278.27  C  862.89   275.77   860.86   273.74   858.36   273.74 " style="stroke-width: 1.42 ;&st7; " /><path d=" M  858.36,  273.74  C  855.85   273.74   853.82   275.77   853.82   278.27 " style="stroke-width: 1.42 ;&st7; " /><path d=" M  853.82,  278.27  C  853.82   280.78   855.85   282.80   858.36   282.80 " style="stroke-width: 1.42 ;&st7; " /><path d=" M  858.36,  282.80  C  860.86   282.80   862.89   280.78   862.89   278.27 " style="stroke-width: 1.42 ;&st7; " /><path d=" M  820.40,  278.27  C  820.40   275.77   818.37   273.74   815.86   273.74 " style="stroke-width: 1.42 ;&st7; " /><path d=" M  815.86,  273.74  C  813.36   273.74   811.33   275.77   811.33   278.27 " style="stroke-width: 1.42 ;&st7; " /><path d=" M  811.33,  278.27  C  811.33   280.78   813.36   282.80   815.86   282.80 " style="stroke-width: 1.42 ;&st7; " /><path d=" M  815.86,  282.80  C  818.37   282.80   820.40   280.78   820.40   278.27 " style="stroke-width: 1.42 ;&st7; " /><path d=" M  786.40,  278.27  C  786.40   275.77   784.37   273.74   781.87   273.74 " style="stroke-width: 1.42 ;&st7; " /><path d=" M  781.87,  273.74  C  779.37   273.74   777.34   275.77   777.34   278.27 " style="stroke-width: 1.42 ;&st7; " /><path d=" M  777.34,  278.27  C  777.34   280.78   779.37   282.80   781.87   282.80 " style="stroke-width: 1.42 ;&st7; " /><path d=" M  781.87,  282.80  C  784.37   282.80   786.40   280.78   786.40   278.27 " style="stroke-width: 1.42 ;&st7; " /><path d=" M  760.91,  278.27  C  760.91   275.77   758.88   273.74   756.37   273.74 " style="stroke-width: 1.42 ;&st7; " /><path d=" M  756.37,  273.74  C  753.87   273.74   751.84   275.77   751.84   278.27 " style="stroke-width: 1.42 ;&st7; " /><path d=" M  751.84,  278.27  C  751.84   280.78   753.87   282.80   756.37   282.80 " style="stroke-width: 1.42 ;&st7; " /><path d=" M  756.37,  282.80  C  758.88   282.80   760.91   280.78   760.91   278.27 " style="stroke-width: 1.42 ;&st7; " /><path d=" M  709.91,  278.27  C  709.91   275.77   707.89   273.74   705.38   273.74 " style="stroke-width: 1.42 ;&st7; " /><path d=" M  705.38,  273.74  C  702.88   273.74   700.85   275.77   700.85   278.27 " style="stroke-width: 1.42 ;&st7; " /><path d=" M  700.85,  278.27  C  700.85   280.78   702.88   282.80   705.38   282.80 " style="stroke-width: 1.42 ;&st7; " /><path d=" M  705.38,  282.80  C  707.89   282.80   709.91   280.78   709.91   278.27 " style="stroke-width: 1.42 ;&st7; " /><path d=" M  594.90,  571.19  C  599.59   571.19   603.40   567.38   603.40   562.69 " style="stroke-width: 1.42 ;&st7; " /><path d=" M  603.40,  562.69  C  603.40   558.00   599.59   554.19   594.90   554.19 " style="stroke-width: 1.42 ;&st7; " /><path d=" M  594.90,  554.19  C  590.21   554.19   586.40   558.00   586.40   562.69 " style="stroke-width: 1.42 ;&st7; " /><path d=" M  586.40,  562.69  C  586.40   567.38   590.21   571.19   594.90   571.19 " style="stroke-width: 1.42 ;&st7; " /><path d=" M  655.81,  561.27  C  655.81   560.49   655.17   559.86   654.39   559.86 " style="stroke-width: 0.85 ;&st7; " /><path d=" M  654.39,  559.86  C  653.61   559.86   652.97   560.49   652.97   561.27 " style="stroke-width: 0.85 ;&st7; " /><path d=" M  652.97,  561.27  C  652.97   562.06   653.61   562.69   654.39   562.69 " style="stroke-width: 0.85 ;&st7; " /><path d=" M  654.39,  562.69  C  655.17   562.69   655.81   562.06   655.81   561.27 " style="stroke-width: 0.85 ;&st7; " /><path d=" M  672.80,  561.27  C  672.80   560.49   672.17   559.86   671.39   559.86 " style="stroke-width: 0.85 ;&st7; " /><path d=" M  671.39,  559.86  C  670.61   559.86   669.97   560.49   669.97   561.27 " style="stroke-width: 0.85 ;&st7; " /><path d=" M  669.97,  561.27  C  669.97   562.06   670.61   562.69   671.39   562.69 " style="stroke-width: 0.85 ;&st7; " /><path d=" M  671.39,  562.69  C  672.17   562.69   672.80   562.06   672.80   561.27 " style="stroke-width: 0.85 ;&st7; " /><path d=" M  664.31,  547.11  C  664.31   546.33   663.67   545.69   662.89   545.69 " style="stroke-width: 0.85 ;&st7; " /><path d=" M  662.89,  545.69  C  662.11   545.69   661.47   546.33   661.47   547.11 " style="stroke-width: 0.85 ;&st7; " /><path d=" M  661.47,  547.11  C  661.47   547.89   662.11   548.53   662.89   548.53 " style="stroke-width: 0.85 ;&st7; " /><path d=" M  662.89,  548.53  C  663.67   548.53   664.31   547.89   664.31   547.11 " style="stroke-width: 0.85 ;&st7; " /><path d=" M  868.27,  576.86  C  868.27   576.07   867.64   575.44   866.86   575.44 " style="stroke-width: 0.85 ;&st7; " /><path d=" M  866.86,  575.44  C  866.07   575.44   865.44   576.07   865.44   576.86 " style="stroke-width: 0.85 ;&st7; " /><path d=" M  865.44,  576.86  C  865.44   577.64   866.07   578.27   866.86   578.27 " style="stroke-width: 0.85 ;&st7; " /><path d=" M  866.86,  578.27  C  867.64   578.27   868.27   577.64   868.27   576.86 " style="stroke-width: 0.85 ;&st7; " /><path d=" M  866.86,  595.27  C  871.94   595.27   876.28   593.47   879.88   589.88 " style="stroke-width: 0.85 ;&st7; " /><path d=" M  866.86,  600.93  C  873.50   600.93   879.18   598.58   883.88   593.88 " style="stroke-width: 0.85 ;&st7; " /><path d=" M  757.79,  561.27  C  757.79   560.49   757.16   559.86   756.37   559.86 " style="stroke-width: 0.85 ;&st7; " /><path d=" M  756.37,  559.86  C  755.59   559.86   754.96   560.49   754.96   561.27 " style="stroke-width: 0.85 ;&st7; " /><path d=" M  754.96,  561.27  C  754.96   562.06   755.59   562.69   756.37   562.69 " style="stroke-width: 0.85 ;&st7; " /><path d=" M  756.37,  562.69  C  757.16   562.69   757.79   562.06   757.79   561.27 " style="stroke-width: 0.85 ;&st7; " /><path d=" M  774.79,  561.27  C  774.79   560.49   774.15   559.86   773.37   559.86 " style="stroke-width: 0.85 ;&st7; " /><path d=" M  773.37,  559.86  C  772.59   559.86   771.95   560.49   771.95   561.27 " style="stroke-width: 0.85 ;&st7; " /><path d=" M  771.95,  561.27  C  771.95   562.06   772.59   562.69   773.37   562.69 " style="stroke-width: 0.85 ;&st7; " /><path d=" M  773.37,  562.69  C  774.15   562.69   774.79   562.06   774.79   561.27 " style="stroke-width: 0.85 ;&st7; " /><path d=" M  766.29,  547.11  C  766.29   546.33   765.65   545.69   764.87   545.69 " style="stroke-width: 0.85 ;&st7; " /><path d=" M  764.87,  545.69  C  764.09   545.69   763.46   546.33   763.46   547.11 " style="stroke-width: 0.85 ;&st7; " /><path d=" M  763.46,  547.11  C  763.46   547.89   764.09   548.53   764.87   548.53 " style="stroke-width: 0.85 ;&st7; " /><path d=" M  764.87,  548.53  C  765.65   548.53   766.29   547.89   766.29   547.11 " style="stroke-width: 0.85 ;&st7; " /><path d=" M  861.85,  581.86  C  863.23   583.25   864.90   583.94   866.86   583.94 " style="stroke-width: 0.85 ;&st7; " /><path d=" M  857.84,  585.87  C  860.33   588.36   863.33   589.60   866.86   589.60 " style="stroke-width: 0.85 ;&st7; " /><path d=" M  853.84,  589.88  C  857.43   593.47   861.77   595.27   866.86   595.27 " style="stroke-width: 0.85 ;&st7; " /><path d=" M  849.83,  593.88  C  854.53   598.58   860.21   600.93   866.86   600.93 " style="stroke-width: 0.85 ;&st7; " /><path d=" M  775.78,  596.69  C  775.78   595.36   774.70   594.28   773.37   594.28 " style="stroke-width: 1.42 ;&st7; " /><path d=" M  773.37,  594.28  C  772.04   594.28   770.96   595.36   770.96   596.69 " style="stroke-width: 1.42 ;&st7; " /><path d=" M  770.96,  596.69  C  770.96   598.02   772.04   599.09   773.37   599.09 " style="stroke-width: 1.42 ;&st7; " /><path d=" M  773.37,  599.09  C  774.70   599.09   775.78   598.02   775.78   596.69 " style="stroke-width: 1.42 ;&st7; " /><path d=" M  777.20,  596.69  C  777.20   594.57   775.48   592.86   773.37   592.86 " style="stroke-width: 1.42 ;&st7; " /><path d=" M  773.37,  592.86  C  771.26   592.86   769.55   594.57   769.55   596.69 " style="stroke-width: 1.42 ;&st7; " /><path d=" M  769.55,  596.69  C  769.55   598.80   771.26   600.51   773.37   600.51 " style="stroke-width: 1.42 ;&st7; " /><path d=" M  773.37,  600.51  C  775.48   600.51   777.20   598.80   777.20   596.69 " style="stroke-width: 1.42 ;&st7; " /><path d=" M  774.36,  596.69  C  774.36   596.14   773.92   595.69   773.37   595.69 " style="stroke-width: 1.42 ;&st7; " /><path d=" M  773.37,  595.69  C  772.82   595.69   772.38   596.14   772.38   596.69 " style="stroke-width: 1.42 ;&st7; " /><path d=" M  772.38,  596.69  C  772.38   597.23   772.82   597.68   773.37   597.68 " style="stroke-width: 1.42 ;&st7; " /><path d=" M  773.37,  597.68  C  773.92   597.68   774.36   597.23   774.36   596.69 " style="stroke-width: 1.42 ;&st7; " /><path d=" M  579.32,  205.75  C  579.32   204.97   578.69   204.33   577.90   204.33 " style="stroke-width: 0.85 ;&st7; " /><path d=" M  577.90,  204.33  C  577.12   204.33   576.49   204.97   576.49   205.75 " style="stroke-width: 0.85 ;&st7; " /><path d=" M  576.49,  205.75  C  576.49   206.53   577.12   207.17   577.90   207.17 " style="stroke-width: 0.85 ;&st7; " /><path d=" M  577.90,  207.17  C  578.69   207.17   579.32   206.53   579.32   205.75 " style="stroke-width: 0.85 ;&st7; " /><path d=" M  562.32,  205.75  C  562.32   204.97   561.69   204.33   560.91   204.33 " style="stroke-width: 0.85 ;&st7; " /><path d=" M  560.91,  204.33  C  560.12   204.33   559.49   204.97   559.49   205.75 " style="stroke-width: 0.85 ;&st7; " /><path d=" M  559.49,  205.75  C  559.49   206.53   560.12   207.17   560.91   207.17 " style="stroke-width: 0.85 ;&st7; " /><path d=" M  560.91,  207.17  C  561.69   207.17   562.32   206.53   562.32   205.75 " style="stroke-width: 0.85 ;&st7; " /><path d=" M  667.42,  380.26  C  667.42   377.75   665.39   375.72   662.89   375.72 " style="stroke-width: 1.42 ;&st7; " /><path d=" M  662.89,  375.72  C  660.39   375.72   658.36   377.75   658.36   380.26 " style="stroke-width: 1.42 ;&st7; " /><path d=" M  658.36,  380.26  C  658.36   382.76   660.39   384.79   662.89   384.79 " style="stroke-width: 1.42 ;&st7; " /><path d=" M  662.89,  384.79  C  665.39   384.79   667.42   382.76   667.42   380.26 " style="stroke-width: 1.42 ;&st7; " /><path d=" M  769.40,  380.26  C  769.40   377.75   767.38   375.72   764.87   375.72 " style="stroke-width: 1.42 ;&st7; " /><path d=" M  764.87,  375.72  C  762.37   375.72   760.34   377.75   760.34   380.26 " style="stroke-width: 1.42 ;&st7; " /><path d=" M  760.34,  380.26  C  760.34   382.76   762.37   384.79   764.87   384.79 " style="stroke-width: 1.42 ;&st7; " /><path d=" M  764.87,  384.79  C  767.38   384.79   769.40   382.76   769.40   380.26 " style="stroke-width: 1.42 ;&st7; " /><path d=" M  922.38,  380.26  C  922.38   377.75   920.35   375.72   917.85   375.72 " style="stroke-width: 1.42 ;&st7; " /><path d=" M  917.85,  375.72  C  915.34   375.72   913.31   377.75   913.31   380.26 " style="stroke-width: 1.42 ;&st7; " /><path d=" M  913.31,  380.26  C  913.31   382.76   915.34   384.79   917.85   384.79 " style="stroke-width: 1.42 ;&st7; " /><path d=" M  917.85,  384.79  C  920.35   384.79   922.38   382.76   922.38   380.26 " style="stroke-width: 1.42 ;&st7; " /><path d=" M  888.38,  380.26  C  888.38   377.75   886.36   375.72   883.85   375.72 " style="stroke-width: 1.42 ;&st7; " /><path d=" M  883.85,  375.72  C  881.35   375.72   879.32   377.75   879.32   380.26 " style="stroke-width: 1.42 ;&st7; " /><path d=" M  879.32,  380.26  C  879.32   382.76   881.35   384.79   883.85   384.79 " style="stroke-width: 1.42 ;&st7; " /><path d=" M  883.85,  384.79  C  886.36   384.79   888.38   382.76   888.38   380.26 " style="stroke-width: 1.42 ;&st7; " /><path d=" M  624.93,  380.26  C  624.93   377.75   622.90   375.72   620.40   375.72 " style="stroke-width: 1.42 ;&st7; " /><path d=" M  620.40,  375.72  C  617.89   375.72   615.86   377.75   615.86   380.26 " style="stroke-width: 1.42 ;&st7; " /><path d=" M  615.86,  380.26  C  615.86   382.76   617.89   384.79   620.40   384.79 " style="stroke-width: 1.42 ;&st7; " /><path d=" M  620.40,  384.79  C  622.90   384.79   624.93   382.76   624.93   380.26 " style="stroke-width: 1.42 ;&st7; " /><path d=" M  990.37,  380.26  C  990.37   377.75   988.34   375.72   985.84   375.72 " style="stroke-width: 1.42 ;&st7; " /><path d=" M  985.84,  375.72  C  983.33   375.72   981.30   377.75   981.30   380.26 " style="stroke-width: 1.42 ;&st7; " /><path d=" M  981.30,  380.26  C  981.30   382.76   983.33   384.79   985.84   384.79 " style="stroke-width: 1.42 ;&st7; " /><path d=" M  985.84,  384.79  C  988.34   384.79   990.37   382.76   990.37   380.26 " style="stroke-width: 1.42 ;&st7; " /><path d=" M  658.92,  337.20  C  658.92   334.69   656.89   332.66   654.39   332.66 " style="stroke-width: 1.42 ;&st7; " /><path d=" M  654.39,  332.66  C  651.89   332.66   649.86   334.69   649.86   337.20 " style="stroke-width: 1.42 ;&st7; " /><path d=" M  649.86,  337.20  C  649.86   339.70   651.89   341.73   654.39   341.73 " style="stroke-width: 1.42 ;&st7; " /><path d=" M  654.39,  341.73  C  656.89   341.73   658.92   339.70   658.92   337.20 " style="stroke-width: 1.42 ;&st7; " /><path d=" M  573.94,  380.26  C  573.94   377.75   571.91   375.72   569.40   375.72 " style="stroke-width: 1.42 ;&st7; " /><path d=" M  569.40,  375.72  C  566.90   375.72   564.87   377.75   564.87   380.26 " style="stroke-width: 1.42 ;&st7; " /><path d=" M  564.87,  380.26  C  564.87   382.76   566.90   384.79   569.40   384.79 " style="stroke-width: 1.42 ;&st7; " /><path d=" M  569.40,  384.79  C  571.91   384.79   573.94   382.76   573.94   380.26 " style="stroke-width: 1.42 ;&st7; " /><path d=" M  709.91,  337.20  C  709.91   334.69   707.89   332.66   705.38   332.66 " style="stroke-width: 1.42 ;&st7; " /><path d=" M  705.38,  332.66  C  702.88   332.66   700.85   334.69   700.85   337.20 " style="stroke-width: 1.42 ;&st7; " /><path d=" M  700.85,  337.20  C  700.85   339.70   702.88   341.73   705.38   341.73 " style="stroke-width: 1.42 ;&st7; " /><path d=" M  705.38,  341.73  C  707.89   341.73   709.91   339.70   709.91   337.20 " style="stroke-width: 1.42 ;&st7; " /><path d=" M  913.88,  337.20  C  913.88   334.69   911.85   332.66   909.35   332.66 " style="stroke-width: 1.42 ;&st7; " /><path d=" M  909.35,  332.66  C  906.84   332.66   904.82   334.69   904.82   337.20 " style="stroke-width: 1.42 ;&st7; " /><path d=" M  904.82,  337.20  C  904.82   339.70   906.84   341.73   909.35   341.73 " style="stroke-width: 1.42 ;&st7; " /><path d=" M  909.35,  341.73  C  911.85   341.73   913.88   339.70   913.88   337.20 " style="stroke-width: 1.42 ;&st7; " /><path d=" M  730.88,  256.74  C  735.57   256.74   739.38   252.94   739.38   248.24 " style="stroke-width: 1.42 ;&st7; " /><path d=" M  739.38,  248.24  C  739.38   243.55   735.57   239.75   730.88   239.75 " style="stroke-width: 1.42 ;&st7; " /><path d=" M  730.88,  239.75  C  726.18   239.75   722.38   243.55   722.38   248.24 " style="stroke-width: 1.42 ;&st7; " /><path d=" M  722.38,  248.24  C  722.38   252.94   726.18   256.74   730.88   256.74 " style="stroke-width: 1.42 ;&st7; " /><path d=" M  760.91,  337.20  C  760.91   334.69   758.88   332.66   756.37   332.66 " style="stroke-width: 1.42 ;&st7; " /><path d=" M  756.37,  332.66  C  753.87   332.66   751.84   334.69   751.84   337.20 " style="stroke-width: 1.42 ;&st7; " /><path d=" M  751.84,  337.20  C  751.84   339.70   753.87   341.73   756.37   341.73 " style="stroke-width: 1.42 ;&st7; " /><path d=" M  756.37,  341.73  C  758.88   341.73   760.91   339.70   760.91   337.20 " style="stroke-width: 1.42 ;&st7; " /><path d=" M  888.38,  337.20  C  888.38   334.69   886.36   332.66   883.85   332.66 " style="stroke-width: 1.42 ;&st7; " /><path d=" M  883.85,  332.66  C  881.35   332.66   879.32   334.69   879.32   337.20 " style="stroke-width: 1.42 ;&st7; " /><path d=" M  879.32,  337.20  C  879.32   339.70   881.35   341.73   883.85   341.73 " style="stroke-width: 1.42 ;&st7; " /><path d=" M  883.85,  341.73  C  886.36   341.73   888.38   339.70   888.38   337.20 " style="stroke-width: 1.42 ;&st7; " /><path d=" M  786.40,  337.20  C  786.40   334.69   784.37   332.66   781.87   332.66 " style="stroke-width: 1.42 ;&st7; " /><path d=" M  781.87,  332.66  C  779.37   332.66   777.34   334.69   777.34   337.20 " style="stroke-width: 1.42 ;&st7; " /><path d=" M  777.34,  337.20  C  777.34   339.70   779.37   341.73   781.87   341.73 " style="stroke-width: 1.42 ;&st7; " /><path d=" M  781.87,  341.73  C  784.37   341.73   786.40   339.70   786.40   337.20 " style="stroke-width: 1.42 ;&st7; " /><path d=" M  862.89,  337.20  C  862.89   334.69   860.86   332.66   858.36   332.66 " style="stroke-width: 1.42 ;&st7; " /><path d=" M  858.36,  332.66  C  855.85   332.66   853.82   334.69   853.82   337.20 " style="stroke-width: 1.42 ;&st7; " /><path d=" M  853.82,  337.20  C  853.82   339.70   855.85   341.73   858.36   341.73 " style="stroke-width: 1.42 ;&st7; " /><path d=" M  858.36,  341.73  C  860.86   341.73   862.89   339.70   862.89   337.20 " style="stroke-width: 1.42 ;&st7; " /><path d=" M  820.40,  337.20  C  820.40   334.69   818.37   332.66   815.86   332.66 " style="stroke-width: 1.42 ;&st7; " /><path d=" M  815.86,  332.66  C  813.36   332.66   811.33   334.69   811.33   337.20 " style="stroke-width: 1.42 ;&st7; " /><path d=" M  811.33,  337.20  C  811.33   339.70   813.36   341.73   815.86   341.73 " style="stroke-width: 1.42 ;&st7; " /><path d=" M  815.86,  341.73  C  818.37   341.73   820.40   339.70   820.40   337.20 " style="stroke-width: 1.42 ;&st7; " /><path d=" M  939.38,  337.20  C  939.38   334.69   937.35   332.66   934.84   332.66 " style="stroke-width: 1.42 ;&st7; " /><path d=" M  934.84,  332.66  C  932.34   332.66   930.31   334.69   930.31   337.20 " style="stroke-width: 1.42 ;&st7; " /><path d=" M  930.31,  337.20  C  930.31   339.70   932.34   341.73   934.84   341.73 " style="stroke-width: 1.42 ;&st7; " /><path d=" M  934.84,  341.73  C  937.35   341.73   939.38   339.70   939.38   337.20 " style="stroke-width: 1.42 ;&st7; " /><path d=" M  987.25,  540.03  C  987.25   539.25   986.62   538.61   985.84   538.61 " style="stroke-width: 0.85 ;&st7; " /><path d=" M  985.84,  538.61  C  985.05   538.61   984.42   539.25   984.42   540.03 " style="stroke-width: 0.85 ;&st7; " /><path d=" M  984.42,  540.03  C  984.42   540.81   985.05   541.44   985.84   541.44 " style="stroke-width: 0.85 ;&st7; " /><path d=" M  985.84,  541.44  C  986.62   541.44   987.25   540.81   987.25   540.03 " style="stroke-width: 0.85 ;&st7; " /><path d=" M  987.25,  517.37  C  987.25   516.58   986.62   515.95   985.84   515.95 " style="stroke-width: 0.85 ;&st7; " /><path d=" M  985.84,  515.95  C  985.05   515.95   984.42   516.58   984.42   517.37 " style="stroke-width: 0.85 ;&st7; " /><path d=" M  984.42,  517.37  C  984.42   518.15   985.05   518.78   985.84   518.78 " style="stroke-width: 0.85 ;&st7; " /><path d=" M  985.84,  518.78  C  986.62   518.78   987.25   518.15   987.25   517.37 " style="stroke-width: 0.85 ;&st7; " /><path d=" M  577.90,   47.11  C  575.17    48.72   574.25    52.25   575.87    54.99 " style="stroke-width: 1.42 ;&st7; " /><path d=" M  575.87,   54.99  C  576.39    55.87   577.02    56.51   577.90    57.03 " style="stroke-width: 1.42 ;&st7; " /><path d=" M  577.90,   66.94  C  580.64    65.33   581.55    61.80   579.94    59.06 " style="stroke-width: 1.42 ;&st7; " /><path d=" M  579.94,   59.06  C  579.42    58.18   578.79    57.55   577.90    57.03 " style="stroke-width: 1.42 ;&st7; " /><text style="&st18;" transform="matrix(&st17;  761.18  403.43 )">L-R</text><text style="&st18;" transform="matrix(&st16;  757.81  372.03 )">POL</text><text style="&st18;" transform="matrix(&st16;  971.02  424.43 )">8</text><text style="&st18;" transform="matrix(&st16;  971.0  382.22 )">22</text><text style="&st18;" transform="matrix(&st16;  983.5  382.22 )">B</text><text style="&st18;" transform="matrix(&st16;  975.7  372.03 )">DLSW</text><text style="&st18;" transform="matrix(&st17;  982.14  405.09 )">G-W</text><text style="&st18;" transform="matrix(&st16;  652.06  339.16 )">B</text><text style="&st18;" transform="matrix(&st16;  640.34  339.16 )">10</text><text style="&st18;" transform="matrix(&st16;  618.07  382.22 )">A</text><text style="&st18;" transform="matrix(&st16;  610.3  382.22 )">1</text><text style="&st18;" transform="matrix(&st17;  659.19  404.32 )">L-W</text><text style="&st18;" transform="matrix(&st16;  655.9  372.03 )">LMT</text><text style="&st18;" transform="matrix(&st16;  558.53  382.22 )">5</text><text style="&st18;" transform="matrix(&st16;  567.07  382.22 )">A</text><text style="&st18;" transform="matrix(&st17;  769.68  652.48 )">BR</text><text style="&st18;" transform="matrix(&st16;  907.02  339.16 )">B</text><text style="&st18;" transform="matrix(&st16;  902.57  349.36 )">DS2</text><text style="&st18;" transform="matrix(&st16;  851.22  349.36 )">DSV</text><text style="&st18;" transform="matrix(&st16;  927.28  349.36 )">DSG</text><text style="&st18;" transform="matrix(&st16;  877.46  349.36 )">DS1</text><text style="&st18;" transform="matrix(&st16;  809.4  349.36 )">CL-</text><text style="&st18;" transform="matrix(&st16;  775.41  349.36 )">CL+</text><text style="&st18;" transform="matrix(&st16;  749.56  349.36 )">SD-</text><text style="&st18;" transform="matrix(&st16;  698.56  349.36 )">SD+</text><text ewd:textID="17" style="&st18;" transform="matrix(&st16;  773.43  219.33 )">Magnetic Clutch</text><text ewd:textID="28" style="&st18;" transform="matrix(&st16;  704.14  236.33 )">Slide Door Motor</text><text style="&st18;" transform="matrix(&st16;  703.05  339.16 )">A</text><text style="&st18;" transform="matrix(&st16;  636.4  288.46 )">10</text><text style="&st18;" transform="matrix(&st16;  894.52  339.16 )">23</text><text style="&st18;" transform="matrix(&st16;  727.98  250.21 )">M</text><text style="&st18;" transform="matrix(&st16;  639.58  237.47 )">9</text><text style="&st18;" transform="matrix(&st16;  647.6  205.45 )">2</text><text style="&st18;" transform="matrix(&st16;  647.6  168.07 )">3</text><text style="&st18;" transform="matrix(&st17;  650.7  158.35 )">R-W</text><text style="&st18;" transform="matrix(&st17;  650.7  225.32 )">R-Y</text><text style="&st18;" transform="matrix(&st17;  650.7  272.06 )">R-Y</text><text style="&st18;" transform="matrix(&st17;  650.7  323.05 )">R-Y</text><text style="&st18;" transform="matrix(&st16;  899.85  424.43 )">10</text><text style="&st18;" transform="matrix(&st16;  903.03  466.93 )">3</text><text style="&st18;" transform="matrix(&st17;  914.15  488.53 )">Y</text><text style="&st18;" transform="matrix(&st17;  880.16  441.79 )">B</text><text style="&st18;" transform="matrix(&st16;  866.64  424.43 )">11</text><text style="&st18;" transform="matrix(&st16;  865.86  466.93 )">12</text><text style="&st18;" transform="matrix(&st17;  880.16  488.53 )">B</text><text style="&st18;" transform="matrix(&st17;  616.7  441.79 )">P</text><text style="&st18;" transform="matrix(&st16;  602.4  424.43 )">12</text><text style="&st18;" transform="matrix(&st16;  602.4  466.93 )">10</text><text style="&st18;" transform="matrix(&st17;  616.7  488.53 )">P</text><text style="&st18;" transform="matrix(&st17;  565.71  441.44 )">L</text><text style="&st18;" transform="matrix(&st16;  551.41  424.43 )">13</text><text style="&st18;" transform="matrix(&st16;  555.37  466.93 )">1</text><text style="&st18;" transform="matrix(&st17;  565.71  488.18 )">L</text><text style="&st18;" transform="matrix(&st16;  881.52  339.16 )">B</text><text style="&st18;" transform="matrix(&st16;  869.02  339.16 )">24</text><text style="&st18;" transform="matrix(&st16;  745.5  339.16 )">3</text><text style="&st18;" transform="matrix(&st16;  754.04  339.16 )">A</text><text style="&st18;" transform="matrix(&st16;  770.99  339.16 )">2</text><text style="&st18;" transform="matrix(&st16;  779.54  339.16 )">A</text><text style="&st18;" transform="matrix(&st16;  856.03  339.16 )">B</text><text style="&st18;" transform="matrix(&st16;  847.48  339.16 )">3</text><text style="&st18;" transform="matrix(&st16;  804.99  339.16 )">6</text><text style="&st18;" transform="matrix(&st16;  813.53  339.16 )">A</text><text style="&st18;" transform="matrix(&st17;  982.14  447.59 )">G-W</text><text style="&st18;" transform="matrix(&st16;  923.97  339.16 )">2</text><text style="&st18;" transform="matrix(&st16;  932.51  339.16 )">B</text><text style="&st18;" transform="matrix(&st16;  688.91  270.05 )">SD+</text><text style="&st18;" transform="matrix(&st16;  739.91  270.05 )">SD-</text><text ewd:textID="30" style="&st18;" transform="matrix(&st16;  867.67  219.05 )">Slide Door Sensor</text><text style="&st18;" transform="matrix(&st17;  931.15  321.04 )">BR</text><text style="&st18;" transform="matrix(&st17;  905.65  318.56 )">B</text><text style="&st18;" transform="matrix(&st17;  880.16  320.97 )">LG</text><text style="&st18;" transform="matrix(&st16;  800.1  270.05 )">CL-</text><text style="&st18;" transform="matrix(&st17;  854.66  318.56 )">P</text><text style="&st18;" transform="matrix(&st17;  812.17  323.05 )">Y-R</text><text style="&st18;" transform="matrix(&st17;  778.17  322.91 )">Y-B</text><text style="&st18;" transform="matrix(&st17;  752.68  318.56 )">B</text><text style="&st18;" transform="matrix(&st16;  694.36  194.95 )">q1(A),q5(B)</text><text ewd:textID="29" style="&st18;" transform="matrix(&st16;  694.36  202.05 )">Slide Door Motor Assembly</text><text style="&st18;" transform="matrix(&st17;  701.69  318.21 )">L</text><text style="&st18;" transform="matrix(&st16;  766.11  270.05 )">CL+</text><text style="&st18;" transform="matrix(&st16;  967.84  466.93 )">15</text><text style="&st18;" transform="matrix(&st17;  659.19  446.81 )">L-W</text><text style="&st18;" transform="matrix(&st16;  979.82  553.89 )">1</text><text style="&st18;" transform="matrix(&st16;  979.05  508.01 )">4</text><text style="&st18;" transform="matrix(&st17;  982.14  494.33 )">G-W</text><text style="&st18;" transform="matrix(&st17;  982.14  618.49 )">BR</text><text style="&st18;" transform="matrix(&st16;  648.07  424.43 )">7</text><text style="&st18;" transform="matrix(&st16;  789.81  669.48 )">BR</text><text style="&st18;" transform="matrix(&st16;  644.9  466.93 )">13</text><text style="&st18;" transform="matrix(&st17;  659.19  493.55 )">L-W</text><text style="&st18;" transform="matrix(&st17;  761.18  445.93 )">L-R</text><text style="&st18;" transform="matrix(&st16;  750.06  424.43 )">6</text><text style="&st18;" transform="matrix(&st16;  750.06  466.93 )">4</text><text style="&st18;" transform="matrix(&st17;  761.18  492.67 )">L-R</text><text style="&st18;" transform="matrix(&st17;  914.15  441.79 )">Y</text><text style="&st18;" transform="matrix(&st17;  616.7  399.3 )">P</text><text style="&st18;" transform="matrix(&st16;  613.44  372.03 )">DC-</text><text style="&st18;" transform="matrix(&st16;  562.45  372.03 )">DC+</text><text style="&st18;" transform="matrix(&st17;  565.71  398.95 )">L</text><text style="&st18;" transform="matrix(&st16;  562.61  508.01 )">2</text><text style="&st18;" transform="matrix(&st16;  643.9  349.36 )">CPSW</text><text style="&st18;" transform="matrix(&st16;  694.51  339.16 )">4</text><text style="&st18;" transform="matrix(&st16;  877.06  508.01 )">3</text><text style="&st18;" transform="matrix(&st17;  880.16  399.3 )">B</text><text style="&st18;" transform="matrix(&st16;  876.93  372.03 )">HAF</text><text style="&st18;" transform="matrix(&st16;  660.56  382.22 )">B</text><text style="&st18;" transform="matrix(&st16;  648.83  382.22 )">19</text><text style="&st18;" transform="matrix(&st16;  750.82  382.22 )">18</text><text style="&st18;" transform="matrix(&st16;  762.54  382.22 )">B</text><text style="&st18;" transform="matrix(&st17;  914.15  399.3 )">Y</text><text style="&st18;" transform="matrix(&st16;  911.28  372.03 )">FUL</text><text style="&st18;" transform="matrix(&st16;  915.52  382.22 )">B</text><text style="&st18;" transform="matrix(&st16;  906.97  382.22 )">5</text><text style="&st18;" transform="matrix(&st16;  872.98  382.22 )">4</text><text style="&st18;" transform="matrix(&st16;  881.52  382.22 )">B</text><text ewd:textID="20" style="&st18;" transform="matrix(&st17;  738.25  573.55 )">Pawl <tspan dy="6" x="0">Position SW</tspan></text><text ewd:textID="14" style="&st18;" transform="matrix(&st17;  837.95  603.76 )">Latch SW</text><text ewd:textID="11" style="&st18;" transform="matrix(&st17;  636.27  573.55 )">Initial <tspan dy="6" x="0">Position SW</tspan></text><text style="&st18;" transform="matrix(&st16;  839.38  550.5 )">L</text><text style="&st18;" transform="matrix(&st16;  720.4  592.99 )">L</text><text style="&st18;" transform="matrix(&st17;  769.67  615.66 )">L</text><text style="&st18;" transform="matrix(&st17;  769.67  585.92 )">L</text><text style="&st18;" transform="matrix(&st16;  949.32  324.98 )">q3(A),q4(B)</text><text ewd:textID="8" style="&st18;" transform="matrix(&st16;  949.32  332.08 )">Door Control Relay <tspan dy="6" x="0">(Power Slide Door)</tspan></text><text style="&st18;" transform="matrix(&st16;  573.1  190.72 )">RB</text><text style="&st18;" transform="matrix(&st16;  556.6  190.72 )">PL</text><text style="&st18;" transform="matrix(&st16;  541.58  207.72 )">P</text><text style="&st18;" transform="matrix(&st16;  644.42  111.96 )">17</text><text style="&st18;" transform="matrix(&st16;  644.42  83.08 )">16</text><text ewd:textID="13" style="&st18;" transform="matrix(&st17;  677.61  106.29 )">Junction  <tspan dy="6" x="0">Connector</tspan></text><text style="&st18;" transform="matrix(&st17;  670.5  106.29 )">H52</text><text ewd:textID="4" style="&st18;" transform="matrix(&st16;  830.34  80.24 )">* 4 :From Aug. 2013 Production</text><text ewd:textID="3" style="&st18;" transform="matrix(&st16;  830.34  71.74 )">* 3 :Before Aug. 2013 Production</text><text ewd:textID="6" style="&st18;" transform="matrix(&st17;  677.61  199.78 )">Diode  <tspan dy="6" x="0">(Power Slide Door)</tspan></text><text style="&st18;" transform="matrix(&st17;  670.5  199.78 )">H47</text><text style="&st18;" transform="matrix(&st17;  599.71  76.74 )">10A GAUGE</text><text style="&st18;" transform="matrix(&st16;  573.59  101.49 )">5E</text><text style="&st18;" transform="matrix(&st16;  565.21  101.49 )">2</text><text style="&st18;" transform="matrix(&st16;  571.83  32.08 )">(IG)</text><text style="&st18;" transform="matrix(&st16;  563.09  143.98 )">5</text><text style="&st18;" transform="matrix(&st17;  574.21  122.98 )">L-R</text><text style="&st18;" transform="matrix(&st16;  554.12  222.44 )">6</text><text style="&st18;" transform="matrix(&st16;  571.11  176.56 )">2</text><text style="&st18;" transform="matrix(&st17;  574.21  165.47 )">L-R</text><text style="&st18;" transform="matrix(&st16;  546.09  254.46 )">8</text><text style="&st18;" transform="matrix(&st16;  542.14  305.45 )">48</text><text style="&st18;" transform="matrix(&st17;  557.21  243.34 )">R-W</text><text style="&st18;" transform="matrix(&st17;  557.21  285.83 )">R-W</text><text ewd:textID="18" style="&st18;" transform="matrix(&st17;  601.12  208.28 )">Park/Neutral <tspan dy="6" x="-0.01">Position SW</tspan></text><text style="&st18;" transform="matrix(&st17;  594.01  208.28 )">D37</text><text style="&st18;" transform="matrix(&st17;  616.7  226.34 )">R-W</text><text style="&st18;" transform="matrix(&st16;  539.11  669.48 )">BR</text><text style="&st18;" transform="matrix(&st16;  924.74  280.24 )">1</text><text style="&st18;" transform="matrix(&st16;  932.51  280.24 )">A</text><text style="&st18;" transform="matrix(&st16;  898.47  280.24 )">2</text><text style="&st18;" transform="matrix(&st16;  907.02  280.24 )">A</text><text style="&st18;" transform="matrix(&st16;  872.98  280.24 )">4</text><text style="&st18;" transform="matrix(&st16;  881.52  280.24 )">A</text><text style="&st18;" transform="matrix(&st16;  847.48  280.24 )">3</text><text style="&st18;" transform="matrix(&st16;  856.03  280.24 )">A</text><text style="&st18;" transform="matrix(&st16;  804.99  280.24 )">4</text><text style="&st18;" transform="matrix(&st16;  813.53  280.24 )">B</text><text style="&st18;" transform="matrix(&st16;  770.99  280.24 )">5</text><text style="&st18;" transform="matrix(&st16;  779.54  280.24 )">B</text><text style="&st18;" transform="matrix(&st16;  746.27  280.24 )">1</text><text style="&st18;" transform="matrix(&st16;  754.04  280.24 )">B</text><text style="&st18;" transform="matrix(&st16;  694.51  280.24 )">2</text><text style="&st18;" transform="matrix(&st16;  703.05  280.24 )">B</text><text style="&st18;" transform="matrix(&st16;  916.89  270.05 )">DSG</text><text style="&st18;" transform="matrix(&st16;  892.95  270.05 )">DS2</text><text style="&st18;" transform="matrix(&st16;  868.23  270.05 )">DS1</text><text style="&st18;" transform="matrix(&st16;  841.25  270.05 )">DSV</text><text style="&st18;" transform="matrix(&st16;  614.38  508.01 )">1</text><text style="&st18;" transform="matrix(&st16;  549.88  638.29 )">p1</text><text style="&st18;" transform="matrix(&st16;  911.05  508.01 )">4</text><text style="&st18;" transform="matrix(&st16;  758.08  508.01 )">9</text><text style="&st18;" transform="matrix(&st16;  652.91  508.01 )">10</text><text style="&st18;" transform="matrix(&st16;  766.58  638.87 )">8</text><text style="&st18;" transform="matrix(&st16;  548.7  519.89 )">ACT+</text><text style="&st18;" transform="matrix(&st16;  599.69  519.89 )">ACT-</text><text style="&st18;" transform="matrix(&st16;  867.17  519.89 )">HAF</text><text style="&st18;" transform="matrix(&st16;  901.87  519.89 )">FUL</text><text style="&st18;" transform="matrix(&st16;  747.91  519.89 )">POL</text><text style="&st18;" transform="matrix(&st16;  645.22  519.89 )">HND</text><text style="&st18;" transform="matrix(&st16;  762.7  626.99 )">E1</text><text ewd:textID="26" style="&st18;" transform="matrix(&st16;  549.88  645.4 )">Slide Door Lock Assembly</text><text style="&st18;" transform="matrix(&st16;  592.0  564.66 )">M</text><text style="&st18;" transform="matrix(&st16;  576.78  559.0 )">2</text><text style="&st18;" transform="matrix(&st16;  609.06  559.0 )">1</text><text style="&st18;" transform="matrix(&st17;  565.71  539.67 )">R</text><text style="&st18;" transform="matrix(&st17;  616.7  539.53 )">B</text><text style="&st18;" transform="matrix(&st17;  659.19  531.45 )">G</text><text style="&st18;" transform="matrix(&st17;  761.18  531.17 )">R</text><text style="&st18;" transform="matrix(&st17;  880.16  531.03 )">Y</text><text style="&st18;" transform="matrix(&st17;  914.15  531.03 )">B</text><text ewd:textID="24" style="&st18;" transform="matrix(&st16;  575.38  578.82 )">Slide Door <tspan dy="6" x="0">Closer Motor</tspan></text></svg>