﻿<?xml version="1.0" encoding="utf-8"?>
<!DOCTYPE svg PUBLIC "-//W3C//DTD SVG 1.0//EN" "http://www.w3.org/TR/2001/REC-SVG-20010904/DTD/svg10.dtd"[
	<!ENTITY ns_flows "http://ns.adobe.com/Flows/1.0/">
	<!ENTITY ns_svg "http://www.w3.org/2000/svg">
	<!ENTITY ns_xlink "http://www.w3.org/1999/xlink">
	<!ENTITY st0 "font-size:7px;font-family:'MS-PGothic';adobe-font-script:japanese;">
	<!ENTITY st1 "font-size:6px;font-family:'ArialMT';">
	<!-- White fill  -->
	<!ENTITY st2 "fill:#FFFFFF;stroke:#000000; stroke-width:1.41;stroke-linecap:round;stroke-linejoin:round;">
	<!-- Yellow fill  -->
	<!ENTITY st3 "fill:#FFFFCC;stroke:#FFFFCC; stroke-width:0.1;stroke-linecap:round;stroke-linejoin:round;">
	<!-- Gray fill  -->
	<!ENTITY st4 "fill:#CCCCCC;stroke:#CCCCCC; stroke-width:0.1;stroke-linecap:round;stroke-linejoin:round;">
	<!-- Light-blue fill -->
	<!ENTITY st5 "fill:#CCECF4;stroke:#000000; stroke-width:1.133;stroke-linecap:round;stroke-linejoin:round;">
	<!ENTITY st6 "fill:none;stroke-linecap:butt; stroke-linejoin:round;">
	<!ENTITY st7 "fill:none;stroke:#000000;stroke-linecap:round;stroke-linejoin:round;">
	<!ENTITY st8 "enable-background:new    ;">
	<!-- Black fill -->
	<!ENTITY st9 "fill:#000000;stroke:#000000; stroke-linecap:round;stroke-linejoin:round;">
	<!-- SRS note   -->
	<!ENTITY st10 "font-size:9px;font-family:'ArialMT';">
	<!ENTITY st11 "font-size:9px;font-family:'Svg Symbol';">
	<!ENTITY st12 "font-size:6px;font-family:'Svg Symbol';">
	<!ENTITY st13 "fill:none;stroke:#ff0000;stroke-linecap:round;stroke-linejoin:round;">
	<!-- Yellow fill  -->
	<!ENTITY st14 "fill:#FFFF00;stroke:#FFFF00; stroke-width:0.1;stroke-linecap:round;stroke-linejoin:round;">
	<!ENTITY st15 "font-size:6px;font-family:'MS-PGothic';adobe-font-script:japanese;">
	<!ENTITY st16 "1.00 0.00 0.00 1.00">
	<!ENTITY st17 "0.00 -1.00 1.00 0.00">
	<!ENTITY st18 "font-size:6px;font-family:'Arial';">
	<!ENTITY st19 "font-size:9px;font-family:'Arial';">
	<!ENTITY st20 "font-size:6px;font-family:'MS-PGothic','MS PGothic';adobe-font-script:japanese;">
	<!ENTITY st21 "font-size:7px;font-family:'MS-PGothic','MS PGothic';adobe-font-script:japanese;">
	<!ATTLIST svg
		xmlns:ewd CDATA #FIXED "http://shcl.co.jp/ewd"
		xmlns:a CDATA #FIXED "http://ns.adobe.com/AdobeSVGViewerExtensions/3.0/"
		ewd:ver CDATA #IMPLIED
	>
	<!ATTLIST a
		ewd:lineID CDATA #IMPLIED
		ewd:groupID CDATA #IMPLIED
		ewd:figtype CDATA #IMPLIED
		ewd:code CDATA #IMPLIED
		ewd:figID CDATA #IMPLIED
		ewd:pinNo CDATA #IMPLIED
		ewd:comment CDATA #IMPLIED >
	<!ATTLIST g
		ewd:lineID CDATA #IMPLIED
		ewd:groupID CDATA #IMPLIED
		ewd:figtype CDATA #IMPLIED
		ewd:code CDATA #IMPLIED
		ewd:figID CDATA #IMPLIED
		ewd:pinNo CDATA #IMPLIED
		ewd:comment CDATA #IMPLIED >
	<!ATTLIST text
		ewd:textID CDATA #IMPLIED >
	<!ATTLIST title
		ewd:textID CDATA #IMPLIED >
]>
<!-- Generator: Shintec Hozumi YS   -->
<svg onload="call_execInitLoadProc_svg('system')" style="overflow:visible;  enable-background:new 0 0 1547.450 710.000" viewBox="0 0 1547.450 710.000" height="710.000" width="1547.450" xml:space="preserve" ewd:ver="L2.1.2.5" xmlns="&ns_svg;" xmlns:a="http://ns.adobe.com/AdobeSVGViewerExtensions/3.0/" xmlns:ewd="http://shcl.co.jp/ewd" xmlns:xlink="&ns_xlink;">
<path d=" M 1189.80,  180.26  L 1181.30,  180.26 " style="stroke-width: 1.42 ;&st7; " /><path d=" M 1302.41,  112.27  L 1298.16,  112.27 " style="stroke-width: 1.42 ;&st7; " /><path d=" M 1302.41,  103.77  L 1298.16,  103.77 " style="stroke-width: 1.42 ;&st7; " /><path d=" M 1300.28,   69.77  L 1300.28,   78.27 " style="stroke-width: 0.85 ;&st7; " /><path d=" M 1232.29,  180.26  L 1223.80,  180.26 " style="stroke-width: 1.42 ;&st7; " /><path d=" M 1232.29,  248.24  L 1223.80,  248.24 " style="stroke-width: 1.42 ;&st7; " /><path d=" M 1189.80,  248.24  L 1181.30,  248.24 " style="stroke-width: 1.42 ;&st7; " /><path d=" M 1189.80,  333.23  L 1181.30,  333.23 " style="stroke-width: 1.42 ;&st7; " /><path d=" M 1232.29,  333.23  L 1223.80,  333.23 " style="stroke-width: 1.42 ;&st7; " /><path d=" M 1308.78,  333.23  L 1300.28,  333.23 " style="stroke-width: 1.42 ;&st7; " /><path d=" M 1308.78,  248.24  L 1300.28,  248.24 " style="stroke-width: 1.42 ;&st7; " /><path d=" M 1259.91,  137.76  L 1255.67,  137.76 " style="stroke-width: 1.42 ;&st7; " /><path d=" M 1259.91,  146.26  L 1255.67,  146.26 " style="stroke-width: 1.42 ;&st7; " /><path d=" M 1130.31,  443.71  L 1138.81,  443.71 " style="stroke-width: 1.42 ;&st7; " /><path d=" M 1140.93,  596.69  L 1136.69,  596.69 " style="stroke-width: 1.42 ;&st7; " /><path d=" M 1140.93,  605.18  L 1136.69,  605.18 " style="stroke-width: 1.42 ;&st7; " /><path d=" M 1140.93,  630.68  L 1136.69,  630.68 " style="stroke-width: 1.42 ;&st7; " /><path d=" M 1140.93,  639.18  L 1136.69,  639.18 " style="stroke-width: 1.42 ;&st7; " /><path d=" M 1459.21,  266.66  L 1467.42,  265.24 " style="stroke-width: 0.85 ;&st7; " /><path d=" M 1459.21,  263.82  L 1467.42,  265.24 " style="stroke-width: 0.85 ;&st7; " /><path d=" M 1421.39,  112.27  L 1417.14,  112.27 " style="stroke-width: 1.42 ;&st7; " /><path d=" M 1421.39,  103.77  L 1417.14,  103.77 " style="stroke-width: 1.42 ;&st7; " /><path d=" M 1419.26,   69.77  L 1419.26,   78.27 " style="stroke-width: 0.85 ;&st7; " /><path d=" M 1421.39,  137.76  L 1417.14,  137.76 " style="stroke-width: 1.42 ;&st7; " /><path d=" M 1421.39,  146.26  L 1417.14,  146.26 " style="stroke-width: 1.42 ;&st7; " /><path d=" M 1421.39,  180.26  L 1417.14,  180.26 " style="stroke-width: 1.42 ;&st7; " /><path d=" M 1421.39,  188.75  L 1417.14,  188.75 " style="stroke-width: 1.42 ;&st7; " /><path d=" M 1427.76,  401.22  L 1419.26,  401.22 " style="stroke-width: 1.42 ;&st7; " /><path d=" M 1461.76,  401.22  L 1453.26,  401.22 " style="stroke-width: 1.42 ;&st7; " /><path d=" M 1410.76,  443.71  L 1419.26,  443.71 " style="stroke-width: 1.42 ;&st7; " /><path d=" M 1444.76,  443.71  L 1453.26,  443.71 " style="stroke-width: 1.42 ;&st7; " /><path d=" M 1359.77,   69.77  L 1359.77,   78.27 " style="stroke-width: 0.85 ;&st7; " /><path d=" M 1361.90,  103.77  L 1357.65,  103.77 " style="stroke-width: 1.42 ;&st7; " /><path d=" M 1361.90,  112.27  L 1357.65,  112.27 " style="stroke-width: 1.42 ;&st7; " /><path d=" M 1351.27,  443.71  L 1359.77,  443.71 " style="stroke-width: 1.42 ;&st7; " /><path d=" M 1308.78,  176.73  L 1303.81,  171.76 " style="stroke-width: 1.42 ;&st7; " /><path d=" M 1291.78,  183.78  L 1296.75,  188.75 " style="stroke-width: 1.42 ;&st7; " /><path d=" M 1303.81,  188.75  L 1308.78,  183.78 " style="stroke-width: 1.42 ;&st7; " /><path d=" M 1296.75,  171.76  L 1291.78,  176.73 " style="stroke-width: 1.42 ;&st7; " /><path d=" M 1079.32,  589.60  L 1084.99,  566.94 " style="stroke-width: 1.42 ;&st7; " /><path d=" M 1079.32,  622.18  L 1079.32,  592.44 " style="stroke-width: 0.85 ;&st7; " /><path d=" M 1079.32,  566.94  L 1079.32,  537.20 " style="stroke-width: 0.85 ;&st7; " /><path d=" M 1104.82,  569.07  L 1104.82,  554.19 " style="stroke-width: 0.85 ;&st7; " /><path d=" M 1070.82,  443.71  L 1079.32,  443.71 " style="stroke-width: 1.42 ;&st7; " /><path d=" M 1147.31,  248.24  L 1138.81,  248.24 " style="stroke-width: 1.42 ;&st7; " /><path d=" M 1147.31,  180.26  L 1138.81,  180.26 " style="stroke-width: 1.42 ;&st7; " /><path d=" M 1070.82,  486.20  L 1079.32,  486.20 " style="stroke-width: 1.42 ;&st7; " /><path d=" M 1138.81,  537.20  L 1138.81,  554.19 " style="stroke-width: 0.85 ;&st7; " /><path d=" M 1130.31,  537.20  L 1147.31,  537.20  L 1147.31,  554.19  L 1130.31,  554.19  L 1130.31,  537.20 " style="stroke-width: 1.42 ;&st7; " /><path d=" M 1083.57,  438.05  L 1079.32,  442.29  L 1075.07,  438.05 " style="stroke-width: 1.42 ;&st7; " /><path d=" M 1075.07,  434.65  L 1079.32,  438.90  L 1083.57,  434.65 " style="stroke-width: 1.42 ;&st7; " /><path d=" M 1143.06,  257.31  L 1138.81,  253.06  L 1134.56,  257.31 " style="stroke-width: 1.42 ;&st7; " /><path d=" M 1143.06,  253.91  L 1138.81,  249.66  L 1134.56,  253.91 " style="stroke-width: 1.42 ;&st7; " /><path d=" M 1143.06,  189.32  L 1138.81,  185.07  L 1134.56,  189.32 " style="stroke-width: 1.42 ;&st7; " /><path d=" M 1143.06,  185.92  L 1138.81,  181.67  L 1134.56,  185.92 " style="stroke-width: 1.42 ;&st7; " /><path d=" M 1075.07,  477.14  L 1079.32,  481.39  L 1083.57,  477.14 " style="stroke-width: 1.42 ;&st7; " /><path d=" M 1083.57,  480.54  L 1079.32,  484.79  L 1075.07,  480.54 " style="stroke-width: 1.42 ;&st7; " /><path d=" M 1121.81,   69.77  L 1121.81,  112.27  L 1274.79,  112.27  L 1274.79,   69.77  L 1121.81,   69.77 " style="stroke-width: 1.42 ;&st7; " /><path d=" M 1298.87,  710.00  L 1301.70,  710.00 " style="stroke-width: 0.85 ;&st7; " /><path d=" M 1297.45,  707.17  L 1303.12,  707.17 " style="stroke-width: 0.85 ;&st7; " /><path d=" M 1185.55,  189.32  L 1181.30,  185.07  L 1177.05,  189.32 " style="stroke-width: 1.42 ;&st7; " /><path d=" M 1296.03,  704.33  L 1304.53,  704.33 " style="stroke-width: 0.85 ;&st7; " /><path d=" M 1291.78,  701.50  L 1308.78,  701.50 " style="stroke-width: 0.85 ;&st7; " /><path d=" M 1300.28,  697.25  L 1300.28,  701.50 " style="stroke-width: 0.85 ;&st7; " /><path d=" M 1185.55,  185.92  L 1181.30,  181.67  L 1177.05,  185.92 " style="stroke-width: 1.42 ;&st7; " /><path d=" M 1300.28,   78.27  L 1300.28,  103.77 " style="stroke-width: 0.85 ;&st7; " /><path d=" M 1300.28,   98.87  L 1297.45,   96.04  L 1297.45,  100.29  L 1300.28,  103.12  L 1303.12,  100.29  L 1303.12,   96.04  L 1300.28,   98.87 " style="stroke-width: 0.28 ;&st9;" /><path d=" M 1313.03,   78.27  L 1313.03,   35.78  L 1287.53,   35.78  L 1287.53,   78.27  L 1313.03,   78.27 " style="stroke-width: 1.42 ;&st7; " /><path d=" M 1228.04,  185.92  L 1223.80,  181.67  L 1219.55,  185.92 " style="stroke-width: 1.42 ;&st7; " /><path d=" M 1228.04,  189.32  L 1223.80,  185.07  L 1219.55,  189.32 " style="stroke-width: 1.42 ;&st7; " /><path d=" M 1228.04,  257.31  L 1223.80,  253.06  L 1219.55,  257.31 " style="stroke-width: 1.42 ;&st7; " /><path d=" M 1228.04,  253.91  L 1223.80,  249.66  L 1219.55,  253.91 " style="stroke-width: 1.42 ;&st7; " /><path d=" M 1185.55,  253.91  L 1181.30,  249.66  L 1177.05,  253.91 " style="stroke-width: 1.42 ;&st7; " /><path d=" M 1185.55,  257.31  L 1181.30,  253.06  L 1177.05,  257.31 " style="stroke-width: 1.42 ;&st7; " /><path d=" M 1185.55,  342.29  L 1181.30,  338.05  L 1177.05,  342.29 " style="stroke-width: 1.42 ;&st7; " /><path d=" M 1185.55,  338.90  L 1181.30,  334.65  L 1177.05,  338.90 " style="stroke-width: 1.42 ;&st7; " /><path d=" M 1228.04,  342.29  L 1223.80,  338.05  L 1219.55,  342.29 " style="stroke-width: 1.42 ;&st7; " /><path d=" M 1228.04,  338.90  L 1223.80,  334.65  L 1219.55,  338.90 " style="stroke-width: 1.42 ;&st7; " /><path d=" M 1164.30,  426.71  L 1317.28,  426.71  L 1317.28,  469.21  L 1164.30,  469.21  L 1164.30,  426.71 " style="stroke-width: 1.42 ;&st7; " /><path d=" M 1304.53,  342.29  L 1300.28,  338.05  L 1296.03,  342.29 " style="stroke-width: 1.42 ;&st7; " /><path d=" M 1304.53,  338.90  L 1300.28,  334.65  L 1296.03,  338.90 " style="stroke-width: 1.42 ;&st7; " /><path d=" M 1304.53,  257.31  L 1300.28,  253.06  L 1296.03,  257.31 " style="stroke-width: 1.42 ;&st7; " /><path d=" M 1304.53,  253.91  L 1300.28,  249.66  L 1296.03,  253.91 " style="stroke-width: 1.42 ;&st7; " /><path d=" M 1257.79,  132.87  L 1254.96,  130.03  L 1254.96,  134.28  L 1257.79,  137.12  L 1260.62,  134.28  L 1260.62,  130.03  L 1257.79,  132.87 " style="stroke-width: 0.28 ;&st9;" /><path d=" M 1257.79,  112.27  L 1257.79,  137.76 " style="stroke-width: 0.85 ;&st7; " /><path d=" M 1134.56,  434.65  L 1138.81,  438.90  L 1143.06,  434.65 " style="stroke-width: 1.42 ;&st7; " /><path d=" M 1143.06,  438.05  L 1138.81,  442.29  L 1134.56,  438.05 " style="stroke-width: 1.42 ;&st7; " /><path d=" M 1138.81,  610.08  L 1141.64,  612.91  L 1141.64,  608.66  L 1138.81,  605.83  L 1135.98,  608.66  L 1135.98,  612.91  L 1138.81,  610.08 " style="stroke-width: 0.28 ;&st9;" /><path d=" M 1138.81,  625.78  L 1135.98,  622.95  L 1135.98,  627.20  L 1138.81,  630.03  L 1141.64,  627.20  L 1141.64,  622.95  L 1138.81,  625.78 " style="stroke-width: 0.28 ;&st9;" /><path d=" M 1138.81,  630.68  L 1138.81,  605.18 " style="stroke-width: 0.85 ;&st7; " /><path d=" M 1487.25,  324.73  L 1487.25,  358.73 " style="stroke-width: 0.85 ;&st7; " /><path d=" M 1419.26,   98.87  L 1416.43,   96.04  L 1416.43,  100.29  L 1419.26,  103.12  L 1422.10,  100.29  L 1422.10,   96.04  L 1419.26,   98.87 " style="stroke-width: 0.28 ;&st9;" /><path d=" M 1419.26,  358.73  L 1419.26,  324.73 " style="stroke-width: 0.85 ;&st7; " /><path d=" M 1402.27,  299.24  L 1402.27,  324.73  L 1504.25,  324.73  L 1504.25,  299.24  L 1402.27,  299.24 " style="stroke-width: 1.42 ;&st7; " /><path d=" M 1470.25,  299.24  L 1470.25,  273.74  L 1467.76,  271.25 " style="stroke-width: 0.85 ;&st7; " /><path d=" M 1455.75,  271.25  L 1453.26,  273.74  L 1453.26,  299.24 " style="stroke-width: 0.85 ;&st7; " /><path d=" M 1461.76,  256.74  L 1461.76,  248.24  L 1478.75,  248.24  L 1478.75,  299.24 " style="stroke-width: 0.85 ;&st7; " /><path d=" M 1461.76,  273.74  L 1461.76,  299.24 " style="stroke-width: 0.85 ;&st7; " /><path d=" M 1432.01,   78.27  L 1432.01,   35.78  L 1406.51,   35.78  L 1406.51,   78.27  L 1432.01,   78.27 " style="stroke-width: 1.42 ;&st7; " /><path d=" M 1419.26,  151.16  L 1422.10,  153.99  L 1422.10,  149.74  L 1419.26,  146.91  L 1416.43,  149.74  L 1416.43,  153.99  L 1419.26,  151.16 " style="stroke-width: 0.28 ;&st9;" /><path d=" M 1419.26,  175.36  L 1416.43,  172.53  L 1416.43,  176.78  L 1419.26,  179.61  L 1422.10,  176.78  L 1422.10,  172.53  L 1419.26,  175.36 " style="stroke-width: 0.28 ;&st9;" /><path d=" M 1419.26,  180.26  L 1419.26,  146.26 " style="stroke-width: 0.85 ;&st7; " /><path d=" M 1419.26,   78.27  L 1419.26,  103.77 " style="stroke-width: 0.85 ;&st7; " /><path d=" M 1423.51,  410.28  L 1419.26,  406.03  L 1415.01,  410.28 " style="stroke-width: 1.42 ;&st7; " /><path d=" M 1423.51,  406.88  L 1419.26,  402.63  L 1415.01,  406.88 " style="stroke-width: 1.42 ;&st7; " /><path d=" M 1457.51,  410.28  L 1453.26,  406.03  L 1449.01,  410.28 " style="stroke-width: 1.42 ;&st7; " /><path d=" M 1457.51,  406.88  L 1453.26,  402.63  L 1449.01,  406.88 " style="stroke-width: 1.42 ;&st7; " /><path d=" M 1415.01,  434.65  L 1419.26,  438.90  L 1423.51,  434.65 " style="stroke-width: 1.42 ;&st7; " /><path d=" M 1423.51,  438.05  L 1419.26,  442.29  L 1415.01,  438.05 " style="stroke-width: 1.42 ;&st7; " /><path d=" M 1449.01,  434.65  L 1453.26,  438.90  L 1457.51,  434.65 " style="stroke-width: 1.42 ;&st7; " /><path d=" M 1457.51,  438.05  L 1453.26,  442.29  L 1449.01,  438.05 " style="stroke-width: 1.42 ;&st7; " /><path d=" M 1470.25,  503.20  L 1402.27,  503.20  L 1402.27,  545.69  L 1470.25,  545.69  L 1470.25,  503.20 " style="stroke-width: 1.42 ;&st7; " /><path d=" M 1372.52,   78.27  L 1372.52,   35.78  L 1347.02,   35.78  L 1347.02,   78.27  L 1372.52,   78.27 " style="stroke-width: 1.42 ;&st7; " /><path d=" M 1359.77,   98.87  L 1356.94,   96.04  L 1356.94,  100.29  L 1359.77,  103.12  L 1362.61,  100.29  L 1362.61,   96.04  L 1359.77,   98.87 " style="stroke-width: 0.28 ;&st9;" /><path d=" M 1359.77,   78.27  L 1359.77,  103.77 " style="stroke-width: 0.85 ;&st7; " /><path d=" M 1355.52,  434.65  L 1359.77,  438.90  L 1364.02,  434.65 " style="stroke-width: 1.42 ;&st7; " /><path d=" M 1364.02,  438.05  L 1359.77,  442.29  L 1355.52,  438.05 " style="stroke-width: 1.42 ;&st7; " /><path d=" M 1419.26,  222.75  L 1419.26,  299.24 " style="stroke-width: 0.85 ;&st7; " /><path d=" M 1385.27,  222.75  L 1385.27,  358.73  L 1546.74,  358.73  L 1546.74,  222.75  L 1385.27,  222.75 " style="stroke-width: 1.42 ;&st7; " /><path d=" M 1078.13,  604.18  L 1077.85,  604.65  L 1077.76,  605.18  L 1077.85,  605.72  L 1078.13,  606.19  L 1078.54,  606.53  L 1079.05,  606.72  L 1079.59,  606.72  L 1080.10,  606.53  L 1080.51,  606.19  L 1080.78,  605.72  L 1080.88,  605.18  L 1080.78,  604.65  L 1080.51,  604.18  L 1080.10,  603.84  L 1079.59,  603.65  L 1079.05,  603.65  L 1078.54,  603.84  L 1078.13,  604.18  L 1078.52,  604.89  L 1078.52,  605.48  L 1078.89,  605.92  L 1079.47,  606.02  L 1079.97,  605.73  L 1080.17,  605.18  L 1079.97,  604.64  L 1079.47,  604.35  L 1078.89,  604.45  L 1079.32,  605.18 " style="stroke-width: 0.85 ;&st7; " /><path d=" M 1078.13,  553.19  L 1077.85,  553.66  L 1077.76,  554.19  L 1077.85,  554.73  L 1078.13,  555.20  L 1078.54,  555.54  L 1079.05,  555.73  L 1079.59,  555.73  L 1080.10,  555.54  L 1080.51,  555.20  L 1080.78,  554.73  L 1080.88,  554.19  L 1080.78,  553.66  L 1080.51,  553.19  L 1080.10,  552.84  L 1079.59,  552.66  L 1079.05,  552.66  L 1078.54,  552.84  L 1078.13,  553.19  L 1078.52,  553.90  L 1078.52,  554.48  L 1078.89,  554.93  L 1079.47,  555.03  L 1079.97,  554.74  L 1080.17,  554.19  L 1079.97,  553.65  L 1079.47,  553.36  L 1078.89,  553.46  L 1079.32,  554.19 " style="stroke-width: 0.85 ;&st7; " /><path d=" M 1113.31,  622.18  L 1113.31,  537.20  L 1070.82,  537.20  L 1070.82,  622.18  L 1113.31,  622.18 " style="stroke-width: 1.42 ;&st7; " /><path d=" M 1104.81,  605.18  L 1104.81,  586.06  L 1101.98,  584.65  L 1107.65,  581.81  L 1101.98,  578.98  L 1107.65,  576.15  L 1101.98,  573.31  L 1107.65,  570.48  L 1104.81,  569.07 " style="stroke-width: 0.85 ;&st7; " /><path d=" M 1104.81,  554.19  L 1079.32,  554.19 " style="stroke-width: 0.85 ;&st7; " /><path d=" M 1104.81,  605.18  L 1079.32,  605.18 " style="stroke-width: 0.85 ;&st7; " /><path d=" M 1301.70,   45.69  C 1301.70    44.91  1301.07    44.28  1300.28    44.28 " style="stroke-width: 0.85 ;&st7; " /><path d=" M 1300.28,   44.28  C 1299.50    44.28  1298.87    44.91  1298.87    45.69 " style="stroke-width: 0.85 ;&st7; " /><path d=" M 1298.87,   45.69  C 1298.87    46.48  1299.50    47.11  1300.28    47.11 " style="stroke-width: 0.85 ;&st7; " /><path d=" M 1300.28,   47.11  C 1301.07    47.11  1301.70    46.48  1301.70    45.69 " style="stroke-width: 0.85 ;&st7; " /><path d=" M 1306.66,  108.02  C 1306.66   105.67  1304.75   103.77  1302.41   103.77 " style="stroke-width: 1.42 ;&st7; " /><path d=" M 1302.41,  112.27  C 1304.75   112.27  1306.66   110.36  1306.66   108.02 " style="stroke-width: 1.42 ;&st7; " /><path d=" M 1293.91,  108.02  C 1293.91   110.36  1295.81   112.27  1298.16   112.27 " style="stroke-width: 1.42 ;&st7; " /><path d=" M 1298.16,  103.77  C 1295.81   103.77  1293.91   105.67  1293.91   108.02 " style="stroke-width: 1.42 ;&st7; " /><path d=" M 1301.70,   68.36  C 1301.70    67.57  1301.07    66.94  1300.28    66.94 " style="stroke-width: 0.85 ;&st7; " /><path d=" M 1300.28,   66.94  C 1299.50    66.94  1298.87    67.57  1298.87    68.36 " style="stroke-width: 0.85 ;&st7; " /><path d=" M 1298.87,   68.36  C 1298.87    69.14  1299.50    69.77  1300.28    69.77 " style="stroke-width: 0.85 ;&st7; " /><path d=" M 1300.28,   69.77  C 1301.07    69.77  1301.70    69.14  1301.70    68.36 " style="stroke-width: 0.85 ;&st7; " /><path d=" M 1300.28,   66.94  C 1303.02    65.33  1303.93    61.80  1302.32    59.06 " style="stroke-width: 1.42 ;&st7; " /><path d=" M 1302.32,   59.06  C 1301.80    58.18  1301.16    57.55  1300.28    57.03 " style="stroke-width: 1.42 ;&st7; " /><path d=" M 1300.28,   47.11  C 1297.54    48.72  1296.63    52.25  1298.25    54.99 " style="stroke-width: 1.42 ;&st7; " /><path d=" M 1298.25,   54.99  C 1298.77    55.87  1299.40    56.51  1300.28    57.03 " style="stroke-width: 1.42 ;&st7; " /><path d=" M 1255.67,  137.76  C 1253.32   137.76  1251.42   139.66  1251.42   142.01 " style="stroke-width: 1.42 ;&st7; " /><path d=" M 1251.42,  142.01  C 1251.42   144.36  1253.32   146.26  1255.67   146.26 " style="stroke-width: 1.42 ;&st7; " /><path d=" M 1259.91,  146.26  C 1262.26   146.26  1264.16   144.36  1264.16   142.01 " style="stroke-width: 1.42 ;&st7; " /><path d=" M 1264.16,  142.01  C 1264.16   139.66  1262.26   137.76  1259.91   137.76 " style="stroke-width: 1.42 ;&st7; " /><path d=" M 1185.84,  116.80  C 1185.84   114.30  1183.81   112.27  1181.30   112.27 " style="stroke-width: 1.42 ;&st7; " /><path d=" M 1181.30,  112.27  C 1178.80   112.27  1176.77   114.30  1176.77   116.80 " style="stroke-width: 1.42 ;&st7; " /><path d=" M 1176.77,  116.80  C 1176.77   119.30  1178.80   121.33  1181.30   121.33 " style="stroke-width: 1.42 ;&st7; " /><path d=" M 1181.30,  121.33  C 1183.81   121.33  1185.84   119.30  1185.84   116.80 " style="stroke-width: 1.42 ;&st7; " /><path d=" M 1228.33,  116.80  C 1228.33   114.30  1226.30   112.27  1223.80   112.27 " style="stroke-width: 1.42 ;&st7; " /><path d=" M 1223.80,  112.27  C 1221.29   112.27  1219.26   114.30  1219.26   116.80 " style="stroke-width: 1.42 ;&st7; " /><path d=" M 1219.26,  116.80  C 1219.26   119.30  1221.29   121.33  1223.80   121.33 " style="stroke-width: 1.42 ;&st7; " /><path d=" M 1223.80,  121.33  C 1226.30   121.33  1228.33   119.30  1228.33   116.80 " style="stroke-width: 1.42 ;&st7; " /><path d=" M 1143.34,  116.80  C 1143.34   114.30  1141.31   112.27  1138.81   112.27 " style="stroke-width: 1.42 ;&st7; " /><path d=" M 1138.81,  112.27  C 1136.31   112.27  1134.28   114.30  1134.28   116.80 " style="stroke-width: 1.42 ;&st7; " /><path d=" M 1134.28,  116.80  C 1134.28   119.30  1136.31   121.33  1138.81   121.33 " style="stroke-width: 1.42 ;&st7; " /><path d=" M 1138.81,  121.33  C 1141.31   121.33  1143.34   119.30  1143.34   116.80 " style="stroke-width: 1.42 ;&st7; " /><path d=" M 1143.34,  380.26  C 1143.34   377.75  1141.31   375.72  1138.81   375.72 " style="stroke-width: 1.42 ;&st7; " /><path d=" M 1138.81,  375.72  C 1136.31   375.72  1134.28   377.75  1134.28   380.26 " style="stroke-width: 1.42 ;&st7; " /><path d=" M 1134.28,  380.26  C 1134.28   382.76  1136.31   384.79  1138.81   384.79 " style="stroke-width: 1.42 ;&st7; " /><path d=" M 1138.81,  384.79  C 1141.31   384.79  1143.34   382.76  1143.34   380.26 " style="stroke-width: 1.42 ;&st7; " /><path d=" M 1136.69,  596.69  C 1134.34   596.69  1132.44   598.59  1132.44   600.93 " style="stroke-width: 1.42 ;&st7; " /><path d=" M 1132.44,  600.93  C 1132.44   603.28  1134.34   605.18  1136.69   605.18 " style="stroke-width: 1.42 ;&st7; " /><path d=" M 1140.93,  605.18  C 1143.28   605.18  1145.18   603.28  1145.18   600.93 " style="stroke-width: 1.42 ;&st7; " /><path d=" M 1145.18,  600.93  C 1145.18   598.59  1143.28   596.69  1140.93   596.69 " style="stroke-width: 1.42 ;&st7; " /><path d=" M 1136.69,  630.68  C 1134.34   630.68  1132.44   632.58  1132.44   634.93 " style="stroke-width: 1.42 ;&st7; " /><path d=" M 1132.44,  634.93  C 1132.44   637.28  1134.34   639.18  1136.69   639.18 " style="stroke-width: 1.42 ;&st7; " /><path d=" M 1140.93,  639.18  C 1143.28   639.18  1145.18   637.28  1145.18   634.93 " style="stroke-width: 1.42 ;&st7; " /><path d=" M 1145.18,  634.93  C 1145.18   632.58  1143.28   630.68  1140.93   630.68 " style="stroke-width: 1.42 ;&st7; " /><path d=" M 1455.52,  270.91  C 1457.86   269.89  1459.31   267.79  1459.43   265.24 " style="stroke-width: 0.85 ;&st7; " /><path d=" M 1470.25,  265.24  C 1470.25   260.55  1466.45   256.74  1461.76   256.74 " style="stroke-width: 1.42 ;&st7; " /><path d=" M 1461.76,  256.74  C 1457.06   256.74  1453.26   260.55  1453.26   265.24 " style="stroke-width: 1.42 ;&st7; " /><path d=" M 1453.26,  265.24  C 1453.26   269.93  1457.06   273.74  1461.76   273.74 " style="stroke-width: 1.42 ;&st7; " /><path d=" M 1461.76,  273.74  C 1466.45   273.74  1470.25   269.93  1470.25   265.24 " style="stroke-width: 1.42 ;&st7; " /><path d=" M 1459.43,  265.24  C 1459.31   262.69  1457.86   260.60  1455.52   259.58 " style="stroke-width: 0.85 ;&st7; " /><path d=" M 1425.64,  108.02  C 1425.64   105.67  1423.73   103.77  1421.39   103.77 " style="stroke-width: 1.42 ;&st7; " /><path d=" M 1421.39,  112.27  C 1423.73   112.27  1425.64   110.36  1425.64   108.02 " style="stroke-width: 1.42 ;&st7; " /><path d=" M 1412.89,  108.02  C 1412.89   110.36  1414.79   112.27  1417.14   112.27 " style="stroke-width: 1.42 ;&st7; " /><path d=" M 1417.14,  103.77  C 1414.79   103.77  1412.89   105.67  1412.89   108.02 " style="stroke-width: 1.42 ;&st7; " /><path d=" M 1420.68,   45.69  C 1420.68    44.91  1420.05    44.28  1419.26    44.28 " style="stroke-width: 0.85 ;&st7; " /><path d=" M 1419.26,   44.28  C 1418.48    44.28  1417.85    44.91  1417.85    45.69 " style="stroke-width: 0.85 ;&st7; " /><path d=" M 1417.85,   45.69  C 1417.85    46.48  1418.48    47.11  1419.26    47.11 " style="stroke-width: 0.85 ;&st7; " /><path d=" M 1419.26,   47.11  C 1420.05    47.11  1420.68    46.48  1420.68    45.69 " style="stroke-width: 0.85 ;&st7; " /><path d=" M 1420.68,   68.36  C 1420.68    67.57  1420.05    66.94  1419.26    66.94 " style="stroke-width: 0.85 ;&st7; " /><path d=" M 1419.26,   66.94  C 1418.48    66.94  1417.85    67.57  1417.85    68.36 " style="stroke-width: 0.85 ;&st7; " /><path d=" M 1417.85,   68.36  C 1417.85    69.14  1418.48    69.77  1419.26    69.77 " style="stroke-width: 0.85 ;&st7; " /><path d=" M 1419.26,   69.77  C 1420.05    69.77  1420.68    69.14  1420.68    68.36 " style="stroke-width: 0.85 ;&st7; " /><path d=" M 1419.26,   47.11  C 1416.52    48.72  1415.61    52.25  1417.23    54.99 " style="stroke-width: 1.42 ;&st7; " /><path d=" M 1417.23,   54.99  C 1417.75    55.87  1418.38    56.51  1419.26    57.03 " style="stroke-width: 1.42 ;&st7; " /><path d=" M 1419.26,   66.94  C 1422.00    65.33  1422.91    61.80  1421.30    59.06 " style="stroke-width: 1.42 ;&st7; " /><path d=" M 1421.30,   59.06  C 1420.78    58.18  1420.14    57.55  1419.26    57.03 " style="stroke-width: 1.42 ;&st7; " /><path d=" M 1417.14,  137.76  C 1414.79   137.76  1412.89   139.66  1412.89   142.01 " style="stroke-width: 1.42 ;&st7; " /><path d=" M 1412.89,  142.01  C 1412.89   144.36  1414.79   146.26  1417.14   146.26 " style="stroke-width: 1.42 ;&st7; " /><path d=" M 1421.39,  146.26  C 1423.73   146.26  1425.64   144.36  1425.64   142.01 " style="stroke-width: 1.42 ;&st7; " /><path d=" M 1425.64,  142.01  C 1425.64   139.66  1423.73   137.76  1421.39   137.76 " style="stroke-width: 1.42 ;&st7; " /><path d=" M 1417.14,  180.26  C 1414.79   180.26  1412.89   182.16  1412.89   184.50 " style="stroke-width: 1.42 ;&st7; " /><path d=" M 1412.89,  184.50  C 1412.89   186.85  1414.79   188.75  1417.14   188.75 " style="stroke-width: 1.42 ;&st7; " /><path d=" M 1421.39,  188.75  C 1423.73   188.75  1425.64   186.85  1425.64   184.50 " style="stroke-width: 1.42 ;&st7; " /><path d=" M 1425.64,  184.50  C 1425.64   182.16  1423.73   180.26  1421.39   180.26 " style="stroke-width: 1.42 ;&st7; " /><path d=" M 1359.77,   47.11  C 1357.03    48.72  1356.12    52.25  1357.74    54.99 " style="stroke-width: 1.42 ;&st7; " /><path d=" M 1357.74,   54.99  C 1358.26    55.87  1358.89    56.51  1359.77    57.03 " style="stroke-width: 1.42 ;&st7; " /><path d=" M 1359.77,   66.94  C 1362.51    65.33  1363.42    61.80  1361.81    59.06 " style="stroke-width: 1.42 ;&st7; " /><path d=" M 1361.81,   59.06  C 1361.29    58.18  1360.65    57.55  1359.77    57.03 " style="stroke-width: 1.42 ;&st7; " /><path d=" M 1361.19,   45.69  C 1361.19    44.91  1360.56    44.28  1359.77    44.28 " style="stroke-width: 0.85 ;&st7; " /><path d=" M 1359.77,   44.28  C 1358.99    44.28  1358.36    44.91  1358.36    45.69 " style="stroke-width: 0.85 ;&st7; " /><path d=" M 1358.36,   45.69  C 1358.36    46.48  1358.99    47.11  1359.77    47.11 " style="stroke-width: 0.85 ;&st7; " /><path d=" M 1359.77,   47.11  C 1360.56    47.11  1361.19    46.48  1361.19    45.69 " style="stroke-width: 0.85 ;&st7; " /><path d=" M 1361.19,   68.36  C 1361.19    67.57  1360.56    66.94  1359.77    66.94 " style="stroke-width: 0.85 ;&st7; " /><path d=" M 1359.77,   66.94  C 1358.99    66.94  1358.36    67.57  1358.36    68.36 " style="stroke-width: 0.85 ;&st7; " /><path d=" M 1358.36,   68.36  C 1358.36    69.14  1358.99    69.77  1359.77    69.77 " style="stroke-width: 0.85 ;&st7; " /><path d=" M 1359.77,   69.77  C 1360.56    69.77  1361.19    69.14  1361.19    68.36 " style="stroke-width: 0.85 ;&st7; " /><path d=" M 1357.65,  103.77  C 1355.30   103.77  1353.40   105.67  1353.40   108.02 " style="stroke-width: 1.42 ;&st7; " /><path d=" M 1353.40,  108.02  C 1353.40   110.36  1355.30   112.27  1357.65   112.27 " style="stroke-width: 1.42 ;&st7; " /><path d=" M 1361.90,  112.27  C 1364.24   112.27  1366.15   110.36  1366.15   108.02 " style="stroke-width: 1.42 ;&st7; " /><path d=" M 1366.15,  108.02  C 1366.15   105.67  1364.24   103.77  1361.90   103.77 " style="stroke-width: 1.42 ;&st7; " /><path d=" M 1080.74,  591.02  C 1080.74   590.24  1080.10   589.60  1079.32   589.60 " style="stroke-width: 0.85 ;&st7; " /><path d=" M 1079.32,  589.60  C 1078.54   589.60  1077.90   590.24  1077.90   591.02 " style="stroke-width: 0.85 ;&st7; " /><path d=" M 1077.90,  591.02  C 1077.90   591.80  1078.54   592.44  1079.32   592.44 " style="stroke-width: 0.85 ;&st7; " /><path d=" M 1079.32,  592.44  C 1080.10   592.44  1080.74   591.80  1080.74   591.02 " style="stroke-width: 0.85 ;&st7; " /><path d=" M 1080.74,  568.36  C 1080.74   567.57  1080.10   566.94  1079.32   566.94 " style="stroke-width: 0.85 ;&st7; " /><path d=" M 1079.32,  566.94  C 1078.54   566.94  1077.90   567.57  1077.90   568.36 " style="stroke-width: 0.85 ;&st7; " /><path d=" M 1077.90,  568.36  C 1077.90   569.14  1078.54   569.77  1079.32   569.77 " style="stroke-width: 0.85 ;&st7; " /><path d=" M 1079.32,  569.77  C 1080.10   569.77  1080.74   569.14  1080.74   568.36 " style="stroke-width: 0.85 ;&st7; " /><path d=" M 1143.34,  337.20  C 1143.34   334.69  1141.31   332.66  1138.81   332.66 " style="stroke-width: 1.42 ;&st7; " /><path d=" M 1138.81,  332.66  C 1136.31   332.66  1134.28   334.69  1134.28   337.20 " style="stroke-width: 1.42 ;&st7; " /><path d=" M 1134.28,  337.20  C 1134.28   339.70  1136.31   341.73  1138.81   341.73 " style="stroke-width: 1.42 ;&st7; " /><path d=" M 1138.81,  341.73  C 1141.31   341.73  1143.34   339.70  1143.34   337.20 " style="stroke-width: 1.42 ;&st7; " /><path d=" M 1083.85,  380.26  C 1083.85   377.75  1081.82   375.72  1079.32   375.72 " style="stroke-width: 1.42 ;&st7; " /><path d=" M 1079.32,  375.72  C 1076.82   375.72  1074.79   377.75  1074.79   380.26 " style="stroke-width: 1.42 ;&st7; " /><path d=" M 1074.79,  380.26  C 1074.79   382.76  1076.82   384.79  1079.32   384.79 " style="stroke-width: 1.42 ;&st7; " /><path d=" M 1079.32,  384.79  C 1081.82   384.79  1083.85   382.76  1083.85   380.26 " style="stroke-width: 1.42 ;&st7; " /><text style="&st18;" transform="matrix(&st16;  1064.51  449.93 )">2</text><text style="&st18;" transform="matrix(&st16;  1127.93  339.16 )">6</text><text style="&st18;" transform="matrix(&st16;  1136.48  339.16 )">B</text><text style="&st18;" transform="matrix(&st16;  1074.23  372.03 )">OS</text><text style="&st18;" transform="matrix(&st17;  1075.62  403.97 )">G</text><text style="&st18;" transform="matrix(&st16;  1076.99  382.22 )">B</text><text style="&st18;" transform="matrix(&st16;  1065.26  382.22 )">14</text><text style="&st18;" transform="matrix(&st16;  1124.77  245.96 )">1</text><text style="&st18;" transform="matrix(&st16;  1120.04  177.98 )">20</text><text style="&st18;" transform="matrix(&st17;  1135.11  220.57 )">B-L</text><text style="&st18;" transform="matrix(&st17;  1135.11  297.06 )">B-L</text><text style="&st18;" transform="matrix(&st17;  1075.62  471.96 )">G</text><text style="&st18;" transform="matrix(&st17;  1075.62  514.45 )">G</text><text style="&st18;" transform="matrix(&st16;  1064.51  492.42 )">7</text><text style="&st18;" transform="matrix(&st16;  1006.53  669.48 )">BR</text><text ewd:textID="25" style="&st18;" transform="matrix(&st17;  1009.05  548.22 )">Slide Door Lock <tspan dy="6" x="0">Remote Control Assembly</tspan></text><text style="&st18;" transform="matrix(&st17;  1001.94  548.22 )">p5</text><text style="&st18;" transform="matrix(&st16;  1129.66  349.36 )">MPX1</text><text style="&st18;" transform="matrix(&st16;  1072.53  630.37 )">2</text><text style="&st18;" transform="matrix(&st16;  1073.31  533.51 )">1</text><text style="&st18;" transform="matrix(&st16;  1082.15  545.39 )">OS</text><text style="&st18;" transform="matrix(&st16;  1082.15  618.49 )">OSG</text><text ewd:textID="21" style="&st18;" transform="matrix(&st17;  1067.13  624.71 )">Power Slide Door Sensor</text><text style="&st18;" transform="matrix(&st17;  1060.02  624.71 )">p6</text><text style="&st18;" transform="matrix(&st16;  1057.52  669.48 )">BR</text><text style="&st18;" transform="matrix(&st17;  1135.11  152.58 )">B-L</text><text style="&st18;" transform="matrix(&st16;  1051.3  324.98 )">q3(A),q4(B)</text><text ewd:textID="6" style="&st18;" transform="matrix(&st16;  1051.3  332.08 )">Door Control Relay <tspan dy="6" x="0">(Power Slide Door)</tspan></text><text ewd:textID="1" style="&st18;" transform="matrix(&st16;  1076.79  20.75 )">* 1 :Before Apr. 2009 Production</text><text ewd:textID="2" style="&st18;" transform="matrix(&st16;  1076.79  29.25 )">* 2 :From Apr. 2009 Production</text><text style="&st18;" transform="matrix(&st16;  1292.58  465.51 )">GND</text><text style="&st18;" transform="matrix(&st16;  1294.27  477.4 )">1</text><text style="&st18;" transform="matrix(&st17;  1296.59  510.9 )">W-B</text><text style="&st18;" transform="matrix(&st16;  1166.49  177.98 )">9</text><text style="&st18;" transform="matrix(&st17;  1296.59  137.1 )">W-R</text><text style="&st18;" transform="matrix(&st16;  1298.3  109.99 )">2</text><text style="&st18;" transform="matrix(&st16;  1293.49  86.47 )">2</text><text style="&st18;" transform="matrix(&st17;  1322.08  68.65 )">10A <tspan dy="6" x="0">ECU-B</tspan></text><text style="&st18;" transform="matrix(&st16;  1208.98  177.98 )">8</text><text style="&st18;" transform="matrix(&st16;  1208.98  245.96 )">7</text><text style="&st18;" transform="matrix(&st16;  1163.31  245.96 )">13</text><text style="&st18;" transform="matrix(&st16;  1167.27  330.95 )">1</text><text style="&st18;" transform="matrix(&st16;  1205.8  330.95 )">10</text><text style="&st18;" transform="matrix(&st16;  1285.47  330.95 )">2</text><text style="&st18;" transform="matrix(&st16;  1285.47  245.96 )">6</text><text style="&st18;" transform="matrix(&st16;  1173.74  434.35 )">PRG</text><text style="&st18;" transform="matrix(&st16;  1216.52  434.35 )">RDA</text><text style="&st18;" transform="matrix(&st16;  1295.94  434.35 )">+B</text><text style="&st18;" transform="matrix(&st16;  1187.28  476.82 )">Y2</text><text style="&st18;" transform="matrix(&st16;  1174.51  423.02 )">3</text><text style="&st18;" transform="matrix(&st16;  1217.0  423.02 )">2</text><text style="&st18;" transform="matrix(&st16;  1293.49  423.02 )">5</text><text style="&st18;" transform="matrix(&st17;  1296.59  293.49 )">O</text><text style="&st18;" transform="matrix(&st17;  1220.1  293.49 )">G</text><text style="&st18;" transform="matrix(&st17;  1177.61  295.96 )">GR</text><text style="&st18;" transform="matrix(&st17;  1177.61  380.95 )">GR</text><text style="&st18;" transform="matrix(&st17;  1220.1  378.48 )">G</text><text style="&st18;" transform="matrix(&st17;  1296.59  378.48 )">O</text><text style="&st18;" transform="matrix(&st17;  1296.59  222.09 )">W-R</text><text style="&st18;" transform="matrix(&st17;  1220.1  217.6 )">W</text><text style="&st18;" transform="matrix(&st17;  1177.61  216.58 )">B</text><text style="&st18;" transform="matrix(&st17;  1177.61  148.59 )">B</text><text style="&st18;" transform="matrix(&st17;  1220.1  149.62 )">W</text><text style="&st18;" transform="matrix(&st16;  1173.74  108.57 )">PRG</text><text style="&st18;" transform="matrix(&st16;  1216.52  108.57 )">RDA</text><text style="&st18;" transform="matrix(&st16;  1291.17  32.08 )">(BAT)</text><text style="&st18;" transform="matrix(&st16;  1253.48  143.98 )">5E</text><text style="&st18;" transform="matrix(&st16;  1241.92  143.98 )">17</text><text style="&st18;" transform="matrix(&st16;  1248.18  108.57 )">ECUB</text><text style="&st18;" transform="matrix(&st16;  1251.0  120.46 )">6</text><text style="&st18;" transform="matrix(&st16;  1266.95  176.56 )">W-R</text><text style="&st18;" transform="matrix(&st16;  1178.97  118.77 )">A</text><text style="&st18;" transform="matrix(&st16;  1170.43  118.77 )">6</text><text style="&st18;" transform="matrix(&st16;  1221.46  118.77 )">A</text><text style="&st18;" transform="matrix(&st16;  1212.92  118.77 )">7</text><text ewd:textID="5" style="&st18;" transform="matrix(&st16;  1187.28  483.92 )">Door Control Receiver</text><text style="&st18;" transform="matrix(&st16;  1127.93  118.77 )">5</text><text style="&st18;" transform="matrix(&st16;  1136.48  118.77 )">A</text><text style="&st18;" transform="matrix(&st16;  1130.44  108.57 )">LSD1</text><text ewd:textID="11" style="&st18;" transform="matrix(&st16;  1161.78  66.08 )">Integration Relay</text><text style="&st18;" transform="matrix(&st16;  1161.78  58.97 )">H7(A)</text><text style="&st18;" transform="matrix(&st16;  1136.48  382.22 )">B</text><text style="&st18;" transform="matrix(&st16;  1123.98  382.22 )">26</text><text style="&st18;" transform="matrix(&st16;  1131.67  372.03 )">SPD</text><text style="&st18;" transform="matrix(&st16;  1124.0  449.93 )">2</text><text style="&st18;" transform="matrix(&st17;  1135.11  407.54 )">P-L</text><text style="&st18;" transform="matrix(&st17;  1135.11  484.03 )">P-L</text><text style="&st18;" transform="matrix(&st16;  1132.02  562.39 )">4</text><text style="&st18;" transform="matrix(&st16;  1132.02  533.51 )">5</text><text ewd:textID="12" style="&st18;" transform="matrix(&st17;  1162.03  556.72 )">Junction <tspan dy="6" x="0">Connector</tspan></text><text style="&st18;" transform="matrix(&st17;  1154.92  556.72 )">B35</text><text style="&st18;" transform="matrix(&st16;  1134.5  602.9 )">5E</text><text style="&st18;" transform="matrix(&st16;  1122.16  602.9 )">24</text><text style="&st18;" transform="matrix(&st16;  1134.36  636.9 )">5D</text><text style="&st18;" transform="matrix(&st16;  1122.94  636.9 )">14</text><text style="&st18;" transform="matrix(&st17;  1135.11  586.01 )">P-L</text><text ewd:textID="31" style="&st18;" transform="matrix(&st17;  1449.85  286.58 )">Speedometer</text><text style="&st18;" transform="matrix(&st16;  1448.95  355.03 )">E3</text><text style="&st18;" transform="matrix(&st16;  1412.47  219.06 )">5</text><text style="&st18;" transform="matrix(&st16;  1417.28  109.99 )">2</text><text style="&st18;" transform="matrix(&st16;  1409.29  366.92 )">15</text><text style="&st18;" transform="matrix(&st16;  1480.46  366.92 )">9</text><text style="&st18;" transform="matrix(&st16;  1412.47  86.47 )">2</text><text style="&st18;" transform="matrix(&st17;  1441.06  67.48 )">10A <tspan dy="6" x="0">DOME</tspan></text><text style="&st18;" transform="matrix(&st16;  1414.95  143.98 )">5E</text><text style="&st18;" transform="matrix(&st16;  1403.39  143.98 )">18</text><text style="&st18;" transform="matrix(&st16;  1414.95  186.47 )">5S</text><text style="&st18;" transform="matrix(&st16;  1406.57  186.47 )">8</text><text style="&st18;" transform="matrix(&st17;  1415.57  203.97 )">R</text><text style="&st18;" transform="matrix(&st17;  1415.57  127.49 )">R</text><text style="&st18;" transform="matrix(&st16;  1400.49  398.94 )">58</text><text style="&st18;" transform="matrix(&st16;  1412.47  499.51 )">3</text><text style="&st18;" transform="matrix(&st16;  1434.49  398.94 )">22</text><text style="&st18;" transform="matrix(&st16;  1442.51  366.92 )">29</text><text style="&st18;" transform="matrix(&st16;  1446.46  499.51 )">2</text><text style="&st18;" transform="matrix(&st16;  1404.45  449.93 )">3</text><text style="&st18;" transform="matrix(&st16;  1438.44  449.93 )">7</text><text style="&st18;" transform="matrix(&st16;  1413.25  553.89 )">1</text><text style="&st18;" transform="matrix(&st17;  1381.57  69.67 )">10A <tspan dy="6" x="0">GAUGE</tspan></text><text style="&st18;" transform="matrix(&st16;  1355.46  109.99 )">5E</text><text style="&st18;" transform="matrix(&st16;  1347.08  109.99 )">2</text><text style="&st18;" transform="matrix(&st17;  1356.08  135.73 )">L-R</text><text style="&st18;" transform="matrix(&st17;  1356.08  424.68 )">L-R</text><text style="&st18;" transform="matrix(&st17;  1356.08  484.17 )">L-R</text><text style="&st18;" transform="matrix(&st17;  1415.57  577.65 )">L-R</text><text style="&st18;" transform="matrix(&st17;  1415.57  382.3 )">P</text><text style="&st18;" transform="matrix(&st17;  1449.56  384.78 )">BR</text><text style="&st18;" transform="matrix(&st17;  1415.57  424.8 )">P</text><text style="&st18;" transform="matrix(&st17;  1449.56  427.27 )">BR</text><text style="&st18;" transform="matrix(&st17;  1415.57  480.04 )">P</text><text style="&st18;" transform="matrix(&st17;  1449.56  482.51 )">BR</text><text style="&st18;" transform="matrix(&st16;  1413.51  542.0 )">IG+</text><text style="&st18;" transform="matrix(&st16;  1415.94  510.84 )">SI</text><text style="&st18;" transform="matrix(&st16;  1450.93  510.84 )">E</text><text style="&st18;" transform="matrix(&st16;  1433.74  553.3 )">D38</text><text style="&st18;" transform="matrix(&st16;  1353.7  32.08 )">(IG)</text><text style="&st18;" transform="matrix(&st16;  1410.15  32.08 )">(BAT)</text><text style="&st18;" transform="matrix(&st16;  1344.96  449.93 )">5</text><text style="&st18;" transform="matrix(&st16;  1422.1  230.94 )">B</text><text style="&st18;" transform="matrix(&st16;  1422.1  355.03 )">SI</text><text style="&st18;" transform="matrix(&st16;  1490.08  355.03 )">+S</text><text style="&st18;" transform="matrix(&st16;  1450.73  211.95 )">H20</text><text ewd:textID="30" style="&st18;" transform="matrix(&st16;  1433.74  560.41 )">Speed <tspan dy="6" x="0">Sensor</tspan></text><text ewd:textID="3" style="&st18;" transform="matrix(&st16;  1450.73  219.05 )">Combination Meter</text><text style="&st18;" transform="matrix(&st16;  1149.48  660.98 )">P-L</text><text style="&st18;" transform="matrix(&st17;  1483.56  416.04 )">P-L</text></svg>