﻿<?xml version="1.0" encoding="utf-8"?>
<!DOCTYPE svg PUBLIC "-//W3C//DTD SVG 1.0//EN" "http://www.w3.org/TR/2001/REC-SVG-20010904/DTD/svg10.dtd"[
	<!ENTITY ns_flows "http://ns.adobe.com/Flows/1.0/">
	<!ENTITY ns_svg "http://www.w3.org/2000/svg">
	<!ENTITY ns_xlink "http://www.w3.org/1999/xlink">
	<!ENTITY st0 "font-size:7px;font-family:'MS-PGothic';adobe-font-script:japanese;">
	<!ENTITY st1 "font-size:6px;font-family:'ArialMT';">
	<!-- White fill  -->
	<!ENTITY st2 "fill:#FFFFFF;stroke:#000000; stroke-width:1.41;stroke-linecap:round;stroke-linejoin:round;">
	<!-- Yellow fill  -->
	<!ENTITY st3 "fill:#FFFFCC;stroke:#FFFFCC; stroke-width:0.1;stroke-linecap:round;stroke-linejoin:round;">
	<!-- Gray fill  -->
	<!ENTITY st4 "fill:#CCCCCC;stroke:#CCCCCC; stroke-width:0.1;stroke-linecap:round;stroke-linejoin:round;">
	<!-- Light-blue fill -->
	<!ENTITY st5 "fill:#CCECF4;stroke:#000000; stroke-width:1.133;stroke-linecap:round;stroke-linejoin:round;">
	<!ENTITY st6 "fill:none;stroke-linecap:butt; stroke-linejoin:round;">
	<!ENTITY st7 "fill:none;stroke:#000000;stroke-linecap:round;stroke-linejoin:round;">
	<!ENTITY st8 "enable-background:new    ;">
	<!-- Black fill -->
	<!ENTITY st9 "fill:#000000;stroke:#000000; stroke-linecap:round;stroke-linejoin:round;">
	<!-- SRS note   -->
	<!ENTITY st10 "font-size:9px;font-family:'ArialMT';">
	<!ENTITY st11 "font-size:9px;font-family:'Svg Symbol';">
	<!ENTITY st12 "font-size:6px;font-family:'Svg Symbol';">
	<!ENTITY st13 "fill:none;stroke:#ff0000;stroke-linecap:round;stroke-linejoin:round;">
	<!-- Yellow fill  -->
	<!ENTITY st14 "fill:#FFFF00;stroke:#FFFF00; stroke-width:0.1;stroke-linecap:round;stroke-linejoin:round;">
	<!ENTITY st15 "font-size:6px;font-family:'MS-PGothic';adobe-font-script:japanese;">
	<!ENTITY st16 "1.00 0.00 0.00 1.00">
	<!ENTITY st17 "0.00 -1.00 1.00 0.00">
	<!ENTITY st18 "font-size:6px;font-family:'Arial';">
	<!ENTITY st19 "font-size:9px;font-family:'Arial';">
	<!ENTITY st20 "font-size:6px;font-family:'MS-PGothic','MS PGothic';adobe-font-script:japanese;">
	<!ENTITY st21 "font-size:7px;font-family:'MS-PGothic','MS PGothic';adobe-font-script:japanese;">
	<!ATTLIST svg
		xmlns:ewd CDATA #FIXED "http://shcl.co.jp/ewd"
		xmlns:a CDATA #FIXED "http://ns.adobe.com/AdobeSVGViewerExtensions/3.0/"
		ewd:ver CDATA #IMPLIED
	>
	<!ATTLIST a
		ewd:lineID CDATA #IMPLIED
		ewd:groupID CDATA #IMPLIED
		ewd:figtype CDATA #IMPLIED
		ewd:code CDATA #IMPLIED
		ewd:figID CDATA #IMPLIED
		ewd:pinNo CDATA #IMPLIED
		ewd:comment CDATA #IMPLIED >
	<!ATTLIST g
		ewd:lineID CDATA #IMPLIED
		ewd:groupID CDATA #IMPLIED
		ewd:figtype CDATA #IMPLIED
		ewd:code CDATA #IMPLIED
		ewd:figID CDATA #IMPLIED
		ewd:pinNo CDATA #IMPLIED
		ewd:comment CDATA #IMPLIED >
	<!ATTLIST text
		ewd:textID CDATA #IMPLIED >
	<!ATTLIST title
		ewd:textID CDATA #IMPLIED >
]>
<!-- Generator: Shintec Hozumi YS   -->
<svg onload="call_execInitLoadProc_svg('system')" style="overflow:visible;  enable-background:new 0 0 2074.180 710.000" viewBox="0 0 2074.180 710.000" height="710.000" width="2074.180" xml:space="preserve" ewd:ver="L2.1.2.5" xmlns="&ns_svg;" xmlns:a="http://ns.adobe.com/AdobeSVGViewerExtensions/3.0/" xmlns:ewd="http://shcl.co.jp/ewd" xmlns:xlink="&ns_xlink;">
<path d=" M 1123.94,  248.24  L 1119.69,  248.24 " style="stroke-width: 1.42 ;&st7; " /><path d=" M 1123.94,  256.74  L 1119.69,  256.74 " style="stroke-width: 1.42 ;&st7; " /><path d=" M 1157.93,  248.24  L 1153.68,  248.24 " style="stroke-width: 1.42 ;&st7; " /><path d=" M 1157.93,  256.74  L 1153.68,  256.74 " style="stroke-width: 1.42 ;&st7; " /><path d=" M 1378.89,  256.74  L 1374.65,  256.74 " style="stroke-width: 1.42 ;&st7; " /><path d=" M 1478.75,  307.73  L 1478.75,  333.23 " style="stroke-width: 0.85 ;&st7; " /><path d=" M 1478.75,  572.61  L 1484.42,  549.94 " style="stroke-width: 1.42 ;&st7; " /><path d=" M 1483.00,  324.73  L 1474.50,  324.73 " style="stroke-width: 0.85 ;&st7; " /><path d=" M 1478.75,  579.69  L 1478.75,  575.44 " style="stroke-width: 0.85 ;&st7; " /><path d=" M 1478.75,  549.94  L 1478.75,  545.69 " style="stroke-width: 0.85 ;&st7; " /><path d=" M 1378.89,  248.24  L 1374.65,  248.24 " style="stroke-width: 1.42 ;&st7; " /><path d=" M 1200.42,  248.24  L 1196.18,  248.24 " style="stroke-width: 1.42 ;&st7; " /><path d=" M 1268.41,  256.74  L 1264.16,  256.74 " style="stroke-width: 1.42 ;&st7; " /><path d=" M 1268.41,  248.24  L 1264.16,  248.24 " style="stroke-width: 1.42 ;&st7; " /><path d=" M 1200.42,  256.74  L 1196.18,  256.74 " style="stroke-width: 1.42 ;&st7; " /><path d=" M 1427.76,  549.94  L 1427.76,  545.69 " style="stroke-width: 0.85 ;&st7; " /><path d=" M 1427.76,  579.69  L 1427.76,  575.44 " style="stroke-width: 0.85 ;&st7; " /><path d=" M 1427.76,  572.61  L 1433.43,  549.94 " style="stroke-width: 1.42 ;&st7; " /><path d=" M 1429.89,  248.24  L 1425.64,  248.24 " style="stroke-width: 1.42 ;&st7; " /><path d=" M 1429.89,  256.74  L 1425.64,  256.74 " style="stroke-width: 1.42 ;&st7; " /><path d=" M 1480.88,  256.74  L 1476.63,  256.74 " style="stroke-width: 1.42 ;&st7; " /><path d=" M 1480.88,  248.24  L 1476.63,  248.24 " style="stroke-width: 1.42 ;&st7; " /><path d=" M 1376.77,  572.61  L 1382.44,  549.94 " style="stroke-width: 1.42 ;&st7; " /><path d=" M 1376.77,  579.69  L 1376.77,  575.44 " style="stroke-width: 0.85 ;&st7; " /><path d=" M 1376.77,  549.94  L 1376.77,  545.69 " style="stroke-width: 0.85 ;&st7; " /><path d=" M 1436.26,  494.70  L 1427.76,  494.70 " style="stroke-width: 1.42 ;&st7; " /><path d=" M 1427.76,  307.73  L 1427.76,  333.23 " style="stroke-width: 0.85 ;&st7; " /><path d=" M 1432.01,  324.73  L 1423.51,  324.73 " style="stroke-width: 0.85 ;&st7; " /><path d=" M 1317.28,  307.73  L 1317.28,  333.23 " style="stroke-width: 0.85 ;&st7; " /><path d=" M 1321.53,  324.73  L 1313.03,  324.73 " style="stroke-width: 0.85 ;&st7; " /><path d=" M 1385.27,  392.72  L 1376.77,  392.72 " style="stroke-width: 1.42 ;&st7; " /><path d=" M 1436.26,  392.72  L 1427.76,  392.72 " style="stroke-width: 1.42 ;&st7; " /><path d=" M 1266.29,  445.13  L 1271.95,  422.46 " style="stroke-width: 1.42 ;&st7; " /><path d=" M 1266.29,  452.21  L 1266.29,  447.96 " style="stroke-width: 0.85 ;&st7; " /><path d=" M 1266.29,  422.46  L 1266.29,  418.22 " style="stroke-width: 0.85 ;&st7; " /><path d=" M 1198.30,  445.13  L 1203.97,  422.46 " style="stroke-width: 1.42 ;&st7; " /><path d=" M 1198.30,  452.21  L 1198.30,  447.96 " style="stroke-width: 0.85 ;&st7; " /><path d=" M 1198.30,  422.46  L 1198.30,  418.22 " style="stroke-width: 0.85 ;&st7; " /><path d=" M 1368.27,  426.71  L 1376.77,  426.71 " style="stroke-width: 1.42 ;&st7; " /><path d=" M 1385.27,  494.70  L 1376.77,  494.70 " style="stroke-width: 1.42 ;&st7; " /><path d=" M 1487.25,  392.72  L 1478.75,  392.72 " style="stroke-width: 1.42 ;&st7; " /><path d=" M 1121.81,  697.25  L 1121.81,  701.50 " style="stroke-width: 0.85 ;&st7; " /><path d=" M 1113.31,  701.50  L 1130.31,  701.50 " style="stroke-width: 0.85 ;&st7; " /><path d=" M 1117.56,  704.33  L 1126.06,  704.33 " style="stroke-width: 0.85 ;&st7; " /><path d=" M 1118.98,  707.17  L 1124.64,  707.17 " style="stroke-width: 0.85 ;&st7; " /><path d=" M 1120.40,  710.00  L 1123.23,  710.00 " style="stroke-width: 0.85 ;&st7; " /><path d=" M 1113.31,  596.69  L 1130.31,  596.69  L 1130.31,  613.68  L 1113.31,  613.68  L 1113.31,  596.69 " style="stroke-width: 1.42 ;&st7; " /><path d=" M 1121.81,  596.69  L 1121.81,  613.68 " style="stroke-width: 0.85 ;&st7; " /><path d=" M 1121.81,  243.35  L 1118.98,  240.52  L 1118.98,  244.77  L 1121.81,  247.60  L 1124.64,  244.77  L 1124.64,  240.52  L 1121.81,  243.35 " style="stroke-width: 0.28 ;&st9;" /><path d=" M 1155.81,  243.35  L 1152.97,  240.52  L 1152.97,  244.77  L 1155.81,  247.60  L 1158.64,  244.77  L 1158.64,  240.52  L 1155.81,  243.35 " style="stroke-width: 0.28 ;&st9;" /><path d=" M 1121.81,  214.25  L 1121.81,  248.24 " style="stroke-width: 0.85 ;&st7; " /><path d=" M 1121.81,  231.25  L 1155.81,  231.25  L 1155.81,  248.24 " style="stroke-width: 0.85 ;&st7; " /><path d=" M 1155.81,  697.25  L 1155.81,  701.50 " style="stroke-width: 0.85 ;&st7; " /><path d=" M 1147.31,  701.50  L 1164.30,  701.50 " style="stroke-width: 0.85 ;&st7; " /><path d=" M 1151.56,  704.33  L 1160.06,  704.33 " style="stroke-width: 0.85 ;&st7; " /><path d=" M 1152.97,  707.17  L 1158.64,  707.17 " style="stroke-width: 0.85 ;&st7; " /><path d=" M 1154.39,  710.00  L 1157.22,  710.00 " style="stroke-width: 0.85 ;&st7; " /><path d=" M 1120.62,  230.24  L 1120.35,  230.71  L 1120.25,  231.25  L 1120.35,  231.78  L 1120.62,  232.25  L 1121.03,  232.60  L 1121.54,  232.78  L 1122.08,  232.78  L 1122.59,  232.60  L 1123.00,  232.25  L 1123.28,  231.78  L 1123.37,  231.25  L 1123.28,  230.71  L 1123.00,  230.24  L 1122.59,  229.90  L 1122.08,  229.71  L 1121.54,  229.71  L 1121.03,  229.90  L 1120.62,  230.24  L 1121.01,  230.96  L 1121.01,  231.54  L 1121.39,  231.98  L 1121.96,  232.08  L 1122.46,  231.79  L 1122.66,  231.25  L 1122.46,  230.70  L 1121.96,  230.41  L 1121.39,  230.51  L 1121.81,  231.25 " style="stroke-width: 0.85 ;&st7; " /><path d=" M 1432.01,  401.78  L 1427.76,  397.54  L 1423.51,  401.78 " style="stroke-width: 1.42 ;&st7; " /><path d=" M 1432.01,  398.39  L 1427.76,  394.14  L 1423.51,  398.39 " style="stroke-width: 1.42 ;&st7; " /><path d=" M 1478.75,  324.73  L 1473.09,  316.23  L 1484.42,  316.23  L 1478.75,  324.73 " style="stroke-width: 0.28 ;&st9;" /><path d=" M 1470.25,  333.23  L 1487.25,  333.23  L 1487.25,  307.73  L 1470.25,  307.73  L 1470.25,  333.23 " style="stroke-width: 1.42 ;&st7; " /><path d=" M 1376.77,  243.35  L 1373.94,  240.52  L 1373.94,  244.77  L 1376.77,  247.60  L 1379.60,  244.77  L 1379.60,  240.52  L 1376.77,  243.35 " style="stroke-width: 0.28 ;&st9;" /><path d=" M 1375.58,  230.24  L 1375.30,  230.71  L 1375.21,  231.25  L 1375.30,  231.78  L 1375.58,  232.25  L 1375.99,  232.60  L 1376.50,  232.78  L 1377.04,  232.78  L 1377.55,  232.60  L 1377.96,  232.25  L 1378.23,  231.78  L 1378.33,  231.25  L 1378.23,  230.71  L 1377.96,  230.24  L 1377.55,  229.90  L 1377.04,  229.71  L 1376.50,  229.71  L 1375.99,  229.90  L 1375.58,  230.24  L 1375.97,  230.96  L 1375.97,  231.54  L 1376.34,  231.98  L 1376.92,  232.08  L 1377.42,  231.79  L 1377.62,  231.25  L 1377.42,  230.70  L 1376.92,  230.41  L 1376.34,  230.51  L 1376.77,  231.25 " style="stroke-width: 0.85 ;&st7; " /><path d=" M 1266.29,  214.25  L 1266.29,  248.24 " style="stroke-width: 0.85 ;&st7; " /><path d=" M 1198.30,  214.25  L 1198.30,  248.24 " style="stroke-width: 0.85 ;&st7; " /><path d=" M 1266.29,  243.35  L 1263.46,  240.52  L 1263.46,  244.77  L 1266.29,  247.60  L 1269.12,  244.77  L 1269.12,  240.52  L 1266.29,  243.35 " style="stroke-width: 0.28 ;&st9;" /><path d=" M 1487.25,  579.69  L 1487.25,  545.69  L 1470.25,  545.69  L 1470.25,  579.69  L 1487.25,  579.69 " style="stroke-width: 1.42 ;&st7; " /><path d=" M 1478.75,  579.69  L 1478.75,  588.19 " style="stroke-width: 0.85 ;&st7; " /><path d=" M 1198.30,  243.35  L 1195.47,  240.52  L 1195.47,  244.77  L 1198.30,  247.60  L 1201.13,  244.77  L 1201.13,  240.52  L 1198.30,  243.35 " style="stroke-width: 0.28 ;&st9;" /><path d=" M 1436.26,  579.69  L 1436.26,  545.69  L 1419.26,  545.69  L 1419.26,  579.69  L 1436.26,  579.69 " style="stroke-width: 1.42 ;&st7; " /><path d=" M 1426.57,  230.24  L 1426.30,  230.71  L 1426.20,  231.25  L 1426.30,  231.78  L 1426.57,  232.25  L 1426.98,  232.60  L 1427.49,  232.78  L 1428.03,  232.78  L 1428.54,  232.60  L 1428.95,  232.25  L 1429.23,  231.78  L 1429.32,  231.25  L 1429.23,  230.71  L 1428.95,  230.24  L 1428.54,  229.90  L 1428.03,  229.71  L 1427.49,  229.71  L 1426.98,  229.90  L 1426.57,  230.24  L 1426.96,  230.96  L 1426.96,  231.54  L 1427.34,  231.98  L 1427.91,  232.08  L 1428.41,  231.79  L 1428.61,  231.25  L 1428.41,  230.70  L 1427.91,  230.41  L 1427.34,  230.51  L 1427.76,  231.25 " style="stroke-width: 0.85 ;&st7; " /><path d=" M 1375.58,  230.24  L 1375.30,  230.71  L 1375.21,  231.25  L 1375.30,  231.78  L 1375.58,  232.25  L 1375.99,  232.60  L 1376.50,  232.78  L 1377.04,  232.78  L 1377.55,  232.60  L 1377.96,  232.25  L 1378.23,  231.78  L 1378.33,  231.25  L 1378.23,  230.71  L 1377.96,  230.24  L 1377.55,  229.90  L 1377.04,  229.71  L 1376.50,  229.71  L 1375.99,  229.90  L 1375.58,  230.24  L 1375.97,  230.96  L 1375.97,  231.54  L 1376.34,  231.98  L 1376.92,  232.08  L 1377.42,  231.79  L 1377.62,  231.25  L 1377.42,  230.70  L 1376.92,  230.41  L 1376.34,  230.51  L 1376.77,  231.25 " style="stroke-width: 0.85 ;&st7; " /><path d=" M 1427.76,  243.35  L 1424.93,  240.52  L 1424.93,  244.77  L 1427.76,  247.60  L 1430.59,  244.77  L 1430.59,  240.52  L 1427.76,  243.35 " style="stroke-width: 0.28 ;&st9;" /><path d=" M 1478.75,  243.35  L 1475.92,  240.52  L 1475.92,  244.77  L 1478.75,  247.60  L 1481.59,  244.77  L 1481.59,  240.52  L 1478.75,  243.35 " style="stroke-width: 0.28 ;&st9;" /><path d=" M 1427.76,  231.25  L 1427.76,  248.24 " style="stroke-width: 0.85 ;&st7; " /><path d=" M 1381.02,  401.78  L 1376.77,  397.54  L 1372.52,  401.78 " style="stroke-width: 1.42 ;&st7; " /><path d=" M 1376.77,  231.25  L 1478.75,  231.25  L 1478.75,  248.24 " style="stroke-width: 0.85 ;&st7; " /><path d=" M 1385.27,  579.69  L 1385.27,  545.69  L 1368.27,  545.69  L 1368.27,  579.69  L 1385.27,  579.69 " style="stroke-width: 1.42 ;&st7; " /><path d=" M 1432.01,  503.77  L 1427.76,  499.52  L 1423.51,  503.77 " style="stroke-width: 1.42 ;&st7; " /><path d=" M 1432.01,  500.37  L 1427.76,  496.12  L 1423.51,  500.37 " style="stroke-width: 1.42 ;&st7; " /><path d=" M 1427.76,  324.73  L 1422.10,  316.23  L 1433.43,  316.23  L 1427.76,  324.73 " style="stroke-width: 0.28 ;&st9;" /><path d=" M 1419.26,  333.23  L 1436.26,  333.23  L 1436.26,  307.73  L 1419.26,  307.73  L 1419.26,  333.23 " style="stroke-width: 1.42 ;&st7; " /><path d=" M 1376.77,  697.25  L 1376.77,  701.50 " style="stroke-width: 0.85 ;&st7; " /><path d=" M 1368.27,  701.50  L 1385.27,  701.50 " style="stroke-width: 0.85 ;&st7; " /><path d=" M 1372.52,  704.33  L 1381.02,  704.33 " style="stroke-width: 0.85 ;&st7; " /><path d=" M 1373.94,  707.17  L 1379.60,  707.17 " style="stroke-width: 0.85 ;&st7; " /><path d=" M 1375.35,  710.00  L 1378.19,  710.00 " style="stroke-width: 0.85 ;&st7; " /><path d=" M 1376.77,  214.25  L 1376.77,  248.24 " style="stroke-width: 0.85 ;&st7; " /><path d=" M 1376.77,  630.68  L 1376.77,  647.68 " style="stroke-width: 0.85 ;&st7; " /><path d=" M 1368.27,  630.68  L 1385.27,  630.68  L 1385.27,  647.68  L 1368.27,  647.68  L 1368.27,  630.68 " style="stroke-width: 1.42 ;&st7; " /><path d=" M 1426.34,  596.69  L 1429.18,  596.69 " style="stroke-width: 0.85 ;&st7; " /><path d=" M 1424.93,  593.85  L 1430.59,  593.85 " style="stroke-width: 0.85 ;&st7; " /><path d=" M 1423.51,  591.02  L 1432.01,  591.02 " style="stroke-width: 0.85 ;&st7; " /><path d=" M 1419.26,  588.19  L 1436.26,  588.19 " style="stroke-width: 0.85 ;&st7; " /><path d=" M 1427.76,  579.69  L 1427.76,  588.19 " style="stroke-width: 0.85 ;&st7; " /><path d=" M 1477.34,  596.69  L 1480.17,  596.69 " style="stroke-width: 0.85 ;&st7; " /><path d=" M 1475.92,  593.85  L 1481.59,  593.85 " style="stroke-width: 0.85 ;&st7; " /><path d=" M 1474.50,  591.02  L 1483.00,  591.02 " style="stroke-width: 0.85 ;&st7; " /><path d=" M 1470.25,  588.19  L 1487.25,  588.19 " style="stroke-width: 0.85 ;&st7; " /><path d=" M 1381.02,  398.39  L 1376.77,  394.14  L 1372.52,  398.39 " style="stroke-width: 1.42 ;&st7; " /><path d=" M 1389.21,  388.47  L 1411.08,  388.47 " style="stroke-width: 0.85 ;&st7;stroke-dasharray:3, 1.5;" /><path d=" M 1308.78,  333.23  L 1325.78,  333.23  L 1325.78,  307.73  L 1308.78,  307.73  L 1308.78,  333.23 " style="stroke-width: 1.42 ;&st7; " /><path d=" M 1317.28,  324.73  L 1311.61,  316.23  L 1322.95,  316.23  L 1317.28,  324.73 " style="stroke-width: 0.28 ;&st9;" /><path d=" M 1389.21,  379.97  L 1411.08,  379.97 " style="stroke-width: 0.85 ;&st7;stroke-dasharray:3, 1.5;" /><path d=" M 1196.88,  469.21  L 1199.72,  469.21 " style="stroke-width: 0.85 ;&st7; " /><path d=" M 1195.47,  466.37  L 1201.13,  466.37 " style="stroke-width: 0.85 ;&st7; " /><path d=" M 1194.05,  463.54  L 1202.55,  463.54 " style="stroke-width: 0.85 ;&st7; " /><path d=" M 1189.80,  460.71  L 1206.80,  460.71 " style="stroke-width: 0.85 ;&st7; " /><path d=" M 1198.30,  452.21  L 1198.30,  460.71 " style="stroke-width: 0.85 ;&st7; " /><path d=" M 1206.80,  452.21  L 1206.80,  418.22  L 1189.80,  418.22  L 1189.80,  452.21  L 1206.80,  452.21 " style="stroke-width: 1.42 ;&st7; " /><path d=" M 1274.79,  452.21  L 1274.79,  418.22  L 1257.79,  418.22  L 1257.79,  452.21  L 1274.79,  452.21 " style="stroke-width: 1.42 ;&st7; " /><path d=" M 1266.29,  452.21  L 1266.29,  460.71 " style="stroke-width: 0.85 ;&st7; " /><path d=" M 1257.79,  460.71  L 1274.79,  460.71 " style="stroke-width: 0.85 ;&st7; " /><path d=" M 1262.04,  463.54  L 1270.54,  463.54 " style="stroke-width: 0.85 ;&st7; " /><path d=" M 1263.46,  466.37  L 1269.12,  466.37 " style="stroke-width: 0.85 ;&st7; " /><path d=" M 1264.87,  469.21  L 1267.70,  469.21 " style="stroke-width: 0.85 ;&st7; " /><path d=" M 1381.02,  421.05  L 1376.77,  425.30  L 1372.52,  421.05 " style="stroke-width: 1.42 ;&st7; " /><path d=" M 1372.52,  417.65  L 1376.77,  421.90  L 1381.02,  417.65 " style="stroke-width: 1.42 ;&st7; " /><path d=" M 1381.02,  500.37  L 1376.77,  496.12  L 1372.52,  500.37 " style="stroke-width: 1.42 ;&st7; " /><path d=" M 1381.02,  503.77  L 1376.77,  499.52  L 1372.52,  503.77 " style="stroke-width: 1.42 ;&st7; " /><path d=" M 1483.00,  398.39  L 1478.75,  394.14  L 1474.50,  398.39 " style="stroke-width: 1.42 ;&st7; " /><path d=" M 1483.00,  401.78  L 1478.75,  397.54  L 1474.50,  401.78 " style="stroke-width: 1.42 ;&st7; " /><path d=" M 1480.17,  574.02  C 1480.17   573.24  1479.54   572.61  1478.75   572.61 " style="stroke-width: 0.85 ;&st7; " /><path d=" M 1478.75,  572.61  C 1477.97   572.61  1477.34   573.24  1477.34   574.02 " style="stroke-width: 0.85 ;&st7; " /><path d=" M 1477.34,  574.02  C 1477.34   574.80  1477.97   575.44  1478.75   575.44 " style="stroke-width: 0.85 ;&st7; " /><path d=" M 1478.75,  575.44  C 1479.54   575.44  1480.17   574.80  1480.17   574.02 " style="stroke-width: 0.85 ;&st7; " /><path d=" M 1480.17,  551.36  C 1480.17   550.58  1479.54   549.94  1478.75   549.94 " style="stroke-width: 0.85 ;&st7; " /><path d=" M 1478.75,  549.94  C 1477.97   549.94  1477.34   550.58  1477.34   551.36 " style="stroke-width: 0.85 ;&st7; " /><path d=" M 1477.34,  551.36  C 1477.34   552.14  1477.97   552.78  1478.75   552.78 " style="stroke-width: 0.85 ;&st7; " /><path d=" M 1478.75,  552.78  C 1479.54   552.78  1480.17   552.14  1480.17   551.36 " style="stroke-width: 0.85 ;&st7; " /><path d=" M 1374.65,  248.24  C 1372.30   248.24  1370.40   250.15  1370.40   252.49 " style="stroke-width: 1.42 ;&st7; " /><path d=" M 1378.89,  256.74  C 1381.24   256.74  1383.14   254.84  1383.14   252.49 " style="stroke-width: 1.42 ;&st7; " /><path d=" M 1370.40,  252.49  C 1370.40   254.84  1372.30   256.74  1374.65   256.74 " style="stroke-width: 1.42 ;&st7; " /><path d=" M 1383.14,  252.49  C 1383.14   250.15  1381.24   248.24  1378.89   248.24 " style="stroke-width: 1.42 ;&st7; " /><path d=" M 1272.66,  252.49  C 1272.66   250.15  1270.76   248.24  1268.41   248.24 " style="stroke-width: 1.42 ;&st7; " /><path d=" M 1259.91,  252.49  C 1259.91   254.84  1261.82   256.74  1264.16   256.74 " style="stroke-width: 1.42 ;&st7; " /><path d=" M 1264.16,  248.24  C 1261.82   248.24  1259.91   250.15  1259.91   252.49 " style="stroke-width: 1.42 ;&st7; " /><path d=" M 1204.67,  252.49  C 1204.67   250.15  1202.77   248.24  1200.42   248.24 " style="stroke-width: 1.42 ;&st7; " /><path d=" M 1200.42,  256.74  C 1202.77   256.74  1204.67   254.84  1204.67   252.49 " style="stroke-width: 1.42 ;&st7; " /><path d=" M 1191.93,  252.49  C 1191.93   254.84  1193.83   256.74  1196.18   256.74 " style="stroke-width: 1.42 ;&st7; " /><path d=" M 1196.18,  248.24  C 1193.83   248.24  1191.93   250.15  1191.93   252.49 " style="stroke-width: 1.42 ;&st7; " /><path d=" M 1268.41,  256.74  C 1270.76   256.74  1272.66   254.84  1272.66   252.49 " style="stroke-width: 1.42 ;&st7; " /><path d=" M 1429.18,  551.36  C 1429.18   550.58  1428.54   549.94  1427.76   549.94 " style="stroke-width: 0.85 ;&st7; " /><path d=" M 1427.76,  549.94  C 1426.98   549.94  1426.35   550.58  1426.35   551.36 " style="stroke-width: 0.85 ;&st7; " /><path d=" M 1426.35,  551.36  C 1426.35   552.14  1426.98   552.78  1427.76   552.78 " style="stroke-width: 0.85 ;&st7; " /><path d=" M 1427.76,  552.78  C 1428.54   552.78  1429.18   552.14  1429.18   551.36 " style="stroke-width: 0.85 ;&st7; " /><path d=" M 1429.18,  574.02  C 1429.18   573.24  1428.54   572.61  1427.76   572.61 " style="stroke-width: 0.85 ;&st7; " /><path d=" M 1427.76,  572.61  C 1426.98   572.61  1426.35   573.24  1426.35   574.02 " style="stroke-width: 0.85 ;&st7; " /><path d=" M 1426.35,  574.02  C 1426.35   574.80  1426.98   575.44  1427.76   575.44 " style="stroke-width: 0.85 ;&st7; " /><path d=" M 1427.76,  575.44  C 1428.54   575.44  1429.18   574.80  1429.18   574.02 " style="stroke-width: 0.85 ;&st7; " /><path d=" M 1421.39,  252.49  C 1421.39   254.84  1423.29   256.74  1425.64   256.74 " style="stroke-width: 1.42 ;&st7; " /><path d=" M 1429.89,  256.74  C 1432.23   256.74  1434.14   254.84  1434.14   252.49 " style="stroke-width: 1.42 ;&st7; " /><path d=" M 1434.14,  252.49  C 1434.14   250.15  1432.23   248.24  1429.89   248.24 " style="stroke-width: 1.42 ;&st7; " /><path d=" M 1425.64,  248.24  C 1423.29   248.24  1421.39   250.15  1421.39   252.49 " style="stroke-width: 1.42 ;&st7; " /><path d=" M 1476.63,  248.24  C 1474.28   248.24  1472.38   250.15  1472.38   252.49 " style="stroke-width: 1.42 ;&st7; " /><path d=" M 1480.88,  256.74  C 1483.22   256.74  1485.13   254.84  1485.13   252.49 " style="stroke-width: 1.42 ;&st7; " /><path d=" M 1485.13,  252.49  C 1485.13   250.15  1483.22   248.24  1480.88   248.24 " style="stroke-width: 1.42 ;&st7; " /><path d=" M 1472.38,  252.49  C 1472.38   254.84  1474.28   256.74  1476.63   256.74 " style="stroke-width: 1.42 ;&st7; " /><path d=" M 1378.19,  574.02  C 1378.19   573.24  1377.55   572.61  1376.77   572.61 " style="stroke-width: 0.85 ;&st7; " /><path d=" M 1376.77,  572.61  C 1375.99   572.61  1375.35   573.24  1375.35   574.02 " style="stroke-width: 0.85 ;&st7; " /><path d=" M 1375.35,  574.02  C 1375.35   574.80  1375.99   575.44  1376.77   575.44 " style="stroke-width: 0.85 ;&st7; " /><path d=" M 1376.77,  575.44  C 1377.55   575.44  1378.19   574.80  1378.19   574.02 " style="stroke-width: 0.85 ;&st7; " /><path d=" M 1378.19,  551.36  C 1378.19   550.58  1377.55   549.94  1376.77   549.94 " style="stroke-width: 0.85 ;&st7; " /><path d=" M 1376.77,  549.94  C 1375.99   549.94  1375.35   550.58  1375.35   551.36 " style="stroke-width: 0.85 ;&st7; " /><path d=" M 1375.35,  551.36  C 1375.35   552.14  1375.99   552.78  1376.77   552.78 " style="stroke-width: 0.85 ;&st7; " /><path d=" M 1376.77,  552.78  C 1377.55   552.78  1378.19   552.14  1378.19   551.36 " style="stroke-width: 0.85 ;&st7; " /><path d=" M 1267.70,  446.54  C 1267.70   445.76  1267.07   445.13  1266.29   445.13 " style="stroke-width: 0.85 ;&st7; " /><path d=" M 1266.29,  445.13  C 1265.51   445.13  1264.87   445.76  1264.87   446.54 " style="stroke-width: 0.85 ;&st7; " /><path d=" M 1264.87,  446.54  C 1264.87   447.33  1265.51   447.96  1266.29   447.96 " style="stroke-width: 0.85 ;&st7; " /><path d=" M 1266.29,  447.96  C 1267.07   447.96  1267.70   447.33  1267.70   446.54 " style="stroke-width: 0.85 ;&st7; " /><path d=" M 1267.70,  423.88  C 1267.70   423.10  1267.07   422.46  1266.29   422.46 " style="stroke-width: 0.85 ;&st7; " /><path d=" M 1266.29,  422.46  C 1265.51   422.46  1264.87   423.10  1264.87   423.88 " style="stroke-width: 0.85 ;&st7; " /><path d=" M 1264.87,  423.88  C 1264.87   424.66  1265.51   425.30  1266.29   425.30 " style="stroke-width: 0.85 ;&st7; " /><path d=" M 1266.29,  425.30  C 1267.07   425.30  1267.70   424.66  1267.70   423.88 " style="stroke-width: 0.85 ;&st7; " /><path d=" M 1199.72,  446.54  C 1199.72   445.76  1199.08   445.13  1198.30   445.13 " style="stroke-width: 0.85 ;&st7; " /><path d=" M 1198.30,  445.13  C 1197.52   445.13  1196.88   445.76  1196.88   446.54 " style="stroke-width: 0.85 ;&st7; " /><path d=" M 1196.88,  446.54  C 1196.88   447.33  1197.52   447.96  1198.30   447.96 " style="stroke-width: 0.85 ;&st7; " /><path d=" M 1198.30,  447.96  C 1199.08   447.96  1199.72   447.33  1199.72   446.54 " style="stroke-width: 0.85 ;&st7; " /><path d=" M 1199.72,  423.88  C 1199.72   423.10  1199.08   422.46  1198.30   422.46 " style="stroke-width: 0.85 ;&st7; " /><path d=" M 1198.30,  422.46  C 1197.52   422.46  1196.88   423.10  1196.88   423.88 " style="stroke-width: 0.85 ;&st7; " /><path d=" M 1196.88,  423.88  C 1196.88   424.66  1197.52   425.30  1198.30   425.30 " style="stroke-width: 0.85 ;&st7; " /><path d=" M 1198.30,  425.30  C 1199.08   425.30  1199.72   424.66  1199.72   423.88 " style="stroke-width: 0.85 ;&st7; " /><path d=" M 1202.83,  413.68  C 1202.83   411.18  1200.80   409.15  1198.30   409.15 " style="stroke-width: 1.42 ;&st7; " /><path d=" M 1198.30,  409.15  C 1195.80   409.15  1193.77   411.18  1193.77   413.68 " style="stroke-width: 1.42 ;&st7; " /><path d=" M 1193.77,  413.68  C 1193.77   416.19  1195.80   418.22  1198.30   418.22 " style="stroke-width: 1.42 ;&st7; " /><path d=" M 1198.30,  418.22  C 1200.80   418.22  1202.83   416.19  1202.83   413.68 " style="stroke-width: 1.42 ;&st7; " /><path d=" M 1202.83,  404.62  C 1202.83   402.11  1200.80   400.09  1198.30   400.09 " style="stroke-width: 1.42 ;&st7; " /><path d=" M 1198.30,  400.09  C 1195.80   400.09  1193.77   402.11  1193.77   404.62 " style="stroke-width: 1.42 ;&st7; " /><path d=" M 1193.77,  404.62  C 1193.77   407.12  1195.80   409.15  1198.30   409.15 " style="stroke-width: 1.42 ;&st7; " /><path d=" M 1198.30,  409.15  C 1200.80   409.15  1202.83   407.12  1202.83   404.62 " style="stroke-width: 1.42 ;&st7; " /><path d=" M 1270.82,  413.68  C 1270.82   411.18  1268.79   409.15  1266.29   409.15 " style="stroke-width: 1.42 ;&st7; " /><path d=" M 1266.29,  409.15  C 1263.79   409.15  1261.76   411.18  1261.76   413.68 " style="stroke-width: 1.42 ;&st7; " /><path d=" M 1261.76,  413.68  C 1261.76   416.19  1263.79   418.22  1266.29   418.22 " style="stroke-width: 1.42 ;&st7; " /><path d=" M 1266.29,  418.22  C 1268.79   418.22  1270.82   416.19  1270.82   413.68 " style="stroke-width: 1.42 ;&st7; " /><path d=" M 1270.82,  404.62  C 1270.82   402.11  1268.79   400.09  1266.29   400.09 " style="stroke-width: 1.42 ;&st7; " /><path d=" M 1266.29,  400.09  C 1263.79   400.09  1261.76   402.11  1261.76   404.62 " style="stroke-width: 1.42 ;&st7; " /><path d=" M 1261.76,  404.62  C 1261.76   407.12  1263.79   409.15  1266.29   409.15 " style="stroke-width: 1.42 ;&st7; " /><path d=" M 1266.29,  409.15  C 1268.79   409.15  1270.82   407.12  1270.82   404.62 " style="stroke-width: 1.42 ;&st7; " /><path d=" M 1119.69,  248.24  C 1117.34   248.24  1115.44   250.15  1115.44   252.49 " style="stroke-width: 1.42 ;&st7; " /><path d=" M 1115.44,  252.49  C 1115.44   254.84  1117.34   256.74  1119.69   256.74 " style="stroke-width: 1.42 ;&st7; " /><path d=" M 1123.94,  256.74  C 1126.28   256.74  1128.19   254.84  1128.19   252.49 " style="stroke-width: 1.42 ;&st7; " /><path d=" M 1128.19,  252.49  C 1128.19   250.15  1126.28   248.24  1123.94   248.24 " style="stroke-width: 1.42 ;&st7; " /><path d=" M 1153.68,  248.24  C 1151.34   248.24  1149.43   250.15  1149.43   252.49 " style="stroke-width: 1.42 ;&st7; " /><path d=" M 1149.43,  252.49  C 1149.43   254.84  1151.34   256.74  1153.68   256.74 " style="stroke-width: 1.42 ;&st7; " /><path d=" M 1157.93,  256.74  C 1160.28   256.74  1162.18   254.84  1162.18   252.49 " style="stroke-width: 1.42 ;&st7; " /><path d=" M 1162.18,  252.49  C 1162.18   250.15  1160.28   248.24  1157.93   248.24 " style="stroke-width: 1.42 ;&st7; " /><path d=" M 1000.71,  294.99  C 1000.71   292.64   998.81   290.74   996.46   290.74 " style="stroke-width: 1.42 ;&st7; " /><text style="&st18;" transform="matrix(&st16;  1229.77  160.95 )">H7(A)</text><text style="&st18;" transform="matrix(&st16;  1421.75  304.04 )">1</text><text style="&st18;" transform="matrix(&st17;  1475.06  361.2 )">R</text><text style="&st18;" transform="matrix(&st16;  1372.46  254.46 )">5A</text><text style="&st18;" transform="matrix(&st16;  1364.08  254.46 )">9</text><text style="&st18;" transform="matrix(&st17;  1424.07  522.53 )">B</text><text style="&st18;" transform="matrix(&st17;  1424.07  437.54 )">B</text><text style="&st18;" transform="matrix(&st17;  1475.06  437.68 )">R</text><text style="&st18;" transform="matrix(&st16;  1367.37  210.55 )">RCTY</text><text style="&st18;" transform="matrix(&st16;  1257.03  210.55 )">PCTY</text><text style="&st18;" transform="matrix(&st16;  1188.9  210.55 )">DCTY</text><text style="&st18;" transform="matrix(&st16;  1261.98  254.46 )">5E</text><text style="&st18;" transform="matrix(&st16;  1250.42  254.46 )">10</text><text style="&st18;" transform="matrix(&st17;  1424.07  361.06 )">B</text><text style="&st18;" transform="matrix(&st17;  1373.08  676.62 )">W-B</text><text style="&st18;" transform="matrix(&st16;  1181.65  254.46 )">27</text><text style="&st18;" transform="matrix(&st16;  1193.99  254.46 )">5E</text><text style="&st18;" transform="matrix(&st16;  1472.74  304.04 )">1</text><text style="&st18;" transform="matrix(&st17;  1443.87  582.21 )">X2</text><text style="&st18;" transform="matrix(&st17;  1392.88  582.21 )">a2</text><text style="&st18;" transform="matrix(&st16;  1421.75  542.0 )">1</text><text style="&st18;" transform="matrix(&st16;  1187.55  222.44 )">26</text><text style="&st18;" transform="matrix(&st16;  1255.54  222.44 )">20</text><text style="&st18;" transform="matrix(&st16;  1366.02  222.44 )">22</text><text style="&st18;" transform="matrix(&st16;  1423.45  254.46 )">5A</text><text style="&st18;" transform="matrix(&st16;  1411.89  254.46 )">18</text><text style="&st18;" transform="matrix(&st16;  1474.44  254.46 )">5A</text><text style="&st18;" transform="matrix(&st16;  1462.11  254.46 )">30</text><text style="&st18;" transform="matrix(&st17;  1424.07  285.59 )">W</text><text style="&st18;" transform="matrix(&st16;  1472.74  542.0 )">1</text><text style="&st18;" transform="matrix(&st17;  1373.07  607.52 )">B</text><text style="&st18;" transform="matrix(&st16;  1369.98  587.88 )">2</text><text style="&st18;" transform="matrix(&st16;  1412.95  492.42 )">3</text><text style="&st18;" transform="matrix(&st17;  1262.59  314.97 )">R-G</text><text style="&st18;" transform="matrix(&st17;  1194.6  314.2 )">R-L</text><text style="&st18;" transform="matrix(&st17;  1373.07  335.98 )">G</text><text style="&st18;" transform="matrix(&st17;  1373.07  412.47 )">G</text><text style="&st18;" transform="matrix(&st17;  1373.07  461.19 )">LG</text><text style="&st18;" transform="matrix(&st17;  1494.86  582.21 )">Y3</text><text style="&st18;" transform="matrix(&st16;  1370.76  655.87 )">1</text><text style="&st18;" transform="matrix(&st16;  1369.98  626.99 )">3</text><text style="&st18;" transform="matrix(&st17;  1373.07  524.93 )">LG</text><text style="&st18;" transform="matrix(&st16;  1370.76  542.0 )">1</text><text style="&st18;" transform="matrix(&st17;  1443.87  335.75 )">T9</text><text style="&st18;" transform="matrix(&st17;  1494.86  335.75 )">T6</text><text style="&st18;" transform="matrix(&st16;  1420.97  341.42 )">2</text><text style="&st18;" transform="matrix(&st16;  1471.96  341.42 )">2</text><text ewd:textID="33" style="&st18;" transform="matrix(&st16;  1229.77  168.06 )">Integration Relay</text><text style="&st18;" transform="matrix(&st17;  1018.94  667.2 )">a3</text><text style="&st18;" transform="matrix(&st17;  1475.06  285.59 )">W</text><text style="&st18;" transform="matrix(&st17;  1118.12  561.89 )">W-B</text><text style="&st18;" transform="matrix(&st17;  1118.12  672.37 )">W-B</text><text style="&st18;" transform="matrix(&st16;  1116.94  254.46 )">5M</text><text style="&st18;" transform="matrix(&st16;  1109.12  254.46 )">7</text><text style="&st18;" transform="matrix(&st16;  1151.5  254.46 )">5E</text><text style="&st18;" transform="matrix(&st16;  1139.94  254.46 )">12</text><text style="&st18;" transform="matrix(&st16;  1114.11  210.55 )">GND</text><text style="&st18;" transform="matrix(&st16;  1115.8  222.44 )">1</text><text style="&st18;" transform="matrix(&st17;  1152.11  306.94 )">W-B</text><text style="&st18;" transform="matrix(&st17;  1152.11  672.37 )">W-B</text><text style="&st18;" transform="matrix(&st17;  1118.12  306.94 )">W-B</text><text ewd:textID="21" style="&st18;" transform="matrix(&st17;  1450.98  335.75 )">Diode <tspan dy="6" x="0">(Door Courtesy No.5)</tspan></text><text ewd:textID="27" style="&st18;" transform="matrix(&st17;  1450.98  582.21 )">Door Courtesy SW <tspan dy="6" x="0">(Slide Door RH)</tspan></text><text ewd:textID="18" style="&st18;" transform="matrix(&st17;  1399.99  582.21 )">Back Door <tspan dy="6" x="0">Courtesy SW</tspan></text><text ewd:textID="19" style="&st18;" transform="matrix(&st17;  1026.05  667.2 )">Back Door Lock Assembly</text><text ewd:textID="34" style="&st18;" transform="matrix(&st17;  1358.63  650.2 )">Junction <tspan dy="6" x="0">Connector</tspan></text><text style="&st18;" transform="matrix(&st17;  1351.52  650.2 )">a1</text><text style="&st18;" transform="matrix(&st16;  1311.27  304.04 )">1</text><text style="&st18;" transform="matrix(&st17;  1292.03  335.75 )">T17</text><text style="&st18;" transform="matrix(&st16;  1310.49  341.42 )">2</text><text ewd:textID="22" style="&st18;" transform="matrix(&st17;  1299.14  335.75 )">Diode <tspan dy="6" x="0">(Door Courtesy No.6)</tspan></text><text style="&st18;" transform="matrix(&st16;  1339.42  270.04 )">W</text><text style="&st18;" transform="matrix(&st16;  1340.02  355.03 )">G</text><text style="&st18;" transform="matrix(&st16;  1336.59  281.37 )">(*5)</text><text style="&st18;" transform="matrix(&st16;  1336.59  366.36 )">(*5)</text><text style="&st18;" transform="matrix(&st17;  1384.41  339.41 )">(*6)</text><text ewd:textID="5" style="&st18;" transform="matrix(&st16;  1144.78  46.25 )">* 5 :6 Speaker</text><text ewd:textID="6" style="&st18;" transform="matrix(&st16;  1144.78  54.75 )">* 6 :Except *5</text><text ewd:textID="8" style="&st18;" transform="matrix(&st16;  1144.78  71.74 )">* 8 :Except *7</text><text ewd:textID="7" style="&st18;" transform="matrix(&st16;  1144.78  63.24 )">* 7 :Standard Body Standard Roof</text><text style="&st18;" transform="matrix(&st16;  1359.55  381.94 )">11</text><text style="&st18;" transform="matrix(&st16;  1359.55  390.44 )">11</text><text style="&st18;" transform="matrix(&st16;  1437.67  390.44 )">(*8)</text><text style="&st18;" transform="matrix(&st16;  1437.67  381.94 )">(*7)</text><text style="&st18;" transform="matrix(&st16;  1412.95  381.94 )">4</text><text style="&st18;" transform="matrix(&st16;  1412.95  390.44 )">4</text><text style="&st18;" transform="matrix(&st16;  1004.25  381.94 )">(*11)</text><text style="&st18;" transform="matrix(&st16;  1004.25  373.44 )">(*12)</text><text ewd:textID="11" style="&st18;" transform="matrix(&st16;  1144.78  80.24 )">*11 :Before Aug. 2010 Production</text><text ewd:textID="12" style="&st18;" transform="matrix(&st16;  1144.78  88.74 )">*12 :From Aug. 2010 Production</text><text style="&st18;" transform="matrix(&st16;  1144.78  105.74 )">*14 :M/T *20, M/T *18</text><text style="&st18;" transform="matrix(&st16;  1144.78  97.24 )">*13 :A/T *20, A/T *18</text><text style="&st18;" transform="matrix(&st16;  1306.26  46.25 )">*16 :M/T *17</text><text style="&st18;" transform="matrix(&st16;  1144.78  114.24 )">*15 :A/T *17</text><text style="&st18;" transform="matrix(&st16;  1306.26  63.24 )">*18 :*21 *12</text><text style="&st18;" transform="matrix(&st16;  1306.26  54.75 )">*17 :*21 *11</text><text ewd:textID="13" style="&st18;" transform="matrix(&st16;  1306.26  80.24 )">*20 :w/ Engine Immobiliser System</text><text style="&st18;" transform="matrix(&st16;  1306.26  71.74 )">*19 :*20, *18</text><text ewd:textID="14" style="&st18;" transform="matrix(&st16;  1306.26  88.74 )">*21 :w/o Engine Immobiliser System</text><text ewd:textID="25" style="&st18;" transform="matrix(&st17;  1180.16  454.73 )">Door Courtesy SW <tspan dy="6" x="0">(Front RH)</tspan></text><text style="&st18;" transform="matrix(&st17;  1173.05  454.73 )">B26(A),B57(B)</text><text ewd:textID="24" style="&st18;" transform="matrix(&st17;  1248.14  454.73 )">Door Courtesy SW <tspan dy="6" x="0">(Front LH)</tspan></text><text style="&st18;" transform="matrix(&st17;  1241.04  454.73 )">B22(A),B56(B)</text><text style="&st18;" transform="matrix(&st16;  1204.27  415.65 )">(*12)</text><text style="&st18;" transform="matrix(&st16;  1195.97  415.65 )">B</text><text style="&st18;" transform="matrix(&st16;  1188.2  415.65 )">1</text><text style="&st18;" transform="matrix(&st16;  1204.27  406.59 )">(*11)</text><text style="&st18;" transform="matrix(&st16;  1195.97  406.59 )">A</text><text style="&st18;" transform="matrix(&st16;  1188.2  406.59 )">1</text><text style="&st18;" transform="matrix(&st16;  1272.26  415.65 )">(*12)</text><text style="&st18;" transform="matrix(&st16;  1263.96  415.65 )">B</text><text style="&st18;" transform="matrix(&st16;  1256.19  415.65 )">1</text><text style="&st18;" transform="matrix(&st16;  1272.26  406.59 )">(*11)</text><text style="&st18;" transform="matrix(&st16;  1263.96  406.59 )">A</text><text style="&st18;" transform="matrix(&st16;  1256.19  406.59 )">1</text><text style="&st18;" transform="matrix(&st16;  1111.84  593.0 )">12</text><text style="&st18;" transform="matrix(&st16;  1115.8  621.88 )">1</text><text style="&st18;" transform="matrix(&st16;  1004.25  466.93 )">(*23)</text><text style="&st18;" transform="matrix(&st16;  1004.25  458.43 )">(*22)</text><text style="&st18;" transform="matrix(&st16;  1004.25  534.92 )">(*23)</text><text style="&st18;" transform="matrix(&st16;  1004.25  526.42 )">(*24)</text><text style="&st18;" transform="matrix(&st16;  1004.25  517.92 )">(*11)</text><text ewd:textID="15" style="&st18;" transform="matrix(&st16;  1306.26  97.24 )">*22 :Before Apr. 2012 Production</text><text ewd:textID="16" style="&st18;" transform="matrix(&st16;  1306.26  105.74 )">*23 :From Apr. 2012 Production</text><text ewd:textID="17" style="&st18;" transform="matrix(&st16;  1306.26  114.24 )">*24 :From Aug. 2010 Production <tspan dy="8.49" x="14.16">until Apr. 2012 Production</tspan></text><text style="&st18;" transform="matrix(&st16;  1386.68  441.43 )">(*23)</text><text style="&st18;" transform="matrix(&st16;  1386.68  432.93 )">(*22)</text><text style="&st18;" transform="matrix(&st16;  1361.96  441.43 )">2</text><text style="&st18;" transform="matrix(&st16;  1361.96  432.93 )">2</text><text style="&st18;" transform="matrix(&st16;  1386.68  492.42 )">(*23)</text><text style="&st18;" transform="matrix(&st16;  1386.68  483.92 )">(*24)</text><text style="&st18;" transform="matrix(&st16;  1361.96  483.92 )">2</text><text style="&st18;" transform="matrix(&st16;  1361.96  492.42 )">5</text><text style="&st18;" transform="matrix(&st16;  1386.68  475.43 )">(*11)</text><text style="&st18;" transform="matrix(&st16;  1361.96  475.43 )">2</text><text style="&st18;" transform="matrix(&st16;  1488.66  390.44 )">(*23)</text><text style="&st18;" transform="matrix(&st16;  1488.66  381.94 )">(*22)</text><text style="&st18;" transform="matrix(&st16;  1463.94  381.94 )">4</text><text style="&st18;" transform="matrix(&st16;  1463.94  390.44 )">6</text><text ewd:textID="34" style="&st18;" transform="matrix(&st17;  1103.67  616.21 )">Junction <tspan dy="6" x="0">Connector</tspan></text><text style="&st18;" transform="matrix(&st17;  1096.85  616.21 )">H41</text></svg>