﻿<?xml version="1.0"?>
<!-- Generator: Adobe Illustrator 10.0, SVG Export Plug-In . SVG Version: 3.0.0 Build 77)  -->
<!DOCTYPE svg PUBLIC "-//W3C//DTD SVG 1.0//EN" "http://www.w3.org/TR/2001/REC-SVG-20010904/DTD/svg10.dtd"[
	<!ENTITY ns_flows "http://ns.adobe.com/Flows/1.0/">
	<!ENTITY ns_svg "http://www.w3.org/2000/svg">
	<!ENTITY ns_xlink "http://www.w3.org/1999/xlink">
	<!ENTITY st0 "font-size:6.6349px;">
	<!ENTITY st1 "fill:none;stroke:#000000;stroke-width:1.1331;stroke-linecap:round;stroke-linejoin:round;">
	<!ENTITY st2 "fill:none;stroke:#000000;stroke-width:0.8499;stroke-linecap:round;stroke-linejoin:round;">
	<!ENTITY st3 "font-family:'Arial';">
	<!ATTLIST svg
		xmlns:ewd CDATA #FIXED "http://shcl.co.jp/ewd"
		xmlns:a CDATA #FIXED "http://ns.adobe.com/AdobeSVGViewerExtensions/3.0/"
		ewd:ver CDATA #IMPLIED>
	<!ATTLIST g
		ewd:pinNo CDATA #IMPLIED>
]>
<svg width="139.945" height="145.609" viewBox="0 0 139.945 145.609" style="overflow:visible;enable-background:new 0 0 139.945 145.609" xml:space="preserve" onload="call_execInitLoadProc_svg('connector')" ewd:ver="2.1.2.5" xmlns="&ns_svg;" xmlns:ewd="http://shcl.co.jp/ewd" xmlns:a="http://ns.adobe.com/AdobeSVGViewerExtensions/3.0/" xmlns:xlink="&ns_xlink;">
<script type="text/javascript" xlink:href="../../../../../system/js/ewd/fig/svgfig.js"/>
<g id="レイヤー_1">
	<g>
		<path style="&st1;" d="M9.065,0.567c-4.694,0-8.499,3.805-8.499,8.499"/>
		<path style="&st1;" d="M139.377,9.065c0-4.694-3.805-8.499-8.499-8.499"/>
		<path style="&st1;" d="M0.567,135.292c0,2.488,1.514,4.589,3.876,5.375"/>
		<path style="&st1;" d="M121.459,145.042c0.642,0,1.185-0.088,1.793-0.292"/>
		<path style="&st1;" d="M135.501,140.668c2.362-0.786,3.877-2.887,3.877-5.376"/>
		<path style="&st1;" d="M16.691,144.751c0.608,0.203,1.152,0.291,1.793,0.291"/>
		<path style="&st2;" d="M32.745,5.47c-2.517,1.946-3.85,4.663-3.85,7.844"/>
		<path style="&st2;" d="M111.048,13.314c0-3.181-1.333-5.898-3.85-7.844"/>
		<path style="&st2;" d="M91.218,136.544h42.493"/>
		<path style="&st2;" d="M91.218,136.544l-2.833-2.833"/>
		<path style="&st2;" d="M6.232,48.725v59.49h14.165v-59.49H6.232"/>
		<path style="&st2;" d="M34.561,48.725v59.49h14.165v-59.49H34.561"/>
		<path style="&st2;" d="M62.889,48.725v79.32h14.165v-79.32H62.889"/>
		<path style="&st2;" d="M91.218,48.725v79.32h14.165v-79.32H91.218"/>
		<path style="&st2;" d="M119.547,48.725v79.32h14.165v-79.32H119.547"/>
		<path style="&st2;" d="M119.547,68.555h14.165"/>
		<path style="&st2;" d="M119.547,88.385h14.165"/>
		<path style="&st2;" d="M119.547,108.215h14.165"/>
		<path style="&st2;" d="M91.218,68.555h14.165"/>
		<path style="&st2;" d="M91.218,88.385h14.165"/>
		<path style="&st2;" d="M91.218,108.215h14.165"/>
		<path style="&st2;" d="M62.889,68.555h14.165"/>
		<path style="&st2;" d="M62.889,88.385h14.165"/>
		<path style="&st2;" d="M62.889,108.215h14.165"/>
		<path style="&st2;" d="M34.561,68.555h14.165"/>
		<path style="&st2;" d="M34.561,88.385h14.165"/>
		<path style="&st2;" d="M6.232,68.555h14.165"/>
		<path style="&st2;" d="M20.397,88.385H6.232"/>
		<path style="&st2;" d="M13.315,108.215v19.83h14.164v-19.83H13.315"/>
		<path style="&st2;" d="M28.895,43.06V13.314"/>
		<path style="&st2;" d="M41.643,108.215v19.83h14.164v-19.83H41.643"/>
		<path style="&st2;" d="M6.232,136.544h21.247"/>
		<path style="&st2;" d="M98.3,31.728h7.083V20.396l-13.456-4.249"/>
		<path style="&st2;" d="M41.643,31.728h-7.083v-8.499l13.456-7.082"/>
		<path style="&st2;" d="M48.017,16.147h43.91"/>
		<path style="&st2;" d="M6.232,43.06V11.898"/>
		<path style="&st2;" d="M133.711,43.06V11.898"/>
		<path style="&st1;" d="M9.065,0.567h121.813"/>
		<path style="&st1;" d="M4.442,140.668l12.249,4.083"/>
		<path style="&st2;" d="M86.969,0.567l46.742,11.331"/>
		<path style="&st2;" d="M84.136,28.895v-2.833H98.3v5.666"/>
		<path style="&st2;" d="M61.473,28.895h-5.666v2.833"/>
		<path style="&st2;" d="M41.643,31.728v-5.666h14.164v2.833"/>
		<path style="&st2;" d="M78.47,28.895h5.666v2.833"/>
		<path style="&st1;" d="M0.567,9.065v126.227"/>
		<path style="&st2;" d="M109.632,116.714v11.332h5.666v-11.332H109.632"/>
		<path style="&st2;" d="M109.632,101.133v11.332h5.666v-11.332H109.632"/>
		<path style="&st2;" d="M61.473,23.229H78.47"/>
		<path style="&st2;" d="M111.048,13.314V43.06"/>
		<path style="&st2;" d="M109.632,91.218v5.666h5.666v-5.666H109.632"/>
		<path style="&st1;" d="M135.501,140.668l-12.249,4.083"/>
		<path style="&st1;" d="M121.459,145.042H18.484"/>
		<path style="&st2;" d="M61.473,31.728V20.396H78.47v11.332"/>
		<path style="&st2;" d="M109.632,74.221v12.748h5.666V74.221H109.632"/>
		<path style="&st2;" d="M109.632,61.473v8.499h5.666v-8.499H109.632"/>
		<path style="&st2;" d="M41.643,136.544h35.411"/>
		<path style="&st2;" d="M109.632,48.725v8.499h5.666v-8.499H109.632"/>
		<path style="&st2;" d="M44.476,34.561v5.666h50.992v-5.666H44.476"/>
		<path style="&st1;" d="M139.377,9.065v126.227"/>
		<path style="&st2;" d="M41.643,43.06V31.728H98.3V43.06"/>
		<path style="&st2;" d="M81.303,48.725v4.25h5.666v-4.25H81.303"/>
		<path style="&st2;" d="M81.303,57.224v14.165h5.666V57.224H81.303"/>
		<path style="&st2;" d="M81.303,94.051v14.165h5.666V94.051H81.303"/>
		<path style="&st2;" d="M81.303,75.637v14.165h5.666V75.637H81.303"/>
		<path style="&st2;" d="M57.932,108.215v19.83h2.833v-19.83H57.932"/>
		<path style="&st2;" d="M52.974,48.725v10.624h5.666V48.725H52.974"/>
		<path style="&st2;" d="M52.974,63.598v10.624h5.666V63.598H52.974"/>
		<path style="&st2;" d="M52.974,78.47v10.624h5.666V78.47H52.974"/>
		<path style="&st2;" d="M52.974,93.343v10.623h5.666V93.343H52.974"/>
		<path style="&st2;" d="M24.646,63.598v10.624h5.666V63.598H24.646"/>
		<path style="&st2;" d="M24.646,78.47v10.624h5.666V78.47H24.646"/>
		<path style="&st2;" d="M24.646,91.926v5.312"/>
		<path style="&st2;" d="M24.646,48.725v10.624h5.666V48.725H24.646"/>
		<path style="&st2;" d="M24.646,97.238h5.666"/>
		<path style="&st2;" d="M30.312,97.238v-5.312h-5.666"/>
		<path style="&st2;" d="M24.646,100.071v5.312h5.666v-5.312"/>
		<path style="&st2;" d="M24.646,100.071h5.666"/>
		<path style="&st2;" d="M30.312,130.878H0.567"/>
		<path style="&st2;" d="M79.886,130.878v-19.83h8.499v19.83"/>
		<path style="&st2;" d="M139.377,130.878H88.385"/>
		<path style="&st2;" d="M79.886,130.878H38.81"/>
		<path style="&st2;" d="M6.232,43.06h35.411"/>
		<path style="&st2;" d="M98.3,43.06h35.411"/>
		<path style="&st2;" d="M6.232,11.898L52.974,0.567"/>
		<path style="&st2;" d="M79.886,133.711l-2.833,2.833"/>
		<path style="&st2;" d="M38.81,133.711l2.833,2.833"/>
		<path style="&st2;" d="M30.312,133.711l-2.833,2.833"/>
		<path style="&st2;" d="M30.312,130.878v-19.83h8.499v19.83"/>
		<path style="&st2;" d="M88.385,130.878v2.833"/>
		<path style="&st2;" d="M79.886,130.878v2.833"/>
		<path style="&st2;" d="M38.81,130.878v2.833"/>
		<path style="&st2;" d="M30.312,130.878v2.833"/>
		<path style="&st2;" d="M6.232,130.878v5.666"/>
		<path style="&st2;" d="M133.711,130.878v5.666"/>
		<g ewd:pinNo="2">
			<text transform="matrix(0.88 0 0 1 39.9773 60.6094)"><tspan x="0" y="0" style="&st3; &st0;">2</tspan></text>
		</g>
		<g ewd:pinNo="1">
			<text transform="matrix(0.88 0 0 1 11.6487 60.6094)"><tspan x="0" y="0" style="&st3; &st0;">1</tspan></text>
		</g>
		<g ewd:pinNo="3">
			<text transform="matrix(0.88 0 0 1 68.3059 60.6094)"><tspan x="0" y="0" style="&st3; &st0;">3</tspan></text>
		</g>
		<g ewd:pinNo="4">
			<text transform="matrix(0.88 0 0 1 96.6345 60.6094)"><tspan x="0" y="0" style="&st3; &st0;">4</tspan></text>
		</g>
		<g ewd:pinNo="5">
			<text transform="matrix(0.88 0 0 1 124.9631 60.6094)"><tspan x="0" y="0" style="&st3; &st0;">5</tspan></text>
		</g>
		<g ewd:pinNo="6">
			<text transform="matrix(0.88 0 0 1 11.6487 80.4395)"><tspan x="0" y="0" style="&st3; &st0;">6</tspan></text>
		</g>
		<g ewd:pinNo="7">
			<text transform="matrix(0.88 0 0 1 39.9773 80.4395)"><tspan x="0" y="0" style="&st3; &st0;">7</tspan></text>
		</g>
		<g ewd:pinNo="8">
			<text transform="matrix(0.88 0 0 1 68.3059 80.4395)"><tspan x="0" y="0" style="&st3; &st0;">8</tspan></text>
		</g>
		<g ewd:pinNo="9">
			<text transform="matrix(0.88 0 0 1 96.6345 80.4395)"><tspan x="0" y="0" style="&st3; &st0;">9</tspan></text>
		</g>
		<g ewd:pinNo="10">
			<text transform="matrix(0.88 0 0 1 123.2976 80.4395)"><tspan x="0" y="0" style="&st3; &st0;">1</tspan></text>
			<text transform="matrix(0.88 0 0 1 126.6555 80.4395)"><tspan x="0" y="0" style="&st3; &st0;">0</tspan></text>
		</g>
		<g ewd:pinNo="11">
			<text transform="matrix(0.88 0 0 1 9.9832 100.2695)"><tspan x="0" y="0" style="&st3; &st0;">1</tspan></text>
			<text transform="matrix(0.88 0 0 1 13.3411 100.2695)"><tspan x="0" y="0" style="&st3; &st0;">1</tspan></text>
		</g>
		<g ewd:pinNo="12">
			<text transform="matrix(0.88 0 0 1 38.3118 100.2695)"><tspan x="0" y="0" style="&st3; &st0;">1</tspan></text>
			<text transform="matrix(0.88 0 0 1 41.6697 100.2695)"><tspan x="0" y="0" style="&st3; &st0;">2</tspan></text>
		</g>
		<g ewd:pinNo="13">
			<text transform="matrix(0.88 0 0 1 66.6404 100.2695)"><tspan x="0" y="0" style="&st3; &st0;">1</tspan></text>
			<text transform="matrix(0.88 0 0 1 69.9983 100.2695)"><tspan x="0" y="0" style="&st3; &st0;">3</tspan></text>
		</g>
		<g ewd:pinNo="14">
			<text transform="matrix(0.88 0 0 1 94.969 100.2695)"><tspan x="0" y="0" style="&st3; &st0;">1</tspan></text>
			<text transform="matrix(0.88 0 0 1 98.3269 100.2695)"><tspan x="0" y="0" style="&st3; &st0;">4</tspan></text>
		</g>
		<g ewd:pinNo="15">
			<text transform="matrix(0.88 0 0 1 123.2976 100.2695)"><tspan x="0" y="0" style="&st3; &st0;">1</tspan></text>
			<text transform="matrix(0.88 0 0 1 126.6555 100.2695)"><tspan x="0" y="0" style="&st3; &st0;">5</tspan></text>
		</g>
		<g ewd:pinNo="16">
			<text transform="matrix(0.88 0 0 1 17.0652 120.0996)"><tspan x="0" y="0" style="&st3; &st0;">1</tspan></text>
			<text transform="matrix(0.88 0 0 1 20.4231 120.0996)"><tspan x="0" y="0" style="&st3; &st0;">6</tspan></text>
		</g>
		<g ewd:pinNo="17">
			<text transform="matrix(0.88 0 0 1 45.3938 120.0996)"><tspan x="0" y="0" style="&st3; &st0;">1</tspan></text>
			<text transform="matrix(0.88 0 0 1 48.7517 120.0996)"><tspan x="0" y="0" style="&st3; &st0;">7</tspan></text>
		</g>
		<g ewd:pinNo="18">
			<text transform="matrix(0.88 0 0 1 66.6404 120.0996)"><tspan x="0" y="0" style="&st3; &st0;">1</tspan></text>
			<text transform="matrix(0.88 0 0 1 69.9983 120.0996)"><tspan x="0" y="0" style="&st3; &st0;">8</tspan></text>
		</g>
		<g ewd:pinNo="19">
			<text transform="matrix(0.88 0 0 1 94.969 120.0996)"><tspan x="0" y="0" style="&st3; &st0;">1</tspan></text>
			<text transform="matrix(0.88 0 0 1 98.3269 120.0996)"><tspan x="0" y="0" style="&st3; &st0;">9</tspan></text>
		</g>
		<g ewd:pinNo="20">
			<text transform="matrix(0.88 0 0 1 123.2976 120.0996)"><tspan x="0" y="0" style="&st3; &st0;">2</tspan></text>
			<text transform="matrix(0.88 0 0 1 126.6555 120.0996)"><tspan x="0" y="0" style="&st3; &st0;">0</tspan></text>
		</g>
	</g>
</g>
</svg>