﻿<?xml version="1.0"?>
<!-- Generator: Adobe Illustrator 10.0, SVG Export Plug-In . SVG Version: 3.0.0 Build 77)  -->
<!DOCTYPE svg PUBLIC "-//W3C//DTD SVG 1.0//EN" "http://www.w3.org/TR/2001/REC-SVG-20010904/DTD/svg10.dtd" [
	<!ENTITY ns_flows "http://ns.adobe.com/Flows/1.0/">
	<!ENTITY ns_svg "http://www.w3.org/2000/svg">
	<!ENTITY ns_xlink "http://www.w3.org/1999/xlink">
	<!ENTITY st0 "font-size:6.6349px;">
	<!ENTITY st1 "fill:none;stroke:#000000;stroke-width:1.1331;stroke-linecap:round;stroke-linejoin:round;">
	<!ENTITY st2 "fill:none;stroke:#000000;stroke-width:0.8499;stroke-linecap:round;stroke-linejoin:round;">
	<!ENTITY st3 "font-family:'Arial';">
	<!ATTLIST svg
		xmlns:ewd CDATA #FIXED "http://shcl.co.jp/ewd"
		xmlns:a CDATA #FIXED "http://ns.adobe.com/AdobeSVGViewerExtensions/3.0/"
		ewd:ver CDATA #IMPLIED
	>
	<!ATTLIST g
		ewd:pinNo CDATA #IMPLIED >
]>
<svg xmlns="&ns_svg;" xmlns:xlink="&ns_xlink;" xmlns:a="http://ns.adobe.com/AdobeSVGViewerExtensions/3.0/" width="63.458" height="58.499" viewBox="0 0 63.458 58.499" style="overflow:visible;enable-background:new 0 0 63.458 58.499" xml:space="preserve" xmlns:ewd="http://shcl.co.jp/ewd" onload="call_execInitLoadProc_svg('connector')" ewd:ver="L2.1.1.5">
	<script type="text/javascript" xlink:href="../../../../../system/js/ewd/fig/svgfig.js"/>
	<g id="レイヤー_1">
		<g>
			<path style="&st2;" d="M14.731,29.771v6.394"/>
			<path style="&st2;" d="M48.726,29.771v6.394"/>
			<path style="&st2;" d="M31.729,23.938v18.059"/>
			<path style="&st2;" d="M5.17,29.771v6.394"/>
			<path style="&st2;" d="M58.286,29.771v6.394"/>
			<path style="&st1;" d="M0.567,29.771v6.394"/>
			<path style="&st1;" d="M62.89,29.771v6.394"/>
			<path style="&st1;" d="M36.686,57.932h9.207"/>
			<path style="&st1;" d="M2.258,22.139L9.459,6.7"/>
			<path style="&st1;" d="M53.998,6.7l7.201,15.439"/>
			<path style="&st2;" d="M22.593,10.127h18.272"/>
			<path style="&st1;" d="M19.086,0.567h25.286"/>
			<path style="&st2;" d="M20.434,3.754h22.589"/>
			<path style="&st2;" d="M20.043,8.003h1.586"/>
			<path style="&st2;" d="M28.542,14.411v0.827"/>
			<path style="&st2;" d="M34.915,14.411v0.827"/>
			<path style="&st2;" d="M16.856,11.19v5.312"/>
			<path style="&st2;" d="M46.601,11.19v5.312"/>
			<path style="&st2;" d="M43.414,12.677v2.55"/>
			<path style="&st2;" d="M20.043,12.677v2.55"/>
			<path style="&st2;" d="M21.629,8.003h21.785"/>
			<path style="&st2;" d="M40.383,10.127l0.189-1.071"/>
			<path style="&st2;" d="M22.885,9.057l0.189,1.071"/>
			<path style="&st2;" d="M3.754,29.771v6.394"/>
			<path style="&st2;" d="M59.703,29.771v6.394"/>
			<path style="&st2;" d="M43.887,24.482c-8.527-0.762-15.79-0.762-24.317,0"/>
			<path style="&st2;" d="M19.57,41.453c8.527,0.763,15.79,0.763,24.317,0"/>
			<path style="&st2;" d="M19.57,24.482c-2.755,0.246-4.837,2.523-4.837,5.289"/>
			<path style="&st2;" d="M14.731,36.164c0,2.767,2.083,5.044,4.838,5.291"/>
			<path style="&st2;" d="M48.726,29.771c0-2.767-2.083-5.044-4.838-5.291"/>
			<path style="&st2;" d="M43.887,41.453c2.755-0.246,4.837-2.522,4.837-5.289"/>
			<path style="&st2;" d="M18.717,50.978c7.168,0.641,13.261,0.757,20.448,0.391"/>
			<path style="&st2;" d="M5.17,36.164c0,7.747,5.831,14.123,13.547,14.813"/>
			<path style="&st2;" d="M14.731,15.878C8.843,18.13,5.17,23.466,5.17,29.771"/>
			<path style="&st2;" d="M58.286,29.771c0-6.304-3.672-11.64-9.561-13.892"/>
			<path style="&st2;" d="M44.74,50.978c7.716-0.691,13.546-7.066,13.546-14.813"/>
			<path style="&st2;" d="M43.414,14.844c-8.2-0.658-15.172-0.658-23.372,0"/>
			<path style="&st1;" d="M17.017,54.153c5.441,0.487,10.057,0.658,15.519,0.577"/>
			<path style="&st1;" d="M0.567,36.164c0,9.408,7.08,17.15,16.45,17.988"/>
			<path style="&st1;" d="M2.258,22.139C1.088,24.65,0.567,27,0.567,29.771"/>
			<path style="&st1;" d="M62.89,29.771c0-2.77-0.521-5.121-1.691-7.631"/>
			<path style="&st1;" d="M49.581,53.589c7.993-2.179,13.31-9.141,13.31-17.425"/>
			<path style="&st2;" d="M43.414,51.091c0.466-0.038,0.86-0.071,1.326-0.113"/>
			<path style="&st1;" d="M34.627,56.332c0.243,0.957,1.072,1.601,2.06,1.601"/>
			<path style="&st1;" d="M45.893,57.932c1.173,0,2.125-0.951,2.125-2.125"/>
			<path style="&st1;" d="M48.017,55.808c0-0.03,0-0.056-0.001-0.085"/>
			<path style="&st1;" d="M34.627,56.332c-0.245-0.969-1.092-1.618-2.091-1.603"/>
			<path style="&st1;" d="M49.581,53.589c-0.968,0.264-1.603,1.13-1.563,2.133"/>
			<path style="&st2;" d="M33.624,16.513c-1.333-0.018-2.458-0.018-3.791,0"/>
			<path style="&st1;" d="M19.086,0.567c-4.237,0-7.836,2.293-9.627,6.133"/>
			<path style="&st1;" d="M53.998,6.7c-1.791-3.839-5.39-6.132-9.626-6.132"/>
			<path style="&st2;" d="M20.434,3.754c-2.086,0-3.823,1.458-4.185,3.512"/>
			<path style="&st2;" d="M47.207,7.266c-0.362-2.054-2.098-3.512-4.184-3.512"/>
			<path style="&st2;" d="M28.542,15.238c0,0.704,0.57,1.275,1.274,1.275"/>
			<path style="&st2;" d="M29.816,16.513c0.006,0,0.011,0,0.017,0"/>
			<path style="&st2;" d="M33.624,16.513c0.704,0.01,1.282-0.554,1.292-1.258"/>
			<path style="&st2;" d="M34.915,15.255c0-0.006,0-0.011,0-0.017"/>
			<path style="&st2;" d="M18.768,16.501c0.704,0,1.274-0.571,1.274-1.275"/>
			<path style="&st2;" d="M20.043,8.003c-1.76,0-3.187,1.427-3.187,3.187"/>
			<path style="&st2;" d="M46.601,11.19c0-1.76-1.427-3.187-3.187-3.187"/>
			<path style="&st2;" d="M22.885,9.057c-0.109-0.616-0.629-1.053-1.255-1.053"/>
			<path style="&st2;" d="M41.828,8.003c-0.626,0-1.147,0.437-1.256,1.054"/>
			<path style="&st2;" d="M43.414,15.227c0,0.704,0.57,1.275,1.274,1.275"/>
			<path style="&st2;" d="M22.593,10.127c-1.408,0-2.55,1.142-2.55,2.55"/>
			<path style="&st2;" d="M43.414,12.677c0-1.408-1.142-2.55-2.55-2.55"/>
			<path style="&st2;" d="M15.015,14.278C8.168,16.5,3.754,22.572,3.754,29.771"/>
			<path style="&st2;" d="M3.754,36.164c0,8.486,6.387,15.469,14.838,16.225"/>
			<path style="&st2;" d="M18.593,52.388c6.715,0.601,12.42,0.738,19.156,0.463"/>
			<path style="&st2;" d="M44.865,52.388c8.451-0.756,14.838-7.739,14.838-16.224"/>
			<path style="&st2;" d="M59.703,29.771c0-7.199-4.413-13.271-11.26-15.493"/>
			<path style="&st2;" d="M37.748,54.745c0,0.782,0.634,1.417,1.417,1.417"/>
			<path style="&st2;" d="M43.414,56.162c0.782,0,1.416-0.634,1.416-1.417"/>
			<path style="&st2;" d="M8.57,29.063c-0.782,0-1.416,0.634-1.416,1.417"/>
			<path style="&st2;" d="M7.154,35.456c0,0.782,0.634,1.417,1.416,1.417"/>
			<path style="&st2;" d="M56.303,30.479c0-0.783-0.634-1.417-1.417-1.417"/>
			<path style="&st2;" d="M54.887,36.873c0.783,0,1.417-0.634,1.417-1.417"/>
			<path style="&st2;" d="M18.768,16.501h-2.958l-1.08-0.623l1.519-8.612"/>
			<path style="&st2;" d="M47.207,7.266l1.519,8.612l-1.08,0.623h-2.958"/>
			<path style="&st2;" d="M43.414,51.091v3.654h-4.25v-3.377"/>
			<path style="&st2;" d="M15.176,27.646H5.323"/>
			<path style="&st2;" d="M15.176,38.289H5.323"/>
			<path style="&st2;" d="M48.281,27.646h9.853"/>
			<path style="&st2;" d="M48.281,38.289h9.853"/>
			<path style="&st2;" d="M37.748,52.853v1.893"/>
			<path style="&st2;" d="M39.165,56.162h4.25"/>
			<path style="&st2;" d="M44.83,52.391v2.354"/>
			<path style="&st2;" d="M14.78,29.063H8.57"/>
			<path style="&st2;" d="M14.731,36.873H8.57"/>
			<path style="&st2;" d="M7.154,30.479v4.977"/>
			<path style="&st2;" d="M7.154,30.479L5.17,31.895"/>
			<path style="&st2;" d="M5.17,34.04l1.983,1.417"/>
			<path style="&st2;" d="M48.677,29.063h6.209"/>
			<path style="&st2;" d="M48.726,36.873h6.161"/>
			<path style="&st2;" d="M56.303,30.479v4.977"/>
			<path style="&st2;" d="M56.303,30.479l1.983,1.416"/>
			<path style="&st2;" d="M58.286,34.04l-1.983,1.417"/>
			<g ewd:pinNo="1">
				<text transform="matrix(0.88 0 0 1 21.5642 34.938)"><tspan x="0" y="0" style="&st3; &st0;">1</tspan></text>
			</g>
			<g ewd:pinNo="2">
				<text transform="matrix(0.88 0 0 1 38.5613 34.938)"><tspan x="0" y="0" style="&st3; &st0;">2</tspan></text>
			</g>
		</g>
	</g>
</svg>
