﻿<?xml version="1.0" encoding="UTF-8"?>
<!DOCTYPE svg PUBLIC "-//W3C//DTD SVG 1.0//EN" "http://www.w3.org/TR/2001/REC-SVG-20010904/DTD/svg10.dtd" [
	<!ENTITY ns_flows "http://ns.adobe.com/Flows/1.0/">
	<!ENTITY ns_svg "http://www.w3.org/2000/svg">
	<!ENTITY ns_xlink "http://www.w3.org/1999/xlink">
	<!ENTITY st0 "font-size:6.6349px;">
	<!ENTITY st1 "fill:none;stroke:#000000;stroke-width:1.1331;stroke-linecap:round;stroke-linejoin:round;">
	<!ENTITY st2 "fill:none;stroke:#000000;stroke-width:0.8499;stroke-linecap:round;stroke-linejoin:round;">
	<!ENTITY st3 "font-family:'Arial';">
	<!ATTLIST svg
		xmlns:ewd CDATA #FIXED "http://shcl.co.jp/ewd"
		xmlns:a CDATA #FIXED "http://ns.adobe.com/AdobeSVGViewerExtensions/3.0/"
		ewd:ver CDATA #IMPLIED
	>
	<!ATTLIST g
		ewd:pinNo CDATA #IMPLIED >
]>
<!-- Generator: Adobe Illustrator 10.0, SVG Export Plug-In . SVG Version: 3.0.0 Build 77)  --><svg height="67.232" onload="call_execInitLoadProc_svg(&apos;connector&apos;)" style="overflow:visible;enable-background:new 0 0 62.04 67.232" viewBox="0 0 62.04 67.232" width="62.04" xml:space="preserve" xmlns="&ns_svg;" xmlns:a="http://ns.adobe.com/AdobeSVGViewerExtensions/3.0/" xmlns:ewd="http://shcl.co.jp/ewd" xmlns:xlink="&ns_xlink;" ewd:ver="2.0.3.0">
	<script type="text/javascript" xlink:href="../../../../../system/js/ewd/fig/svgfig.js"/>
	<g id="レイヤー_1">
		<g>
			<path d="M48.278,66.666c1.757,0,3.252-0.453,4.714-1.427" style="&st1;"/>
			<path d="M9.048,65.238c1.462,0.974,2.957,1.427,4.714,1.427" style="&st1;"/>
			<path d="M57.419,2.178c-0.483-1.01-1.435-1.611-2.555-1.611" style="&st1;"/>
			<path d="M57.697,3.399c0-0.444-0.085-0.821-0.277-1.221" style="&st2;"/>
			<path d="M4.62,2.178C4.429,2.579,4.344,2.956,4.344,3.399" style="&st2;"/>
			<path d="M7.176,0.567c-1.121,0-2.073,0.6-2.556,1.612" style="&st1;"/>
			<path d="M52.974,6.232c0-1.564-1.268-2.833-2.833-2.833" style="&st2;"/>
			<path d="M0.567,58.068c0,0.979,0.447,1.814,1.261,2.357" style="&st1;"/>
			<path d="M11.898,3.399c-1.565,0-2.833,1.269-2.833,2.833" style="&st2;"/>
			<path d="M60.213,60.425c0.814-0.543,1.261-1.378,1.261-2.357" style="&st1;"/>
			<path d="M13.762,66.666h34.516" style="&st1;"/>
			<path d="M0.567,56.751h60.906" style="&st2;"/>
			<path d="M6.232,28.422v25.496h49.575V28.422H6.232" style="&st2;"/>
			<path d="M16.147,53.918V28.422" style="&st2;"/>
			<path d="M26.062,53.918V28.422" style="&st2;"/>
			<path d="M35.977,53.918V28.422" style="&st2;"/>
			<path d="M45.892,53.918V28.422" style="&st2;"/>
			<path d="M52.991,65.238l7.221-4.813" style="&st1;"/>
			<path d="M9.048,65.238l-7.221-4.813" style="&st1;"/>
			<path d="M6.232,22.756H18.98v-9.915h24.079v9.915h12.748" style="&st2;"/>
			<path d="M0.567,14.731l1.889-1.89h1.887l1.889,1.89v8.025" style="&st2;"/>
			<path d="M61.473,14.731l-1.889-1.89h-1.887l-1.89,1.89v8.025" style="&st2;"/>
			<path d="M0.567,58.068V6.232" style="&st1;"/>
			<path d="M61.473,58.068V6.232" style="&st1;"/>
			<path d="M7.176,0.567h47.688" style="&st1;"/>
			<path d="M4.343,3.399v9.442" style="&st2;"/>
			<path d="M57.697,12.841V3.399" style="&st2;"/>
			<path d="M57.419,2.178l4.054,4.054" style="&st1;"/>
			<path d="M4.62,2.178L0.567,6.232" style="&st1;"/>
			<path d="M9.065,22.756V6.232" style="&st2;"/>
			<path d="M52.974,22.756V6.232" style="&st2;"/>
			<path d="M11.898,3.399h38.244" style="&st2;"/>
			<path d="M25,12.841V7.176h12.04v5.666" style="&st2;"/>
			<path d="M6.232,41.17h49.575" style="&st2;"/>
			<g ewd:pinNo="1">
				<text transform="matrix(0.88 0 0 1 9.5242 36.7651)"><tspan style="&st3; &st0;" x="0" y="0">1</tspan></text>
			</g>
			<g ewd:pinNo="2">
				<text transform="matrix(0.88 0 0 1 19.4392 36.7651)"><tspan style="&st3; &st0;" x="0" y="0">2</tspan></text>
			</g>
			<g ewd:pinNo="3">
				<text transform="matrix(0.88 0 0 1 29.3542 36.7651)"><tspan style="&st3; &st0;" x="0" y="0">3</tspan></text>
			</g>
			<g ewd:pinNo="4">
				<text transform="matrix(0.88 0 0 1 39.2693 36.7651)"><tspan style="&st3; &st0;" x="0" y="0">4</tspan></text>
			</g>
			<g ewd:pinNo="5">
				<text transform="matrix(0.88 0 0 1 49.1838 36.7651)"><tspan style="&st3; &st0;" x="0" y="0">5</tspan></text>
			</g>
			<g ewd:pinNo="9">
				<text transform="matrix(0.88 0 0 1 39.2693 49.5132)"><tspan style="&st3; &st0;" x="0" y="0">9</tspan></text>
			</g>
			<g ewd:pinNo="10">
				<text transform="matrix(0.88 0 0 1 47.5183 49.5132)"><tspan style="&st3; &st0;" x="0" y="0">1</tspan></text>
				<text transform="matrix(0.88 0 0 1 50.8767 49.5132)"><tspan style="&st3; &st0;" x="0" y="0">0</tspan></text>
			</g>
			<g ewd:pinNo="8">
				<text transform="matrix(0.88 0 0 1 29.3542 49.5132)"><tspan style="&st3; &st0;" x="0" y="0">8</tspan></text>
			</g>
			<g ewd:pinNo="7">
				<text transform="matrix(0.88 0 0 1 19.4392 49.5132)"><tspan style="&st3; &st0;" x="0" y="0">7</tspan></text>
			</g>
			<g ewd:pinNo="6">
				<text transform="matrix(0.88 0 0 1 9.5242 49.5132)"><tspan style="&st3; &st0;" x="0" y="0">6</tspan></text>
			</g>
		</g>
	</g>
</svg>
