﻿<?xml version="1.0"?>
<!-- Generator: Adobe Illustrator 10.0, SVG Export Plug-In . SVG Version: 3.0.0 Build 77)  -->
<!DOCTYPE svg PUBLIC "-//W3C//DTD SVG 1.0//EN" "http://www.w3.org/TR/2001/REC-SVG-20010904/DTD/svg10.dtd" [
	<!ENTITY ns_flows "http://ns.adobe.com/Flows/1.0/">
	<!ENTITY ns_svg "http://www.w3.org/2000/svg">
	<!ENTITY ns_xlink "http://www.w3.org/1999/xlink">
	<!ENTITY st0 "font-size:6.6349px;">
	<!ENTITY st1 "fill:none;stroke:#000000;stroke-width:1.1331;stroke-linecap:round;stroke-linejoin:round;">
	<!ENTITY st2 "fill:none;stroke:#000000;stroke-width:0.8499;stroke-linecap:round;stroke-linejoin:round;">
	<!ENTITY st3 "font-family:'Arial';">
	<!ATTLIST svg
		xmlns:ewd CDATA #FIXED "http://shcl.co.jp/ewd"
		xmlns:a CDATA #FIXED "http://ns.adobe.com/AdobeSVGViewerExtensions/3.0/"
		ewd:ver CDATA #IMPLIED
	>
	<!ATTLIST g
		ewd:pinNo CDATA #IMPLIED >
]>
<svg xmlns="&ns_svg;" xmlns:xlink="&ns_xlink;" xmlns:a="http://ns.adobe.com/AdobeSVGViewerExtensions/3.0/" width="86.12" height="54.958" viewBox="0 0 86.12 54.958" style="overflow:visible;enable-background:new 0 0 86.12 54.958" xml:space="preserve" xmlns:ewd="http://shcl.co.jp/ewd" onload="call_execInitLoadProc_svg('connector')" ewd:ver="2.1.0.3">
	<script type="text/javascript" xlink:href="../../../../../system/js/ewd/fig/svgfig.js"/>
	<g id="レイヤー_1">
		<g>
			<path style="&st2;" d="M62.891,11.898c-11.685-9.566-27.976-9.566-39.66,0"/>
			<path style="&st2;" d="M23.231,37.394c11.685,9.566,27.976,9.566,39.66,0"/>
			<path style="&st2;" d="M47.31,11.898c0-2.347-1.902-4.249-4.25-4.249"/>
			<path style="&st2;" d="M43.061,7.649c-2.347,0-4.249,1.903-4.249,4.249"/>
			<path style="&st2;" d="M38.812,37.394c0,2.347,1.902,4.25,4.249,4.25"/>
			<path style="&st2;" d="M43.061,41.643c2.347,0,4.25-1.902,4.25-4.25"/>
			<path style="&st1;" d="M14.732,48.725c0,3.129,2.537,5.666,5.666,5.666"/>
			<path style="&st1;" d="M85.554,6.232c0-3.129-2.537-5.666-5.666-5.666"/>
			<path style="&st1;" d="M18.486,0.567c-0.641,0-1.185,0.088-1.793,0.291"/>
			<path style="&st1;" d="M4.443,4.94c-2.362,0.787-3.877,2.888-3.877,5.377"/>
			<path style="&st2;" d="M79.888,48.725c3.129,0,5.666-2.537,5.666-5.666"/>
			<path style="&st1;" d="M79.888,54.391c3.129,0,5.666-2.537,5.666-5.666"/>
			<path style="&st1;" d="M0.568,43.06c0,3.129,2.537,5.666,5.666,5.666"/>
			<path style="&st2;" d="M62.891,20.396c0-4.693-3.805-8.499-8.499-8.499"/>
			<path style="&st2;" d="M23.231,28.895c0,4.694,3.805,8.499,8.499,8.499"/>
			<path style="&st2;" d="M54.392,37.394c4.694,0,8.499-3.805,8.499-8.499"/>
			<path style="&st2;" d="M31.73,11.898c-4.694,0-8.499,3.805-8.499,8.499"/>
			<path style="&st2;" d="M17.565,43.06h5.666v-5.666"/>
			<path style="&st2;" d="M68.557,43.06h-5.666"/>
			<path style="&st2;" d="M62.891,37.394v5.666"/>
			<path style="&st2;" d="M68.557,6.232h-5.666v5.666"/>
			<path style="&st2;" d="M17.565,6.232h5.666v5.666"/>
			<path style="&st2;" d="M72.806,10.482v4.249h2.833v-4.249H72.806"/>
			<path style="&st1;" d="M79.888,54.391h-59.49"/>
			<path style="&st2;" d="M68.557,11.898v4.25h8.499"/>
			<path style="&st2;" d="M31.73,37.394h22.663"/>
			<path style="&st2;" d="M62.891,20.396v8.499"/>
			<path style="&st2;" d="M31.73,11.898h22.663"/>
			<path style="&st2;" d="M23.231,20.396v8.499"/>
			<path style="&st2;" d="M68.557,37.394v-4.249h8.499"/>
			<path style="&st2;" d="M72.806,34.561v4.249h2.833v-4.249H72.806"/>
			<path style="&st1;" d="M6.234,48.725h8.499"/>
			<path style="&st2;" d="M43.061,17.564v14.164"/>
			<path style="&st2;" d="M28.897,17.564v14.164h28.329V17.564H28.897"/>
			<path style="&st2;" d="M10.483,34.561v4.249h2.833v-4.249H10.483"/>
			<path style="&st2;" d="M17.565,37.394v-4.249H9.067"/>
			<path style="&st2;" d="M17.565,11.898v4.25H9.067"/>
			<path style="&st2;" d="M71.389,51.558v2.833"/>
			<path style="&st2;" d="M57.225,51.558v2.833"/>
			<path style="&st2;" d="M50.143,51.558v2.833"/>
			<path style="&st2;" d="M15.491,51.558h34.652"/>
			<path style="&st2;" d="M10.483,10.482v4.249h2.833v-4.249H10.483"/>
			<path style="&st2;" d="M57.225,51.558h14.164"/>
			<path style="&st2;" d="M14.732,9.065H9.067v31.161h5.666"/>
			<path style="&st2;" d="M71.389,9.065h5.666v31.161h-5.666"/>
			<path style="&st2;" d="M17.565,43.06v-5.666h-2.833v2.833"/>
			<path style="&st2;" d="M17.565,6.232v5.666h-2.833V9.065"/>
			<path style="&st2;" d="M68.557,43.06v-5.666h2.833v2.833"/>
			<path style="&st2;" d="M68.557,6.232v5.666h2.833V9.065"/>
			<path style="&st1;" d="M18.486,0.567h61.402"/>
			<path style="&st1;" d="M85.554,6.232v42.493"/>
			<path style="&st1;" d="M0.568,10.317V43.06"/>
			<path style="&st1;" d="M4.443,4.94l12.249-4.082"/>
			<path style="&st2;" d="M14.732,48.725h65.156"/>
			<g ewd:pinNo="1">
				<text transform="matrix(0.88 0 0 1 34.3132 26.6152)"><tspan x="0" y="0" style="&st3; &st0;">1</tspan></text>
			</g>
			<g ewd:pinNo="2">
				<text transform="matrix(0.88 0 0 1 48.4773 26.6152)"><tspan x="0" y="0" style="&st3; &st0;">2</tspan></text>
			</g>
		</g>
	</g>
</svg>
