﻿<?xml version="1.0" encoding="UTF-8"?>
<!DOCTYPE svg PUBLIC "-//W3C//DTD SVG 1.0//EN" "http://www.w3.org/TR/2001/REC-SVG-20010904/DTD/svg10.dtd"[
	<!ENTITY ns_flows "http://ns.adobe.com/Flows/1.0/">
	<!ENTITY ns_svg "http://www.w3.org/2000/svg">
	<!ENTITY ns_xlink "http://www.w3.org/1999/xlink">
	<!ENTITY st0 "font-size:6.6349px;">
	<!ENTITY st1 "fill:none;stroke:#000000;stroke-width:1.1331;stroke-linecap:round;stroke-linejoin:round;">
	<!ENTITY st2 "fill:none;stroke:#000000;stroke-width:0.8499;stroke-linecap:round;stroke-linejoin:round;">
	<!ENTITY st3 "font-family:'Arial';">
	<!ATTLIST svg
		xmlns:ewd CDATA #FIXED "http://shcl.co.jp/ewd"
		xmlns:a CDATA #FIXED "http://ns.adobe.com/AdobeSVGViewerExtensions/3.0/"
		ewd:ver CDATA #IMPLIED>
	<!ATTLIST g
		ewd:pinNo CDATA #IMPLIED>
]><!-- Generator: Adobe Illustrator 10.0, SVG Export Plug-In . SVG Version: 3.0.0 Build 77)  -->

<svg height="41.558" onload="call_execInitLoadProc_svg('connector')" style="overflow:visible;enable-background:new 0 0 64.872 41.558" viewBox="0 0 64.872 41.558" width="64.872" xml:space="preserve" ewd:ver="2.1.2.5" xmlns="&ns_svg;" xmlns:ewd="http://shcl.co.jp/ewd" xmlns:a="http://ns.adobe.com/AdobeSVGViewerExtensions/3.0/" xmlns:xlink="&ns_xlink;">
<script type="text/javascript" xlink:href="../../../../../system/js/ewd/fig/svgfig.js"/>
<g id="レイヤー_1">
	<g>
		<path d="M32.436,18.98v11.331" style="&st2;"/>
		<path d="M43.768,19.156v10.98" style="&st2;"/>
		<path d="M55.099,22.36v4.572" style="&st2;"/>
		<path d="M21.105,19.156v10.98" style="&st2;"/>
		<path d="M9.773,22.36v4.572" style="&st2;"/>
		<path d="M57.224,22.36v4.572" style="&st2;"/>
		<path d="M7.649,22.36v4.572" style="&st2;"/>
		<path d="M3.399,22.36v4.861" style="&st2;"/>
		<path d="M61.473,22.36v4.861" style="&st2;"/>
		<path d="M20.538,15.439h1.133" style="&st2;"/>
		<path d="M45.184,6.232v8.357" style="&st2;"/>
		<path d="M19.688,6.232v8.357" style="&st2;"/>
		<path d="M30.099,15.439h4.674" style="&st2;"/>
		<path d="M43.201,15.439h1.133" style="&st2;"/>
		<path d="M0.567,22.36v4.861" style="&st1;"/>
		<path d="M64.306,22.36v4.861" style="&st1;"/>
		<path d="M22.521,3.399h19.83" style="&st2;"/>
		<path d="M23.938,6.232h16.997" style="&st2;"/>
		<path d="M35.623,12.62v1.969" style="&st2;"/>
		<path d="M29.249,12.62v1.969" style="&st2;"/>
		<path d="M23.938,8.499v4.207" style="&st2;"/>
		<path d="M40.935,8.499v4.232" style="&st2;"/>
		<path d="M22.521,0.567h19.83" style="&st1;"/>
		<path d="M29.249,7.649v1.7" style="&st2;"/>
		<path d="M35.623,7.649v1.7" style="&st2;"/>
		<path d="M23.938,9.349h16.997" style="&st2;"/>
		<path d="M23.938,11.048h16.997" style="&st2;"/>
		<path d="M19.688,13.031h2.833" style="&st2;"/>
		<path d="M42.351,13.031h2.833" style="&st2;"/>
		<path d="M42.351,10.198h2.833" style="&st2;"/>
		<path d="M19.688,10.198h2.833" style="&st2;"/>
		<path d="M52.422,19.53c-14.04-0.774-25.932-0.774-39.972,0" style="&st2;"/>
		<path d="M12.45,29.762c14.04,0.774,25.932,0.774,39.972,0" style="&st2;"/>
		<path d="M12.45,19.53c-1.508,0.083-2.679,1.32-2.679,2.83" style="&st2;"/>
		<path d="M9.773,26.932c0,1.51,1.17,2.746,2.677,2.829" style="&st2;"/>
		<path d="M55.099,22.36c0-1.51-1.17-2.746-2.677-2.829" style="&st2;"/>
		<path d="M52.422,29.762c1.508-0.083,2.678-1.32,2.678-2.83" style="&st2;"/>
		<path d="M12.334,17.411C9.697,17.556,7.65,19.718,7.65,22.36" style="&st2;"/>
		<path d="M52.538,17.411c-14.121-0.779-26.083-0.779-40.204,0" style="&st2;"/>
		<path d="M57.224,22.36c0-2.642-2.047-4.805-4.686-4.95" style="&st2;"/>
		<path d="M52.538,31.881c2.638-0.145,4.685-2.307,4.685-4.949" style="&st2;"/>
		<path d="M12.334,31.881c14.121,0.779,26.083,0.779,40.204,0" style="&st2;"/>
		<path d="M7.649,26.932c0,2.642,2.047,4.805,4.686,4.95" style="&st2;"/>
		<path d="M52.773,13.167c-2.667-0.147-4.919-0.248-7.589-0.34" style="&st2;"/>
		<path d="M12.099,13.167c-4.899,0.27-8.7,4.286-8.7,9.193" style="&st2;"/>
		<path d="M61.473,22.36c0-4.906-3.801-8.923-8.7-9.193" style="&st2;"/>
		<path d="M12.315,37.085c14.101,1.43,26.142,1.43,40.243,0" style="&st2;"/>
		<path d="M3.399,27.221c0,5.124,3.817,9.348,8.915,9.864" style="&st2;"/>
		<path d="M52.558,37.085c5.098-0.517,8.915-4.741,8.915-9.864" style="&st2;"/>
		<path d="M19.688,14.589c0,0.469,0.381,0.85,0.85,0.85" style="&st2;"/>
		<path d="M21.671,15.439c0.47,0,0.85-0.381,0.85-0.85" style="&st2;"/>
		<path d="M42.351,14.589c0,0.469,0.38,0.85,0.85,0.85" style="&st2;"/>
		<path d="M44.334,15.439c0.469,0,0.85-0.381,0.85-0.85" style="&st2;"/>
		<path d="M10.011,10.604C4.417,11.838,0.567,16.63,0.567,22.36" style="&st1;"/>
		<path d="M0.567,27.221c0,6.587,4.908,12.018,11.461,12.683" style="&st1;"/>
		<path d="M12.029,39.904c14.301,1.45,26.514,1.45,40.815,0" style="&st1;"/>
		<path d="M52.844,39.904c6.554-0.665,11.462-6.095,11.462-12.683" style="&st1;"/>
		<path d="M64.306,22.36c0-5.729-3.85-10.522-9.445-11.757" style="&st1;"/>
		<path d="M22.521,3.399c-1.564,0-2.833,1.269-2.833,2.833" style="&st2;"/>
		<path d="M45.184,6.232c0-1.564-1.268-2.833-2.833-2.833" style="&st2;"/>
		<path d="M23.938,6.232c-0.782,0-1.417,0.634-1.417,1.416" style="&st2;"/>
		<path d="M42.351,7.649c0-0.782-0.634-1.416-1.417-1.416" style="&st2;"/>
		<path d="M29.249,14.589c0,0.469,0.38,0.85,0.85,0.85" style="&st2;"/>
		<path d="M34.773,15.439c0.47,0,0.85-0.381,0.85-0.85" style="&st2;"/>
		<path d="M24.787,7.649c-0.469,0-0.85,0.381-0.85,0.85" style="&st2;"/>
		<path d="M40.935,8.499c0-0.469-0.38-0.85-0.85-0.85" style="&st2;"/>
		<path d="M47.677,4.3c-0.831-2.29-2.89-3.733-5.326-3.733" style="&st1;"/>
		<path d="M22.521,0.567c-2.436,0-4.496,1.444-5.326,3.734" style="&st1;"/>
		<path d="M10.011,10.604C13.435,9.847,16,7.596,17.195,4.3" style="&st1;"/>
		<path d="M47.677,4.3c1.195,3.296,3.76,5.547,7.184,6.304" style="&st1;"/>
		<path d="M19.688,12.827c-2.669,0.092-4.922,0.193-7.589,0.34" style="&st2;"/>
		<path d="M42.351,12.74c-6.97-0.187-12.86-0.187-19.83,0" style="&st2;"/>
		<path d="M42.351,14.589V7.649h-19.83v6.941" style="&st2;"/>
		<g ewd:pinNo="1">
			<text transform="matrix(0.88 0 0 1 13.7732 26.6152)"><tspan style="&st3; &st0;" x="0" y="0">1</tspan></text>
		</g>
		<g ewd:pinNo="2">
			<text transform="matrix(0.88 0 0 1 25.1047 26.6152)"><tspan style="&st3; &st0;" x="0" y="0">2</tspan></text>
		</g>
		<g ewd:pinNo="3">
			<text transform="matrix(0.88 0 0 1 36.4363 26.6152)"><tspan style="&st3; &st0;" x="0" y="0">3</tspan></text>
		</g>
		<g ewd:pinNo="4">
			<text transform="matrix(0.88 0 0 1 47.7678 26.6152)"><tspan style="&st3; &st0;" x="0" y="0">4</tspan></text>
		</g>
	</g>
</g>
</svg>