﻿<?xml version="1.0"?>
<!DOCTYPE svg PUBLIC "-//W3C//DTD SVG 1.0//EN" "http://www.w3.org/TR/2001/REC-SVG-20010904/DTD/svg10.dtd"[
	<!ENTITY ns_flows "http://ns.adobe.com/Flows/1.0/">
	<!ENTITY ns_svg "http://www.w3.org/2000/svg">
	<!ENTITY ns_xlink "http://www.w3.org/1999/xlink">
	<!ENTITY st0 "font-size:6.6349px;">
	<!ENTITY st1 "fill:none;stroke:#000000;stroke-width:1.1331;stroke-linecap:round;stroke-linejoin:round;">
	<!ENTITY st2 "fill:none;stroke:#000000;stroke-width:0.8499;stroke-linecap:round;stroke-linejoin:round;">
	<!ENTITY st3 "font-family:'Arial';">
	<!ATTLIST svg
		xmlns:ewd CDATA #FIXED "http://shcl.co.jp/ewd"
		xmlns:a CDATA #FIXED "http://ns.adobe.com/AdobeSVGViewerExtensions/3.0/"
		ewd:ver CDATA #IMPLIED>
	<!ATTLIST g
		ewd:pinNo CDATA #IMPLIED>
]><!-- Generator: Adobe Illustrator 10.0, SVG Export Plug-In . SVG Version: 3.0.0 Build 77)  -->

<svg height="31.728" onload="call_execInitLoadProc_svg('connector')" style="overflow:visible;enable-background:new 0 0 43.059 31.728" viewBox="0 0 43.059 31.728" width="43.059" xml:space="preserve" ewd:ver="2.1.0.5" xmlns="&ns_svg;" xmlns:ewd="http://shcl.co.jp/ewd" xmlns:a="http://ns.adobe.com/AdobeSVGViewerExtensions/3.0/" xmlns:xlink="&ns_xlink;">
<script type="text/javascript" xlink:href="../../../../../system/js/ewd/fig/svgfig.js"/>
<g id="レイヤー_1">
	<g>
		<path d="M3.399,26.912h36.26" style="&st2;"/>
		<path d="M18.555,0.567h5.949" style="&st1;"/>
		<path d="M3.966,31.162h35.127" style="&st1;"/>
		<path d="M40.793,9.349v15.297" style="&st2;"/>
		<path d="M2.266,9.349v15.297" style="&st2;"/>
		<path d="M27.196,11.615v13.031" style="&st2;"/>
		<path d="M15.864,11.615v13.031" style="&st2;"/>
		<path d="M39.944,26.898v3.414" style="&st1;"/>
		<path d="M3.116,26.898v3.414" style="&st1;"/>
		<path d="M0.567,9.915v14.164" style="&st1;"/>
		<path d="M42.493,9.915v14.164" style="&st1;"/>
		<path d="M4.532,11.615h33.995" style="&st2;"/>
		<path d="M19.405,7.082h4.25" style="&st2;"/>
		<path d="M24.363,26.912v4.25" style="&st2;"/>
		<path d="M30.028,26.912v4.25" style="&st2;"/>
		<path d="M24.363,29.037h5.666" style="&st2;"/>
		<path d="M2.266,24.646c0,1.251,1.015,2.266,2.266,2.266" style="&st2;"/>
		<path d="M4.532,7.082c-1.251,0-2.266,1.014-2.266,2.266" style="&st2;"/>
		<path d="M40.793,9.349c0-1.252-1.015-2.266-2.266-2.266" style="&st2;"/>
		<path d="M38.527,26.912c1.251,0,2.266-1.015,2.266-2.266" style="&st2;"/>
		<path d="M18.555,0.567c-0.782,0-1.417,0.634-1.417,1.416" style="&st1;"/>
		<path d="M25.921,1.983c0-0.782-0.634-1.416-1.417-1.416" style="&st1;"/>
		<path d="M23.655,7.932c0,0.782,0.634,1.417,1.416,1.417" style="&st2;"/>
		<path d="M17.989,9.349c0.782,0,1.417-0.634,1.417-1.417" style="&st2;"/>
		<path d="M3.116,30.312c0,0.47,0.38,0.85,0.85,0.85" style="&st1;"/>
		<path d="M39.094,31.162c0.469,0,0.85-0.38,0.85-0.85" style="&st1;"/>
		<path d="M42.493,9.915c0-1.564-1.269-2.833-2.833-2.833" style="&st1;"/>
		<path d="M3.399,7.082c-1.564,0-2.833,1.268-2.833,2.833" style="&st1;"/>
		<path d="M0.567,24.079c0,1.465,1.092,2.672,2.55,2.819" style="&st1;"/>
		<path d="M39.66,26.912c0.1,0,0.184-0.004,0.284-0.014" style="&st2;"/>
		<path d="M3.116,26.898c0.099,0.01,0.183,0.014,0.283,0.014" style="&st2;"/>
		<path d="M39.944,26.898c1.457-0.146,2.549-1.354,2.549-2.819" style="&st1;"/>
		<path d="M25.071,9.349h13.457v15.297H4.532V9.349h13.456" style="&st2;"/>
		<path d="M23.655,2.833h-4.25v6.516h4.25V2.833" style="&st2;"/>
		<path d="M3.399,7.082h13.74V1.983" style="&st1;"/>
		<path d="M39.66,7.082H25.921V1.983" style="&st1;"/>
		<g ewd:pinNo="1">
			<text transform="matrix(0.88 0 0 1 8.5325 20.0996)"><tspan style="&st3; &st0;" x="0" y="0">1</tspan></text>
		</g>
		<g ewd:pinNo="2">
			<text transform="matrix(0.88 0 0 1 19.864 20.0996)"><tspan style="&st3; &st0;" x="0" y="0">2</tspan></text>
		</g>
		<g ewd:pinNo="3">
			<text transform="matrix(0.88 0 0 1 31.1956 20.0996)"><tspan style="&st3; &st0;" x="0" y="0">3</tspan></text>
		</g>
	</g>
</g>
</svg>