﻿<?xml version="1.0" encoding="UTF-8"?>
<!DOCTYPE svg PUBLIC "-//W3C//DTD SVG 1.0//EN" "http://www.w3.org/TR/2001/REC-SVG-20010904/DTD/svg10.dtd"[
	<!ENTITY ns_flows "http://ns.adobe.com/Flows/1.0/">
	<!ENTITY ns_svg "http://www.w3.org/2000/svg">
	<!ENTITY ns_xlink "http://www.w3.org/1999/xlink">
	<!ENTITY st0 "font-size:6.6349px;">
	<!ENTITY st1 "fill:none;stroke:#000000;stroke-width:1.1331;stroke-linecap:round;stroke-linejoin:round;">
	<!ENTITY st2 "fill:none;stroke:#000000;stroke-width:0.8499;stroke-linecap:round;stroke-linejoin:round;">
	<!ENTITY st3 "font-family:'Arial';">
	<!ATTLIST svg
		xmlns:ewd CDATA #FIXED "http://shcl.co.jp/ewd"
		xmlns:a CDATA #FIXED "http://ns.adobe.com/AdobeSVGViewerExtensions/3.0/"
		ewd:ver CDATA #IMPLIED>
	<!ATTLIST g
		ewd:pinNo CDATA #IMPLIED>
]><!-- Generator: Adobe Illustrator 10.0, SVG Export Plug-In . SVG Version: 3.0.0 Build 77)  -->

<svg height="56.94" onload="call_execInitLoadProc_svg('connector')" style="overflow:visible;enable-background:new 0 0 35.127 56.94" viewBox="0 0 35.127 56.94" width="35.127" xml:space="preserve" ewd:ver="2.1.2.5" xmlns="&ns_svg;" xmlns:ewd="http://shcl.co.jp/ewd" xmlns:a="http://ns.adobe.com/AdobeSVGViewerExtensions/3.0/" xmlns:xlink="&ns_xlink;">
<script type="text/javascript" xlink:href="../../../../../system/js/ewd/fig/svgfig.js"/>
<g id="レイヤー_1">
	<g>
		<path d="M28.895,54.958h4.249v-7.082" style="&st1;"/>
		<path d="M0.567,47.875h1.416" style="&st1;"/>
		<path d="M4.816,19.547v25.496h25.496V19.547H4.816" style="&st2;"/>
		<path d="M4.816,32.294h25.496" style="&st2;"/>
		<path d="M13.315,45.042V19.547" style="&st2;"/>
		<path d="M21.813,45.042V19.547" style="&st2;"/>
		<path d="M10.482,52.125h14.164" style="&st2;"/>
		<path d="M10.482,53.541h14.164" style="&st2;"/>
		<path d="M6.232,54.958h22.663" style="&st2;"/>
		<path d="M10.482,16.714V2.55h14.164v14.164" style="&st1;"/>
		<path d="M10.482,5.383h14.164" style="&st2;"/>
		<path d="M0.567,16.714h7.932" style="&st2;"/>
		<path d="M10.482,54.958v-5.666h14.164v5.666" style="&st2;"/>
		<path d="M33.144,47.875h1.417" style="&st1;"/>
		<path d="M6.232,54.958l1.417,1.417h19.83l1.417-1.417" style="&st1;"/>
		<path d="M1.983,47.875v7.082h4.249" style="&st1;"/>
		<path d="M24.646,16.714h1.983" style="&st1;"/>
		<path d="M10.482,18.13H1.983v28.329h31.161V18.13h-8.499" style="&st2;"/>
		<path d="M1.983,47.875h31.161" style="&st2;"/>
		<path d="M0.567,47.875V5.383l4.249-4.816h3.683v16.147" style="&st1;"/>
		<path d="M10.482,18.13v-1.417" style="&st2;"/>
		<path d="M0.567,5.383h4.249v11.331" style="&st2;"/>
		<path d="M30.312,54.958v-7.082" style="&st2;"/>
		<path d="M24.646,16.714v1.417" style="&st2;"/>
		<path d="M4.816,54.958v-7.082" style="&st2;"/>
		<path d="M26.629,16.714h7.932" style="&st2;"/>
		<path d="M14.731,5.383v2.833h5.666V5.383" style="&st2;"/>
		<path d="M8.499,16.714h1.983" style="&st1;"/>
		<path d="M34.561,47.875V5.383l-4.249-4.816h-3.683v16.147" style="&st1;"/>
		<path d="M34.561,5.383h-4.249v11.331" style="&st2;"/>
		<g ewd:pinNo="1">
			<text transform="matrix(0.88 0 0 1 7.3994 27.8896)"><tspan style="&st3; &st0;" x="0" y="0">1</tspan></text>
		</g>
		<g ewd:pinNo="2">
			<text transform="matrix(0.88 0 0 1 15.8982 27.8896)"><tspan style="&st3; &st0;" x="0" y="0">2</tspan></text>
		</g>
		<g ewd:pinNo="3">
			<text transform="matrix(0.88 0 0 1 24.3967 27.8896)"><tspan style="&st3; &st0;" x="0" y="0">3</tspan></text>
		</g>
		<g ewd:pinNo="4">
			<text transform="matrix(0.88 0 0 1 7.3994 40.6377)"><tspan style="&st3; &st0;" x="0" y="0">4</tspan></text>
		</g>
		<g ewd:pinNo="5">
			<text transform="matrix(0.88 0 0 1 15.8982 40.6377)"><tspan style="&st3; &st0;" x="0" y="0">5</tspan></text>
		</g>
		<g ewd:pinNo="6">
			<text transform="matrix(0.88 0 0 1 24.3967 40.6377)"><tspan style="&st3; &st0;" x="0" y="0">6</tspan></text>
		</g>
	</g>
</g>
</svg>