﻿<?xml version="1.0"?>
<!-- Generator: Adobe Illustrator 10.0, SVG Export Plug-In . SVG Version: 3.0.0 Build 77)  -->
<!DOCTYPE svg PUBLIC "-//W3C//DTD SVG 1.0//EN" "http://www.w3.org/TR/2001/REC-SVG-20010904/DTD/svg10.dtd"[
	<!ENTITY ns_flows "http://ns.adobe.com/Flows/1.0/">
	<!ENTITY ns_svg "http://www.w3.org/2000/svg">
	<!ENTITY ns_xlink "http://www.w3.org/1999/xlink">
	<!ENTITY st0 "font-size:6.6349px;">
	<!ENTITY st1 "fill:none;stroke:#000000;stroke-width:1.1331;stroke-linecap:round;stroke-linejoin:round;">
	<!ENTITY st2 "fill:none;stroke:#000000;stroke-width:0.8499;stroke-linecap:round;stroke-linejoin:round;">
	<!ENTITY st3 "font-family:'Arial';">
	<!ATTLIST svg
		xmlns:ewd CDATA #FIXED "http://shcl.co.jp/ewd"
		xmlns:a CDATA #FIXED "http://ns.adobe.com/AdobeSVGViewerExtensions/3.0/"
		ewd:ver CDATA #IMPLIED>
	<!ATTLIST g
		ewd:pinNo CDATA #IMPLIED>
]>
<svg width="48.465" height="55.382" viewBox="0 0 48.465 55.382" style="overflow:visible;enable-background:new 0 0 48.465 55.382" xml:space="preserve" onload="call_execInitLoadProc_svg('connector')" ewd:ver="2.1.1.5" xmlns="&ns_svg;" xmlns:ewd="http://shcl.co.jp/ewd" xmlns:a="http://ns.adobe.com/AdobeSVGViewerExtensions/3.0/" xmlns:xlink="&ns_xlink;">
<script type="text/javascript" xlink:href="../../../../../system/js/ewd/fig/svgfig.js"/>
<g id="レイヤー_1">
	<g>
		<path style="&st2;" d="M24.102,17.422v11.331"/>
		<path style="&st2;" d="M15.037,17.422h18.13"/>
		<path style="&st2;" d="M15.037,28.753h18.13"/>
		<path style="&st2;" d="M14.329,4.816v1.082"/>
		<path style="&st1;" d="M18.578,0.567h11.048"/>
		<path style="&st2;" d="M15.037,31.586h18.13"/>
		<path style="&st2;" d="M15.037,14.589h18.13"/>
		<path style="&st2;" d="M15.037,35.836h18.13"/>
		<path style="&st2;" d="M15.037,37.819h18.13"/>
		<path style="&st2;" d="M17.728,2.55h12.748"/>
		<path style="&st2;" d="M16.312,3.966v4.958"/>
		<path style="&st2;" d="M31.893,3.966v4.958"/>
		<path style="&st2;" d="M18.295,5.666v8.924"/>
		<path style="&st2;" d="M29.91,5.666v8.924"/>
		<path style="&st2;" d="M20.278,3.683h7.648"/>
		<path style="&st2;" d="M19.995,7.082v3.323"/>
		<path style="&st2;" d="M28.21,7.082v3.323"/>
		<path style="&st2;" d="M33.876,4.816v1.082"/>
		<path style="&st2;" d="M15.037,17.422c-3.129,0-5.666,2.537-5.666,5.666"/>
		<path style="&st2;" d="M9.371,23.088c0,3.129,2.537,5.666,5.666,5.666"/>
		<path style="&st2;" d="M33.168,28.753c3.129,0,5.666-2.537,5.666-5.666"/>
		<path style="&st2;" d="M38.833,23.088c0-3.129-2.537-5.666-5.666-5.666"/>
		<path style="&st2;" d="M11.961,8.691c1.381-0.229,2.367-1.393,2.367-2.793"/>
		<path style="&st2;" d="M33.168,31.586c4.693,0,8.499-3.805,8.499-8.499"/>
		<path style="&st2;" d="M41.666,23.088c0-4.694-3.805-8.499-8.499-8.499"/>
		<path style="&st2;" d="M15.037,14.589c-4.694,0-8.499,3.805-8.499,8.499"/>
		<path style="&st2;" d="M6.539,23.088c0,4.693,3.805,8.499,8.499,8.499"/>
		<path style="&st2;" d="M14.91,10.34C7.869,10.41,2.219,16.175,2.289,23.215"/>
		<path style="&st2;" d="M2.289,23.215c0.07,6.996,5.752,12.621,12.748,12.621"/>
		<path style="&st2;" d="M33.168,35.836c7.04,0,12.748-5.708,12.748-12.748"/>
		<path style="&st2;" d="M45.915,23.088c0-6.996-5.625-12.677-12.62-12.747"/>
		<path style="&st1;" d="M33.168,37.819c8.135,0,14.73-6.595,14.73-14.731"/>
		<path style="&st1;" d="M47.898,23.088c0-7.046-4.764-12.935-11.654-14.406"/>
		<path style="&st1;" d="M11.961,8.683C4.005,10.382-1.067,18.209,0.632,26.164"/>
		<path style="&st1;" d="M0.632,26.164c1.471,6.89,7.36,11.654,14.405,11.654"/>
		<path style="&st2;" d="M17.728,2.55c-0.782,0-1.416,0.634-1.416,1.417"/>
		<path style="&st2;" d="M31.893,3.966c0-0.782-0.634-1.417-1.417-1.417"/>
		<path style="&st1;" d="M18.578,0.567c-2.347,0-4.25,1.903-4.25,4.249"/>
		<path style="&st1;" d="M33.876,4.816c0-2.347-1.902-4.249-4.25-4.249"/>
		<path style="&st2;" d="M20.278,3.683c-1.095,0-1.983,0.888-1.983,1.983"/>
		<path style="&st2;" d="M29.91,5.666c0-1.095-0.888-1.983-1.983-1.983"/>
		<path style="&st2;" d="M14.91,10.34c0.777-0.008,1.402-0.639,1.402-1.417"/>
		<path style="&st2;" d="M33.876,5.898c0,1.4,0.987,2.565,2.368,2.794"/>
		<path style="&st2;" d="M31.893,8.924c0,0.777,0.625,1.408,1.402,1.416"/>
		<path style="&st2;" d="M16.312,7.326c0,0.391,0.317,0.708,0.708,0.708"/>
		<path style="&st2;" d="M17.587,8.034c0.391,0,0.708-0.317,0.708-0.708"/>
		<path style="&st2;" d="M18.295,9.875c0-0.391-0.317-0.708-0.708-0.708"/>
		<path style="&st2;" d="M21.411,5.666c-0.782,0-1.416,0.634-1.416,1.417"/>
		<path style="&st2;" d="M28.21,7.082c0-0.782-0.634-1.417-1.417-1.417"/>
		<path style="&st1;" d="M13.094,2.55c-0.626,0-1.133,0.507-1.133,1.133"/>
		<path style="&st1;" d="M14.329,3.683c0-0.626-0.507-1.133-1.133-1.133"/>
		<path style="&st2;" d="M31.184,8.034c0.391,0,0.708-0.317,0.708-0.708"/>
		<path style="&st2;" d="M29.91,7.326c0,0.391,0.317,0.708,0.708,0.708"/>
		<path style="&st2;" d="M30.618,9.167c-0.391,0-0.708,0.317-0.708,0.708"/>
		<path style="&st1;" d="M36.244,3.683c0-0.626-0.507-1.133-1.133-1.133"/>
		<path style="&st1;" d="M35.009,2.55c-0.626,0-1.133,0.507-1.133,1.133"/>
		<path style="&st2;" d="M20.986,26.487c-0.625,0-1.133,0.507-1.133,1.133"/>
		<path style="&st2;" d="M22.119,27.621c0-0.626-0.507-1.133-1.133-1.133"/>
		<path style="&st2;" d="M28.352,27.621c0-0.626-0.507-1.133-1.133-1.133"/>
		<path style="&st2;" d="M27.219,26.487c-0.626,0-1.133,0.507-1.133,1.133"/>
		<path style="&st1;" d="M5.972,37.819c-1.564,0-2.833,1.268-2.833,2.833"/>
		<path style="&st2;" d="M17.303,40.651c-1.764-0.396-3.335-0.396-5.099,0"/>
		<path style="&st1;" d="M45.066,40.651c0-1.564-1.269-2.833-2.833-2.833"/>
		<path style="&st1;" d="M36,40.651c-1.763-0.396-3.335-0.396-5.099,0"/>
		<path style="&st1;" d="M13.621,42.068c-1.369,0.783-1.845,2.526-1.063,3.896"/>
		<path style="&st1;" d="M12.558,45.963c0.265,0.464,0.598,0.797,1.063,1.062"/>
		<path style="&st1;" d="M15.887,47.025c1.369-0.782,1.845-2.526,1.063-3.895"/>
		<path style="&st1;" d="M16.949,43.13c-0.265-0.464-0.598-0.797-1.063-1.063"/>
		<path style="&st1;" d="M34.584,47.025c1.369-0.782,1.845-2.526,1.063-3.895"/>
		<path style="&st1;" d="M35.646,43.13c-0.265-0.464-0.598-0.797-1.063-1.063"/>
		<path style="&st1;" d="M32.318,42.068c-1.369,0.783-1.845,2.526-1.063,3.896"/>
		<path style="&st1;" d="M31.255,45.963c0.266,0.464,0.599,0.797,1.063,1.062"/>
		<path style="&st2;" d="M18.295,5.666H29.91"/>
		<path style="&st2;" d="M17.02,8.034h0.566"/>
		<path style="&st2;" d="M16.312,9.167h1.274"/>
		<path style="&st2;" d="M14.91,10.34v4.249"/>
		<path style="&st2;" d="M18.295,10.405H29.91"/>
		<path style="&st2;" d="M18.295,13.173h2.833"/>
		<path style="&st2;" d="M21.128,10.405v4.184"/>
		<path style="&st1;" d="M11.961,8.691V3.683"/>
		<path style="&st1;" d="M13.094,2.55h0.102"/>
		<path style="&st1;" d="M14.329,3.683v1.133"/>
		<path style="&st2;" d="M31.184,8.034h-0.566"/>
		<path style="&st2;" d="M31.893,9.167h-1.275"/>
		<path style="&st2;" d="M33.295,10.34v4.249"/>
		<path style="&st2;" d="M29.91,13.173h-2.833"/>
		<path style="&st2;" d="M27.077,10.405v4.184"/>
		<path style="&st1;" d="M36.244,8.691V3.683"/>
		<path style="&st1;" d="M35.111,2.55h-0.102"/>
		<path style="&st1;" d="M33.876,3.683v1.133"/>
		<path style="&st2;" d="M19.853,27.621v1.133"/>
		<path style="&st2;" d="M22.119,27.621v1.133"/>
		<path style="&st2;" d="M28.352,27.621v1.133"/>
		<path style="&st2;" d="M26.085,27.621v1.133"/>
		<path style="&st1;" d="M3.139,40.651v8.499"/>
		<path style="&st1;" d="M3.139,49.15l5.666,5.666"/>
		<path style="&st1;" d="M12.204,49.15l-3.399,5.666"/>
		<path style="&st1;" d="M15.037,37.819H5.972"/>
		<path style="&st1;" d="M12.204,48.442v0.708"/>
		<path style="&st1;" d="M17.303,48.442v2.125"/>
		<path style="&st2;" d="M3.139,42.068h4.816v4.25H3.139"/>
		<path style="&st2;" d="M6.539,42.068v4.25"/>
		<path style="&st1;" d="M45.066,40.651v8.499"/>
		<path style="&st1;" d="M45.066,49.15L39.4,54.816"/>
		<path style="&st1;" d="M36,49.15l3.399,5.666"/>
		<path style="&st1;" d="M33.168,37.819h9.065"/>
		<path style="&st1;" d="M36,48.442v0.708"/>
		<path style="&st1;" d="M30.901,48.442v2.125"/>
		<path style="&st2;" d="M45.066,42.068H40.25v4.25h4.816"/>
		<path style="&st2;" d="M41.666,42.068v4.25"/>
		<path style="&st1;" d="M17.303,50.566h13.598"/>
		<path style="&st1;" d="M12.204,40.651l1.417,1.417"/>
		<path style="&st1;" d="M12.204,48.442l1.417-1.417"/>
		<path style="&st1;" d="M17.303,40.651l-1.417,1.417"/>
		<path style="&st1;" d="M17.303,48.442l-1.417-1.417"/>
		<path style="&st1;" d="M36,40.651l-1.417,1.417"/>
		<path style="&st1;" d="M36,48.442l-1.417-1.417"/>
		<path style="&st1;" d="M30.901,40.651l1.417,1.417"/>
		<path style="&st1;" d="M30.901,48.442l1.417-1.417"/>
		<path style="&st2;" d="M12.204,40.651v7.791"/>
		<path style="&st2;" d="M17.303,40.651v7.791"/>
		<path style="&st2;" d="M30.901,40.651v7.791"/>
		<path style="&st2;" d="M36,40.651v7.791"/>
		<g ewd:pinNo="1">
			<text transform="matrix(0.88 0 0 1 15.071 25.0571)"><tspan x="0" y="0" style="&st3; &st0;">1</tspan></text>
		</g>
		<g ewd:pinNo="2">
			<text transform="matrix(0.88 0 0 1 30.0852 25.0571)"><tspan x="0" y="0" style="&st3; &st0;">2</tspan></text>
		</g>
	</g>
</g>
</svg>