﻿<?xml version="1.0"?>
<!-- Generator: Adobe Illustrator 10.0, SVG Export Plug-In . SVG Version: 3.0.0 Build 77)  -->
<!DOCTYPE svg PUBLIC "-//W3C//DTD SVG 1.0//EN" "http://www.w3.org/TR/2001/REC-SVG-20010904/DTD/svg10.dtd"[
	<!ENTITY ns_flows "http://ns.adobe.com/Flows/1.0/">
	<!ENTITY ns_svg "http://www.w3.org/2000/svg">
	<!ENTITY ns_xlink "http://www.w3.org/1999/xlink">
	<!ENTITY st0 "font-size:6.6349px;">
	<!ENTITY st1 "fill:none;stroke:#000000;stroke-width:1.1331;stroke-linecap:round;stroke-linejoin:round;">
	<!ENTITY st2 "fill:none;stroke:#000000;stroke-width:0.8499;stroke-linecap:round;stroke-linejoin:round;">
	<!ENTITY st3 "font-family:'Arial';">
	<!ATTLIST svg
		xmlns:ewd CDATA #FIXED "http://shcl.co.jp/ewd"
		xmlns:a CDATA #FIXED "http://ns.adobe.com/AdobeSVGViewerExtensions/3.0/"
		ewd:ver CDATA #IMPLIED>
	<!ATTLIST g
		ewd:pinNo CDATA #IMPLIED>
]>
<svg width="42.242" height="52.575" viewBox="0 0 42.242 52.575" style="overflow:visible;enable-background:new 0 0 42.242 52.575" xml:space="preserve" onload="call_execInitLoadProc_svg('connector')" ewd:ver="2.1.2.5" xmlns="&ns_svg;" xmlns:ewd="http://shcl.co.jp/ewd" xmlns:a="http://ns.adobe.com/AdobeSVGViewerExtensions/3.0/" xmlns:xlink="&ns_xlink;">
<script type="text/javascript" xlink:href="../../../../../system/js/ewd/fig/svgfig.js"/>
<g id="レイヤー_1">
	<g>
		<path style="&st2;" d="M5.911,26.558h12.748"/>
		<path style="&st2;" d="M20.075,12.96v3.541"/>
		<path style="&st2;" d="M21.491,17.21v18.697"/>
		<path style="&st2;" d="M18.659,17.21v18.697"/>
		<path style="&st2;" d="M19.367,36.615h1.417"/>
		<path style="&st2;" d="M19.367,16.501h1.417"/>
		<path style="&st2;" d="M21.491,26.558H34.24"/>
		<path style="&st2;" d="M37.843,20.892h0.646"/>
		<path style="&st2;" d="M39.551,21.955v2.125"/>
		<path style="&st2;" d="M38.132,25.142h0.357"/>
		<path style="&st2;" d="M38.132,27.975h0.357"/>
		<path style="&st2;" d="M39.551,29.037v2.125"/>
		<path style="&st2;" d="M37.843,32.224h0.646"/>
		<path style="&st2;" d="M22.2,43.332v1.074"/>
		<path style="&st2;" d="M19.013,45.467h2.125"/>
		<path style="&st2;" d="M17.95,43.332v1.074"/>
		<path style="&st2;" d="M9.098,8.711v1.765"/>
		<path style="&st2;" d="M31.052,8.711v1.765"/>
		<path style="&st2;" d="M27.157,7.649h0.708"/>
		<path style="&st2;" d="M10.16,7.649h1.416"/>
		<path style="&st2;" d="M13.701,2.691h12.748"/>
		<path style="&st2;" d="M15.118,4.108h9.915"/>
		<path style="&st1;" d="M12.387,0.567h15.376"/>
		<path style="&st1;" d="M8.707,2.691L2.568,13.323"/>
		<path style="&st1;" d="M39.398,16.473L31.444,2.691"/>
		<path style="&st2;" d="M20.075,36.615v1.417"/>
		<path style="&st1;" d="M39.398,36.643l-1.816,3.15"/>
		<path style="&st1;" d="M41.676,24.972v3.173"/>
		<path style="&st1;" d="M32.115,45.431v5.162"/>
		<path style="&st1;" d="M8.036,45.431v5.162"/>
		<path style="&st2;" d="M32.342,38.031H7.809"/>
		<path style="&st1;" d="M30.698,52.009H9.452"/>
		<path style="&st2;" d="M18.305,4.108v4.249"/>
		<path style="&st2;" d="M21.846,4.108v4.249"/>
		<path style="&st2;" d="M28.574,7.649h1.416"/>
		<path style="&st2;" d="M12.285,7.649h0.708"/>
		<path style="&st2;" d="M15.118,6.232h9.915"/>
		<path style="&st2;" d="M15.118,8.357h9.915"/>
		<path style="&st2;" d="M13.701,10.482h12.748"/>
		<path style="&st2;" d="M21.846,10.482v2.479"/>
		<path style="&st2;" d="M18.305,10.482v2.479"/>
		<path style="&st2;" d="M6.458,18.085c-0.767,5.925-0.767,11.021,0,16.946"/>
		<path style="&st2;" d="M33.693,35.031c0.768-5.925,0.768-11.021,0-16.946"/>
		<path style="&st2;" d="M11.812,39.963c5.807,0.271,10.72,0.271,16.527,0"/>
		<path style="&st2;" d="M28.339,13.153c-5.807-0.271-10.72-0.271-16.527,0"/>
		<path style="&st2;" d="M19.367,16.501c-0.391,0-0.708,0.317-0.708,0.708"/>
		<path style="&st2;" d="M21.491,17.21c0-0.391-0.317-0.708-0.708-0.708"/>
		<path style="&st2;" d="M18.659,35.906c0,0.392,0.317,0.708,0.708,0.708"/>
		<path style="&st2;" d="M20.783,36.615c0.391,0,0.708-0.317,0.708-0.708"/>
		<path style="&st2;" d="M6.458,35.031c0.357,2.756,2.578,4.801,5.354,4.93"/>
		<path style="&st2;" d="M11.812,13.153c-2.777,0.129-4.999,2.175-5.356,4.932"/>
		<path style="&st2;" d="M33.693,18.085c-0.357-2.756-2.578-4.801-5.354-4.93"/>
		<path style="&st2;" d="M28.339,39.963c2.777-0.129,4.999-2.175,5.356-4.932"/>
		<path style="&st2;" d="M36.854,17.674c-0.44-3.392-2.581-6.048-5.802-7.198"/>
		<path style="&st2;" d="M37.137,20.249c-0.083-0.907-0.167-1.672-0.285-2.575"/>
		<path style="&st2;" d="M39.551,21.955c0-0.586-0.476-1.062-1.062-1.062"/>
		<path style="&st2;" d="M38.489,25.142c0.586,0,1.062-0.476,1.062-1.062"/>
		<path style="&st2;" d="M37.424,27.258c0.005-0.492,0.005-0.907,0-1.399"/>
		<path style="&st2;" d="M39.551,29.037c0-0.586-0.476-1.062-1.062-1.062"/>
		<path style="&st2;" d="M38.489,32.224c0.586,0,1.062-0.476,1.062-1.062"/>
		<path style="&st2;" d="M36.854,35.442c0.117-0.903,0.202-1.668,0.285-2.575"/>
		<path style="&st2;" d="M28.486,43.147c4.339-0.202,7.811-3.398,8.369-7.705"/>
		<path style="&st2;" d="M22.2,43.332c2.211-0.026,4.077-0.081,6.286-0.184"/>
		<path style="&st2;" d="M21.137,45.467c0.587,0,1.063-0.476,1.063-1.062"/>
		<path style="&st2;" d="M17.95,44.405c0,0.586,0.476,1.062,1.063,1.062"/>
		<path style="&st2;" d="M11.664,43.147c2.209,0.103,4.075,0.157,6.286,0.184"/>
		<path style="&st2;" d="M3.296,35.442c0.559,4.307,4.03,7.503,8.368,7.705"/>
		<path style="&st2;" d="M3.296,17.674c-0.804,6.212-0.804,11.555,0,17.768"/>
		<path style="&st2;" d="M9.098,10.476c-3.221,1.15-5.362,3.807-5.802,7.198"/>
		<path style="&st2;" d="M31.052,8.711c0-0.587-0.476-1.062-1.063-1.062"/>
		<path style="&st2;" d="M10.16,7.649c-0.587,0-1.063,0.476-1.063,1.063"/>
		<path style="&st2;" d="M37.137,20.249c0.034,0.367,0.337,0.643,0.706,0.643"/>
		<path style="&st2;" d="M38.132,25.142c-0.392,0-0.708,0.317-0.708,0.708"/>
		<path style="&st2;" d="M37.424,25.85c0,0.003,0,0.006,0,0.009"/>
		<path style="&st2;" d="M37.424,27.258c-0.004,0.391,0.309,0.712,0.7,0.717"/>
		<path style="&st2;" d="M38.123,27.975c0.003,0,0.005,0,0.009,0"/>
		<path style="&st2;" d="M37.843,32.224c-0.368,0-0.671,0.277-0.706,0.644"/>
		<path style="&st1;" d="M1.188,17.402c-0.829,6.402-0.829,11.909,0,18.312"/>
		<path style="&st1;" d="M1.188,35.714c0.489,3.774,2.636,6.77,6.053,8.446"/>
		<path style="&st1;" d="M32.908,44.159c2.049-1.004,3.532-2.391,4.673-4.366"/>
		<path style="&st1;" d="M2.568,13.323c-0.762,1.32-1.184,2.568-1.38,4.079"/>
		<path style="&st2;" d="M26.449,5.524c0-0.782-0.634-1.417-1.417-1.417"/>
		<path style="&st2;" d="M15.118,4.108c-0.783,0-1.417,0.634-1.417,1.417"/>
		<path style="&st2;" d="M28.574,4.816c0-1.173-0.952-2.125-2.125-2.125"/>
		<path style="&st2;" d="M13.701,2.691c-1.173,0-2.125,0.951-2.125,2.125"/>
		<path style="&st1;" d="M8.036,45.431c0-0.556-0.295-1.028-0.793-1.272"/>
		<path style="&st1;" d="M32.908,44.159c-0.499,0.244-0.793,0.716-0.793,1.272"/>
		<path style="&st1;" d="M41.676,24.972c0-3.129-0.713-5.789-2.277-8.499"/>
		<path style="&st1;" d="M39.398,36.643c1.564-2.709,2.277-5.37,2.277-8.499"/>
		<path style="&st1;" d="M31.444,2.691c-0.782-1.355-2.116-2.125-3.68-2.125"/>
		<path style="&st1;" d="M12.387,0.567c-1.564,0-2.898,0.77-3.68,2.125"/>
		<path style="&st1;" d="M30.698,52.009c0.782,0,1.417-0.634,1.417-1.417"/>
		<path style="&st1;" d="M8.036,50.592c0,0.782,0.634,1.417,1.416,1.417"/>
		<path style="&st2;" d="M26.449,6.94c0,0.391,0.317,0.708,0.708,0.708"/>
		<path style="&st2;" d="M12.993,7.649c0.391,0,0.708-0.317,0.708-0.708"/>
		<path style="&st2;" d="M11.576,6.94c0,0.391,0.317,0.708,0.708,0.708"/>
		<path style="&st2;" d="M27.865,7.649c0.391,0,0.708-0.317,0.708-0.708"/>
		<path style="&st2;" d="M26.449,5.524v6.728h2.125V4.816"/>
		<path style="&st2;" d="M11.576,4.816v7.436h2.125V5.524"/>
		<path style="&st2;" d="M17.596,49.176v-2.125h4.958v2.125"/>
		<path style="&st2;" d="M18.305,49.176v1.417h3.541v-1.417"/>
		<path style="&st2;" d="M14.409,52.009v-2.833h11.332v2.833"/>
		<g ewd:pinNo="2">
			<text transform="matrix(0.88 0 0 1 25.5398 21.9607)"><tspan x="0" y="0" style="&st3; &st0;">2</tspan></text>
		</g>
		<g ewd:pinNo="1">
			<text transform="matrix(0.88 0 0 1 11.2791 21.9607)"><tspan x="0" y="0" style="&st3; &st0;">1</tspan></text>
		</g>
		<g ewd:pinNo="3">
			<text transform="matrix(0.88 0 0 1 11.3274 34.2637)"><tspan x="0" y="0" style="&st3; &st0;">3</tspan></text>
		</g>
		<g ewd:pinNo="4">
			<text transform="matrix(0.88 0 0 1 25.4915 34.2637)"><tspan x="0" y="0" style="&st3; &st0;">4</tspan></text>
		</g>
	</g>
</g>
</svg>