﻿<?xml version="1.0" encoding="UTF-8"?>
<!DOCTYPE svg PUBLIC "-//W3C//DTD SVG 1.0//EN" "http://www.w3.org/TR/2001/REC-SVG-20010904/DTD/svg10.dtd" [
	<!ENTITY ns_flows "http://ns.adobe.com/Flows/1.0/">
	<!ENTITY ns_svg "http://www.w3.org/2000/svg">
	<!ENTITY ns_xlink "http://www.w3.org/1999/xlink">
	<!ENTITY st0 "font-size:6.6349px;">
	<!ENTITY st1 "fill:none;stroke:#000000;stroke-width:1.1331;stroke-linecap:round;stroke-linejoin:round;">
	<!ENTITY st2 "fill:none;stroke:#000000;stroke-width:0.8499;stroke-linecap:round;stroke-linejoin:round;">
	<!ENTITY st3 "font-family:'Arial';">
	<!ATTLIST svg
		xmlns:ewd CDATA #FIXED "http://shcl.co.jp/ewd"
		xmlns:a CDATA #FIXED "http://ns.adobe.com/AdobeSVGViewerExtensions/3.0/"
		ewd:ver CDATA #IMPLIED
	>
	<!ATTLIST g
		ewd:pinNo CDATA #IMPLIED >
]>
<!-- Generator: Adobe Illustrator 10.0, SVG Export Plug-In . SVG Version: 3.0.0 Build 77)  --><svg height="44.194" onload="call_execInitLoadProc_svg(&apos;connector&apos;)" style="overflow:visible;enable-background:new 0 0 58.64 44.194" viewBox="0 0 58.64 44.194" width="58.64" xml:space="preserve" xmlns="&ns_svg;" xmlns:a="http://ns.adobe.com/AdobeSVGViewerExtensions/3.0/" xmlns:ewd="http://shcl.co.jp/ewd" xmlns:xlink="&ns_xlink;" ewd:ver="2.0.3.1">
	<script type="text/javascript" xlink:href="../../../../../system/js/ewd/fig/svgfig.js"/>
	<g id="レイヤー_1">
		<g>
			<path d="M11.113,43.626h36.414" style="&st1;"/>
			<path d="M4.391,37.96h49.858" style="&st2;"/>
			<path d="M4.391,18.13h7.366" style="&st1;"/>
			<path d="M52.55,12.465h2.55" style="&st1;"/>
			<path d="M5.524,41.501h1.702" style="&st1;"/>
			<path d="M29.32,22.805v12.323" style="&st2;"/>
			<path d="M40.085,7.224v8.64" style="&st1;"/>
			<path d="M18.555,7.224v8.64" style="&st1;"/>
			<path d="M44.617,7.224v8.64" style="&st1;"/>
			<path d="M14.023,7.224v8.64" style="&st1;"/>
			<path d="M4.391,37.96v2.408" style="&st1;"/>
			<path d="M54.249,37.96v2.408" style="&st1;"/>
			<path d="M40.652,22.805v10.906" style="&st2;"/>
			<path d="M17.989,22.805v10.906" style="&st2;"/>
			<path d="M25.071,4.249h8.499" style="&st2;"/>
			<path d="M38.669,2.975v1.275" style="&st1;"/>
			<path d="M19.971,2.975v1.275" style="&st1;"/>
			<path d="M34.561,0.85h1.983" style="&st1;"/>
			<path d="M22.096,0.85h1.983" style="&st1;"/>
			<path d="M25.071,5.666h8.499" style="&st2;"/>
			<path d="M50.532,42.382l0.878-0.881" style="&st1;"/>
			<path d="M7.227,41.501l0.881,0.881" style="&st1;"/>
			<path d="M7.227,41.501h44.187" style="&st2;"/>
			<path d="M51.414,41.501h1.702" style="&st1;"/>
			<path d="M38.527,35.127H20.113" style="&st2;"/>
			<path d="M11.757,18.13h9.065" style="&st2;"/>
			<path d="M51.699,18.13h2.55" style="&st2;"/>
			<path d="M37.819,18.13h9.065" style="&st2;"/>
			<path d="M55.949,24.929v7.791" style="&st2;"/>
			<path d="M2.691,24.929v7.791" style="&st2;"/>
			<path d="M4.391,18.13c-0.939,0-1.7,0.761-1.7,1.7" style="&st1;"/>
			<path d="M2.691,36.261c0,0.938,0.761,1.7,1.7,1.7" style="&st1;"/>
			<path d="M54.249,37.96c0.938,0,1.7-0.761,1.7-1.7" style="&st1;"/>
			<path d="M55.949,19.83c0-0.939-0.761-1.7-1.7-1.7" style="&st2;"/>
			<path d="M11.757,18.13c1.251,0,2.266-1.015,2.266-2.266" style="&st1;"/>
			<path d="M18.555,15.864c0,1.252,1.015,2.266,2.266,2.266" style="&st1;"/>
			<path d="M37.819,18.13c1.251,0,2.267-1.015,2.267-2.266" style="&st1;"/>
			<path d="M44.617,15.864c0,1.252,1.015,2.266,2.267,2.266" style="&st1;"/>
			<path d="M53.116,41.501c0.626,0,1.133-0.507,1.133-1.133" style="&st1;"/>
			<path d="M4.391,40.368c0,0.626,0.507,1.133,1.133,1.133" style="&st1;"/>
			<path d="M25.071,4.249c-0.782,0-1.416,0.634-1.416,1.417" style="&st2;"/>
			<path d="M34.986,5.666c0-0.782-0.634-1.417-1.416-1.417" style="&st2;"/>
			<path d="M19.971,4.249c0,0.782,0.634,1.417,1.417,1.417" style="&st1;"/>
			<path d="M37.252,5.666c0.782,0,1.417-0.634,1.417-1.417" style="&st1;"/>
			<path d="M38.669,2.975c0-1.173-0.952-2.125-2.125-2.125" style="&st1;"/>
			<path d="M22.096,0.85c-1.173,0-2.125,0.951-2.125,2.125" style="&st1;"/>
			<path d="M25.921,2.691c0-1.017-0.824-1.841-1.841-1.841" style="&st1;"/>
			<path d="M34.561,0.85c-1.017,0-1.841,0.824-1.841,1.841" style="&st1;"/>
			<path d="M25.071,5.666c-0.782,0-1.416,0.634-1.416,1.417" style="&st2;"/>
			<path d="M34.986,7.082c0-0.782-0.634-1.417-1.416-1.417" style="&st2;"/>
			<path d="M52.55,12.465c-0.469,0-0.85,0.381-0.85,0.85" style="&st1;"/>
			<path d="M55.949,13.314c0-0.469-0.38-0.85-0.85-0.85" style="&st1;"/>
			<path d="M47.527,43.626c1.173,0,2.175-0.415,3.004-1.245" style="&st1;"/>
			<path d="M8.108,42.382c0.83,0.83,1.832,1.245,3.005,1.245" style="&st1;"/>
			<path d="M44.617,7.224c0-1.252-1.015-2.266-2.266-2.266" style="&st1;"/>
			<path d="M42.351,4.958c-1.251,0-2.266,1.015-2.266,2.266" style="&st1;"/>
			<path d="M18.555,7.224c0-1.252-1.015-2.266-2.267-2.266" style="&st1;"/>
			<path d="M16.289,4.958c-1.251,0-2.266,1.015-2.266,2.266" style="&st1;"/>
			<path d="M42.776,35.127h9.207V22.805H6.657v12.323h9.207" style="&st2;"/>
			<path d="M20.113,33.711h-4.249v2.125h4.249V33.711" style="&st2;"/>
			<path d="M42.776,33.711h-4.249v2.125h4.249V33.711" style="&st2;"/>
			<path d="M25.921,2.691v1.558" style="&st2;"/>
			<path d="M2.691,31.303h2.55v-7.082h-2.55" style="&st2;"/>
			<path d="M55.949,31.303h-2.55v-7.082h2.55" style="&st2;"/>
			<path d="M54.532,24.221v-4.674h-8.923" style="&st2;"/>
			<path d="M13.031,19.547H4.108v4.674" style="&st2;"/>
			<path d="M54.532,31.303v5.241H4.108v-5.241" style="&st2;"/>
			<path d="M32.719,2.691V0.567h-6.799v2.125" style="&st1;"/>
			<path d="M32.719,4.249V2.691" style="&st2;"/>
			<path d="M20.822,18.13h2.833V5.666h-2.267" style="&st1;"/>
			<path d="M37.819,18.13h-2.833V5.666h2.267" style="&st1;"/>
			<path d="M23.655,18.13v2.125H13.031V18.13" style="&st2;"/>
			<path d="M45.609,18.13v2.125H34.986V18.13" style="&st2;"/>
			<path d="M46.884,18.13h4.815v-4.816" style="&st1;"/>
			<path d="M2.691,19.83v5.099H0.567v7.791h2.125v3.541" style="&st1;"/>
			<path d="M55.949,36.261V32.72h2.125v-7.791h-2.125V13.314" style="&st1;"/>
			<g ewd:pinNo="1">
				<text transform="matrix(0.88 0 0 1 10.657 30.9351)"><tspan style="&st3; &st0;" x="0" y="0">1</tspan></text>
			</g>
			<g ewd:pinNo="2">
				<text transform="matrix(0.88 0 0 1 21.9885 30.9351)"><tspan style="&st3; &st0;" x="0" y="0">2</tspan></text>
			</g>
			<g ewd:pinNo="3">
				<text transform="matrix(0.88 0 0 1 33.3201 30.9351)"><tspan style="&st3; &st0;" x="0" y="0">3</tspan></text>
			</g>
			<g ewd:pinNo="4">
				<text transform="matrix(0.88 0 0 1 44.6516 30.9351)"><tspan style="&st3; &st0;" x="0" y="0">4</tspan></text>
			</g>
		</g>
	</g>
</svg>
