﻿<?xml version="1.0"?>
<!-- Generator: Adobe Illustrator 10.0, SVG Export Plug-In . SVG Version: 3.0.0 Build 77)  -->
<!DOCTYPE svg PUBLIC "-//W3C//DTD SVG 1.0//EN" "http://www.w3.org/TR/2001/REC-SVG-20010904/DTD/svg10.dtd" [
	<!ENTITY ns_flows "http://ns.adobe.com/Flows/1.0/">
	<!ENTITY ns_svg "http://www.w3.org/2000/svg">
	<!ENTITY ns_xlink "http://www.w3.org/1999/xlink">
	<!ENTITY st0 "font-size:6.6349px;">
	<!ENTITY st1 "fill:none;stroke:#000000;stroke-width:1.1331;stroke-linecap:round;stroke-linejoin:round;">
	<!ENTITY st2 "fill:none;stroke:#000000;stroke-width:0.8499;stroke-linecap:round;stroke-linejoin:round;">
	<!ENTITY st3 "font-family:'Arial';">
	<!ATTLIST svg
		xmlns:ewd CDATA #FIXED "http://shcl.co.jp/ewd"
		xmlns:a CDATA #FIXED "http://ns.adobe.com/AdobeSVGViewerExtensions/3.0/"
		ewd:ver CDATA #IMPLIED
	>
	<!ATTLIST g
		ewd:pinNo CDATA #IMPLIED >
]>
<svg xmlns="&ns_svg;" xmlns:xlink="&ns_xlink;" xmlns:a="http://ns.adobe.com/AdobeSVGViewerExtensions/3.0/" width="31.163" height="32.153" viewBox="0 0 31.163 32.153" style="overflow:visible;enable-background:new 0 0 31.163 32.153" xml:space="preserve" xmlns:ewd="http://shcl.co.jp/ewd" onload="call_execInitLoadProc_svg('connector')" ewd:ver="L2.1.1.5">
	<script type="text/javascript" xlink:href="../../../../../system/js/ewd/fig/svgfig.js"/>
	<g id="レイヤー_1">
		<g>
			<path style="&st2;" d="M10.765,12.096h9.632"/>
			<path style="&st2;" d="M7.932,20.482v-5.552"/>
			<path style="&st2;" d="M20.397,23.314h-9.632"/>
			<path style="&st2;" d="M23.229,14.929v5.552"/>
			<path style="&st2;" d="M7.649,4.816v4.867"/>
			<path style="&st2;" d="M23.513,4.816v4.867"/>
			<path style="&st2;" d="M9.773,2.691h11.615"/>
			<path style="&st1;" d="M25.637,6.232v1.609"/>
			<path style="&st1;" d="M5.524,6.232v1.609"/>
			<path style="&st1;" d="M4.181,10.94l-2.943,2.762"/>
			<path style="&st1;" d="M26.98,10.94l2.943,2.762"/>
			<path style="&st1;" d="M18.586,31.586h3.708"/>
			<path style="&st2;" d="M11.348,30.878l-1.065-1.844"/>
			<path style="&st2;" d="M19.813,30.878l1.065-1.844"/>
			<path style="&st1;" d="M12.575,31.586h6.011"/>
			<path style="&st1;" d="M8.867,31.586h3.708"/>
			<path style="&st1;" d="M11.19,0.567h8.782"/>
			<path style="&st2;" d="M11.615,3.824h1.983"/>
			<path style="&st2;" d="M17.564,3.824h1.983"/>
			<path style="&st2;" d="M17.281,4.108v0.567"/>
			<path style="&st2;" d="M13.881,4.108v0.567"/>
			<path style="&st2;" d="M14.164,4.958h2.833"/>
			<path style="&st1;" d="M18.586,31.586h3.708"/>
			<path style="&st2;" d="M14.872,28.753h1.417"/>
			<path style="&st2;" d="M15.581,12.096v11.218"/>
			<path style="&st2;" d="M28.328,20.255v-1.417"/>
			<path style="&st2;" d="M26.345,21.105h1.133"/>
			<path style="&st1;" d="M30.595,22.49v-7.238"/>
			<path style="&st2;" d="M2.833,20.255v-1.417"/>
			<path style="&st1;" d="M0.567,22.49v-7.238"/>
			<path style="&st2;" d="M4.816,21.105H3.683"/>
			<path style="&st2;" d="M3.683,17.989c-0.469,0-0.85,0.38-0.85,0.85"/>
			<path style="&st2;" d="M2.833,20.255c0,0.469,0.381,0.85,0.85,0.85"/>
			<path style="&st2;" d="M4.816,21.105c0,3.129,2.537,5.666,5.666,5.666"/>
			<path style="&st2;" d="M7.649,9.683c-1.806,1.043-2.833,2.821-2.833,4.907"/>
			<path style="&st2;" d="M16.289,28.753c0.469,0,0.85-0.38,0.85-0.85"/>
			<path style="&st2;" d="M14.023,27.904c0,0.469,0.38,0.85,0.85,0.85"/>
			<path style="&st2;" d="M20.68,26.771c3.129,0,5.666-2.537,5.666-5.666"/>
			<path style="&st2;" d="M26.345,14.589c0-2.086-1.026-3.864-2.833-4.907"/>
			<path style="&st2;" d="M10.765,12.096c-1.564,0-2.833,1.269-2.833,2.833"/>
			<path style="&st2;" d="M7.932,20.482c0,1.564,1.269,2.833,2.833,2.833"/>
			<path style="&st2;" d="M20.397,23.314c1.564,0,2.833-1.268,2.833-2.833"/>
			<path style="&st2;" d="M23.229,14.929c0-1.564-1.268-2.833-2.833-2.833"/>
			<path style="&st2;" d="M9.773,2.691c-1.173,0-2.125,0.951-2.125,2.125"/>
			<path style="&st2;" d="M23.513,4.816c0-1.173-0.952-2.125-2.125-2.125"/>
			<path style="&st1;" d="M4.181,10.94c0.891-0.835,1.342-1.878,1.342-3.099"/>
			<path style="&st1;" d="M25.637,7.841c0,1.221,0.452,2.264,1.342,3.1"/>
			<path style="&st1;" d="M1.238,13.703c-0.446,0.418-0.671,0.939-0.671,1.55"/>
			<path style="&st1;" d="M30.595,15.252c0-0.611-0.226-1.132-0.671-1.55"/>
			<path style="&st2;" d="M11.348,30.878c0.261,0.452,0.705,0.708,1.227,0.708"/>
			<path style="&st2;" d="M18.586,31.586c0.521,0,0.966-0.256,1.227-0.708"/>
			<path style="&st2;" d="M5.108,26.938c1.475,1.359,3.17,2.046,5.176,2.096"/>
			<path style="&st1;" d="M29.909,23.706c0.44-0.265,0.687-0.702,0.687-1.215"/>
			<path style="&st1;" d="M7.581,30.762c-1.417-3.072-3.428-5.316-6.327-7.059"/>
			<path style="&st1;" d="M0.567,22.49c0,0.512,0.247,0.949,0.686,1.214"/>
			<path style="&st1;" d="M7.581,30.762c0.237,0.515,0.719,0.824,1.286,0.824"/>
			<path style="&st1;" d="M25.637,6.232c0-3.129-2.537-5.666-5.666-5.666"/>
			<path style="&st1;" d="M11.19,0.567c-3.129,0-5.666,2.537-5.666,5.666"/>
			<path style="&st2;" d="M13.881,4.674c0,0.156,0.127,0.283,0.283,0.283"/>
			<path style="&st2;" d="M16.997,4.958c0.156,0,0.283-0.127,0.283-0.283"/>
			<path style="&st2;" d="M17.564,3.824c-0.156,0-0.283,0.127-0.283,0.283"/>
			<path style="&st2;" d="M13.881,4.108c0-0.156-0.127-0.283-0.283-0.283"/>
			<path style="&st2;" d="M20.397,4.674c0-0.469-0.381-0.85-0.85-0.85"/>
			<path style="&st2;" d="M11.615,3.824c-0.47,0-0.85,0.38-0.85,0.85"/>
			<path style="&st2;" d="M20.878,29.034c2.006-0.05,3.701-0.736,5.176-2.096"/>
			<path style="&st1;" d="M29.909,23.706c-2.899,1.743-4.91,3.986-6.326,7.058"/>
			<path style="&st1;" d="M22.295,31.586c0.567,0,1.049-0.309,1.287-0.824"/>
			<path style="&st2;" d="M28.328,18.838c0-0.469-0.38-0.85-0.85-0.85"/>
			<path style="&st2;" d="M27.479,21.105c0.469,0,0.85-0.38,0.85-0.85"/>
			<path style="&st2;" d="M26.345,21.105v0.227"/>
			<path style="&st2;" d="M4.816,14.589v3.399H3.683"/>
			<path style="&st2;" d="M26.345,14.589v3.399h1.133"/>
			<path style="&st2;" d="M20.68,26.771h-3.541v1.142"/>
			<path style="&st2;" d="M10.482,26.771h3.541v1.133"/>
			<path style="&st2;" d="M20.397,4.674v2.575h-9.632V4.674"/>
			<g ewd:pinNo="2">
				<text transform="matrix(0.88 0 0 1 17.7395 19.6746)"><tspan x="0" y="0" style="&st3; &st0;">2</tspan></text>
			</g>
			<g ewd:pinNo="1">
				<text transform="matrix(0.88 0 0 1 10.0906 19.6746)"><tspan x="0" y="0" style="&st3; &st0;">1</tspan></text>
			</g>
		</g>
	</g>
</svg>
