﻿<?xml version="1.0"?>
<!-- Generator: Adobe Illustrator 10.0, SVG Export Plug-In . SVG Version: 3.0.0 Build 77)  -->
<!DOCTYPE svg PUBLIC "-//W3C//DTD SVG 1.0//EN" "http://www.w3.org/TR/2001/REC-SVG-20010904/DTD/svg10.dtd"[
	<!ENTITY ns_flows "http://ns.adobe.com/Flows/1.0/">
	<!ENTITY ns_svg "http://www.w3.org/2000/svg">
	<!ENTITY ns_xlink "http://www.w3.org/1999/xlink">
	<!ENTITY st0 "font-size:6.6349px;">
	<!ENTITY st1 "fill:none;stroke:#000000;stroke-width:1.1331;stroke-linecap:round;stroke-linejoin:round;">
	<!ENTITY st2 "fill:none;stroke:#000000;stroke-width:0.8499;stroke-linecap:round;stroke-linejoin:round;">
	<!ENTITY st3 "font-family:'Arial';">
	<!ATTLIST svg
		xmlns:ewd CDATA #FIXED "http://shcl.co.jp/ewd"
		xmlns:a CDATA #FIXED "http://ns.adobe.com/AdobeSVGViewerExtensions/3.0/"
		ewd:ver CDATA #IMPLIED>
	<!ATTLIST g
		ewd:pinNo CDATA #IMPLIED>
]>
<svg width="46.459" height="46.459" viewBox="0 0 46.459 46.459" style="overflow:visible;enable-background:new 0 0 46.459 46.459" xml:space="preserve" onload="call_execInitLoadProc_svg('connector')" ewd:ver="2.1.2.5" xmlns="&ns_svg;" xmlns:ewd="http://shcl.co.jp/ewd" xmlns:a="http://ns.adobe.com/AdobeSVGViewerExtensions/3.0/" xmlns:xlink="&ns_xlink;">
<script type="text/javascript" xlink:href="../../../../../system/js/ewd/fig/svgfig.js"/>
<g id="レイヤー_1">
	<g>
		<path style="&st2;" d="M20.255,23.938h5.949"/>
		<path style="&st2;" d="M29.603,25.921v5.949"/>
		<path style="&st2;" d="M16.856,25.921v5.949"/>
		<path style="&st2;" d="M20.255,22.521h5.949"/>
		<path style="&st2;" d="M20.255,35.269h5.949"/>
		<path style="&st2;" d="M20.255,40.935h5.949"/>
		<path style="&st2;" d="M11.19,12.606v5.382"/>
		<path style="&st2;" d="M35.269,12.606V31.87"/>
		<path style="&st2;" d="M28.895,6.232H17.564"/>
		<path style="&st2;" d="M28.895,7.649H17.564"/>
		<path style="&st2;" d="M14.731,10.482v9.207"/>
		<path style="&st2;" d="M31.728,10.482v9.207"/>
		<path style="&st2;" d="M12.889,19.688h20.68"/>
		<path style="&st2;" d="M9.419,26.417h1.771"/>
		<path style="&st2;" d="M8.711,27.125v3.541"/>
		<path style="&st2;" d="M9.419,31.374h1.771"/>
		<path style="&st2;" d="M35.269,26.417h1.771"/>
		<path style="&st2;" d="M37.748,27.125v3.541"/>
		<path style="&st2;" d="M35.269,31.374h1.771"/>
		<path style="&st2;" d="M25.496,16.855h-4.533"/>
		<path style="&st2;" d="M31.728,14.023H14.731"/>
		<path style="&st2;" d="M19.83,14.023v1.7"/>
		<path style="&st2;" d="M26.629,14.023v1.7"/>
		<path style="&st2;" d="M31.728,13.031H14.731"/>
		<path style="&st2;" d="M20.255,22.521c-1.877,0-3.399,1.522-3.399,3.399"/>
		<path style="&st2;" d="M29.603,25.921c0-1.877-1.522-3.399-3.399-3.399"/>
		<path style="&st2;" d="M16.856,31.87c0,1.877,1.522,3.399,3.399,3.399"/>
		<path style="&st2;" d="M26.204,35.269c1.877,0,3.399-1.522,3.399-3.399"/>
		<path style="&st2;" d="M20.255,23.938c-1.095,0-1.983,0.888-1.983,1.983"/>
		<path style="&st2;" d="M28.187,25.921c0-1.095-0.888-1.983-1.983-1.983"/>
		<path style="&st2;" d="M43.059,23.229c0-10.952-8.878-19.83-19.83-19.83"/>
		<path style="&st2;" d="M23.229,3.399c-10.952,0-19.83,8.878-19.83,19.83"/>
		<path style="&st2;" d="M3.399,23.229c0,10.952,8.878,19.83,19.83,19.83"/>
		<path style="&st2;" d="M23.229,43.06c10.952,0,19.83-8.878,19.83-19.83"/>
		<path style="&st2;" d="M26.204,40.935c5.007,0,9.065-4.059,9.065-9.065"/>
		<path style="&st2;" d="M11.19,31.87c0,5.006,4.059,9.065,9.065,9.065"/>
		<path style="&st1;" d="M45.892,23.229c0-12.516-10.146-22.663-22.663-22.663"/>
		<path style="&st1;" d="M23.229,0.567c-12.516,0-22.663,10.147-22.663,22.663"/>
		<path style="&st1;" d="M0.567,23.229c0,12.516,10.146,22.663,22.663,22.663"/>
		<path style="&st1;" d="M23.229,45.893c12.517,0,22.663-10.147,22.663-22.663"/>
		<path style="&st2;" d="M17.564,6.232c-3.52,0-6.374,2.854-6.374,6.374"/>
		<path style="&st2;" d="M35.269,12.606c0-3.52-2.854-6.374-6.374-6.374"/>
		<path style="&st2;" d="M17.564,7.649c-1.564,0-2.833,1.268-2.833,2.833"/>
		<path style="&st2;" d="M31.728,10.482c0-1.565-1.269-2.833-2.833-2.833"/>
		<path style="&st2;" d="M11.19,17.989c0,0.939,0.761,1.7,1.7,1.7"/>
		<path style="&st2;" d="M33.57,19.688c0.938,0,1.7-0.761,1.7-1.7"/>
		<path style="&st2;" d="M9.419,26.417c-0.391,0-0.708,0.317-0.708,0.708"/>
		<path style="&st2;" d="M8.711,30.666c0,0.392,0.317,0.708,0.708,0.708"/>
		<path style="&st2;" d="M37.748,27.125c0-0.391-0.317-0.708-0.708-0.708"/>
		<path style="&st2;" d="M37.04,31.374c0.391,0,0.708-0.317,0.708-0.708"/>
		<path style="&st2;" d="M25.496,16.855c0.625,0,1.133-0.507,1.133-1.133"/>
		<path style="&st2;" d="M19.83,15.722c0,0.626,0.507,1.133,1.133,1.133"/>
		<path style="&st2;" d="M11.19,31.87V21.813H6.94v-4.958h4.249"/>
		<path style="&st2;" d="M14.731,11.898h5.099V11.19h6.799v0.708h5.1"/>
		<path style="&st2;" d="M28.187,25.921v7.932h-9.915v-7.932"/>
		<g ewd:pinNo="1">
			<text transform="matrix(0.88 0 0 1 21.5637 30.8643)"><tspan x="0" y="0" style="&st3; &st0;">1</tspan></text>
		</g>
	</g>
</g>
</svg>