﻿<?xml version="1.0" encoding="UTF-8"?>
<!DOCTYPE svg PUBLIC "-//W3C//DTD SVG 1.0//EN" "http://www.w3.org/TR/2001/REC-SVG-20010904/DTD/svg10.dtd" [
	<!ENTITY ns_flows "http://ns.adobe.com/Flows/1.0/">
	<!ENTITY ns_svg "http://www.w3.org/2000/svg">
	<!ENTITY ns_xlink "http://www.w3.org/1999/xlink">
	<!ENTITY st0 "font-size:6.6349px;">
	<!ENTITY st1 "fill:none;stroke:#000000;stroke-width:1.1331;stroke-linecap:round;stroke-linejoin:round;">
	<!ENTITY st2 "fill:none;stroke:#000000;stroke-width:0.8499;stroke-linecap:round;stroke-linejoin:round;">
	<!ENTITY st3 "font-family:'Arial';">
	<!ATTLIST svg
		xmlns:ewd CDATA #FIXED "http://shcl.co.jp/ewd"
		xmlns:a CDATA #FIXED "http://ns.adobe.com/AdobeSVGViewerExtensions/3.0/"
		ewd:ver CDATA #IMPLIED
	>
	<!ATTLIST g
		ewd:pinNo CDATA #IMPLIED >
]>
<!-- Generator: Adobe Illustrator 10.0, SVG Export Plug-In . SVG Version: 3.0.0 Build 77)  --><svg height="45.575" onload="call_execInitLoadProc_svg(&apos;connector&apos;)" style="overflow:visible;enable-background:new 0 0 45.892 45.575" viewBox="0 0 45.892 45.575" width="45.892" xml:space="preserve" xmlns="&ns_svg;" xmlns:a="http://ns.adobe.com/AdobeSVGViewerExtensions/3.0/" xmlns:ewd="http://shcl.co.jp/ewd" xmlns:xlink="&ns_xlink;" ewd:ver="L2.1.1.5">
	<script type="text/javascript" xlink:href="../../../../../system/js/ewd/fig/svgfig.js"/>
	<g id="レイヤー_1">
		<g>
			<path d="M22.946,19.85v9.765" style="&st2;"/>
			<path d="M1.983,8.771v3.824" style="&st1;"/>
			<path d="M45.326,23.459v2.55" style="&st1;"/>
			<path d="M41.949,16.541L35.901,3.575" style="&st1;"/>
			<path d="M25.779,38.62v3.555" style="&st2;"/>
			<path d="M35.176,37.989v3.054" style="&st1;"/>
			<path d="M34.561,5.371h1.096" style="&st2;"/>
			<path d="M12.465,5.371h20.963" style="&st2;"/>
			<path d="M5.686,21.901h2.215" style="&st2;"/>
			<path d="M37.991,21.901h2.215" style="&st2;"/>
			<path d="M38.096,27.567h2.189" style="&st2;"/>
			<path d="M2.55,13.162h2.972" style="&st1;"/>
			<path d="M20.969,0.567l-7.127,0.555" style="&st1;"/>
			<path d="M24.924,0.567l7.127,0.555" style="&st1;"/>
			<path d="M20.113,42.176V38.62" style="&st2;"/>
			<path d="M10.717,41.043v-3.054" style="&st1;"/>
			<path d="M25.779,40.357h-5.666" style="&st2;"/>
			<path d="M7.796,27.567h-2.19" style="&st2;"/>
			<path d="M6.045,30.411l-0.439-2.844" style="&st2;"/>
			<path d="M40.286,27.567l-0.439,2.844" style="&st2;"/>
			<path d="M4.725,19.34L4.281,21.7" style="&st2;"/>
			<path d="M4.646,30.629l-0.448-2.904" style="&st2;"/>
			<path d="M41.694,27.722l-0.448,2.907" style="&st2;"/>
			<path d="M39.535,18.813l0.266,0.867" style="&st2;"/>
			<path d="M40.113,21.133l0.094,0.768" style="&st2;"/>
			<path d="M6.091,19.68l0.266-0.867" style="&st2;"/>
			<path d="M5.686,21.901l0.094-0.768" style="&st2;"/>
			<path d="M43.111,22.609h1.365" style="&st1;"/>
			<path d="M10.235,5.371h1.096" style="&st2;"/>
			<path d="M2.952,21.065l-0.207,1.544" style="&st1;"/>
			<path d="M4.122,16.337l0.164-0.45" style="&st1;"/>
			<path d="M0.567,26.009v-2.55" style="&st1;"/>
			<path d="M1.417,26.859h1.312" style="&st1;"/>
			<path d="M1.417,22.609h1.365" style="&st1;"/>
			<path d="M5.521,13.162l-0.955,2.045" style="&st1;"/>
			<path d="M14.683,45.009H31.21" style="&st1;"/>
			<path d="M2.782,22.609c-0.105,1.491-0.121,2.756-0.054,4.25" style="&st2;"/>
			<path d="M42.626,18.72c-0.134-0.793-0.338-1.449-0.678-2.178" style="&st1;"/>
			<path d="M5.686,21.901c-0.194,1.985-0.217,3.676-0.078,5.666" style="&st2;"/>
			<path d="M40.286,27.567c0.139-1.99,0.116-3.681-0.078-5.666" style="&st2;"/>
			<path d="M37.731,20.207c-0.287-1.575-1.521-2.72-3.113-2.888" style="&st2;"/>
			<path d="M11.275,17.317c-1.593,0.168-2.828,1.313-3.115,2.889" style="&st2;"/>
			<path d="M8.164,20.207c-0.108,0.593-0.186,1.096-0.261,1.694" style="&st2;"/>
			<path d="M8.159,30.17c0.284,1.572,1.511,2.717,3.099,2.891" style="&st2;"/>
			<path d="M34.635,33.06c1.587-0.174,2.814-1.318,3.098-2.89" style="&st2;"/>
			<path d="M37.734,30.17c0.165-0.91,0.272-1.684,0.361-2.604" style="&st2;"/>
			<path d="M7.796,27.567c0.089,0.92,0.197,1.694,0.361,2.604" style="&st2;"/>
			<path d="M37.991,21.901c-0.076-0.598-0.153-1.101-0.261-1.694" style="&st2;"/>
			<path d="M43.164,26.859c0.067-1.494,0.051-2.758-0.054-4.25" style="&st2;"/>
			<path d="M43.111,22.609c-0.1-1.414-0.25-2.603-0.503-3.997" style="&st1;"/>
			<path d="M33.994,5.938c0-0.313-0.254-0.566-0.566-0.566" style="&st2;"/>
			<path d="M34.561,5.371c-0.313,0-0.566,0.253-0.566,0.566" style="&st2;"/>
			<path d="M13.842,1.122c-1.695,0-3.135,0.917-3.851,2.453" style="&st1;"/>
			<path d="M35.901,3.575c-0.716-1.535-2.155-2.452-3.85-2.452" style="&st1;"/>
			<path d="M24.924,0.567c-1.388-0.108-2.567-0.108-3.955,0" style="&st1;"/>
			<path d="M34.617,17.317c-8.176-0.866-15.166-0.866-23.343,0" style="&st2;"/>
			<path d="M34.842,15.207c-8.333-0.883-15.457-0.883-23.791,0" style="&st2;"/>
			<path d="M6.045,30.411c0.4,2.573,2.392,4.478,4.98,4.761" style="&st2;"/>
			<path d="M11.026,35.173c8.349,0.915,15.492,0.915,23.841,0" style="&st2;"/>
			<path d="M34.867,35.173c2.589-0.284,4.581-2.189,4.98-4.762" style="&st2;"/>
			<path d="M39.535,18.813c-0.784-2.044-2.517-3.375-4.694-3.605" style="&st2;"/>
			<path d="M10.901,13.796c-3.101,0.328-5.517,2.496-6.178,5.543" style="&st2;"/>
			<path d="M34.991,13.796c-8.438-0.894-15.652-0.894-24.091,0" style="&st2;"/>
			<path d="M41.13,19.181c-0.717-2.974-3.097-5.06-6.139-5.382" style="&st2;"/>
			<path d="M41.694,27.722c0.168-2.363,0.121-4.373-0.161-6.725" style="&st2;"/>
			<path d="M35.023,36.581c3.235-0.355,5.725-2.735,6.225-5.952" style="&st2;"/>
			<path d="M10.872,36.581c8.458,0.927,15.693,0.927,24.15,0" style="&st2;"/>
			<path d="M4.646,30.629c0.5,3.216,2.991,5.597,6.227,5.951" style="&st2;"/>
			<path d="M4.281,21.7c-0.21,2.111-0.235,3.91-0.083,6.025" style="&st2;"/>
			<path d="M4.646,30.629c0.5,3.216,2.991,5.597,6.227,5.951" style="&st2;"/>
			<path d="M40.113,21.133c-0.064-0.519-0.157-0.953-0.311-1.454" style="&st2;"/>
			<path d="M41.524,21c-0.078-0.651-0.195-1.194-0.393-1.819" style="&st2;"/>
			<path d="M11.051,15.207c-2.178,0.23-3.911,1.561-4.695,3.606" style="&st2;"/>
			<path d="M6.091,19.68c-0.154,0.5-0.246,0.934-0.31,1.454" style="&st2;"/>
			<path d="M44.476,26.859c0.469,0,0.85-0.38,0.85-0.85" style="&st1;"/>
			<path d="M45.326,23.459c0-0.469-0.381-0.85-0.85-0.85" style="&st1;"/>
			<path d="M11.898,5.938c0-0.313-0.254-0.566-0.567-0.566" style="&st2;"/>
			<path d="M12.465,5.371c-0.313,0-0.566,0.253-0.566,0.566" style="&st2;"/>
			<path d="M11.898,5.938c0,0.002,0,0.004,0,0.006" style="&st2;"/>
			<path d="M4.567,15.207c-0.109,0.234-0.193,0.437-0.282,0.679" style="&st1;"/>
			<path d="M4.122,16.337c-0.588,1.612-0.938,3.028-1.168,4.728" style="&st1;"/>
			<path d="M10.235,5.371c-0.677,0-1.252,0.366-1.54,0.979" style="&st2;"/>
			<path d="M37.198,6.351c-0.287-0.614-0.863-0.981-1.542-0.981" style="&st2;"/>
			<path d="M2.55,8.204c-0.313,0-0.567,0.254-0.567,0.567" style="&st1;"/>
			<path d="M1.983,12.595c0,0.313,0.254,0.567,0.567,0.567" style="&st1;"/>
			<path d="M2.728,26.859c0.064,1.416,0.183,2.608,0.401,4.008" style="&st1;"/>
			<path d="M0.567,26.009c0,0.47,0.38,0.85,0.85,0.85" style="&st1;"/>
			<path d="M1.417,22.609c-0.469,0-0.85,0.381-0.85,0.85" style="&st1;"/>
			<path d="M35.176,40.414c0-0.075-0.003-0.138-0.011-0.212" style="&st1;"/>
			<path d="M11.258,33.06c8.187,0.897,15.19,0.897,23.377,0" style="&st2;"/>
			<path d="M3.247,30.847c0.6,3.859,3.588,6.715,7.47,7.141" style="&st1;"/>
			<path d="M10.717,37.989c8.565,0.939,15.894,0.939,24.459,0" style="&st2;"/>
			<path d="M35.176,37.989c1.009-0.111,1.847-0.351,2.762-0.792" style="&st1;"/>
			<path d="M28.612,44.159c0,0.469,0.38,0.85,0.85,0.85" style="&st2;"/>
			<path d="M16.43,45.009c0.47,0,0.85-0.38,0.85-0.85" style="&st2;"/>
			<path d="M38.952,37.836c0-0.391-0.317-0.708-0.708-0.708" style="&st1;"/>
			<path d="M38.243,37.128c-0.111,0-0.206,0.021-0.306,0.07" style="&st1;"/>
			<path d="M31.21,45.009c2.19,0,3.966-1.775,3.966-3.966" style="&st1;"/>
			<path d="M10.717,41.043c0,2.19,1.776,3.966,3.966,3.966" style="&st1;"/>
			<path d="M20.822,42.198v1.417h4.249v-1.417" style="&st2;"/>
			<path d="M28.612,44.159v-1.983H17.281v1.983" style="&st2;"/>
			<path d="M15.136,19.85h15.621v9.765H15.136V19.85" style="&st2;"/>
			<path d="M27.762,5.371v1.416l-0.708,0.708h-8.215L18.13,6.788V5.371" style="&st2;"/>
			<path d="M9.991,3.575L7.833,8.204H2.55" style="&st1;"/>
			<path d="M33.994,5.938v6.521H11.898V5.944" style="&st2;"/>
			<path d="M38.952,37.836v3.448h4.249V26.859h1.275" style="&st1;"/>
			<g ewd:pinNo="2">
				<text transform="matrix(0.88 0 0 1 17.3738 26.7029)"><tspan style="&st3; &st0;" x="0" y="0">2</tspan></text>
			</g>
			<g ewd:pinNo="1">
				<text transform="matrix(0.88 0 0 1 25.1868 26.7029)"><tspan style="&st3; &st0;" x="0" y="0">1</tspan></text>
			</g>
		</g>
	</g>
</svg>
