﻿<?xml version="1.0"?>
<!-- Generator: Adobe Illustrator 10.0, SVG Export Plug-In . SVG Version: 3.0.0 Build 77)  -->
<!DOCTYPE svg PUBLIC "-//W3C//DTD SVG 1.0//EN" "http://www.w3.org/TR/2001/REC-SVG-20010904/DTD/svg10.dtd" [
	<!ENTITY ns_flows "http://ns.adobe.com/Flows/1.0/">
	<!ENTITY ns_svg "http://www.w3.org/2000/svg">
	<!ENTITY ns_xlink "http://www.w3.org/1999/xlink">
	<!ENTITY st0 "font-size:6.6349px;">
	<!ENTITY st1 "fill:none;stroke:#000000;stroke-width:1.1331;stroke-linecap:round;stroke-linejoin:round;">
	<!ENTITY st2 "fill:none;stroke:#000000;stroke-width:0.8499;stroke-linecap:round;stroke-linejoin:round;">
	<!ENTITY st3 "font-family:'Arial';">
	<!ATTLIST svg
		xmlns:ewd CDATA #FIXED "http://shcl.co.jp/ewd"
		xmlns:a CDATA #FIXED "http://ns.adobe.com/AdobeSVGViewerExtensions/3.0/"
		ewd:ver CDATA #IMPLIED
	>
	<!ATTLIST g
		ewd:pinNo CDATA #IMPLIED >
]>
<svg xmlns="&ns_svg;" xmlns:xlink="&ns_xlink;" xmlns:a="http://ns.adobe.com/AdobeSVGViewerExtensions/3.0/" width="59.859" height="25.354" viewBox="0 0 59.859 25.354" style="overflow:visible;enable-background:new 0 0 59.859 25.354" xml:space="preserve" xmlns:ewd="http://shcl.co.jp/ewd" onload="call_execInitLoadProc_svg('connector')" ewd:ver="L2.1.1.5">
	<script type="text/javascript" xlink:href="../../../../../system/js/ewd/fig/svgfig.js"/>
	<g id="レイヤー_1">
		<path style="&st2;" d="M23.938,10.807v3.74"/>
		<path style="&st2;" d="M47.374,12.677c0-3.65-2.959-6.609-6.609-6.609"/>
		<path style="&st2;" d="M40.765,6.068c-3.65,0-6.609,2.959-6.609,6.609"/>
		<path style="&st2;" d="M34.156,12.677c0,3.65,2.959,6.609,6.609,6.609"/>
		<path style="&st2;" d="M40.765,19.286c3.65,0,6.609-2.959,6.609-6.609"/>
		<path style="&st1;" d="M29.201,16.416c2.065,6.386,8.917,9.89,15.303,7.824"/>
		<path style="&st1;" d="M44.504,24.24c6.386-2.065,9.89-8.917,7.824-15.303"/>
		<path style="&st1;" d="M52.328,8.938c-2.065-6.386-8.917-9.889-15.303-7.824"/>
		<path style="&st1;" d="M37.026,1.113c-3.843,1.243-6.582,3.981-7.825,7.824"/>
		<path style="&st1;" d="M29.201,8.938l-1.524,0.935h-3.739v0.935H0.567"/>
		<path style="&st1;" d="M29.201,16.416l-1.524-0.935h-3.739v-0.935H0.567"/>
		<g ewd:pinNo="1">
			<text transform="matrix(0.88 0 0 1 56.6121 14.6462)"><tspan x="0" y="0" style="&st3; &st0;">1</tspan></text>
		</g>
	</g>
</svg>
